{
  "AssociatedSkill": "GD_Lilac_Skills_Mania.Skills.ReleaseTheBeast",
  "VfTableObject": "",
  "HashNext": "",
  "ObjectFlags": "",
  "HashOuterNext": "",
  "StateFrame": "",
  "Linker": null,
  "LinkerIndex": "",
  "ObjectInternalInteger": 221222,
  "NetIndex": 398,
  "Outer":
    "GD_Lilac_Skills_Mania.SkillGrades.SkillGrade_ReleaseTheBeast_Absolute",
  "Name": "PlayerSkillAttributeValueResolver_0",
  "Class": "WillowGame.PlayerSkillAttributeValueResolver",
  "ObjectArchetype": "WillowGame.Default__PlayerSkillAttributeValueResolver"
}