{
  "AssociatedSkill": null,
  "VfTableObject": "",
  "HashNext": "",
  "ObjectFlags": "",
  "HashOuterNext": "",
  "StateFrame": "",
  "Linker": null,
  "LinkerIndex": "",
  "ObjectInternalInteger": 4199,
  "NetIndex": 29966,
  "Outer": "Package'WillowGame'",
  "Name": "Default__PlayerSkillAttributeValueResolver",
  "Class": "WillowGame.PlayerSkillAttributeValueResolver",
  "ObjectArchetype": "Engine.Default__AttributeValueResolver"
}