{
  "Text": "",
  "VfTableObject": "",
  "HashNext": "",
  "ObjectFlags": "",
  "HashOuterNext": "",
  "StateFrame": "",
  "Linker": null,
  "LinkerIndex": "",
  "ObjectInternalInteger": 4101,
  "NetIndex": 27168,
  "Outer": "Package'WillowGame'",
  "Name": "Default__LocalizedStringDefinition",
  "Class": "WillowGame.LocalizedStringDefinition",
  "ObjectArchetype": "Engine.Default__GBXDefinition"
}