{
  "VfTable_IIBehaviorProvider": "",
  "PartType": "IP_Material",
  "BehaviorProviderDefinition": null,
  "Material": "Item_Shields.Materials.Mati_ShieldVladovLegendary",
  "bIsGestaltMode": false,
  "GestaltModeSkeletalMeshName": "Shield_Pickup_A-1",
  "NongestaltSkeletalMesh": null,
  "MonetaryValueMod":
    "GD_Economy.Rarity.Att_Price_RarityMultiplier_04_VeryRare",
  "Rarity": {
    "BaseValueConstant": 0.0,
    "BaseValueAttribute":
      "GD_Balance_Inventory.Rarity_Item.ItemRarity4_VeryRare",
    "InitializationDefinition": null,
    "BaseValueScaleConstant": 1.0
  },
  "AttributeSlotUpgrades": [
    { "SlotName": "Capacity", "GradeIncrease": 15, "bActivateSlot": false },
    {
      "SlotName": "RechargeRate",
      "GradeIncrease": -8,
      "bActivateSlot": false
    },
    {
      "SlotName": "RechargeDelay",
      "GradeIncrease": -8,
      "bActivateSlot": false
    },
    { "SlotName": "Special01", "GradeIncrease": 18, "bActivateSlot": false }
  ],
  "AdditionalGestaltModeSkeletalMeshNames": [ null, null ],
  "VfTableObject": "",
  "HashNext": "",
  "ObjectFlags": "",
  "HashOuterNext": "",
  "StateFrame": "",
  "Linker": null,
  "LinkerIndex": "",
  "ObjectInternalInteger": 131770,
  "NetIndex": 3802,
  "Outer": "GD_Shields.Material",
  "Name": "Material5_Legendary_AbsorptionShock",
  "Class": "WillowGame.ShieldPartDefinition",
  "ObjectArchetype": "WillowGame.Default__ShieldPartDefinition"
}