{
  "VfTable_IIBehaviorProvider": "",
  "PartType": "IP_Delta",
  "BehaviorProviderDefinition":
    "GD_Shields.Accessory.Accessory5_ChimeraLegendary:BehaviorProviderDefinition_0",
  "CustomPresentations": [
    "GD_Shields.Accessory.Accessory5_ChimeraLegendary:AttributePresentationDefinition_0",
    "GD_Shields.Accessory.Accessory5_ChimeraLegendary:AttributePresentationDefinition_1"
  ],
  "TitleList": [ "GD_Shields.Titles.Title_Chimera04_ChimeraShieldLegendary" ],
  "Material": null,
  "bIsGestaltMode": true,
  "GestaltModeSkeletalMeshName": "Shield_Body_Anshin",
  "NongestaltSkeletalMesh": null,
  "MonetaryValueMod": null,
  "Rarity": {
    "BaseValueConstant": 0.0,
    "BaseValueAttribute": null,
    "InitializationDefinition": null,
    "BaseValueScaleConstant": 1.0
  },
  "AdditionalGestaltModeSkeletalMeshNames": [ null, null ],
  "VfTableObject": "",
  "HashNext": "",
  "ObjectFlags": "",
  "HashOuterNext": "",
  "StateFrame": "",
  "Linker": null,
  "LinkerIndex": "",
  "ObjectInternalInteger": 110061,
  "NetIndex": 3691,
  "Outer": "GD_Shields.Accessory",
  "Name": "Accessory5_ChimeraLegendary",
  "Class": "WillowGame.ShieldPartDefinition",
  "ObjectArchetype": "WillowGame.Default__ShieldPartDefinition"
}