{
  "VfTable_IIBehaviorProvider": "",
  "PartType": "IP_Delta",
  "BehaviorProviderDefinition":
    "GD_Shields.Accessory.Accessory6_Nova_Phoenix:BehaviorProviderDefinition_0",
  "TitleList": [ "GD_Shields.Titles.Title_FireNova02_Phoenix" ],
  "Material": null,
  "bIsGestaltMode": true,
  "GestaltModeSkeletalMeshName": "Shield_Body_Anshin",
  "NongestaltSkeletalMesh": null,
  "MonetaryValueMod": null,
  "Rarity": {
    "BaseValueConstant": 0.0,
    "BaseValueAttribute": null,
    "InitializationDefinition": null,
    "BaseValueScaleConstant": 1.0
  },
  "AdditionalGestaltModeSkeletalMeshNames": [ null, null ],
  "VfTableObject": "",
  "HashNext": "",
  "ObjectFlags": "",
  "HashOuterNext": "",
  "StateFrame": "",
  "Linker": null,
  "LinkerIndex": "",
  "ObjectInternalInteger": 110813,
  "NetIndex": 3696,
  "Outer": "GD_Shields.Accessory",
  "Name": "Accessory6_Nova_Phoenix",
  "Class": "WillowGame.ShieldPartDefinition",
  "ObjectArchetype": "WillowGame.Default__ShieldPartDefinition"
}