{
  "VfTable_IIBehaviorProvider": "",
  "PartType": "IP_Alpha",
  "BehaviorProviderDefinition": null,
  "ItemAttributeEffects": [
    {
      "AttributeToModify":
        "D_Attributes.Shield.ShieldCapacitySlotGradeMinusRarity",
      "ModifierType": "MT_PreAdd",
      "BaseModifierValue": {
        "BaseValueConstant": -4.0,
        "BaseValueAttribute": null,
        "InitializationDefinition": null,
        "BaseValueScaleConstant": 1.0
      }
    },
    {
      "AttributeToModify":
        "D_Attributes.Shield.ShieldRechargeRateSlotGradeMinusRarity",
      "ModifierType": "MT_PreAdd",
      "BaseModifierValue": {
        "BaseValueConstant": -2.0,
        "BaseValueAttribute": null,
        "InitializationDefinition": null,
        "BaseValueScaleConstant": 1.0
      }
    },
    {
      "AttributeToModify":
        "D_Attributes.Shield.ShieldRechargeDelaySlotGradeMinusRarity",
      "ModifierType": "MT_PreAdd",
      "BaseModifierValue": {
        "BaseValueConstant": 8.0,
        "BaseValueAttribute": null,
        "InitializationDefinition": null,
        "BaseValueScaleConstant": 1.0
      }
    },
    {
      "AttributeToModify":
        "D_Attributes.Shield.ShieldSpecialSlotGradeMinusRarity",
      "ModifierType": "MT_PreAdd",
      "BaseModifierValue": {
        "BaseValueConstant": 3.0,
        "BaseValueAttribute": null,
        "InitializationDefinition": null,
        "BaseValueScaleConstant": 1.0
      }
    }
  ],
  "Material": null,
  "bIsGestaltMode": true,
  "GestaltModeSkeletalMeshName": "Shield_Accessory_Hyperion",
  "NongestaltSkeletalMesh": null,
  "MonetaryValueMod": null,
  "Rarity": {
    "BaseValueConstant": 0.0,
    "BaseValueAttribute": null,
    "InitializationDefinition": null,
    "BaseValueScaleConstant": 1.0
  },
  "AttributeSlotUpgrades": [
    { "SlotName": "Capacity", "GradeIncrease": -4, "bActivateSlot": true },
    {
      "SlotName": "RechargeRate",
      "GradeIncrease": -2,
      "bActivateSlot": true
    },
    {
      "SlotName": "RechargeDelay",
      "GradeIncrease": 8,
      "bActivateSlot": true
    },
    { "SlotName": "Special01", "GradeIncrease": 3, "bActivateSlot": false },
    { "SlotName": "Special02", "GradeIncrease": 3, "bActivateSlot": false }
  ],
  "AdditionalGestaltModeSkeletalMeshNames": [ null, null ],
  "VfTableObject": "",
  "HashNext": "",
  "ObjectFlags": "",
  "HashOuterNext": "",
  "StateFrame": "",
  "Linker": null,
  "LinkerIndex": "",
  "ObjectInternalInteger": 131718,
  "NetIndex": 3732,
  "Outer": "GD_Shields.Body",
  "Name": "Body7_Hyperion",
  "Class": "WillowGame.ShieldPartDefinition",
  "ObjectArchetype": "WillowGame.Default__ShieldPartDefinition"
}