{
  "VfTable_IIBehaviorProvider": "",
  "PartType": "IP_Material",
  "BehaviorProviderDefinition": null,
  "Material": "Item_Shields.Materials.Mati_ShieldBanditEpic",
  "bIsGestaltMode": false,
  "GestaltModeSkeletalMeshName": "Shield_Pickup_A-1",
  "NongestaltSkeletalMesh": null,
  "MonetaryValueMod":
    "GD_Economy.Rarity.Att_Price_RarityMultiplier_04_VeryRare",
  "Rarity": {
    "BaseValueConstant": 0.0,
    "BaseValueAttribute": "GD_Balance_Inventory.Rarity_Item.ItemRarity3_Rare",
    "InitializationDefinition": null,
    "BaseValueScaleConstant": 1.0
  },
  "AttributeSlotUpgrades": [
    { "SlotName": "Capacity", "GradeIncrease": 12, "bActivateSlot": false },
    { "SlotName": "Special01", "GradeIncrease": 0, "bActivateSlot": false },
    { "SlotName": "Special02", "GradeIncrease": 0, "bActivateSlot": false }
  ],
  "AdditionalGestaltModeSkeletalMeshNames": [ null, null ],
  "VfTableObject": "",
  "HashNext": "",
  "ObjectFlags": "",
  "HashOuterNext": "",
  "StateFrame": "",
  "Linker": null,
  "LinkerIndex": "",
  "ObjectInternalInteger": 131775,
  "NetIndex": 3789,
  "Outer": "GD_Shields.Material",
  "Name": "Material4_VeryRare_Booster_PotOGold",
  "Class": "WillowGame.ShieldPartDefinition",
  "ObjectArchetype": "WillowGame.Default__ShieldPartDefinition"
}