{
  "bEnableSpeech": false,
  "bIsDefaultWorldBodyAvailable": false,
  "LoadingMovieShouldPlayToEnd": false,
  "bClassDropsInitialized": true,
  "DefaultWorldBodyStandIn": null,
  "AutoAimDefinition": "GD_Autoaim.Default",
  "PlayerTrainingMessages": "GD_Trainingmsg.Common.PlayerTrainingMessages",
  "DefaultGlobalsDefinitionName": "GD_Globals.General.Globals",
  "MasterFastTravelStationList": "Transient.FastTravelStationsLookup_41",
  "MasterLevelDependencyList": "Transient.LevelDependencyList_42",
  "TheRelevanceUtility": null,
  "TheRelevanceUtilityClass": "WillowGame.PawnRelevanceUtilityFixedCost",
  "TheLCDHelper": "Transient.LcdHelper_42",
  "TheEffectsCoordinator": "Transient.WillowEffectCoordinator_42",
  "TheObstacleUtility": "Transient.WillowObstacleUtility_42",
  "TheCustomizationManager": "Transient.WillowCustomizationManager_42",
  "ThePlayerPawnDataManager": "Transient.WillowPlayerPawnDataManager_0",
  "PersistentLevelSFXBank": "Transient.SanctuaryAir_P_SFX",
  "PersistentLevelVoiceBank": "Transient.SanctuaryAir_P_Voice",
  "TheVehicleLifetimeManager":
    "Loader.TheWorld:PersistentLevel.VehicleLifetimeManager_41",
  "AggregatedVehicleCrewAnimSetTable": null,
  "TheNPCLoadBalancer": "Transient.NPCLoadBalancer_42",
  "TheDamageOverTimeManager": "Transient.DamageOverTimeManager_42",
  "AssLibMan": "Transient.AssetLibraryManager_42",
  "PlayThroughBasedBalanceModifiers": [
    null, null, "GD_Playthrough3Tuning.Balance.BalanceMod_PT3", null
  ],
  "LegacyPlayerClassIdentifiers": [
    "GD_AlliumPackageDef.LegacyPlayerClassIDs.Assassin",
    "GD_AlliumPackageDef.LegacyPlayerClassIDs.Mechro",
    "GD_AlliumPackageDef.LegacyPlayerClassIDs.Mercenary",
    "GD_AlliumPackageDef.LegacyPlayerClassIDs.Psycho",
    "GD_AlliumPackageDef.LegacyPlayerClassIDs.Siren",
    "GD_AlliumPackageDef.LegacyPlayerClassIDs.Soldier",
    "GD_AsterPackageDef.LegacyPlayerClassIDs.Assassin",
    "GD_AsterPackageDef.LegacyPlayerClassIDs.Mechro",
    "GD_AsterPackageDef.LegacyPlayerClassIDs.Mercenary",
    "GD_AsterPackageDef.LegacyPlayerClassIDs.Psycho",
    "GD_AsterPackageDef.LegacyPlayerClassIDs.Siren",
    "GD_AsterPackageDef.LegacyPlayerClassIDs.Soldier",
    "GD_FlaxPackageDef.LegacyPlayerClassIDs.Assassin",
    "GD_FlaxPackageDef.LegacyPlayerClassIDs.Mechro",
    "GD_FlaxPackageDef.LegacyPlayerClassIDs.Mercenary",
    "GD_FlaxPackageDef.LegacyPlayerClassIDs.Psycho",
    "GD_FlaxPackageDef.LegacyPlayerClassIDs.Siren",
    "GD_FlaxPackageDef.LegacyPlayerClassIDs.Soldier",
    "GD_LobeliaPackageDef.LegacyPlayerClassIDs.Assassin",
    "GD_LobeliaPackageDef.LegacyPlayerClassIDs.Mechro",
    "GD_LobeliaPackageDef.LegacyPlayerClassIDs.Psycho",
    "GD_LobeliaPackageDef.LegacyPlayerClassIDs.Siren",
    "GD_LobeliaPackageDef.LegacyPlayerClassIDs.Soldier",
    "GD_IrisPackageDef.LegacyPlayerClassIDs.Assassin",
    "GD_IrisPackageDef.LegacyPlayerClassIDs.Mechro",
    "GD_IrisPackageDef.LegacyPlayerClassIDs.Mercenary",
    "GD_IrisPackageDef.LegacyPlayerClassIDs.Siren",
    "GD_IrisPackageDef.LegacyPlayerClassIDs.Soldier",
    "GD_LobeliaPackageDef.LegacyPlayerClassIDs.Mercenary",
    "GD_NasturtiumPackageDef.LegacyPlayerClassIDs.Assassin",
    "GD_NasturtiumPackageDef.LegacyPlayerClassIDs.Mechro",
    "GD_NasturtiumPackageDef.LegacyPlayerClassIDs.Mercenary",
    "GD_NasturtiumPackageDef.LegacyPlayerClassIDs.Psycho",
    "GD_NasturtiumPackageDef.LegacyPlayerClassIDs.Siren",
    "GD_NasturtiumPackageDef.LegacyPlayerClassIDs.Soldier",
    "GD_OrchidPackageDef.LegacyPlayerClassIDs.Assassin",
    "GD_OrchidPackageDef.LegacyPlayerClassIDs.Mechro",
    "GD_OrchidPackageDef.LegacyPlayerClassIDs.Mercenary",
    "GD_OrchidPackageDef.LegacyPlayerClassIDs.Siren",
    "GD_OrchidPackageDef.LegacyPlayerClassIDs.Soldier",
    "GD_PeonyPackageDef.LegacyPlayerClassIDs.Assassin",
    "GD_PeonyPackageDef.LegacyPlayerClassIDs.Mechro",
    "GD_PeonyPackageDef.LegacyPlayerClassIDs.Mercenary",
    "GD_PeonyPackageDef.LegacyPlayerClassIDs.Psycho",
    "GD_PeonyPackageDef.LegacyPlayerClassIDs.Siren",
    "GD_PeonyPackageDef.LegacyPlayerClassIDs.Soldier",
    "GD_SagePackageDef.LegacyPlayerClassIDs.Assassin",
    "GD_SagePackageDef.LegacyPlayerClassIDs.Mechro",
    "GD_SagePackageDef.LegacyPlayerClassIDs.Mercenary",
    "GD_SagePackageDef.LegacyPlayerClassIDs.Siren",
    "GD_SagePackageDef.LegacyPlayerClassIDs.Soldier"
  ],
  "KnownCurrencies": [
    {
      "Type": "CURRENCY_SeraphCrystals",
      "WidgetFrame": "misc",
      "WidgetClip": "Aster_UI_Currency.SeraphCrystal"
    },
    {
      "Type": "CURRENCY_Reserved_B",
      "WidgetFrame": "misc",
      "WidgetClip": "Iris_UI_Currency.TorgueToken"
    }
  ],
  "SpectatorPointList": [
    "SanctuaryAir_P.TheWorld:PersistentLevel.WillowSpectatorPoint_0",
    "SanctuaryAir_P.TheWorld:PersistentLevel.WillowSpectatorPoint_1",
    "SanctuaryAir_P.TheWorld:PersistentLevel.WillowSpectatorPoint_4"
  ],
  "PickupList": [
    "SanctuaryAir_P.TheWorld:PersistentLevel.WillowPickup_338",
    "SanctuaryAir_P.TheWorld:PersistentLevel.WillowPickup_339",
    "SanctuaryAir_P.TheWorld:PersistentLevel.WillowPickup_340",
    "SanctuaryAir_P.TheWorld:PersistentLevel.WillowPickup_341",
    "SanctuaryAir_P.TheWorld:PersistentLevel.WillowPickup_342"
  ],
  "ClientInteractiveObjects": [
    "SanctuaryAir_P.TheWorld:PersistentLevel.FastTravelStation_0",
    "SanctuaryAir_P.TheWorld:PersistentLevel.WillowInteractiveObject_6",
    "SanctuaryAir_Dynamic.TheWorld:PersistentLevel.WillowInteractiveObject_8",
    "SanctuaryAir_P.TheWorld:PersistentLevel.WillowVendingMachine_80",
    "SanctuaryAir_P.TheWorld:PersistentLevel.WillowVendingMachine_81",
    "SanctuaryAir_P.TheWorld:PersistentLevel.WillowVendingMachine_82",
    "SanctuaryAir_P.TheWorld:PersistentLevel.WillowVendingMachine_83",
    "SanctuaryAir_P.TheWorld:PersistentLevel.WillowVendingMachine_84",
    "SanctuaryAir_P.TheWorld:PersistentLevel.WillowVendingMachine_85",
    "SanctuaryAir_P.TheWorld:PersistentLevel.WillowVendingMachine_86",
    "SanctuaryAir_P.TheWorld:PersistentLevel.WillowVendingMachine_87",
    "SanctuaryAir_P.TheWorld:PersistentLevel.WillowVendingMachineBlackMarket_0"
  ],
  "PlayerNameIdentifiers": [
    "GD_PlayerNameId.Siren", "GD_PlayerNameId.Soldier",
    "GD_PlayerNameId.Mercenary", "GD_PlayerNameId.Assassin",
    "GD_LilacPackageDef.PlayerNameId.LilacPlayerClass",
    "GD_TulipPackageDef.PlayerNameId.Mechromancer"
  ],
  "PlayerClassIdentifiers": [
    "GD_PlayerClassId.Assassin", "GD_PlayerClassId.Mercenary",
    "GD_PlayerClassId.Siren", "GD_PlayerClassId.Soldier",
    "GD_LilacPackageDef.PlayerClassId.Psycho",
    "GD_TulipPackageDef.PlayerClassId.Mechromancer"
  ],
  "TheGlobalsDefinition": "GD_Globals.General.Globals",
  "ExposureUtilityClass": "GearboxFramework.ExposureUtilityFixedCost",
  "ExposureUtilityStrategyClass": "WillowGame.WillowExposureUtilityStrategy",
  "TheExposureUtility": "Transient.ExposureUtilityFixedCost_42",
  "TheAIFactory": "Transient.GearboxAIFactory_42",
  "TheRuleEngineLoadBalanceManager":
    "Transient.RuleEngineLoadBalanceManager_42",
  "TheGBXActorList": "Transient.GBXActorList_42",
  "TheGBXObjectList": "Transient.GBXObjectList_42",
  "TheWireMgr": null,
  "TheMessageManager": "Transient.GbxMessageManager_42",
  "TheDynamicTextureActorList": null,
  "ThePopulationMaster": "Transient.WillowPopulationMaster_42",
  "TheBehaviorKernel": "Transient.BehaviorKernel_42",
  "TheScreenSpaceManager": null,
  "TheGFxManager": "Transient.GFxMovieManager_42",
  "TheRenderTextureManager": "Transient.GearboxRenderTextureManager_42",
  "GlobalInstanceClassName": "WillowGame.WillowGlobals",
  "DefaultMaxPopulationActorCost": 100,
  "UIAudioComponent": null,
  "TheDialogManager": "Transient.WillowDialogManager_42",
  "StateRecords": [
    { "LevelName": "Loader", "LevelLoaded": 1, "ObjectKeys": null },
    { "LevelName": "SanctuaryAir_P", "LevelLoaded": 1, "ObjectKeys": null },
    {
      "LevelName": "SanctuaryAir_Audio",
      "LevelLoaded": 1,
      "ObjectKeys": null
    },
    {
      "LevelName": "SanctuaryAir_Combat",
      "LevelLoaded": 1,
      "ObjectKeys": null
    },
    {
      "LevelName": "SanctuaryAir_Dynamic",
      "LevelLoaded": 1,
      "ObjectKeys": null
    },
    { "LevelName": "SanctuaryAir_FX", "LevelLoaded": 1, "ObjectKeys": null },
    {
      "LevelName": "SanctuaryAir_Light",
      "LevelLoaded": 1,
      "ObjectKeys": null
    },
    {
      "LevelName": "SanctuaryAir_Side",
      "LevelLoaded": 1,
      "ObjectKeys": null
    }
  ],
  "ValidNameList": [
    { "Start": 32, "End": 126 },
    { "Start": 140, "End": 140 },
    { "Start": 156, "End": 156 },
    { "Start": 161, "End": 161 },
    { "Start": 169, "End": 169 },
    { "Start": 174, "End": 174 },
    { "Start": 176, "End": 176 },
    { "Start": 191, "End": 194 },
    { "Start": 196, "End": 196 },
    { "Start": 199, "End": 207 },
    { "Start": 209, "End": 212 },
    { "Start": 214, "End": 214 },
    { "Start": 217, "End": 220 },
    { "Start": 223, "End": 226 },
    { "Start": 228, "End": 228 },
    { "Start": 231, "End": 239 },
    { "Start": 241, "End": 244 },
    { "Start": 246, "End": 246 },
    { "Start": 249, "End": 252 }
  ],
  "TheTargetableList": "Transient.TargetableList_42",
  "AnimDebugTrack": null,
  "AnimDebugCarat": null,
  "SingletonInstance": null,
  "ThePersistentDataManager": "Transient.PersistentGameDataManager_42",
  "DynamicShadowDirection": { "X": -0.148572, "Y": 0.60694, "Z": -0.780737 },
  "WholeSceneDynamicShadowRadius": 4500.0,
  "__OnDlgFinished__Delegate": "(null).None",
  "VfTableObject": "",
  "HashNext": "",
  "ObjectFlags": "",
  "HashOuterNext": "",
  "StateFrame": "",
  "Linker": null,
  "LinkerIndex": "",
  "ObjectInternalInteger": 238689,
  "NetIndex": -1,
  "Outer": "Loader.TheWorld",
  "Name": "WillowGlobals_43",
  "Class": "WillowGame.WillowGlobals",
  "ObjectArchetype": "WillowGame.Default__WillowGlobals"
}