{
  "bEnableSpeech": false,
  "bIsDefaultWorldBodyAvailable": false,
  "LoadingMovieShouldPlayToEnd": false,
  "bClassDropsInitialized": true,
  "DefaultWorldBodyStandIn": null,
  "AutoAimDefinition": "GD_Autoaim.Default",
  "PlayerTrainingMessages": "GD_Trainingmsg.Common.PlayerTrainingMessages",
  "DefaultGlobalsDefinitionName": "GD_Globals.General.Globals",
  "MasterFastTravelStationList": "Transient.FastTravelStationsLookup_57",
  "MasterLevelDependencyList": "Transient.LevelDependencyList_58",
  "TheRelevanceUtility": null,
  "TheRelevanceUtilityClass": "WillowGame.PawnRelevanceUtilityFixedCost",
  "TheLCDHelper": "Transient.LcdHelper_58",
  "TheEffectsCoordinator": "Transient.WillowEffectCoordinator_58",
  "TheObstacleUtility": "Transient.WillowObstacleUtility_58",
  "TheCustomizationManager": "Transient.WillowCustomizationManager_58",
  "ThePlayerPawnDataManager": "Transient.WillowPlayerPawnDataManager_0",
  "PersistentLevelSFXBank": "Transient.Outwash_P_SFX",
  "PersistentLevelVoiceBank": "Transient.Outwash_P_Voice",
  "TheVehicleLifetimeManager":
    "Loader.TheWorld:PersistentLevel.VehicleLifetimeManager_57",
  "AggregatedVehicleCrewAnimSetTable": null,
  "TheNPCLoadBalancer": "Transient.NPCLoadBalancer_58",
  "TheDamageOverTimeManager": "Transient.DamageOverTimeManager_58",
  "AssLibMan": "Transient.AssetLibraryManager_58",
  "PlayThroughBasedBalanceModifiers": [
    null, null, "GD_Playthrough3Tuning.Balance.BalanceMod_PT3", null
  ],
  "LegacyPlayerClassIdentifiers": [
    "GD_AlliumPackageDef.LegacyPlayerClassIDs.Assassin",
    "GD_AlliumPackageDef.LegacyPlayerClassIDs.Mechro",
    "GD_AlliumPackageDef.LegacyPlayerClassIDs.Mercenary",
    "GD_AlliumPackageDef.LegacyPlayerClassIDs.Psycho",
    "GD_AlliumPackageDef.LegacyPlayerClassIDs.Siren",
    "GD_AlliumPackageDef.LegacyPlayerClassIDs.Soldier",
    "GD_AsterPackageDef.LegacyPlayerClassIDs.Assassin",
    "GD_AsterPackageDef.LegacyPlayerClassIDs.Mechro",
    "GD_AsterPackageDef.LegacyPlayerClassIDs.Mercenary",
    "GD_AsterPackageDef.LegacyPlayerClassIDs.Psycho",
    "GD_AsterPackageDef.LegacyPlayerClassIDs.Siren",
    "GD_AsterPackageDef.LegacyPlayerClassIDs.Soldier",
    "GD_FlaxPackageDef.LegacyPlayerClassIDs.Assassin",
    "GD_FlaxPackageDef.LegacyPlayerClassIDs.Mechro",
    "GD_FlaxPackageDef.LegacyPlayerClassIDs.Mercenary",
    "GD_FlaxPackageDef.LegacyPlayerClassIDs.Psycho",
    "GD_FlaxPackageDef.LegacyPlayerClassIDs.Siren",
    "GD_FlaxPackageDef.LegacyPlayerClassIDs.Soldier",
    "GD_LobeliaPackageDef.LegacyPlayerClassIDs.Assassin",
    "GD_LobeliaPackageDef.LegacyPlayerClassIDs.Mechro",
    "GD_LobeliaPackageDef.LegacyPlayerClassIDs.Psycho",
    "GD_LobeliaPackageDef.LegacyPlayerClassIDs.Siren",
    "GD_LobeliaPackageDef.LegacyPlayerClassIDs.Soldier",
    "GD_IrisPackageDef.LegacyPlayerClassIDs.Assassin",
    "GD_IrisPackageDef.LegacyPlayerClassIDs.Mechro",
    "GD_IrisPackageDef.LegacyPlayerClassIDs.Mercenary",
    "GD_IrisPackageDef.LegacyPlayerClassIDs.Siren",
    "GD_IrisPackageDef.LegacyPlayerClassIDs.Soldier",
    "GD_LobeliaPackageDef.LegacyPlayerClassIDs.Mercenary",
    "GD_NasturtiumPackageDef.LegacyPlayerClassIDs.Assassin",
    "GD_NasturtiumPackageDef.LegacyPlayerClassIDs.Mechro",
    "GD_NasturtiumPackageDef.LegacyPlayerClassIDs.Mercenary",
    "GD_NasturtiumPackageDef.LegacyPlayerClassIDs.Psycho",
    "GD_NasturtiumPackageDef.LegacyPlayerClassIDs.Siren",
    "GD_NasturtiumPackageDef.LegacyPlayerClassIDs.Soldier",
    "GD_OrchidPackageDef.LegacyPlayerClassIDs.Assassin",
    "GD_OrchidPackageDef.LegacyPlayerClassIDs.Mechro",
    "GD_OrchidPackageDef.LegacyPlayerClassIDs.Mercenary",
    "GD_OrchidPackageDef.LegacyPlayerClassIDs.Siren",
    "GD_OrchidPackageDef.LegacyPlayerClassIDs.Soldier",
    "GD_PeonyPackageDef.LegacyPlayerClassIDs.Assassin",
    "GD_PeonyPackageDef.LegacyPlayerClassIDs.Mechro",
    "GD_PeonyPackageDef.LegacyPlayerClassIDs.Mercenary",
    "GD_PeonyPackageDef.LegacyPlayerClassIDs.Psycho",
    "GD_PeonyPackageDef.LegacyPlayerClassIDs.Siren",
    "GD_PeonyPackageDef.LegacyPlayerClassIDs.Soldier",
    "GD_SagePackageDef.LegacyPlayerClassIDs.Assassin",
    "GD_SagePackageDef.LegacyPlayerClassIDs.Mechro",
    "GD_SagePackageDef.LegacyPlayerClassIDs.Mercenary",
    "GD_SagePackageDef.LegacyPlayerClassIDs.Siren",
    "GD_SagePackageDef.LegacyPlayerClassIDs.Soldier"
  ],
  "KnownCurrencies": [
    {
      "Type": "CURRENCY_SeraphCrystals",
      "WidgetFrame": "misc",
      "WidgetClip": "Aster_UI_Currency.SeraphCrystal"
    },
    {
      "Type": "CURRENCY_Reserved_B",
      "WidgetFrame": "misc",
      "WidgetClip": "Iris_UI_Currency.TorgueToken"
    }
  ],
  "SpectatorPointList": [
    "Outwash_P.TheWorld:PersistentLevel.WillowSpectatorPoint_4",
    "Outwash_P.TheWorld:PersistentLevel.WillowSpectatorPoint_3"
  ],
  "BoundaryTurretList": [
    "Outwash_P.TheWorld:PersistentLevel.WillowBoundaryTurret_14"
  ],
  "ClientInteractiveObjects": [
    "Outwash_P.TheWorld:PersistentLevel.LevelTravelStation_6",
    "Outwash_P.TheWorld:PersistentLevel.FastTravelStation_1",
    "Outwash_P.TheWorld:PersistentLevel.LevelTravelStation_7",
    "Outwash_P.TheWorld:PersistentLevel.LevelTravelStation_0",
    "Outwash_P.TheWorld:PersistentLevel.WillowVendingMachine_122",
    "Outwash_P.TheWorld:PersistentLevel.WillowVendingMachine_123"
  ],
  "DamagePipelinePool": [ "Transient.WillowDamagePipeline_33" ],
  "PlayerNameIdentifiers": [
    "GD_PlayerNameId.Siren", "GD_PlayerNameId.Soldier",
    "GD_PlayerNameId.Mercenary", "GD_PlayerNameId.Assassin",
    "GD_LilacPackageDef.PlayerNameId.LilacPlayerClass",
    "GD_TulipPackageDef.PlayerNameId.Mechromancer"
  ],
  "PlayerClassIdentifiers": [
    "GD_PlayerClassId.Assassin", "GD_PlayerClassId.Mercenary",
    "GD_PlayerClassId.Siren", "GD_PlayerClassId.Soldier",
    "GD_LilacPackageDef.PlayerClassId.Psycho",
    "GD_TulipPackageDef.PlayerClassId.Mechromancer"
  ],
  "TheGlobalsDefinition": "GD_Globals.General.Globals",
  "ExposureUtilityClass": "GearboxFramework.ExposureUtilityFixedCost",
  "ExposureUtilityStrategyClass": "WillowGame.WillowExposureUtilityStrategy",
  "TheExposureUtility": "Transient.ExposureUtilityFixedCost_58",
  "TheAIFactory": "Transient.GearboxAIFactory_58",
  "TheRuleEngineLoadBalanceManager":
    "Transient.RuleEngineLoadBalanceManager_58",
  "TheGBXActorList": "Transient.GBXActorList_58",
  "TheGBXObjectList": "Transient.GBXObjectList_58",
  "TheWireMgr": null,
  "TheMessageManager": "Transient.GbxMessageManager_58",
  "TheDynamicTextureActorList": null,
  "ThePopulationMaster": "Transient.WillowPopulationMaster_58",
  "TheBehaviorKernel": "Transient.BehaviorKernel_58",
  "TheScreenSpaceManager": null,
  "TheGFxManager": "Transient.GFxMovieManager_58",
  "TheRenderTextureManager": "Transient.GearboxRenderTextureManager_58",
  "GlobalInstanceClassName": "WillowGame.WillowGlobals",
  "DefaultMaxPopulationActorCost": 100,
  "UIAudioComponent": null,
  "TheDialogManager": "Transient.WillowDialogManager_58",
  "StateRecords": [
    { "LevelName": "Loader", "LevelLoaded": 1, "ObjectKeys": null },
    { "LevelName": "Outwash_P", "LevelLoaded": 1, "ObjectKeys": null },
    { "LevelName": "Outwash_Audio", "LevelLoaded": 1, "ObjectKeys": null },
    { "LevelName": "Outwash_Combat", "LevelLoaded": 1, "ObjectKeys": null },
    { "LevelName": "Outwash_Dam", "LevelLoaded": 1, "ObjectKeys": null },
    { "LevelName": "Outwash_Dynamic", "LevelLoaded": 1, "ObjectKeys": null },
    { "LevelName": "Outwash_Light", "LevelLoaded": 1, "ObjectKeys": null }
  ],
  "ValidNameList": [
    { "Start": 32, "End": 126 },
    { "Start": 140, "End": 140 },
    { "Start": 156, "End": 156 },
    { "Start": 161, "End": 161 },
    { "Start": 169, "End": 169 },
    { "Start": 174, "End": 174 },
    { "Start": 176, "End": 176 },
    { "Start": 191, "End": 194 },
    { "Start": 196, "End": 196 },
    { "Start": 199, "End": 207 },
    { "Start": 209, "End": 212 },
    { "Start": 214, "End": 214 },
    { "Start": 217, "End": 220 },
    { "Start": 223, "End": 226 },
    { "Start": 228, "End": 228 },
    { "Start": 231, "End": 239 },
    { "Start": 241, "End": 244 },
    { "Start": 246, "End": 246 },
    { "Start": 249, "End": 252 }
  ],
  "TheTargetableList": "Transient.TargetableList_58",
  "AnimDebugTrack": null,
  "AnimDebugCarat": null,
  "SingletonInstance": null,
  "ThePersistentDataManager": "Transient.PersistentGameDataManager_58",
  "DynamicShadowDirection": { "X": -0.498129, "Y": 0.52683, "Z": -0.688707 },
  "WholeSceneDynamicShadowRadius": 5000.0,
  "__OnDlgFinished__Delegate": "(null).None",
  "VfTableObject": "",
  "HashNext": "",
  "ObjectFlags": "",
  "HashOuterNext": "",
  "StateFrame": "",
  "Linker": null,
  "LinkerIndex": "",
  "ObjectInternalInteger": 238689,
  "NetIndex": -1,
  "Outer": "Loader.TheWorld",
  "Name": "WillowGlobals_59",
  "Class": "WillowGame.WillowGlobals",
  "ObjectArchetype": "WillowGame.Default__WillowGlobals"
}