{
  "Skill": "GD_Lilac_Skills_Hellborn.Skills.FireFiend",
  "SkillState": "ESS_Running",
  "VfTableObject": "",
  "HashNext": "",
  "ObjectFlags": "",
  "HashOuterNext": "",
  "StateFrame": "",
  "Linker": null,
  "LinkerIndex": "",
  "ObjectInternalInteger": 220653,
  "NetIndex": 728,
  "Outer":
    "GD_Lilac_SkillsBase.Buzzaxe.Projectile_Buzzaxe:BehaviorProviderDefinition_0.Behavior_Conditional_3",
  "Name": "SkillExpressionEvaluator_0",
  "Class": "WillowGame.SkillExpressionEvaluator",
  "ObjectArchetype": "WillowGame.Default__SkillExpressionEvaluator"
}