{
  "Skill": "GD_Soldier_Skills.Survival.Mag-Lock",
  "SkillState": "ESS_Running",
  "VfTableObject": "",
  "HashNext": "",
  "ObjectFlags": "",
  "HashOuterNext": "",
  "StateFrame": "",
  "Linker": null,
  "LinkerIndex": "",
  "ObjectInternalInteger": 189380,
  "NetIndex": 1418,
  "Outer":
    "GD_Scorpio.Projectile.Projectile_Turret_LongBow:BehaviorProviderDefinition_1.Behavior_Conditional_3",
  "Name": "SkillExpressionEvaluator_0",
  "Class": "WillowGame.SkillExpressionEvaluator",
  "ObjectArchetype": "WillowGame.Default__SkillExpressionEvaluator"
}