{
  "Skill": "GD_Tulip_Mechromancer_Skills.LittleBigTrouble.OneTwoBoom",
  "SkillState": "ESS_Running",
  "VfTableObject": "",
  "HashNext": "",
  "ObjectFlags": "",
  "HashOuterNext": "",
  "StateFrame": "",
  "Linker": null,
  "LinkerIndex": "",
  "ObjectInternalInteger": 188857,
  "NetIndex": 1964,
  "Outer":
    "GD_Tulip_DeathTrap.AI.WillowAIDef_DeathTrap:AIBehaviorProviderDefinition_1.Behavior_Conditional_35",
  "Name": "SkillExpressionEvaluator_0",
  "Class": "WillowGame.SkillExpressionEvaluator",
  "ObjectArchetype": "WillowGame.Default__SkillExpressionEvaluator"
}