{
  "bIsNonDlcToDlcTransition": false,
  "bAllowVehiclesToThisStation": false,
  "DestinationStationDefinition":
    "GD_Aster_LevelTravel.VillageToTempleOfSlaughter",
  "DisplayName": "Murderlin's Temple",
  "StationLevelName": "TempleSlaughter_P",
  "PreviousStation": "GD_Aster_LevelTravel.VillageToTempleOfSlaughter",
  "DlcExpansion": "GD_AsterPackageDef.ExpansionDef_Aster",
  "StationLocation": { "X": 0.0, "Y": 0.0, "Z": 0.0 },
  "StationDisplayImage": null,
  "StationDisplayName": "Murderlin's Temple",
  "VfTableObject": "",
  "HashNext": "",
  "ObjectFlags": "",
  "HashOuterNext": "",
  "StateFrame": "",
  "Linker": null,
  "LinkerIndex": "",
  "ObjectInternalInteger": 165548,
  "NetIndex": 24,
  "Outer": "Package'GD_Aster_LevelTravel'",
  "Name": "TempleOfSlaughterToVillage",
  "Class": "WillowGame.LevelTravelStationDefinition",
  "ObjectArchetype": "WillowGame.Default__LevelTravelStationDefinition"
}