{
  "bIsNonDlcToDlcTransition": false,
  "bAllowVehiclesToThisStation": false,
  "DestinationStationDefinition": "GD_Aster_LevelTravel.CastleKeepToDungeons",
  "DisplayName": "Dungeons",
  "StationLevelName": "Dungeons_P",
  "PreviousStation": "GD_Aster_FastTravel.Dungeons",
  "DlcExpansion": "GD_AsterPackageDef.ExpansionDef_Aster",
  "StationLocation": { "X": 0.0, "Y": 0.0, "Z": 0.0 },
  "StationDisplayImage": null,
  "StationDisplayName": "Dungeons",
  "VfTableObject": "",
  "HashNext": "",
  "ObjectFlags": "",
  "HashOuterNext": "",
  "StateFrame": "",
  "Linker": null,
  "LinkerIndex": "",
  "ObjectInternalInteger": 165533,
  "NetIndex": 16,
  "Outer": "Package'GD_Aster_LevelTravel'",
  "Name": "DungeonsToCastleKeep",
  "Class": "WillowGame.LevelTravelStationDefinition",
  "ObjectArchetype": "WillowGame.Default__LevelTravelStationDefinition"
}