{
  "bIsNonDlcToDlcTransition": false,
  "bAllowVehiclesToThisStation": false,
  "DestinationStationDefinition":
    "GD_Iris_LevelTravelStations.Dogleg1.ArenaTASToCrater",
  "DisplayName": "Badass Crater of Badassitude",
  "StationLevelName": "Iris_Hub_P",
  "PreviousStation": "GD_Iris_FastTravelStations.Hub.IrisCrater",
  "DlcExpansion": "GD_IrisPackageDef.Expansions.ExpansionDef_Iris",
  "StationLocation": { "X": 0.0, "Y": 0.0, "Z": 0.0 },
  "StationDisplayImage": null,
  "StationDisplayName": "Badass Crater of Badassitude",
  "MissionDependencies": [
    {
      "MissionDefinition": "GD_IrisEpisode05.M_IrisEp5_KickStartMyHeart",
      "MissionStatus": "MS_Complete",
      "bIsObjectiveSpecific": false,
      "MissionObjective": null,
      "ObjectiveStatus": "EODS_Complete"
    }
  ],
  "VfTableObject": "",
  "HashNext": "",
  "ObjectFlags": "",
  "HashOuterNext": "",
  "StateFrame": "",
  "Linker": null,
  "LinkerIndex": "",
  "ObjectInternalInteger": 171230,
  "NetIndex": 9,
  "Outer": "GD_Iris_LevelTravelStations.Hub",
  "Name": "CraterToArenaTAS",
  "Class": "WillowGame.LevelTravelStationDefinition",
  "ObjectArchetype": "WillowGame.Default__LevelTravelStationDefinition"
}