{
  "bIsNonDlcToDlcTransition": false,
  "bAllowVehiclesToThisStation": false,
  "DestinationStationDefinition": "GD_LevelTravelStations.OutwashToGrassRoad",
  "DisplayName": "The Highlands",
  "StationLevelName": "Grass_P",
  "PreviousStation": "GD_LevelTravelStations.OutwashToGrassRoad",
  "DlcExpansion": null,
  "StationLocation": { "X": 0.0, "Y": 0.0, "Z": 0.0 },
  "StationDisplayImage": null,
  "StationDisplayName": "The Highlands",
  "VfTableObject": "",
  "HashNext": "",
  "ObjectFlags": "",
  "HashOuterNext": "",
  "StateFrame": "",
  "Linker": null,
  "LinkerIndex": "",
  "ObjectInternalInteger": 154945,
  "NetIndex": 4,
  "Outer": "Package'GD_LevelTravelStations'",
  "Name": "GrassRoadToOutwash",
  "Class": "WillowGame.LevelTravelStationDefinition",
  "ObjectArchetype": "WillowGame.Default__LevelTravelStationDefinition"
}