{
  "bIsNonDlcToDlcTransition": false,
  "bAllowVehiclesToThisStation": false,
  "DestinationStationDefinition":
    "GD_LevelTravelStations.Zone2.PandoraParkToGrass",
  "DisplayName": "The Highlands",
  "StationLevelName": "Grass_P",
  "PreviousStation": "GD_FastTravelStations.Zone2.Grass_C",
  "DlcExpansion": null,
  "StationLocation": { "X": 0.0, "Y": 0.0, "Z": 0.0 },
  "StationDisplayImage": null,
  "StationDisplayName": "The Highlands",
  "MissionDependencies": [
    {
      "MissionDefinition": "GD_Episode10.M_Ep10_BirdISTheWord",
      "MissionStatus": "MS_Active",
      "bIsObjectiveSpecific": true,
      "MissionObjective": "GD_Episode10.M_Ep10_BirdISTheWord:GoToPandoraPark",
      "ObjectiveStatus": "EODS_Active"
    }
  ],
  "VfTableObject": "",
  "HashNext": "",
  "ObjectFlags": "",
  "HashOuterNext": "",
  "StateFrame": "",
  "Linker": null,
  "LinkerIndex": "",
  "ObjectInternalInteger": 132855,
  "NetIndex": 65,
  "Outer": "GD_LevelTravelStations.Zone2",
  "Name": "GrassToPandoraPark",
  "Class": "WillowGame.LevelTravelStationDefinition",
  "ObjectArchetype": "WillowGame.Default__LevelTravelStationDefinition"
}