{
  "bIsNonDlcToDlcTransition": false,
  "bAllowVehiclesToThisStation": false,
  "DestinationStationDefinition":
    "GD_LevelTravelStations.Interlude.HypInterToInterlude",
  "DisplayName": "The Dust",
  "StationLevelName": "Interlude_P",
  "PreviousStation": "GD_FastTravelStations.Interlude.Interlude",
  "DlcExpansion": null,
  "StationLocation": { "X": 0.0, "Y": 0.0, "Z": 0.0 },
  "StationDisplayImage": null,
  "StationDisplayName": "The Dust",
  "VfTableObject": "",
  "HashNext": "",
  "ObjectFlags": "",
  "HashOuterNext": "",
  "StateFrame": "",
  "Linker": null,
  "LinkerIndex": "",
  "ObjectInternalInteger": 132804,
  "NetIndex": 12,
  "Outer": "GD_LevelTravelStations.Interlude",
  "Name": "InterludeToHypInter",
  "Class": "WillowGame.LevelTravelStationDefinition",
  "ObjectArchetype": "WillowGame.Default__LevelTravelStationDefinition"
}