{
  "bIsNonDlcToDlcTransition": false,
  "bAllowVehiclesToThisStation": false,
  "DestinationStationDefinition":
    "GD_LevelTravelStations.Zone1.SanctuaryToVOGsChamber",
  "DisplayName": "Control Core Angel",
  "StationLevelName": "VOGChamber_P",
  "PreviousStation": "GD_LevelTravelStations.Zone2.VOGsChamberToBossCliffs",
  "DlcExpansion": null,
  "StationLocation": { "X": 0.0, "Y": 0.0, "Z": 0.0 },
  "StationDisplayImage": null,
  "StationDisplayName": "Control Core Angel",
  "MissionDependencies": [
    {
      "MissionDefinition": "GD_Episode14.M_Ep14_SearchingTheWreckage",
      "MissionStatus": "MS_Active",
      "bIsObjectiveSpecific": false,
      "MissionObjective": null,
      "ObjectiveStatus": "EODS_Complete"
    }
  ],
  "VfTableObject": "",
  "HashNext": "",
  "ObjectFlags": "",
  "HashOuterNext": "",
  "StateFrame": "",
  "Linker": null,
  "LinkerIndex": "",
  "ObjectInternalInteger": 154951,
  "NetIndex": 72,
  "Outer": "GD_LevelTravelStations.Zone2",
  "Name": "VOGsChamberToSanctuary",
  "Class": "WillowGame.LevelTravelStationDefinition",
  "ObjectArchetype": "WillowGame.Default__LevelTravelStationDefinition"
}