{
  "bIsNonDlcToDlcTransition": false,
  "bAllowVehiclesToThisStation": true,
  "DestinationStationDefinition":
    "GD_LevelTravelStations.Zone2.GrassToInterlude",
  "DisplayName": "The Dust",
  "StationLevelName": "Interlude_P",
  "PreviousStation": "GD_FastTravelStations.Interlude.Interlude",
  "DlcExpansion": null,
  "StationLocation": { "X": 0.0, "Y": 0.0, "Z": 0.0 },
  "StationDisplayImage": null,
  "StationDisplayName": "The Dust",
  "MissionDependencies": [
    {
      "MissionDefinition": "GD_Episode09.M_Ep9_GetBackToSanctuary",
      "MissionStatus": "MS_Active",
      "bIsObjectiveSpecific": true,
      "MissionObjective":
        "GD_Episode09.M_Ep9_GetBackToSanctuary:GoToDeploySite",
      "ObjectiveStatus": "EODS_Active"
    }
  ],
  "VfTableObject": "",
  "HashNext": "",
  "ObjectFlags": "",
  "HashOuterNext": "",
  "StateFrame": "",
  "Linker": null,
  "LinkerIndex": "",
  "ObjectInternalInteger": 132807,
  "NetIndex": 11,
  "Outer": "GD_LevelTravelStations.Interlude",
  "Name": "InterludeToGrass",
  "Class": "WillowGame.LevelTravelStationDefinition",
  "ObjectArchetype": "WillowGame.Default__LevelTravelStationDefinition"
}