{
  "bIsNonDlcToDlcTransition": false,
  "bAllowVehiclesToThisStation": false,
  "DestinationStationDefinition":
    "GD_Sage_LevelTravel.Sage_Travel_UndergroundToRockForest",
  "DisplayName": "Scylla's Grove",
  "StationLevelName": "Sage_RockForest_P",
  "PreviousStation":
    "GD_Sage_LevelTravel.Sage_Travel_UndergroundToRockForest",
  "DlcExpansion": "GD_SagePackageDef.ExpansionDef_Sage",
  "StationLocation": { "X": 0.0, "Y": 0.0, "Z": 0.0 },
  "StationDisplayImage": null,
  "StationDisplayName": "Scylla's Grove",
  "MissionDependencies": [
    {
      "MissionDefinition": "GD_Sage_Ep3.M_Sage_Mission03",
      "MissionStatus": "MS_Active",
      "bIsObjectiveSpecific": true,
      "MissionObjective": "GD_Sage_Ep3.M_Sage_Mission03:FindScaylion",
      "ObjectiveStatus": "EODS_Active"
    }
  ],
  "VfTableObject": "",
  "HashNext": "",
  "ObjectFlags": "",
  "HashOuterNext": "",
  "StateFrame": "",
  "Linker": null,
  "LinkerIndex": "",
  "ObjectInternalInteger": 178717,
  "NetIndex": 7,
  "Outer": "Package'GD_Sage_LevelTravel'",
  "Name": "Sage_Travel_RockForestToUnderground",
  "Class": "WillowGame.LevelTravelStationDefinition",
  "ObjectArchetype": "WillowGame.Default__LevelTravelStationDefinition"
}