{
  "SlotProperty": "ATTRSLOTEFFECTPROP_Grade",
  "SlotName": "Shotgun",
  "VfTableObject": "",
  "HashNext": "",
  "ObjectFlags": "",
  "HashOuterNext": "",
  "StateFrame": "",
  "Linker": null,
  "LinkerIndex": "",
  "ObjectInternalInteger": 108463,
  "NetIndex": 35,
  "Outer": "GD_StorageDeckUpgrade.MiscData.AttrSlotGrade_Shotgun",
  "Name": "AttributeSlotEffectAttributeValueResolver_0",
  "Class": "WillowGame.AttributeSlotEffectAttributeValueResolver",
  "ObjectArchetype":
    "WillowGame.Default__AttributeSlotEffectAttributeValueResolver"
}