{
  "SkillTreeRootIndex": 0,
  "SkillDefinitionToIndex": "",
  "bSuppressNotifications": false,
  "bInitialized": true,
  "SkillTreeListeners": [
    "Loader.TheWorld:PersistentLevel.WillowPlayerController_54"
  ],
  "FirstSkillTypeIndex": [ 1, 0, 9, 4, -1 ],
  "Skills": [
    {
      "Definition": "GD_Siren_Skills.Phaselock.Skill_Phaselock",
      "Index": 0,
      "PrevSkillIndex": -1,
      "NextSkillIndex": -1,
      "ParentTierIndex": 0,
      "PrevSkillTypeIndex": -1,
      "NextSkillTypeIndex": -1,
      "Grade": 1,
      "Owner":
        "Loader.TheWorld:PersistentLevel.WillowPlayerController_54.PlayerSkillTree_52"
    },
    {
      "Definition": "GD_Siren_Skills.Motion.Ward",
      "Index": 1,
      "PrevSkillIndex": -1,
      "NextSkillIndex": 2,
      "ParentTierIndex": 1,
      "PrevSkillTypeIndex": -1,
      "NextSkillTypeIndex": 2,
      "Grade": 5,
      "Owner":
        "Loader.TheWorld:PersistentLevel.WillowPlayerController_54.PlayerSkillTree_52"
    },
    {
      "Definition": "GD_Siren_Skills.Motion.Accelerate",
      "Index": 2,
      "PrevSkillIndex": 1,
      "NextSkillIndex": -1,
      "ParentTierIndex": 1,
      "PrevSkillTypeIndex": 1,
      "NextSkillTypeIndex": 3,
      "Grade": 5,
      "Owner":
        "Loader.TheWorld:PersistentLevel.WillowPlayerController_54.PlayerSkillTree_52"
    },
    {
      "Definition": "GD_Siren_Skills.Motion.Suspension",
      "Index": 3,
      "PrevSkillIndex": -1,
      "NextSkillIndex": 4,
      "ParentTierIndex": 2,
      "PrevSkillTypeIndex": 2,
      "NextSkillTypeIndex": 5,
      "Grade": 5,
      "Owner":
        "Loader.TheWorld:PersistentLevel.WillowPlayerController_54.PlayerSkillTree_52"
    },
    {
      "Definition": "GD_Siren_Skills.Motion.KineticReflection",
      "Index": 4,
      "PrevSkillIndex": 3,
      "NextSkillIndex": -1,
      "ParentTierIndex": 2,
      "PrevSkillTypeIndex": -1,
      "NextSkillTypeIndex": 7,
      "Grade": 0,
      "Owner":
        "Loader.TheWorld:PersistentLevel.WillowPlayerController_54.PlayerSkillTree_52"
    },
    {
      "Definition": "GD_Siren_Skills.Motion.Fleet",
      "Index": 5,
      "PrevSkillIndex": -1,
      "NextSkillIndex": 6,
      "ParentTierIndex": 3,
      "PrevSkillTypeIndex": 3,
      "NextSkillTypeIndex": 6,
      "Grade": 1,
      "Owner":
        "Loader.TheWorld:PersistentLevel.WillowPlayerController_54.PlayerSkillTree_52"
    },
    {
      "Definition": "GD_Siren_Skills.Motion.Converge",
      "Index": 6,
      "PrevSkillIndex": 5,
      "NextSkillIndex": 7,
      "ParentTierIndex": 3,
      "PrevSkillTypeIndex": 5,
      "NextSkillTypeIndex": 8,
      "Grade": 1,
      "Owner":
        "Loader.TheWorld:PersistentLevel.WillowPlayerController_54.PlayerSkillTree_52"
    },
    {
      "Definition": "GD_Siren_Skills.Motion.Inertia",
      "Index": 7,
      "PrevSkillIndex": 6,
      "NextSkillIndex": -1,
      "ParentTierIndex": 3,
      "PrevSkillTypeIndex": 4,
      "NextSkillTypeIndex": 19,
      "Grade": 1,
      "Owner":
        "Loader.TheWorld:PersistentLevel.WillowPlayerController_54.PlayerSkillTree_52"
    },
    {
      "Definition": "GD_Siren_Skills.Motion.Quicken",
      "Index": 8,
      "PrevSkillIndex": -1,
      "NextSkillIndex": -1,
      "ParentTierIndex": 4,
      "PrevSkillTypeIndex": 6,
      "NextSkillTypeIndex": 10,
      "Grade": 5,
      "Owner":
        "Loader.TheWorld:PersistentLevel.WillowPlayerController_54.PlayerSkillTree_52"
    },
    {
      "Definition": "GD_Siren_Skills.Motion.SubSequence",
      "Index": 9,
      "PrevSkillIndex": -1,
      "NextSkillIndex": -1,
      "ParentTierIndex": 5,
      "PrevSkillTypeIndex": -1,
      "NextSkillTypeIndex": 25,
      "Grade": 0,
      "Owner":
        "Loader.TheWorld:PersistentLevel.WillowPlayerController_54.PlayerSkillTree_52"
    },
    {
      "Definition": "GD_Siren_Skills.Motion.ThoughtLock",
      "Index": 10,
      "PrevSkillIndex": -1,
      "NextSkillIndex": -1,
      "ParentTierIndex": 6,
      "PrevSkillTypeIndex": 8,
      "NextSkillTypeIndex": 11,
      "Grade": 0,
      "Owner":
        "Loader.TheWorld:PersistentLevel.WillowPlayerController_54.PlayerSkillTree_52"
    },
    {
      "Definition": "GD_Siren_Skills.Harmony.MindsEye",
      "Index": 11,
      "PrevSkillIndex": -1,
      "NextSkillIndex": 12,
      "ParentTierIndex": 7,
      "PrevSkillTypeIndex": 10,
      "NextSkillTypeIndex": 12,
      "Grade": 5,
      "Owner":
        "Loader.TheWorld:PersistentLevel.WillowPlayerController_54.PlayerSkillTree_52"
    },
    {
      "Definition": "GD_Siren_Skills.Harmony.SweetRelease",
      "Index": 12,
      "PrevSkillIndex": 11,
      "NextSkillIndex": -1,
      "ParentTierIndex": 7,
      "PrevSkillTypeIndex": 11,
      "NextSkillTypeIndex": 13,
      "Grade": 1,
      "Owner":
        "Loader.TheWorld:PersistentLevel.WillowPlayerController_54.PlayerSkillTree_52"
    },
    {
      "Definition": "GD_Siren_Skills.Harmony.Restoration",
      "Index": 13,
      "PrevSkillIndex": -1,
      "NextSkillIndex": 14,
      "ParentTierIndex": 8,
      "PrevSkillTypeIndex": 12,
      "NextSkillTypeIndex": 14,
      "Grade": 1,
      "Owner":
        "Loader.TheWorld:PersistentLevel.WillowPlayerController_54.PlayerSkillTree_52"
    },
    {
      "Definition": "GD_Siren_Skills.Harmony.Wreck",
      "Index": 14,
      "PrevSkillIndex": 13,
      "NextSkillIndex": -1,
      "ParentTierIndex": 8,
      "PrevSkillTypeIndex": 13,
      "NextSkillTypeIndex": 15,
      "Grade": 5,
      "Owner":
        "Loader.TheWorld:PersistentLevel.WillowPlayerController_54.PlayerSkillTree_52"
    },
    {
      "Definition": "GD_Siren_Skills.Harmony.Elated",
      "Index": 15,
      "PrevSkillIndex": -1,
      "NextSkillIndex": 16,
      "ParentTierIndex": 9,
      "PrevSkillTypeIndex": 14,
      "NextSkillTypeIndex": 16,
      "Grade": 4,
      "Owner":
        "Loader.TheWorld:PersistentLevel.WillowPlayerController_54.PlayerSkillTree_52"
    },
    {
      "Definition": "GD_Siren_Skills.Harmony.Res",
      "Index": 16,
      "PrevSkillIndex": 15,
      "NextSkillIndex": 17,
      "ParentTierIndex": 9,
      "PrevSkillTypeIndex": 15,
      "NextSkillTypeIndex": 17,
      "Grade": 1,
      "Owner":
        "Loader.TheWorld:PersistentLevel.WillowPlayerController_54.PlayerSkillTree_52"
    },
    {
      "Definition": "GD_Siren_Skills.Harmony.Recompense",
      "Index": 17,
      "PrevSkillIndex": 16,
      "NextSkillIndex": -1,
      "ParentTierIndex": 9,
      "PrevSkillTypeIndex": 16,
      "NextSkillTypeIndex": 18,
      "Grade": 0,
      "Owner":
        "Loader.TheWorld:PersistentLevel.WillowPlayerController_54.PlayerSkillTree_52"
    },
    {
      "Definition": "GD_Siren_Skills.Harmony.Sustenance",
      "Index": 18,
      "PrevSkillIndex": -1,
      "NextSkillIndex": -1,
      "ParentTierIndex": 10,
      "PrevSkillTypeIndex": 17,
      "NextSkillTypeIndex": 20,
      "Grade": 0,
      "Owner":
        "Loader.TheWorld:PersistentLevel.WillowPlayerController_54.PlayerSkillTree_52"
    },
    {
      "Definition": "GD_Siren_Skills.Harmony.LifeTap",
      "Index": 19,
      "PrevSkillIndex": -1,
      "NextSkillIndex": -1,
      "ParentTierIndex": 11,
      "PrevSkillTypeIndex": 7,
      "NextSkillTypeIndex": 29,
      "Grade": 0,
      "Owner":
        "Loader.TheWorld:PersistentLevel.WillowPlayerController_54.PlayerSkillTree_52"
    },
    {
      "Definition": "GD_Siren_Skills.Harmony.Scorn",
      "Index": 20,
      "PrevSkillIndex": -1,
      "NextSkillIndex": -1,
      "ParentTierIndex": 12,
      "PrevSkillTypeIndex": 18,
      "NextSkillTypeIndex": 21,
      "Grade": 0,
      "Owner":
        "Loader.TheWorld:PersistentLevel.WillowPlayerController_54.PlayerSkillTree_52"
    },
    {
      "Definition": "GD_Siren_Skills.Cataclysm.Flicker",
      "Index": 21,
      "PrevSkillIndex": -1,
      "NextSkillIndex": 22,
      "ParentTierIndex": 13,
      "PrevSkillTypeIndex": 20,
      "NextSkillTypeIndex": 22,
      "Grade": 1,
      "Owner":
        "Loader.TheWorld:PersistentLevel.WillowPlayerController_54.PlayerSkillTree_52"
    },
    {
      "Definition": "GD_Siren_Skills.Cataclysm.Foresight",
      "Index": 22,
      "PrevSkillIndex": 21,
      "NextSkillIndex": -1,
      "ParentTierIndex": 13,
      "PrevSkillTypeIndex": 21,
      "NextSkillTypeIndex": 23,
      "Grade": 5,
      "Owner":
        "Loader.TheWorld:PersistentLevel.WillowPlayerController_54.PlayerSkillTree_52"
    },
    {
      "Definition": "GD_Siren_Skills.Cataclysm.Immolate",
      "Index": 23,
      "PrevSkillIndex": -1,
      "NextSkillIndex": 24,
      "ParentTierIndex": 14,
      "PrevSkillTypeIndex": 22,
      "NextSkillTypeIndex": 24,
      "Grade": 5,
      "Owner":
        "Loader.TheWorld:PersistentLevel.WillowPlayerController_54.PlayerSkillTree_52"
    },
    {
      "Definition": "GD_Siren_Skills.Cataclysm.Helios",
      "Index": 24,
      "PrevSkillIndex": 23,
      "NextSkillIndex": -1,
      "ParentTierIndex": 14,
      "PrevSkillTypeIndex": 23,
      "NextSkillTypeIndex": 26,
      "Grade": 1,
      "Owner":
        "Loader.TheWorld:PersistentLevel.WillowPlayerController_54.PlayerSkillTree_52"
    },
    {
      "Definition": "GD_Siren_Skills.Cataclysm.ChainReaction",
      "Index": 25,
      "PrevSkillIndex": -1,
      "NextSkillIndex": 26,
      "ParentTierIndex": 15,
      "PrevSkillTypeIndex": 9,
      "NextSkillTypeIndex": -1,
      "Grade": 5,
      "Owner":
        "Loader.TheWorld:PersistentLevel.WillowPlayerController_54.PlayerSkillTree_52"
    },
    {
      "Definition": "GD_Siren_Skills.Cataclysm.CloudKill",
      "Index": 26,
      "PrevSkillIndex": 25,
      "NextSkillIndex": 27,
      "ParentTierIndex": 15,
      "PrevSkillTypeIndex": 24,
      "NextSkillTypeIndex": 27,
      "Grade": 1,
      "Owner":
        "Loader.TheWorld:PersistentLevel.WillowPlayerController_54.PlayerSkillTree_52"
    },
    {
      "Definition": "GD_Siren_Skills.Cataclysm.Backdraft",
      "Index": 27,
      "PrevSkillIndex": 26,
      "NextSkillIndex": -1,
      "ParentTierIndex": 15,
      "PrevSkillTypeIndex": 26,
      "NextSkillTypeIndex": 28,
      "Grade": 1,
      "Owner":
        "Loader.TheWorld:PersistentLevel.WillowPlayerController_54.PlayerSkillTree_52"
    },
    {
      "Definition": "GD_Siren_Skills.Cataclysm.Reaper",
      "Index": 28,
      "PrevSkillIndex": -1,
      "NextSkillIndex": -1,
      "ParentTierIndex": 16,
      "PrevSkillTypeIndex": 27,
      "NextSkillTypeIndex": 30,
      "Grade": 5,
      "Owner":
        "Loader.TheWorld:PersistentLevel.WillowPlayerController_54.PlayerSkillTree_52"
    },
    {
      "Definition": "GD_Siren_Skills.Cataclysm.BlightPhoenix",
      "Index": 29,
      "PrevSkillIndex": -1,
      "NextSkillIndex": -1,
      "ParentTierIndex": 17,
      "PrevSkillTypeIndex": 19,
      "NextSkillTypeIndex": -1,
      "Grade": 2,
      "Owner":
        "Loader.TheWorld:PersistentLevel.WillowPlayerController_54.PlayerSkillTree_52"
    },
    {
      "Definition": "GD_Siren_Skills.Cataclysm.Ruin",
      "Index": 30,
      "PrevSkillIndex": -1,
      "NextSkillIndex": -1,
      "ParentTierIndex": 18,
      "PrevSkillTypeIndex": 28,
      "NextSkillTypeIndex": -1,
      "Grade": 1,
      "Owner":
        "Loader.TheWorld:PersistentLevel.WillowPlayerController_54.PlayerSkillTree_52"
    }
  ],
  "Tiers": [
    {
      "SkillIndices": [ 0 ],
      "BranchPointsToUnlockTier": 0,
      "Index": 0,
      "PrevTierIndex": -1,
      "NextTierIndex": -1,
      "ParentBranchIndex": 0,
      "TierNumber": 0,
      "bUnlocked": true,
      "Owner":
        "Loader.TheWorld:PersistentLevel.WillowPlayerController_54.PlayerSkillTree_52"
    },
    {
      "SkillIndices": [ 1, 2 ],
      "BranchPointsToUnlockTier": 0,
      "Index": 1,
      "PrevTierIndex": -1,
      "NextTierIndex": 2,
      "ParentBranchIndex": 1,
      "TierNumber": 0,
      "bUnlocked": true,
      "Owner":
        "Loader.TheWorld:PersistentLevel.WillowPlayerController_54.PlayerSkillTree_52"
    },
    {
      "SkillIndices": [ 3, 4 ],
      "BranchPointsToUnlockTier": 5,
      "Index": 2,
      "PrevTierIndex": 1,
      "NextTierIndex": 3,
      "ParentBranchIndex": 1,
      "TierNumber": 1,
      "bUnlocked": true,
      "Owner":
        "Loader.TheWorld:PersistentLevel.WillowPlayerController_54.PlayerSkillTree_52"
    },
    {
      "SkillIndices": [ 5, 6, 7 ],
      "BranchPointsToUnlockTier": 10,
      "Index": 3,
      "PrevTierIndex": 2,
      "NextTierIndex": 4,
      "ParentBranchIndex": 1,
      "TierNumber": 2,
      "bUnlocked": true,
      "Owner":
        "Loader.TheWorld:PersistentLevel.WillowPlayerController_54.PlayerSkillTree_52"
    },
    {
      "SkillIndices": [ 8 ],
      "BranchPointsToUnlockTier": 15,
      "Index": 4,
      "PrevTierIndex": 3,
      "NextTierIndex": 5,
      "ParentBranchIndex": 1,
      "TierNumber": 3,
      "bUnlocked": true,
      "Owner":
        "Loader.TheWorld:PersistentLevel.WillowPlayerController_54.PlayerSkillTree_52"
    },
    {
      "SkillIndices": [ 9 ],
      "BranchPointsToUnlockTier": 20,
      "Index": 5,
      "PrevTierIndex": 4,
      "NextTierIndex": 6,
      "ParentBranchIndex": 1,
      "TierNumber": 4,
      "bUnlocked": true,
      "Owner":
        "Loader.TheWorld:PersistentLevel.WillowPlayerController_54.PlayerSkillTree_52"
    },
    {
      "SkillIndices": [ 10 ],
      "BranchPointsToUnlockTier": 25,
      "Index": 6,
      "PrevTierIndex": 5,
      "NextTierIndex": -1,
      "ParentBranchIndex": 1,
      "TierNumber": 5,
      "bUnlocked": false,
      "Owner":
        "Loader.TheWorld:PersistentLevel.WillowPlayerController_54.PlayerSkillTree_52"
    },
    {
      "SkillIndices": [ 11, 12 ],
      "BranchPointsToUnlockTier": 0,
      "Index": 7,
      "PrevTierIndex": -1,
      "NextTierIndex": 8,
      "ParentBranchIndex": 2,
      "TierNumber": 0,
      "bUnlocked": true,
      "Owner":
        "Loader.TheWorld:PersistentLevel.WillowPlayerController_54.PlayerSkillTree_52"
    },
    {
      "SkillIndices": [ 13, 14 ],
      "BranchPointsToUnlockTier": 5,
      "Index": 8,
      "PrevTierIndex": 7,
      "NextTierIndex": 9,
      "ParentBranchIndex": 2,
      "TierNumber": 1,
      "bUnlocked": true,
      "Owner":
        "Loader.TheWorld:PersistentLevel.WillowPlayerController_54.PlayerSkillTree_52"
    },
    {
      "SkillIndices": [ 15, 16, 17 ],
      "BranchPointsToUnlockTier": 10,
      "Index": 9,
      "PrevTierIndex": 8,
      "NextTierIndex": 10,
      "ParentBranchIndex": 2,
      "TierNumber": 2,
      "bUnlocked": true,
      "Owner":
        "Loader.TheWorld:PersistentLevel.WillowPlayerController_54.PlayerSkillTree_52"
    },
    {
      "SkillIndices": [ 18 ],
      "BranchPointsToUnlockTier": 15,
      "Index": 10,
      "PrevTierIndex": 9,
      "NextTierIndex": 11,
      "ParentBranchIndex": 2,
      "TierNumber": 3,
      "bUnlocked": true,
      "Owner":
        "Loader.TheWorld:PersistentLevel.WillowPlayerController_54.PlayerSkillTree_52"
    },
    {
      "SkillIndices": [ 19 ],
      "BranchPointsToUnlockTier": 20,
      "Index": 11,
      "PrevTierIndex": 10,
      "NextTierIndex": 12,
      "ParentBranchIndex": 2,
      "TierNumber": 4,
      "bUnlocked": false,
      "Owner":
        "Loader.TheWorld:PersistentLevel.WillowPlayerController_54.PlayerSkillTree_52"
    },
    {
      "SkillIndices": [ 20 ],
      "BranchPointsToUnlockTier": 25,
      "Index": 12,
      "PrevTierIndex": 11,
      "NextTierIndex": -1,
      "ParentBranchIndex": 2,
      "TierNumber": 5,
      "bUnlocked": false,
      "Owner":
        "Loader.TheWorld:PersistentLevel.WillowPlayerController_54.PlayerSkillTree_52"
    },
    {
      "SkillIndices": [ 21, 22 ],
      "BranchPointsToUnlockTier": 0,
      "Index": 13,
      "PrevTierIndex": -1,
      "NextTierIndex": 14,
      "ParentBranchIndex": 3,
      "TierNumber": 0,
      "bUnlocked": true,
      "Owner":
        "Loader.TheWorld:PersistentLevel.WillowPlayerController_54.PlayerSkillTree_52"
    },
    {
      "SkillIndices": [ 23, 24 ],
      "BranchPointsToUnlockTier": 5,
      "Index": 14,
      "PrevTierIndex": 13,
      "NextTierIndex": 15,
      "ParentBranchIndex": 3,
      "TierNumber": 1,
      "bUnlocked": true,
      "Owner":
        "Loader.TheWorld:PersistentLevel.WillowPlayerController_54.PlayerSkillTree_52"
    },
    {
      "SkillIndices": [ 25, 26, 27 ],
      "BranchPointsToUnlockTier": 10,
      "Index": 15,
      "PrevTierIndex": 14,
      "NextTierIndex": 16,
      "ParentBranchIndex": 3,
      "TierNumber": 2,
      "bUnlocked": true,
      "Owner":
        "Loader.TheWorld:PersistentLevel.WillowPlayerController_54.PlayerSkillTree_52"
    },
    {
      "SkillIndices": [ 28 ],
      "BranchPointsToUnlockTier": 15,
      "Index": 16,
      "PrevTierIndex": 15,
      "NextTierIndex": 17,
      "ParentBranchIndex": 3,
      "TierNumber": 3,
      "bUnlocked": true,
      "Owner":
        "Loader.TheWorld:PersistentLevel.WillowPlayerController_54.PlayerSkillTree_52"
    },
    {
      "SkillIndices": [ 29 ],
      "BranchPointsToUnlockTier": 20,
      "Index": 17,
      "PrevTierIndex": 16,
      "NextTierIndex": 18,
      "ParentBranchIndex": 3,
      "TierNumber": 4,
      "bUnlocked": true,
      "Owner":
        "Loader.TheWorld:PersistentLevel.WillowPlayerController_54.PlayerSkillTree_52"
    },
    {
      "SkillIndices": [ 30 ],
      "BranchPointsToUnlockTier": 25,
      "Index": 18,
      "PrevTierIndex": 17,
      "NextTierIndex": -1,
      "ParentBranchIndex": 3,
      "TierNumber": 5,
      "bUnlocked": true,
      "Owner":
        "Loader.TheWorld:PersistentLevel.WillowPlayerController_54.PlayerSkillTree_52"
    }
  ],
  "Branches": [
    {
      "Definition": "GD_Siren_Skills.SkillTree.Branch_ActionSkill_Phaselock",
      "BranchPointsToUnlockNextBranch": 1,
      "Index": 0,
      "ParentBranchIndex": -1,
      "PrevBranchIndex": -1,
      "NextBranchIndex": -1,
      "ChildBranchIndices": [ 1, 2, 3 ],
      "TierIndices": [ 0 ],
      "Owner":
        "Loader.TheWorld:PersistentLevel.WillowPlayerController_54.PlayerSkillTree_52"
    },
    {
      "Definition": "GD_Siren_Skills.SkillTree.Branch_Motion",
      "BranchPointsToUnlockNextBranch": 26,
      "Index": 1,
      "ParentBranchIndex": 0,
      "PrevBranchIndex": -1,
      "NextBranchIndex": 2,
      "ChildBranchIndices": null,
      "TierIndices": [ 1, 2, 3, 4, 5, 6 ],
      "Owner":
        "Loader.TheWorld:PersistentLevel.WillowPlayerController_54.PlayerSkillTree_52"
    },
    {
      "Definition": "GD_Siren_Skills.SkillTree.Branch_Harmony",
      "BranchPointsToUnlockNextBranch": 26,
      "Index": 2,
      "ParentBranchIndex": 0,
      "PrevBranchIndex": 1,
      "NextBranchIndex": 3,
      "ChildBranchIndices": null,
      "TierIndices": [ 7, 8, 9, 10, 11, 12 ],
      "Owner":
        "Loader.TheWorld:PersistentLevel.WillowPlayerController_54.PlayerSkillTree_52"
    },
    {
      "Definition": "GD_Siren_Skills.SkillTree.Branch_Cataclysm",
      "BranchPointsToUnlockNextBranch": 26,
      "Index": 3,
      "ParentBranchIndex": 0,
      "PrevBranchIndex": 2,
      "NextBranchIndex": -1,
      "ChildBranchIndices": null,
      "TierIndices": [ 13, 14, 15, 16, 17, 18 ],
      "Owner":
        "Loader.TheWorld:PersistentLevel.WillowPlayerController_54.PlayerSkillTree_52"
    }
  ],
  "VfTableObject": "",
  "HashNext": "",
  "ObjectFlags": "",
  "HashOuterNext": "",
  "StateFrame": "",
  "Linker": null,
  "LinkerIndex": "",
  "ObjectInternalInteger": 234491,
  "NetIndex": -1,
  "Outer": "Loader.TheWorld:PersistentLevel.WillowPlayerController_54",
  "Name": "PlayerSkillTree_52",
  "Class": "WillowGame.PlayerSkillTree",
  "ObjectArchetype": "WillowGame.Default__PlayerSkillTree"
}