{
  "Idle": {
    "MinRepeatTime": 0.0,
    "Left_45": null,
    "Right_45": null,
    "Left_90":
      "GD_AnchorManShared.Anims.TurnDef_AnchorMan_Injured:SpecialMove_Turn_24",
    "Right_90":
      "GD_AnchorManShared.Anims.TurnDef_AnchorMan_Injured:SpecialMove_Turn_25",
    "Left_180":
      "GD_AnchorManShared.Anims.TurnDef_AnchorMan_Injured:SpecialMove_Turn_26",
    "Right_180":
      "GD_AnchorManShared.Anims.TurnDef_AnchorMan_Injured:SpecialMove_Turn_27"
  },
  "Moving": {
    "MinRepeatTime": 0.0,
    "Left_45": null,
    "Right_45": null,
    "Left_90": null,
    "Right_90": null,
    "Left_180": null,
    "Right_180": null
  },
  "TurnCancelTime": 0.5,
  "VfTableObject": "",
  "HashNext": "",
  "ObjectFlags": "",
  "HashOuterNext": "",
  "StateFrame": "",
  "Linker": null,
  "LinkerIndex": "",
  "ObjectInternalInteger": 195362,
  "NetIndex": 2041,
  "Outer": "GD_AnchorManShared.Anims",
  "Name": "TurnDef_AnchorMan_Injured",
  "Class": "WillowGame.TurnDefinition",
  "ObjectArchetype": "WillowGame.Default__TurnDefinition"
}