{
  "Idle": {
    "MinRepeatTime": 0.0,
    "Left_45": "GD_DragonShared.Anims.TurnDef_Patrol:SpecialMove_Turn_6",
    "Right_45": "GD_DragonShared.Anims.TurnDef_Patrol:SpecialMove_Turn_7",
    "Left_90": "GD_DragonShared.Anims.TurnDef_Patrol:SpecialMove_Turn_8",
    "Right_90": "GD_DragonShared.Anims.TurnDef_Patrol:SpecialMove_Turn_9",
    "Left_180": "GD_DragonShared.Anims.TurnDef_Patrol:SpecialMove_Turn_10",
    "Right_180": "GD_DragonShared.Anims.TurnDef_Patrol:SpecialMove_Turn_11"
  },
  "Moving": {
    "MinRepeatTime": 0.5,
    "Left_45": "GD_DragonShared.Anims.TurnDef_Patrol:SpecialMove_Turn_4",
    "Right_45": "GD_DragonShared.Anims.TurnDef_Patrol:SpecialMove_Turn_5",
    "Left_90": "GD_DragonShared.Anims.TurnDef_Patrol:SpecialMove_Turn_0",
    "Right_90": "GD_DragonShared.Anims.TurnDef_Patrol:SpecialMove_Turn_1",
    "Left_180": "GD_DragonShared.Anims.TurnDef_Patrol:SpecialMove_Turn_2",
    "Right_180": "GD_DragonShared.Anims.TurnDef_Patrol:SpecialMove_Turn_3"
  },
  "TurnCancelTime": 0.5,
  "VfTableObject": "",
  "HashNext": "",
  "ObjectFlags": "",
  "HashOuterNext": "",
  "StateFrame": "",
  "Linker": null,
  "LinkerIndex": "",
  "ObjectInternalInteger": 207494,
  "NetIndex": 2102,
  "Outer": "GD_DragonShared.Anims",
  "Name": "TurnDef_Patrol",
  "Class": "WillowGame.TurnDefinition",
  "ObjectArchetype": "WillowGame.Default__TurnDefinition"
}