{
  "Idle": {
    "MinRepeatTime": 0.0,
    "Left_45": null,
    "Right_45": null,
    "Left_90":
      "GD_EngineerArmsShared.Anims.TurnDef_EngineerArmsShared_Injured:SpecialMove_Turn_4",
    "Right_90":
      "GD_EngineerArmsShared.Anims.TurnDef_EngineerArmsShared_Injured:SpecialMove_Turn_5",
    "Left_180":
      "GD_EngineerArmsShared.Anims.TurnDef_EngineerArmsShared_Injured:SpecialMove_Turn_0",
    "Right_180":
      "GD_EngineerArmsShared.Anims.TurnDef_EngineerArmsShared_Injured:SpecialMove_Turn_1"
  },
  "Moving": {
    "MinRepeatTime": 0.0,
    "Left_45": null,
    "Right_45": null,
    "Left_90": null,
    "Right_90": null,
    "Left_180": null,
    "Right_180": null
  },
  "TurnCancelTime": 0.5,
  "VfTableObject": "",
  "HashNext": "",
  "ObjectFlags": "",
  "HashOuterNext": "",
  "StateFrame": "",
  "Linker": null,
  "LinkerIndex": "",
  "ObjectInternalInteger": 193670,
  "NetIndex": 775,
  "Outer": "GD_EngineerArmsShared.Anims",
  "Name": "TurnDef_EngineerArmsShared_Injured",
  "Class": "WillowGame.TurnDefinition",
  "ObjectArchetype": "WillowGame.Default__TurnDefinition"
}