{
  "Idle": {
    "MinRepeatTime": 0.0,
    "Left_45": null,
    "Right_45": null,
    "Left_90": "GD_Jack.Anims.TurnDef_Jack_Default:SpecialMove_Turn_4",
    "Right_90": "GD_Jack.Anims.TurnDef_Jack_Default:SpecialMove_Turn_5",
    "Left_180": "GD_Jack.Anims.TurnDef_Jack_Default:SpecialMove_Turn_0",
    "Right_180": "GD_Jack.Anims.TurnDef_Jack_Default:SpecialMove_Turn_1"
  },
  "Moving": {
    "MinRepeatTime": 0.5,
    "Left_45": null,
    "Right_45": null,
    "Left_90": "GD_Jack.Anims.TurnDef_Jack_Default:SpecialMove_Turn_6",
    "Right_90": "GD_Jack.Anims.TurnDef_Jack_Default:SpecialMove_Turn_7",
    "Left_180": "GD_Jack.Anims.TurnDef_Jack_Default:SpecialMove_Turn_2",
    "Right_180": "GD_Jack.Anims.TurnDef_Jack_Default:SpecialMove_Turn_3"
  },
  "TurnCancelTime": 0.5,
  "VfTableObject": "",
  "HashNext": "",
  "ObjectFlags": "",
  "HashOuterNext": "",
  "StateFrame": "",
  "Linker": null,
  "LinkerIndex": "",
  "ObjectInternalInteger": 225841,
  "NetIndex": 2741,
  "Outer": "GD_Jack.Anims",
  "Name": "TurnDef_Jack_Default",
  "Class": "WillowGame.TurnDefinition",
  "ObjectArchetype": "WillowGame.Default__TurnDefinition"
}