{
  "Idle": {
    "MinRepeatTime": 0.0,
    "Left_45": null,
    "Right_45": null,
    "Left_90":
      "GD_NomadBadass.Anims.TurnDef_NomadBadass_Patrol:SpecialMove_Turn_4",
    "Right_90":
      "GD_NomadBadass.Anims.TurnDef_NomadBadass_Patrol:SpecialMove_Turn_5",
    "Left_180":
      "GD_NomadBadass.Anims.TurnDef_NomadBadass_Patrol:SpecialMove_Turn_0",
    "Right_180":
      "GD_NomadBadass.Anims.TurnDef_NomadBadass_Patrol:SpecialMove_Turn_1"
  },
  "Moving": {
    "MinRepeatTime": 0.0,
    "Left_45": null,
    "Right_45": null,
    "Left_90":
      "GD_NomadBadass.Anims.TurnDef_NomadBadass_Patrol:SpecialMove_Turn_24",
    "Right_90":
      "GD_NomadBadass.Anims.TurnDef_NomadBadass_Patrol:SpecialMove_Turn_25",
    "Left_180":
      "GD_NomadBadass.Anims.TurnDef_NomadBadass_Patrol:SpecialMove_Turn_26",
    "Right_180":
      "GD_NomadBadass.Anims.TurnDef_NomadBadass_Patrol:SpecialMove_Turn_27"
  },
  "TurnCancelTime": 0.5,
  "VfTableObject": "",
  "HashNext": "",
  "ObjectFlags": "",
  "HashOuterNext": "",
  "StateFrame": "",
  "Linker": null,
  "LinkerIndex": "",
  "ObjectInternalInteger": 220395,
  "NetIndex": 457,
  "Outer": "GD_NomadBadass.Anims",
  "Name": "TurnDef_NomadBadass_Patrol",
  "Class": "WillowGame.TurnDefinition",
  "ObjectArchetype": "WillowGame.Default__TurnDefinition"
}