{
  "Idle": {
    "MinRepeatTime": 0.0,
    "Left_45": null,
    "Right_45": null,
    "Left_90":
      "GD_Orchid_SandWorm.Character.TurnDef_Orchid_SandWorm:SpecialMove_Turn_2",
    "Right_90":
      "GD_Orchid_SandWorm.Character.TurnDef_Orchid_SandWorm:SpecialMove_Turn_3",
    "Left_180":
      "GD_Orchid_SandWorm.Character.TurnDef_Orchid_SandWorm:SpecialMove_Turn_0",
    "Right_180":
      "GD_Orchid_SandWorm.Character.TurnDef_Orchid_SandWorm:SpecialMove_Turn_1"
  },
  "Moving": {
    "MinRepeatTime": 0.5,
    "Left_45": null,
    "Right_45": null,
    "Left_90":
      "GD_Orchid_SandWorm.Character.TurnDef_Orchid_SandWorm:SpecialMove_Turn_4",
    "Right_90":
      "GD_Orchid_SandWorm.Character.TurnDef_Orchid_SandWorm:SpecialMove_Turn_5",
    "Left_180":
      "GD_Orchid_SandWorm.Character.TurnDef_Orchid_SandWorm:SpecialMove_Turn_6",
    "Right_180":
      "GD_Orchid_SandWorm.Character.TurnDef_Orchid_SandWorm:SpecialMove_Turn_7"
  },
  "TurnCancelTime": 0.5,
  "VfTableObject": "",
  "HashNext": "",
  "ObjectFlags": "",
  "HashOuterNext": "",
  "StateFrame": "",
  "Linker": null,
  "LinkerIndex": "",
  "ObjectInternalInteger": 192769,
  "NetIndex": 1063,
  "Outer": "GD_Orchid_SandWorm.Character",
  "Name": "TurnDef_Orchid_SandWorm",
  "Class": "WillowGame.TurnDefinition",
  "ObjectArchetype": "WillowGame.Default__TurnDefinition"
}