{
  "Idle": {
    "MinRepeatTime": 0.0,
    "Left_45": null,
    "Right_45": null,
    "Left_90":
      "GD_PrimalBeastShared.Anims.TurnDef_PrimalBeastShared_GrabRun:SpecialMove_Turn_4",
    "Right_90":
      "GD_PrimalBeastShared.Anims.TurnDef_PrimalBeastShared_GrabRun:SpecialMove_Turn_5",
    "Left_180":
      "GD_PrimalBeastShared.Anims.TurnDef_PrimalBeastShared_GrabRun:SpecialMove_Turn_0",
    "Right_180":
      "GD_PrimalBeastShared.Anims.TurnDef_PrimalBeastShared_GrabRun:SpecialMove_Turn_1"
  },
  "Moving": {
    "MinRepeatTime": 0.0,
    "Left_45": null,
    "Right_45": null,
    "Left_90": null,
    "Right_90": null,
    "Left_180": null,
    "Right_180": null
  },
  "TurnCancelTime": 0.5,
  "VfTableObject": "",
  "HashNext": "",
  "ObjectFlags": "",
  "HashOuterNext": "",
  "StateFrame": "",
  "Linker": null,
  "LinkerIndex": "",
  "ObjectInternalInteger": 156069,
  "NetIndex": 3963,
  "Outer": "GD_PrimalBeastShared.Anims",
  "Name": "TurnDef_PrimalBeastShared_GrabRun",
  "Class": "WillowGame.TurnDefinition",
  "ObjectArchetype": "WillowGame.Default__TurnDefinition"
}