{
  "Idle": {
    "MinRepeatTime": 0.0,
    "Left_45": "GD_TannisNPC.Anims.TurnDef_Tannis:SpecialMove_Turn_16",
    "Right_45": "GD_TannisNPC.Anims.TurnDef_Tannis:SpecialMove_Turn_17",
    "Left_90": "GD_TannisNPC.Anims.TurnDef_Tannis:SpecialMove_Turn_0",
    "Right_90": "GD_TannisNPC.Anims.TurnDef_Tannis:SpecialMove_Turn_1",
    "Left_180": "GD_TannisNPC.Anims.TurnDef_Tannis:SpecialMove_Turn_3",
    "Right_180": "GD_TannisNPC.Anims.TurnDef_Tannis:SpecialMove_Turn_4"
  },
  "Moving": {
    "MinRepeatTime": 0.0,
    "Left_45": null,
    "Right_45": null,
    "Left_90": "GD_TannisNPC.Anims.TurnDef_Tannis:SpecialMove_Turn_2",
    "Right_90": "GD_TannisNPC.Anims.TurnDef_Tannis:SpecialMove_Turn_5",
    "Left_180": "GD_TannisNPC.Anims.TurnDef_Tannis:SpecialMove_Turn_6",
    "Right_180": "GD_TannisNPC.Anims.TurnDef_Tannis:SpecialMove_Turn_7"
  },
  "TurnCancelTime": 0.5,
  "VfTableObject": "",
  "HashNext": "",
  "ObjectFlags": "",
  "HashOuterNext": "",
  "StateFrame": "",
  "Linker": null,
  "LinkerIndex": "",
  "ObjectInternalInteger": 206504,
  "NetIndex": 310,
  "Outer": "GD_TannisNPC.Anims",
  "Name": "TurnDef_Tannis",
  "Class": "WillowGame.TurnDefinition",
  "ObjectArchetype": "WillowGame.Default__TurnDefinition"
}