{
  "Idle": {
    "MinRepeatTime": 0.5,
    "Left_45": null,
    "Right_45": null,
    "Left_90": "GD_WizardShared.Anims.TurnDef_Default:SpecialMove_Turn_10",
    "Right_90": "GD_WizardShared.Anims.TurnDef_Default:SpecialMove_Turn_11",
    "Left_180": "GD_WizardShared.Anims.TurnDef_Default:SpecialMove_Turn_8",
    "Right_180": "GD_WizardShared.Anims.TurnDef_Default:SpecialMove_Turn_9"
  },
  "Moving": {
    "MinRepeatTime": 0.5,
    "Left_45": null,
    "Right_45": null,
    "Left_90": null,
    "Right_90": null,
    "Left_180": null,
    "Right_180": null
  },
  "TurnCancelTime": 0.5,
  "VfTableObject": "",
  "HashNext": "",
  "ObjectFlags": "",
  "HashOuterNext": "",
  "StateFrame": "",
  "Linker": null,
  "LinkerIndex": "",
  "ObjectInternalInteger": 216013,
  "NetIndex": 1249,
  "Outer": "GD_WizardShared.Anims",
  "Name": "TurnDef_Default",
  "Class": "WillowGame.TurnDefinition",
  "ObjectArchetype": "WillowGame.Default__TurnDefinition"
}