{
  "VfTable_IIDlcLicensableObject": "",
  "CustomizationName": "Wise",
  "CustomizationType": "WillowGame.CustomizationType_Skin",
  "PackageName": "CD_Mercenary_Skin_Rhino",
  "CustomizationDataName": "Rhino",
  "ProfileEntryID": 300,
  "ProfileEntryIndex": 651,
  "PrimarySort": 21,
  "SecondarySort": 0,
  "DlcCustomizationSetDef":
    "GD_SagePackageDef.Customization.CustomizationSet_Sage",
  "UsageFlags": [ "WillowGame.CustomizationUsage_Mercenary" ],
  "VfTableObject": "",
  "HashNext": "",
  "ObjectFlags": "",
  "HashOuterNext": "",
  "StateFrame": "",
  "Linker": null,
  "LinkerIndex": "",
  "ObjectInternalInteger": 178641,
  "NetIndex": 73,
  "Outer": "GD_AllCustoms_Sage.Mercenary",
  "Name": "Skin_Rhino",
  "Class": "WillowGame.CustomizationDefinition",
  "ObjectArchetype": "WillowGame.Default__CustomizationDefinition"
}