{
  "VfTable_IIDlcLicensableObject": "",
  "CustomizationName": "D4rk Expl0rer",
  "CustomizationType": "WillowGame.CustomizationType_Head",
  "PackageName": "CD_Assassin_Head_ZeroSage",
  "CustomizationDataName": "ZeroSage",
  "ProfileEntryID": 300,
  "ProfileEntryIndex": 644,
  "PrimarySort": 18,
  "SecondarySort": 0,
  "DlcCustomizationSetDef":
    "GD_SagePackageDef.Customization.CustomizationSet_Sage",
  "UsageFlags": [ "WillowGame.CustomizationUsage_Assassin" ],
  "VfTableObject": "",
  "HashNext": "",
  "ObjectFlags": "",
  "HashOuterNext": "",
  "StateFrame": "",
  "Linker": null,
  "LinkerIndex": "",
  "ObjectInternalInteger": 178563,
  "NetIndex": 0,
  "Outer": "GD_AllCustoms_Sage.Assassin",
  "Name": "Head_ZeroSage",
  "Class": "WillowGame.CustomizationDefinition",
  "ObjectArchetype": "WillowGame.Default__CustomizationDefinition"
}