{
  "VfTable_IIDlcLicensableObject": "",
  "CustomizationName": "BLUE BULLSEYE ON MY CHEST",
  "CustomizationType": "WillowGame.CustomizationType_Skin",
  "PackageName": "CD_Psycho_Skin_BlueC",
  "CustomizationDataName": "BlueC",
  "ProfileEntryID": 300,
  "ProfileEntryIndex": 661,
  "PrimarySort": 3,
  "SecondarySort": 2,
  "DlcCustomizationSetDef": "GD_LilacPackageDef.CustomizationSet_Lilac",
  "UsageFlags": [ "WillowGame.CustomizationUsage_ExtraPlayerB" ],
  "VfTableObject": "",
  "HashNext": "",
  "ObjectFlags": "",
  "HashOuterNext": "",
  "StateFrame": "",
  "Linker": null,
  "LinkerIndex": "",
  "ObjectInternalInteger": 171799,
  "NetIndex": 23,
  "Outer": "GD_AllCustoms_Lilac.Psycho",
  "Name": "Skin_BlueC",
  "Class": "WillowGame.CustomizationDefinition",
  "ObjectArchetype": "WillowGame.Default__CustomizationDefinition"
}