{
  "VfTable_IIDlcLicensableObject": "",
  "CustomizationName": "Blood Bank",
  "CustomizationType": "WillowGame.CustomizationType_Skin",
  "PackageName": "CD_Fanboat_Skin_RedDark",
  "CustomizationDataName": "RedDark",
  "ProfileEntryID": 300,
  "ProfileEntryIndex": 592,
  "PrimarySort": 2,
  "SecondarySort": 2,
  "DlcCustomizationSetDef":
    "GD_SagePackageDef.Customization.CustomizationSet_Sage",
  "UsageFlags": [ "WillowGame.CustomizationUsage_FanBoat" ],
  "VfTableObject": "",
  "HashNext": "",
  "ObjectFlags": "",
  "HashOuterNext": "",
  "StateFrame": "",
  "Linker": null,
  "LinkerIndex": "",
  "ObjectInternalInteger": 178614,
  "NetIndex": 48,
  "Outer": "GD_AllCustoms_Sage.Fanboat",
  "Name": "Skin_RedDark",
  "Class": "WillowGame.CustomizationDefinition",
  "ObjectArchetype": "WillowGame.Default__CustomizationDefinition"
}