{
  "VfTable_IIDlcLicensableObject": "",
  "CustomizationName": "Sting Like a Bee",
  "CustomizationType": "WillowGame.CustomizationType_Skin",
  "PackageName": "CD_Assassin_Skin_YellowB",
  "CustomizationDataName": "YellowB",
  "ProfileEntryID": 300,
  "ProfileEntryIndex": 243,
  "PrimarySort": 4,
  "SecondarySort": 1,
  "DlcCustomizationSetDef": null,
  "UsageFlags": [ "WillowGame.CustomizationUsage_Assassin" ],
  "VfTableObject": "",
  "HashNext": "",
  "ObjectFlags": "",
  "HashOuterNext": "",
  "StateFrame": "",
  "Linker": null,
  "LinkerIndex": "",
  "ObjectInternalInteger": 122950,
  "NetIndex": 96,
  "Outer": "GD_AllCustoms_MainGame.Assassin",
  "Name": "Skin_YellowB",
  "Class": "WillowGame.CustomizationDefinition",
  "ObjectArchetype": "WillowGame.Default__CustomizationDefinition"
}