{
  "VfTable_IIDlcLicensableObject": "",
  "CustomizationName": "It's Always Sunny On Pandora",
  "CustomizationType": "WillowGame.CustomizationType_Skin",
  "PackageName": "CD_Mechro_Skin_YellowH",
  "CustomizationDataName": "YellowH",
  "ProfileEntryID": 300,
  "ProfileEntryIndex": -1,
  "PrimarySort": 4,
  "SecondarySort": 7,
  "DlcCustomizationSetDef": "GD_TulipPackageDef.CustomizationSet_Tulip",
  "UsageFlags": [ "WillowGame.CustomizationUsage_ExtraPlayerA" ],
  "VfTableObject": "",
  "HashNext": "",
  "ObjectFlags": "",
  "HashOuterNext": "",
  "StateFrame": "",
  "Linker": null,
  "LinkerIndex": "",
  "ObjectInternalInteger": 179902,
  "NetIndex": 97,
  "Outer": "GD_AllCustoms_Tulip.Mechro",
  "Name": "Skin_YellowH",
  "Class": "WillowGame.CustomizationDefinition",
  "ObjectArchetype": "WillowGame.Default__CustomizationDefinition"
}