{
  "VfTable_IIDlcLicensableObject": "",
  "CustomizationName": "Pale Rider",
  "CustomizationType": "WillowGame.CustomizationType_Skin",
  "PackageName": "CD_Mercenary_Skin_YellowD",
  "CustomizationDataName": "YellowD",
  "ProfileEntryID": 300,
  "ProfileEntryIndex": 383,
  "PrimarySort": 4,
  "SecondarySort": 3,
  "DlcCustomizationSetDef": null,
  "UsageFlags": [ "WillowGame.CustomizationUsage_Mercenary" ],
  "VfTableObject": "",
  "HashNext": "",
  "ObjectFlags": "",
  "HashOuterNext": "",
  "StateFrame": "",
  "Linker": null,
  "LinkerIndex": "",
  "ObjectInternalInteger": 123125,
  "NetIndex": 269,
  "Outer": "GD_AllCustoms_MainGame.Mercenary",
  "Name": "Skin_YellowD",
  "Class": "WillowGame.CustomizationDefinition",
  "ObjectArchetype": "WillowGame.Default__CustomizationDefinition"
}