{
  "VfTable_IIDlcLicensableObject": "",
  "CustomizationName": "The Beard With No Name",
  "CustomizationType": "WillowGame.CustomizationType_Head",
  "PackageName": "CD_Mercenary_Head_MercCD",
  "CustomizationDataName": "MercCD",
  "ProfileEntryID": 300,
  "ProfileEntryIndex": 788,
  "PrimarySort": 24,
  "SecondarySort": 0,
  "DlcCustomizationSetDef":
    "GD_CommDay2013PackageDef.Customization.CustomizationSet_CommDay2013",
  "UsageFlags": [ "WillowGame.CustomizationUsage_Mercenary" ],
  "VfTableObject": "",
  "HashNext": "",
  "ObjectFlags": "",
  "HashOuterNext": "",
  "StateFrame": "",
  "Linker": null,
  "LinkerIndex": "",
  "ObjectInternalInteger": 166377,
  "NetIndex": 4,
  "Outer": "GD_AllCustoms_CommDay2013.Mercenary",
  "Name": "Head_MercCD",
  "Class": "WillowGame.CustomizationDefinition",
  "ObjectArchetype": "WillowGame.Default__CustomizationDefinition"
}