{
  "VfTable_IIDlcLicensableObject": "",
  "CustomizationName": "Maliwan Style",
  "CustomizationType": "WillowGame.CustomizationType_Skin",
  "PackageName": "CD_Assassin_Skin_MaliwanA",
  "CustomizationDataName": "MaliwanA",
  "ProfileEntryID": 300,
  "ProfileEntryIndex": 211,
  "PrimarySort": 16,
  "SecondarySort": 0,
  "DlcCustomizationSetDef": null,
  "UsageFlags": [ "WillowGame.CustomizationUsage_Assassin" ],
  "VfTableObject": "",
  "HashNext": "",
  "ObjectFlags": "",
  "HashOuterNext": "",
  "StateFrame": "",
  "Linker": null,
  "LinkerIndex": "",
  "ObjectInternalInteger": 122911,
  "NetIndex": 57,
  "Outer": "GD_AllCustoms_MainGame.Assassin",
  "Name": "Skin_MaliwanA",
  "Class": "WillowGame.CustomizationDefinition",
  "ObjectArchetype": "WillowGame.Default__CustomizationDefinition"
}