{
  "VfTable_IIDlcLicensableObject": "",
  "CustomizationName": "Not-So-Jolly Roger",
  "CustomizationType": "WillowGame.CustomizationType_Head",
  "PackageName": "CD_Mercenary_Head_MOrchid",
  "CustomizationDataName": "MOrchid",
  "ProfileEntryID": 300,
  "ProfileEntryIndex": 580,
  "PrimarySort": 16,
  "SecondarySort": 0,
  "DlcCustomizationSetDef":
    "GD_OrchidPackageDef.Customization.CustomizationSet_Orchid",
  "UsageFlags": [ "WillowGame.CustomizationUsage_Mercenary" ],
  "VfTableObject": "",
  "HashNext": "",
  "ObjectFlags": "",
  "HashOuterNext": "",
  "StateFrame": "",
  "Linker": null,
  "LinkerIndex": "",
  "ObjectInternalInteger": 175912,
  "NetIndex": 70,
  "Outer": "GD_AllCustoms_Orchid.Mercenary",
  "Name": "Head_MOrchid",
  "Class": "WillowGame.CustomizationDefinition",
  "ObjectArchetype": "WillowGame.Default__CustomizationDefinition"
}