{
  "VfTable_IIDlcLicensableObject": "",
  "CustomizationName": "Lovely Corpse",
  "CustomizationType": "WillowGame.CustomizationType_Head",
  "PackageName": "CD_Mechro_Head_Mechro040",
  "CustomizationDataName": "Mechro040",
  "ProfileEntryID": 300,
  "ProfileEntryIndex": 519,
  "PrimarySort": 10,
  "SecondarySort": 0,
  "DlcCustomizationSetDef": "GD_TulipPackageDef.CustomizationSet_Tulip",
  "UsageFlags": [ "WillowGame.CustomizationUsage_ExtraPlayerA" ],
  "VfTableObject": "",
  "HashNext": "",
  "ObjectFlags": "",
  "HashOuterNext": "",
  "StateFrame": "",
  "Linker": null,
  "LinkerIndex": "",
  "ObjectInternalInteger": 179815,
  "NetIndex": 10,
  "Outer": "GD_AllCustoms_Tulip.Mechro",
  "Name": "Head_Mechro040",
  "Class": "WillowGame.CustomizationDefinition",
  "ObjectArchetype": "WillowGame.Default__CustomizationDefinition"
}