{
  "VfTable_IIDlcLicensableObject": "",
  "CustomizationName": "Vault Veteran: Dr. Crazy",
  "CustomizationType": "WillowGame.CustomizationType_Head",
  "PackageName": "CD_Siren_Head_SirenBL1",
  "CustomizationDataName": "SirenBL1",
  "ProfileEntryID": 300,
  "ProfileEntryIndex": 415,
  "PrimarySort": 15,
  "SecondarySort": 0,
  "DlcCustomizationSetDef": null,
  "UsageFlags": [ "WillowGame.CustomizationUsage_Siren" ],
  "VfTableObject": "",
  "HashNext": "",
  "ObjectFlags": "",
  "HashOuterNext": "",
  "StateFrame": "",
  "Linker": null,
  "LinkerIndex": "",
  "ObjectInternalInteger": 123213,
  "NetIndex": 355,
  "Outer": "GD_AllCustoms_MainGame.Siren",
  "Name": "Head_SirenBL1",
  "Class": "WillowGame.CustomizationDefinition",
  "ObjectArchetype": "WillowGame.Default__CustomizationDefinition"
}