{
  "VfTable_IIDlcLicensableObject": "",
  "CustomizationName": "Wayfarer Wizard",
  "CustomizationType": "WillowGame.CustomizationType_Head",
  "PackageName": "CD_Mechro_Head_MechroAster",
  "CustomizationDataName": "MechroAster",
  "ProfileEntryID": 300,
  "ProfileEntryIndex": 751,
  "PrimarySort": 20,
  "SecondarySort": 0,
  "DlcCustomizationSetDef":
    "GD_AsterPackageDef.Customization.CustomizationSet_Aster",
  "UsageFlags": [ "WillowGame.CustomizationUsage_ExtraPlayerA" ],
  "VfTableObject": "",
  "HashNext": "",
  "ObjectFlags": "",
  "HashOuterNext": "",
  "StateFrame": "",
  "Linker": null,
  "LinkerIndex": "",
  "ObjectInternalInteger": 165131,
  "NetIndex": 2,
  "Outer": "GD_AllCustoms_Aster.Mechro",
  "Name": "Head_MechroAster",
  "Class": "WillowGame.CustomizationDefinition",
  "ObjectArchetype": "WillowGame.Default__CustomizationDefinition"
}