{
  "VfTable_IIDlcLicensableObject": "",
  "CustomizationName": "Are You My Mummy",
  "CustomizationType": "WillowGame.CustomizationType_Skin",
  "PackageName": "CD_Siren_Skin_Mummy",
  "CustomizationDataName": "Mummy",
  "ProfileEntryID": 300,
  "ProfileEntryIndex": 799,
  "PrimarySort": 25,
  "SecondarySort": 0,
  "DlcCustomizationSetDef": "GD_FlaxPackageDef.CustomizationSet_Flax",
  "UsageFlags": [ "WillowGame.CustomizationUsage_Siren" ],
  "VfTableObject": "",
  "HashNext": "",
  "ObjectFlags": "",
  "HashOuterNext": "",
  "StateFrame": "",
  "Linker": null,
  "LinkerIndex": "",
  "ObjectInternalInteger": 166782,
  "NetIndex": 9,
  "Outer": "GD_AllCustoms_flax.Siren",
  "Name": "Skin_Mummy",
  "Class": "WillowGame.CustomizationDefinition",
  "ObjectArchetype": "WillowGame.Default__CustomizationDefinition"
}