{
  "VfTable_IIDlcLicensableObject": "",
  "CustomizationName": "Blue Barber",
  "CustomizationType": "WillowGame.CustomizationType_Skin",
  "PackageName": "CD_Runner_Skin_S_BluBlk",
  "CustomizationDataName": "S_BluBlk",
  "ProfileEntryID": 300,
  "ProfileEntryIndex": 82,
  "PrimarySort": 10,
  "SecondarySort": 3,
  "DlcCustomizationSetDef": null,
  "UsageFlags": [ "WillowGame.CustomizationUsage_Runner" ],
  "VfTableObject": "",
  "HashNext": "",
  "ObjectFlags": "",
  "HashOuterNext": "",
  "StateFrame": "",
  "Linker": null,
  "LinkerIndex": "",
  "ObjectInternalInteger": 123184,
  "NetIndex": 327,
  "Outer": "GD_AllCustoms_MainGame.Runner",
  "Name": "Skin_S_BluBlk",
  "Class": "WillowGame.CustomizationDefinition",
  "ObjectArchetype": "WillowGame.Default__CustomizationDefinition"
}