{
  "VfTable_IIDlcLicensableObject": "",
  "CustomizationName": "Jakobs Filigree",
  "CustomizationType": "WillowGame.CustomizationType_Skin",
  "PackageName": "CD_Mechro_Skin_JakobsC",
  "CustomizationDataName": "JakobsC",
  "ProfileEntryID": 300,
  "ProfileEntryIndex": 473,
  "PrimarySort": 15,
  "SecondarySort": 5,
  "DlcCustomizationSetDef": "GD_TulipPackageDef.CustomizationSet_Tulip",
  "UsageFlags": [ "WillowGame.CustomizationUsage_ExtraPlayerA" ],
  "VfTableObject": "",
  "HashNext": "",
  "ObjectFlags": "",
  "HashOuterNext": "",
  "StateFrame": "",
  "Linker": null,
  "LinkerIndex": "",
  "ObjectInternalInteger": 179856,
  "NetIndex": 51,
  "Outer": "GD_AllCustoms_Tulip.Mechro",
  "Name": "Skin_JakobsC",
  "Class": "WillowGame.CustomizationDefinition",
  "ObjectArchetype": "WillowGame.Default__CustomizationDefinition"
}