{
  "VfTable_IIDlcLicensableObject": "",
  "CustomizationName": "Citrus Salvation",
  "CustomizationType": "WillowGame.CustomizationType_Skin",
  "PackageName": "CD_Mechro_Skin_OrangeF",
  "CustomizationDataName": "OrangeF",
  "ProfileEntryID": 300,
  "ProfileEntryIndex": -1,
  "PrimarySort": 5,
  "SecondarySort": 5,
  "DlcCustomizationSetDef": "GD_TulipPackageDef.CustomizationSet_Tulip",
  "UsageFlags": [ "WillowGame.CustomizationUsage_ExtraPlayerA" ],
  "VfTableObject": "",
  "HashNext": "",
  "ObjectFlags": "",
  "HashOuterNext": "",
  "StateFrame": "",
  "Linker": null,
  "LinkerIndex": "",
  "ObjectInternalInteger": 179866,
  "NetIndex": 61,
  "Outer": "GD_AllCustoms_Tulip.Mechro",
  "Name": "Skin_OrangeF",
  "Class": "WillowGame.CustomizationDefinition",
  "ObjectArchetype": "WillowGame.Default__CustomizationDefinition"
}