{
  "VfTable_IIDlcLicensableObject": "",
  "CustomizationName": "Tiny Emerald",
  "CustomizationType": "WillowGame.CustomizationType_Skin",
  "PackageName": "CD_Mercenary_Skin_GreenF",
  "CustomizationDataName": "GreenF",
  "ProfileEntryID": 300,
  "ProfileEntryIndex": -1,
  "PrimarySort": 2,
  "SecondarySort": 5,
  "DlcCustomizationSetDef": null,
  "UsageFlags": [ "WillowGame.CustomizationUsage_Mercenary" ],
  "VfTableObject": "",
  "HashNext": "",
  "ObjectFlags": "",
  "HashOuterNext": "",
  "StateFrame": "",
  "Linker": null,
  "LinkerIndex": "",
  "ObjectInternalInteger": 123075,
  "NetIndex": 219,
  "Outer": "GD_AllCustoms_MainGame.Mercenary",
  "Name": "Skin_GreenF",
  "Class": "WillowGame.CustomizationDefinition",
  "ObjectArchetype": "WillowGame.Default__CustomizationDefinition"
}