{
  "VfTable_IIDlcLicensableObject": "",
  "CustomizationName": "Bandit Blood and Rust",
  "CustomizationType": "WillowGame.CustomizationType_Skin",
  "PackageName": "CD_Mechro_Skin_BanditA",
  "CustomizationDataName": "BanditA",
  "ProfileEntryID": 300,
  "ProfileEntryIndex": 444,
  "PrimarySort": 12,
  "SecondarySort": 0,
  "DlcCustomizationSetDef": "GD_TulipPackageDef.CustomizationSet_Tulip",
  "UsageFlags": [ "WillowGame.CustomizationUsage_ExtraPlayerA" ],
  "VfTableObject": "",
  "HashNext": "",
  "ObjectFlags": "",
  "HashOuterNext": "",
  "StateFrame": "",
  "Linker": null,
  "LinkerIndex": "",
  "ObjectInternalInteger": 179818,
  "NetIndex": 13,
  "Outer": "GD_AllCustoms_Tulip.Mechro",
  "Name": "Skin_BanditA",
  "Class": "WillowGame.CustomizationDefinition",
  "ObjectArchetype": "WillowGame.Default__CustomizationDefinition"
}