{
  "VfTable_IIDlcLicensableObject": "",
  "CustomizationName": "True Turquoise",
  "CustomizationType": "WillowGame.CustomizationType_Skin",
  "PackageName": "CD_Hovercraft_Skin_Terq",
  "CustomizationDataName": "Terq",
  "ProfileEntryID": 300,
  "ProfileEntryIndex": 537,
  "PrimarySort": 7,
  "SecondarySort": 1,
  "DlcCustomizationSetDef":
    "GD_OrchidPackageDef.Customization.CustomizationSet_Orchid",
  "UsageFlags": [ "WillowGame.CustomizationUsage_Hovercraft" ],
  "VfTableObject": "",
  "HashNext": "",
  "ObjectFlags": "",
  "HashOuterNext": "",
  "StateFrame": "",
  "Linker": null,
  "LinkerIndex": "",
  "ObjectInternalInteger": 175898,
  "NetIndex": 58,
  "Outer": "GD_AllCustoms_Orchid.Hovercraft",
  "Name": "Skin_Terq",
  "Class": "WillowGame.CustomizationDefinition",
  "ObjectArchetype": "WillowGame.Default__CustomizationDefinition"
}