{
  "VfTable_IIDlcLicensableObject": "",
  "CustomizationName": "LEG STRIPE YEEEAH",
  "CustomizationType": "WillowGame.CustomizationType_Skin",
  "PackageName": "CD_Psycho_Skin_HyperionA",
  "CustomizationDataName": "HyperionA",
  "ProfileEntryID": 300,
  "ProfileEntryIndex": 679,
  "PrimarySort": 14,
  "SecondarySort": 0,
  "DlcCustomizationSetDef": "GD_LilacPackageDef.CustomizationSet_Lilac",
  "UsageFlags": [ "WillowGame.CustomizationUsage_ExtraPlayerB" ],
  "VfTableObject": "",
  "HashNext": "",
  "ObjectFlags": "",
  "HashOuterNext": "",
  "StateFrame": "",
  "Linker": null,
  "LinkerIndex": "",
  "ObjectInternalInteger": 171826,
  "NetIndex": 50,
  "Outer": "GD_AllCustoms_Lilac.Psycho",
  "Name": "Skin_HyperionA",
  "Class": "WillowGame.CustomizationDefinition",
  "ObjectArchetype": "WillowGame.Default__CustomizationDefinition"
}