{
  "VfTable_IIDlcLicensableObject": "",
  "CustomizationName": "Licorice Whip",
  "CustomizationType": "WillowGame.CustomizationType_Skin",
  "PackageName": "CD_Mechro_Skin_YellowB",
  "CustomizationDataName": "YellowB",
  "ProfileEntryID": 300,
  "ProfileEntryIndex": 506,
  "PrimarySort": 4,
  "SecondarySort": 1,
  "DlcCustomizationSetDef": "GD_TulipPackageDef.CustomizationSet_Tulip",
  "UsageFlags": [ "WillowGame.CustomizationUsage_ExtraPlayerA" ],
  "VfTableObject": "",
  "HashNext": "",
  "ObjectFlags": "",
  "HashOuterNext": "",
  "StateFrame": "",
  "Linker": null,
  "LinkerIndex": "",
  "ObjectInternalInteger": 179896,
  "NetIndex": 91,
  "Outer": "GD_AllCustoms_Tulip.Mechro",
  "Name": "Skin_YellowB",
  "Class": "WillowGame.CustomizationDefinition",
  "ObjectArchetype": "WillowGame.Default__CustomizationDefinition"
}