{
  "VfTable_IIDlcLicensableObject": "",
  "CustomizationName": "Tediore Low Price",
  "CustomizationType": "WillowGame.CustomizationType_Skin",
  "PackageName": "CD_Mechro_Skin_TedioreA",
  "CustomizationDataName": "TedioreA",
  "ProfileEntryID": 300,
  "ProfileEntryIndex": 495,
  "PrimarySort": 17,
  "SecondarySort": 0,
  "DlcCustomizationSetDef": "GD_TulipPackageDef.CustomizationSet_Tulip",
  "UsageFlags": [ "WillowGame.CustomizationUsage_ExtraPlayerA" ],
  "VfTableObject": "",
  "HashNext": "",
  "ObjectFlags": "",
  "HashOuterNext": "",
  "StateFrame": "",
  "Linker": null,
  "LinkerIndex": "",
  "ObjectInternalInteger": 179885,
  "NetIndex": 80,
  "Outer": "GD_AllCustoms_Tulip.Mechro",
  "Name": "Skin_TedioreA",
  "Class": "WillowGame.CustomizationDefinition",
  "ObjectArchetype": "WillowGame.Default__CustomizationDefinition"
}