{
  "VfTable_IIDlcLicensableObject": "",
  "CustomizationName": "Insecticide",
  "CustomizationType": "WillowGame.CustomizationType_Skin",
  "PackageName": "CD_Siren_Skin_CyanH",
  "CustomizationDataName": "CyanH",
  "ProfileEntryID": 300,
  "ProfileEntryIndex": -1,
  "PrimarySort": 6,
  "SecondarySort": 7,
  "DlcCustomizationSetDef": null,
  "UsageFlags": [ "WillowGame.CustomizationUsage_Siren" ],
  "VfTableObject": "",
  "HashNext": "",
  "ObjectFlags": "",
  "HashOuterNext": "",
  "StateFrame": "",
  "Linker": null,
  "LinkerIndex": "",
  "ObjectInternalInteger": 123236,
  "NetIndex": 378,
  "Outer": "GD_AllCustoms_MainGame.Siren",
  "Name": "Skin_CyanH",
  "Class": "WillowGame.CustomizationDefinition",
  "ObjectArchetype": "WillowGame.Default__CustomizationDefinition"
}