{
  "VfTable_IIDlcLicensableObject": "",
  "CustomizationName": "Pure Velvet",
  "CustomizationType": "WillowGame.CustomizationType_Skin",
  "PackageName": "CD_Mechro_Skin_PurpleD",
  "CustomizationDataName": "PurpleD",
  "ProfileEntryID": 300,
  "ProfileEntryIndex": 489,
  "PrimarySort": 7,
  "SecondarySort": 3,
  "DlcCustomizationSetDef": "GD_TulipPackageDef.CustomizationSet_Tulip",
  "UsageFlags": [ "WillowGame.CustomizationUsage_ExtraPlayerA" ],
  "VfTableObject": "",
  "HashNext": "",
  "ObjectFlags": "",
  "HashOuterNext": "",
  "StateFrame": "",
  "Linker": null,
  "LinkerIndex": "",
  "ObjectInternalInteger": 179876,
  "NetIndex": 71,
  "Outer": "GD_AllCustoms_Tulip.Mechro",
  "Name": "Skin_PurpleD",
  "Class": "WillowGame.CustomizationDefinition",
  "ObjectArchetype": "WillowGame.Default__CustomizationDefinition"
}