{
  "VfTable_IIDlcLicensableObject": "",
  "CustomizationName": "Can O' Worms",
  "CustomizationType": "WillowGame.CustomizationType_Head",
  "PackageName": "CD_Siren_Head_SirenEaster",
  "CustomizationDataName": "SirenEaster",
  "ProfileEntryID": 300,
  "ProfileEntryIndex": 848,
  "PrimarySort": 29,
  "SecondarySort": 0,
  "DlcCustomizationSetDef":
    "GD_NasturtiumPackageDef.CustomizationSet_Nasturtium_Easter",
  "UsageFlags": [ "WillowGame.CustomizationUsage_Siren" ],
  "VfTableObject": "",
  "HashNext": "",
  "ObjectFlags": "",
  "HashOuterNext": "",
  "StateFrame": "",
  "Linker": null,
  "LinkerIndex": "",
  "ObjectInternalInteger": 173403,
  "NetIndex": 16,
  "Outer": "GD_AllCustoms_nasturtium.Siren",
  "Name": "Head_SirenEaster",
  "Class": "WillowGame.CustomizationDefinition",
  "ObjectArchetype": "WillowGame.Default__CustomizationDefinition"
}