{
  "VfTable_IIDlcLicensableObject": "",
  "CustomizationName": "Laminate",
  "CustomizationType": "WillowGame.CustomizationType_Skin",
  "PackageName": "CD_Fanboat_Skin_WoodOak",
  "CustomizationDataName": "WoodOak",
  "ProfileEntryID": 300,
  "ProfileEntryIndex": 629,
  "PrimarySort": 18,
  "SecondarySort": 1,
  "DlcCustomizationSetDef":
    "GD_SagePackageDef.Customization.CustomizationSet_Sage",
  "UsageFlags": [ "WillowGame.CustomizationUsage_FanBoat" ],
  "VfTableObject": "",
  "HashNext": "",
  "ObjectFlags": "",
  "HashOuterNext": "",
  "StateFrame": "",
  "Linker": null,
  "LinkerIndex": "",
  "ObjectInternalInteger": 178630,
  "NetIndex": 64,
  "Outer": "GD_AllCustoms_Sage.Fanboat",
  "Name": "Skin_WoodOak",
  "Class": "WillowGame.CustomizationDefinition",
  "ObjectArchetype": "WillowGame.Default__CustomizationDefinition"
}