{
  "VfTable_IIDlcLicensableObject": "",
  "CustomizationName": "Sour Apple",
  "CustomizationType": "WillowGame.CustomizationType_Skin",
  "PackageName": "CD_Mechro_Skin_GreenB",
  "CustomizationDataName": "GreenB",
  "ProfileEntryID": 300,
  "ProfileEntryIndex": 464,
  "PrimarySort": 2,
  "SecondarySort": 1,
  "DlcCustomizationSetDef": "GD_TulipPackageDef.CustomizationSet_Tulip",
  "UsageFlags": [ "WillowGame.CustomizationUsage_ExtraPlayerA" ],
  "VfTableObject": "",
  "HashNext": "",
  "ObjectFlags": "",
  "HashOuterNext": "",
  "StateFrame": "",
  "Linker": null,
  "LinkerIndex": "",
  "ObjectInternalInteger": 179844,
  "NetIndex": 39,
  "Outer": "GD_AllCustoms_Tulip.Mechro",
  "Name": "Skin_GreenB",
  "Class": "WillowGame.CustomizationDefinition",
  "ObjectArchetype": "WillowGame.Default__CustomizationDefinition"
}