{
  "VfTable_IIDlcLicensableObject": "",
  "CustomizationName": "Muddy and Bloody",
  "CustomizationType": "WillowGame.CustomizationType_Skin",
  "PackageName": "CD_Mechro_Skin_RedC",
  "CustomizationDataName": "RedC",
  "ProfileEntryID": 300,
  "ProfileEntryIndex": 492,
  "PrimarySort": 1,
  "SecondarySort": 2,
  "DlcCustomizationSetDef": "GD_TulipPackageDef.CustomizationSet_Tulip",
  "UsageFlags": [ "WillowGame.CustomizationUsage_ExtraPlayerA" ],
  "VfTableObject": "",
  "HashNext": "",
  "ObjectFlags": "",
  "HashOuterNext": "",
  "StateFrame": "",
  "Linker": null,
  "LinkerIndex": "",
  "ObjectInternalInteger": 179879,
  "NetIndex": 74,
  "Outer": "GD_AllCustoms_Tulip.Mechro",
  "Name": "Skin_RedC",
  "Class": "WillowGame.CustomizationDefinition",
  "ObjectArchetype": "WillowGame.Default__CustomizationDefinition"
}