{
  "VfTable_IIDlcLicensableObject": "",
  "CustomizationName": "I AM THE ONLY ONE LEFT",
  "CustomizationType": "WillowGame.CustomizationType_Skin",
  "PackageName": "CD_Psycho_Skin_Tribal",
  "CustomizationDataName": "Tribal",
  "ProfileEntryID": 300,
  "ProfileEntryIndex": 722,
  "PrimarySort": 21,
  "SecondarySort": 0,
  "DlcCustomizationSetDef": "GD_LilacPackageDef.CustomizationSet_Lilac",
  "UsageFlags": [ "WillowGame.CustomizationUsage_ExtraPlayerB" ],
  "VfTableObject": "",
  "HashNext": "",
  "ObjectFlags": "",
  "HashOuterNext": "",
  "StateFrame": "",
  "Linker": null,
  "LinkerIndex": "",
  "ObjectInternalInteger": 171866,
  "NetIndex": 90,
  "Outer": "GD_AllCustoms_Lilac.Psycho",
  "Name": "Skin_Tribal",
  "Class": "WillowGame.CustomizationDefinition",
  "ObjectArchetype": "WillowGame.Default__CustomizationDefinition"
}