{
  "VfTable_IIDlcLicensableObject": "",
  "CustomizationName": "WHO SAID OCTOPUS",
  "CustomizationType": "WillowGame.CustomizationType_Skin",
  "PackageName": "CD_Psycho_Skin_TorgueA",
  "CustomizationDataName": "TorgueA",
  "ProfileEntryID": 300,
  "ProfileEntryIndex": 709,
  "PrimarySort": 18,
  "SecondarySort": 0,
  "DlcCustomizationSetDef": "GD_LilacPackageDef.CustomizationSet_Lilac",
  "UsageFlags": [ "WillowGame.CustomizationUsage_ExtraPlayerB" ],
  "VfTableObject": "",
  "HashNext": "",
  "ObjectFlags": "",
  "HashOuterNext": "",
  "StateFrame": "",
  "Linker": null,
  "LinkerIndex": "",
  "ObjectInternalInteger": 171863,
  "NetIndex": 87,
  "Outer": "GD_AllCustoms_Lilac.Psycho",
  "Name": "Skin_TorgueA",
  "Class": "WillowGame.CustomizationDefinition",
  "ObjectArchetype": "WillowGame.Default__CustomizationDefinition"
}