{
  "VfTable_IIDlcLicensableObject": "",
  "CustomizationName": "Pop and Rock",
  "CustomizationType": "WillowGame.CustomizationType_Skin",
  "PackageName": "CD_Mechro_Skin_PinkD",
  "CustomizationDataName": "PinkD",
  "ProfileEntryID": 300,
  "ProfileEntryIndex": 485,
  "PrimarySort": 11,
  "SecondarySort": 3,
  "DlcCustomizationSetDef": "GD_TulipPackageDef.CustomizationSet_Tulip",
  "UsageFlags": [ "WillowGame.CustomizationUsage_ExtraPlayerA" ],
  "VfTableObject": "",
  "HashNext": "",
  "ObjectFlags": "",
  "HashOuterNext": "",
  "StateFrame": "",
  "Linker": null,
  "LinkerIndex": "",
  "ObjectInternalInteger": 179872,
  "NetIndex": 67,
  "Outer": "GD_AllCustoms_Tulip.Mechro",
  "Name": "Skin_PinkD",
  "Class": "WillowGame.CustomizationDefinition",
  "ObjectArchetype": "WillowGame.Default__CustomizationDefinition"
}