{
  "VfTable_IIDlcLicensableObject": "",
  "CustomizationName": "Thresher Yellow",
  "CustomizationType": "WillowGame.CustomizationType_Skin",
  "PackageName": "CD_Hovercraft_Skin_YellowBk",
  "CustomizationDataName": "YellowBk",
  "ProfileEntryID": 300,
  "ProfileEntryIndex": 532,
  "PrimarySort": 4,
  "SecondarySort": 3,
  "DlcCustomizationSetDef":
    "GD_OrchidPackageDef.Customization.CustomizationSet_Orchid",
  "UsageFlags": [ "WillowGame.CustomizationUsage_Hovercraft" ],
  "VfTableObject": "",
  "HashNext": "",
  "ObjectFlags": "",
  "HashOuterNext": "",
  "StateFrame": "",
  "Linker": null,
  "LinkerIndex": "",
  "ObjectInternalInteger": 175906,
  "NetIndex": 66,
  "Outer": "GD_AllCustoms_Orchid.Hovercraft",
  "Name": "Skin_YellowBk",
  "Class": "WillowGame.CustomizationDefinition",
  "ObjectArchetype": "WillowGame.Default__CustomizationDefinition"
}