{
  "VfTable_IIDlcLicensableObject": "",
  "CustomizationName": "The Dwarf With No Name",
  "CustomizationType": "WillowGame.CustomizationType_Skin",
  "PackageName": "CD_Mercenary_Skin_MercCD",
  "CustomizationDataName": "MercCD",
  "ProfileEntryID": 300,
  "ProfileEntryIndex": 794,
  "PrimarySort": 25,
  "SecondarySort": 0,
  "DlcCustomizationSetDef":
    "GD_CommDay2013PackageDef.Customization.CustomizationSet_CommDay2013",
  "UsageFlags": [ "WillowGame.CustomizationUsage_Mercenary" ],
  "VfTableObject": "",
  "HashNext": "",
  "ObjectFlags": "",
  "HashOuterNext": "",
  "StateFrame": "",
  "Linker": null,
  "LinkerIndex": "",
  "ObjectInternalInteger": 166378,
  "NetIndex": 5,
  "Outer": "GD_AllCustoms_CommDay2013.Mercenary",
  "Name": "Skin_MercCD",
  "Class": "WillowGame.CustomizationDefinition",
  "ObjectArchetype": "WillowGame.Default__CustomizationDefinition"
}