{
  "VfTable_IIDlcLicensableObject": "",
  "CustomizationName": "Elven Glamour",
  "CustomizationType": "WillowGame.CustomizationType_Skin",
  "PackageName": "CD_Siren_Skin_CyanE",
  "CustomizationDataName": "CyanE",
  "ProfileEntryID": 300,
  "ProfileEntryIndex": 125,
  "PrimarySort": 6,
  "SecondarySort": 4,
  "DlcCustomizationSetDef": null,
  "UsageFlags": [ "WillowGame.CustomizationUsage_Siren" ],
  "VfTableObject": "",
  "HashNext": "",
  "ObjectFlags": "",
  "HashOuterNext": "",
  "StateFrame": "",
  "Linker": null,
  "LinkerIndex": "",
  "ObjectInternalInteger": 123233,
  "NetIndex": 375,
  "Outer": "GD_AllCustoms_MainGame.Siren",
  "Name": "Skin_CyanE",
  "Class": "WillowGame.CustomizationDefinition",
  "ObjectArchetype": "WillowGame.Default__CustomizationDefinition"
}