{
  "VfTable_IIDlcLicensableObject": "",
  "CustomizationName": "Ruby Wings",
  "CustomizationType": "WillowGame.CustomizationType_Skin",
  "PackageName": "CD_Siren_Skin_RedA",
  "CustomizationDataName": "RedA",
  "ProfileEntryID": 300,
  "ProfileEntryIndex": 158,
  "PrimarySort": 1,
  "SecondarySort": 0,
  "DlcCustomizationSetDef": null,
  "UsageFlags": [ "WillowGame.CustomizationUsage_Siren" ],
  "VfTableObject": "",
  "HashNext": "",
  "ObjectFlags": "",
  "HashOuterNext": "",
  "StateFrame": "",
  "Linker": null,
  "LinkerIndex": "",
  "ObjectInternalInteger": 123277,
  "NetIndex": 419,
  "Outer": "GD_AllCustoms_MainGame.Siren",
  "Name": "Skin_RedA",
  "Class": "WillowGame.CustomizationDefinition",
  "ObjectArchetype": "WillowGame.Default__CustomizationDefinition"
}