{
  "VfTable_IIDlcLicensableObject": "",
  "CustomizationName": "Handsome Jack's Mask",
  "CustomizationType": "WillowGame.CustomizationType_Head",
  "PackageName": "CD_Soldier_Head_SoldierHJ",
  "CustomizationDataName": "SoldierHJ",
  "ProfileEntryID": 300,
  "ProfileEntryIndex": 399,
  "PrimarySort": 13,
  "SecondarySort": 0,
  "DlcCustomizationSetDef": null,
  "UsageFlags": [ "WillowGame.CustomizationUsage_Soldier" ],
  "VfTableObject": "",
  "HashNext": "",
  "ObjectFlags": "",
  "HashOuterNext": "",
  "StateFrame": "",
  "Linker": null,
  "LinkerIndex": "",
  "ObjectInternalInteger": 123318,
  "NetIndex": 459,
  "Outer": "GD_AllCustoms_MainGame.Soldier",
  "Name": "Head_SoldierHJ",
  "Class": "WillowGame.CustomizationDefinition",
  "ObjectArchetype": "WillowGame.Default__CustomizationDefinition"
}