{
  "VfTable_IIDlcLicensableObject": "",
  "CustomizationName": "Gold Standard",
  "CustomizationType": "WillowGame.CustomizationType_Skin",
  "PackageName": "CD_Mercenary_Skin_YellowA",
  "CustomizationDataName": "YellowA",
  "ProfileEntryID": 300,
  "ProfileEntryIndex": 380,
  "PrimarySort": 4,
  "SecondarySort": 0,
  "DlcCustomizationSetDef": null,
  "UsageFlags": [ "WillowGame.CustomizationUsage_Mercenary" ],
  "VfTableObject": "",
  "HashNext": "",
  "ObjectFlags": "",
  "HashOuterNext": "",
  "StateFrame": "",
  "Linker": null,
  "LinkerIndex": "",
  "ObjectInternalInteger": 123122,
  "NetIndex": 266,
  "Outer": "GD_AllCustoms_MainGame.Mercenary",
  "Name": "Skin_YellowA",
  "Class": "WillowGame.CustomizationDefinition",
  "ObjectArchetype": "WillowGame.Default__CustomizationDefinition"
}