{
  "VfTable_IIDlcLicensableObject": "",
  "CustomizationName": "MEAT MARINE",
  "CustomizationType": "WillowGame.CustomizationType_Skin",
  "PackageName": "CD_Psycho_Skin_DahlA",
  "CustomizationDataName": "DahlA",
  "ProfileEntryID": 300,
  "ProfileEntryIndex": 669,
  "PrimarySort": 13,
  "SecondarySort": 0,
  "DlcCustomizationSetDef": "GD_LilacPackageDef.CustomizationSet_Lilac",
  "UsageFlags": [ "WillowGame.CustomizationUsage_ExtraPlayerB" ],
  "VfTableObject": "",
  "HashNext": "",
  "ObjectFlags": "",
  "HashOuterNext": "",
  "StateFrame": "",
  "Linker": null,
  "LinkerIndex": "",
  "ObjectInternalInteger": 171813,
  "NetIndex": 37,
  "Outer": "GD_AllCustoms_Lilac.Psycho",
  "Name": "Skin_DahlA",
  "Class": "WillowGame.CustomizationDefinition",
  "ObjectArchetype": "WillowGame.Default__CustomizationDefinition"
}