{
  "VfTable_IIDlcLicensableObject": "",
  "CustomizationName": "Vaguely Outrageous",
  "CustomizationType": "WillowGame.CustomizationType_Skin",
  "PackageName": "CD_Siren_Skin_SirenHP04",
  "CustomizationDataName": "SirenHP04",
  "ProfileEntryID": 300,
  "ProfileEntryIndex": -1,
  "PrimarySort": 22,
  "SecondarySort": 0,
  "DlcCustomizationSetDef":
    "GD_Gardenia04PackageDef.Customization.CustomizationSet_Gardenia04_SirenHP04",
  "UsageFlags": [ "WillowGame.CustomizationUsage_Siren" ],
  "VfTableObject": "",
  "HashNext": "",
  "ObjectFlags": "",
  "HashOuterNext": "",
  "StateFrame": "",
  "Linker": null,
  "LinkerIndex": "",
  "ObjectInternalInteger": 167335,
  "NetIndex": 15,
  "Outer": "GD_AllCustoms_Gardenia04.Siren",
  "Name": "Skin_SirenHP04",
  "Class": "WillowGame.CustomizationDefinition",
  "ObjectArchetype": "WillowGame.Default__CustomizationDefinition"
}