{
  "VfTable_IIDlcLicensableObject": "",
  "CustomizationName": "Vladof Revolution",
  "CustomizationType": "WillowGame.CustomizationType_Skin",
  "PackageName": "CD_Mercenary_Skin_VladofA",
  "CustomizationDataName": "VladofA",
  "ProfileEntryID": 300,
  "ProfileEntryIndex": 376,
  "PrimarySort": 19,
  "SecondarySort": 0,
  "DlcCustomizationSetDef": null,
  "UsageFlags": [ "WillowGame.CustomizationUsage_Mercenary" ],
  "VfTableObject": "",
  "HashNext": "",
  "ObjectFlags": "",
  "HashOuterNext": "",
  "StateFrame": "",
  "Linker": null,
  "LinkerIndex": "",
  "ObjectInternalInteger": 123118,
  "NetIndex": 262,
  "Outer": "GD_AllCustoms_MainGame.Mercenary",
  "Name": "Skin_VladofA",
  "Class": "WillowGame.CustomizationDefinition",
  "ObjectArchetype": "WillowGame.Default__CustomizationDefinition"
}