{
  "VfTable_IIDlcLicensableObject": "",
  "CustomizationName": "Infrared",
  "CustomizationType": "WillowGame.CustomizationType_Skin",
  "PackageName": "CD_BanditTech_Skin_RingRed",
  "CustomizationDataName": "RingRed",
  "ProfileEntryID": 300,
  "ProfileEntryIndex": 50,
  "PrimarySort": 80,
  "SecondarySort": 2,
  "DlcCustomizationSetDef": null,
  "UsageFlags": [ "WillowGame.CustomizationUsage_BanditTech" ],
  "VfTableObject": "",
  "HashNext": "",
  "ObjectFlags": "",
  "HashOuterNext": "",
  "StateFrame": "",
  "Linker": null,
  "LinkerIndex": "",
  "ObjectInternalInteger": 123009,
  "NetIndex": 154,
  "Outer": "GD_AllCustoms_MainGame.BanditTech",
  "Name": "Skin_RingRed",
  "Class": "WillowGame.CustomizationDefinition",
  "ObjectArchetype": "WillowGame.Default__CustomizationDefinition"
}