{
  "VfTable_IIDlcLicensableObject": "",
  "CustomizationName": "GLOWY PANTS",
  "CustomizationType": "WillowGame.CustomizationType_Skin",
  "PackageName": "CD_Psycho_Skin_GreenE",
  "CustomizationDataName": "GreenE",
  "ProfileEntryID": 300,
  "ProfileEntryIndex": 678,
  "PrimarySort": 2,
  "SecondarySort": 4,
  "DlcCustomizationSetDef": "GD_LilacPackageDef.CustomizationSet_Lilac",
  "UsageFlags": [ "WillowGame.CustomizationUsage_ExtraPlayerB" ],
  "VfTableObject": "",
  "HashNext": "",
  "ObjectFlags": "",
  "HashOuterNext": "",
  "StateFrame": "",
  "Linker": null,
  "LinkerIndex": "",
  "ObjectInternalInteger": 171822,
  "NetIndex": 46,
  "Outer": "GD_AllCustoms_Lilac.Psycho",
  "Name": "Skin_GreenE",
  "Class": "WillowGame.CustomizationDefinition",
  "ObjectArchetype": "WillowGame.Default__CustomizationDefinition"
}