{
  "VfTable_IIDlcLicensableObject": "",
  "CustomizationName": "Mud Runner",
  "CustomizationType": "WillowGame.CustomizationType_Skin",
  "PackageName": "CD_Runner_Skin_DirtGrng",
  "CustomizationDataName": "DirtGrng",
  "ProfileEntryID": 300,
  "ProfileEntryIndex": 94,
  "PrimarySort": 14,
  "SecondarySort": 1,
  "DlcCustomizationSetDef": null,
  "UsageFlags": [ "WillowGame.CustomizationUsage_Runner" ],
  "VfTableObject": "",
  "HashNext": "",
  "ObjectFlags": "",
  "HashOuterNext": "",
  "StateFrame": "",
  "Linker": null,
  "LinkerIndex": "",
  "ObjectInternalInteger": 123141,
  "NetIndex": 284,
  "Outer": "GD_AllCustoms_MainGame.Runner",
  "Name": "Skin_DirtGrng",
  "Class": "WillowGame.CustomizationDefinition",
  "ObjectArchetype": "WillowGame.Default__CustomizationDefinition"
}