{
  "VfTable_IIDlcLicensableObject": "",
  "CustomizationName": "Midnight",
  "CustomizationType": "WillowGame.CustomizationType_Skin",
  "PackageName": "CD_Hovercraft_Skin_BlueBlk",
  "CustomizationDataName": "BlueBlk",
  "ProfileEntryID": 300,
  "ProfileEntryIndex": 541,
  "PrimarySort": 8,
  "SecondarySort": 3,
  "DlcCustomizationSetDef":
    "GD_OrchidPackageDef.Customization.CustomizationSet_Orchid",
  "UsageFlags": [ "WillowGame.CustomizationUsage_Hovercraft" ],
  "VfTableObject": "",
  "HashNext": "",
  "ObjectFlags": "",
  "HashOuterNext": "",
  "StateFrame": "",
  "Linker": null,
  "LinkerIndex": "",
  "ObjectInternalInteger": 175843,
  "NetIndex": 3,
  "Outer": "GD_AllCustoms_Orchid.Hovercraft",
  "Name": "Skin_BlueBlk",
  "Class": "WillowGame.CustomizationDefinition",
  "ObjectArchetype": "WillowGame.Default__CustomizationDefinition"
}