{
  "VfTable_IIDlcLicensableObject": "",
  "CustomizationName": "Tree Puncher",
  "CustomizationType": "WillowGame.CustomizationType_Head",
  "PackageName": "CD_Mercenary_Head_MercMC",
  "CustomizationDataName": "MercMC",
  "ProfileEntryID": 300,
  "ProfileEntryIndex": 440,
  "PrimarySort": 12,
  "SecondarySort": 0,
  "DlcCustomizationSetDef": null,
  "UsageFlags": [ "WillowGame.CustomizationUsage_Mercenary" ],
  "VfTableObject": "",
  "HashNext": "",
  "ObjectFlags": "",
  "HashOuterNext": "",
  "StateFrame": "",
  "Linker": null,
  "LinkerIndex": "",
  "ObjectInternalInteger": 123042,
  "NetIndex": 186,
  "Outer": "GD_AllCustoms_MainGame.Mercenary",
  "Name": "Head_MercMC",
  "Class": "WillowGame.CustomizationDefinition",
  "ObjectArchetype": "WillowGame.Default__CustomizationDefinition"
}