{
  "VfTable_IIDlcLicensableObject": "",
  "CustomizationName": "A Bullet In Her Bonnet",
  "CustomizationType": "WillowGame.CustomizationType_Head",
  "PackageName": "CD_Mechro_Head_MechroCD",
  "CustomizationDataName": "MechroCD",
  "ProfileEntryID": 300,
  "ProfileEntryIndex": 787,
  "PrimarySort": 24,
  "SecondarySort": 0,
  "DlcCustomizationSetDef":
    "GD_CommDay2013PackageDef.Customization.CustomizationSet_CommDay2013",
  "UsageFlags": [ "WillowGame.CustomizationUsage_ExtraPlayerA" ],
  "VfTableObject": "",
  "HashNext": "",
  "ObjectFlags": "",
  "HashOuterNext": "",
  "StateFrame": "",
  "Linker": null,
  "LinkerIndex": "",
  "ObjectInternalInteger": 166374,
  "NetIndex": 2,
  "Outer": "GD_AllCustoms_CommDay2013.Mechro",
  "Name": "Head_MechroCD",
  "Class": "WillowGame.CustomizationDefinition",
  "ObjectArchetype": "WillowGame.Default__CustomizationDefinition"
}