{
  "VfTable_IIDlcLicensableObject": "",
  "CustomizationName": "Handsome Jack's Mask",
  "CustomizationType": "WillowGame.CustomizationType_Head",
  "PackageName": "CD_Mercenary_Head_MercHJ",
  "CustomizationDataName": "MercHJ",
  "ProfileEntryID": 300,
  "ProfileEntryIndex": 441,
  "PrimarySort": 13,
  "SecondarySort": 0,
  "DlcCustomizationSetDef": null,
  "UsageFlags": [ "WillowGame.CustomizationUsage_Mercenary" ],
  "VfTableObject": "",
  "HashNext": "",
  "ObjectFlags": "",
  "HashOuterNext": "",
  "StateFrame": "",
  "Linker": null,
  "LinkerIndex": "",
  "ObjectInternalInteger": 123041,
  "NetIndex": 185,
  "Outer": "GD_AllCustoms_MainGame.Mercenary",
  "Name": "Head_MercHJ",
  "Class": "WillowGame.CustomizationDefinition",
  "ObjectArchetype": "WillowGame.Default__CustomizationDefinition"
}