{
  "VfTable_IIDlcLicensableObject": "",
  "CustomizationName": "Oxidized",
  "CustomizationType": "WillowGame.CustomizationType_Skin",
  "PackageName": "CD_BanditTech_Skin_DirtStn",
  "CustomizationDataName": "DirtStn",
  "ProfileEntryID": 300,
  "ProfileEntryIndex": 39,
  "PrimarySort": 17,
  "SecondarySort": 2,
  "DlcCustomizationSetDef": null,
  "UsageFlags": [ "WillowGame.CustomizationUsage_BanditTech" ],
  "VfTableObject": "",
  "HashNext": "",
  "ObjectFlags": "",
  "HashOuterNext": "",
  "StateFrame": "",
  "Linker": null,
  "LinkerIndex": "",
  "ObjectInternalInteger": 122970,
  "NetIndex": 115,
  "Outer": "GD_AllCustoms_MainGame.BanditTech",
  "Name": "Skin_DirtStn",
  "Class": "WillowGame.CustomizationDefinition",
  "ObjectArchetype": "WillowGame.Default__CustomizationDefinition"
}