{
  "VfTable_IIDlcLicensableObject": "",
  "CustomizationName": "Angry Machine",
  "CustomizationType": "WillowGame.CustomizationType_Skin",
  "PackageName": "CD_Mechro_Skin_OrangeB",
  "CustomizationDataName": "OrangeB",
  "ProfileEntryID": 300,
  "ProfileEntryIndex": 478,
  "PrimarySort": 5,
  "SecondarySort": 1,
  "DlcCustomizationSetDef": "GD_TulipPackageDef.CustomizationSet_Tulip",
  "UsageFlags": [ "WillowGame.CustomizationUsage_ExtraPlayerA" ],
  "VfTableObject": "",
  "HashNext": "",
  "ObjectFlags": "",
  "HashOuterNext": "",
  "StateFrame": "",
  "Linker": null,
  "LinkerIndex": "",
  "ObjectInternalInteger": 179862,
  "NetIndex": 57,
  "Outer": "GD_AllCustoms_Tulip.Mechro",
  "Name": "Skin_OrangeB",
  "Class": "WillowGame.CustomizationDefinition",
  "ObjectArchetype": "WillowGame.Default__CustomizationDefinition"
}