{
  "VfTable_IIDlcLicensableObject": "",
  "CustomizationName": "Wish Upon a Star",
  "CustomizationType": "WillowGame.CustomizationType_Skin",
  "PackageName": "CD_Assassin_Skin_CyanA",
  "CustomizationDataName": "CyanA",
  "ProfileEntryID": 300,
  "ProfileEntryIndex": 190,
  "PrimarySort": 6,
  "SecondarySort": 0,
  "DlcCustomizationSetDef": null,
  "UsageFlags": [ "WillowGame.CustomizationUsage_Assassin" ],
  "VfTableObject": "",
  "HashNext": "",
  "ObjectFlags": "",
  "HashOuterNext": "",
  "StateFrame": "",
  "Linker": null,
  "LinkerIndex": "",
  "ObjectInternalInteger": 122883,
  "NetIndex": 29,
  "Outer": "GD_AllCustoms_MainGame.Assassin",
  "Name": "Skin_CyanA",
  "Class": "WillowGame.CustomizationDefinition",
  "ObjectArchetype": "WillowGame.Default__CustomizationDefinition"
}