{
  "VfTable_IIDlcLicensableObject": "",
  "CustomizationName": "The Man With the Golden Pun",
  "CustomizationType": "WillowGame.CustomizationType_Skin",
  "PackageName": "CD_Soldier_Skin_YellowE",
  "CustomizationDataName": "YellowE",
  "ProfileEntryID": 300,
  "ProfileEntryIndex": 315,
  "PrimarySort": 4,
  "SecondarySort": 4,
  "DlcCustomizationSetDef": null,
  "UsageFlags": [ "WillowGame.CustomizationUsage_Soldier" ],
  "VfTableObject": "",
  "HashNext": "",
  "ObjectFlags": "",
  "HashOuterNext": "",
  "StateFrame": "",
  "Linker": null,
  "LinkerIndex": "",
  "ObjectInternalInteger": 123403,
  "NetIndex": 544,
  "Outer": "GD_AllCustoms_MainGame.Soldier",
  "Name": "Skin_YellowE",
  "Class": "WillowGame.CustomizationDefinition",
  "ObjectArchetype": "WillowGame.Default__CustomizationDefinition"
}