{
  "VfTable_IIDlcLicensableObject": "",
  "CustomizationName": "Headbanger",
  "CustomizationType": "WillowGame.CustomizationType_Head",
  "PackageName": "CD_Soldier_Head_SoldHP01c",
  "CustomizationDataName": "SoldHP01c",
  "ProfileEntryID": 300,
  "ProfileEntryIndex": -1,
  "PrimarySort": 18,
  "SecondarySort": 2,
  "DlcCustomizationSetDef":
    "GD_Gardenia01PackageDef.Customization.CustomizationSet_Gardenia01_SoldierCool",
  "UsageFlags": [ "WillowGame.CustomizationUsage_Soldier" ],
  "VfTableObject": "",
  "HashNext": "",
  "ObjectFlags": "",
  "HashOuterNext": "",
  "StateFrame": "",
  "Linker": null,
  "LinkerIndex": "",
  "ObjectInternalInteger": 167289,
  "NetIndex": 26,
  "Outer": "GD_AllCustoms_Gardenia01.Soldier",
  "Name": "Head_SoldHP01c",
  "Class": "WillowGame.CustomizationDefinition",
  "ObjectArchetype": "WillowGame.Default__CustomizationDefinition"
}