{
  "VfTable_IIDlcLicensableObject": "",
  "CustomizationName": "TRUSTY RUSTY",
  "CustomizationType": "WillowGame.CustomizationType_Skin",
  "PackageName": "CD_Psycho_Skin_BanditA",
  "CustomizationDataName": "BanditA",
  "ProfileEntryID": 300,
  "ProfileEntryIndex": 655,
  "PrimarySort": 12,
  "SecondarySort": 0,
  "DlcCustomizationSetDef": "GD_LilacPackageDef.CustomizationSet_Lilac",
  "UsageFlags": [ "WillowGame.CustomizationUsage_ExtraPlayerB" ],
  "VfTableObject": "",
  "HashNext": "",
  "ObjectFlags": "",
  "HashOuterNext": "",
  "StateFrame": "",
  "Linker": null,
  "LinkerIndex": "",
  "ObjectInternalInteger": 171793,
  "NetIndex": 17,
  "Outer": "GD_AllCustoms_Lilac.Psycho",
  "Name": "Skin_BanditA",
  "Class": "WillowGame.CustomizationDefinition",
  "ObjectArchetype": "WillowGame.Default__CustomizationDefinition"
}