{
  "VfTable_IIDlcLicensableObject": "",
  "CustomizationName": "Worn and Torn",
  "CustomizationType": "WillowGame.CustomizationType_Skin",
  "PackageName": "CD_Assassin_Skin_YellowH",
  "CustomizationDataName": "YellowH",
  "ProfileEntryID": 300,
  "ProfileEntryIndex": -1,
  "PrimarySort": 4,
  "SecondarySort": 7,
  "DlcCustomizationSetDef": null,
  "UsageFlags": [ "WillowGame.CustomizationUsage_Assassin" ],
  "VfTableObject": "",
  "HashNext": "",
  "ObjectFlags": "",
  "HashOuterNext": "",
  "StateFrame": "",
  "Linker": null,
  "LinkerIndex": "",
  "ObjectInternalInteger": 122956,
  "NetIndex": 102,
  "Outer": "GD_AllCustoms_MainGame.Assassin",
  "Name": "Skin_YellowH",
  "Class": "WillowGame.CustomizationDefinition",
  "ObjectArchetype": "WillowGame.Default__CustomizationDefinition"
}