{
  "VfTable_IIDlcLicensableObject": "",
  "CustomizationName": "Bubblegum",
  "CustomizationType": "WillowGame.CustomizationType_Skin",
  "PackageName": "CD_Runner_Skin_PinkLt",
  "CustomizationDataName": "PinkLt",
  "ProfileEntryID": 300,
  "ProfileEntryIndex": -1,
  "PrimarySort": 3,
  "SecondarySort": 0,
  "DlcCustomizationSetDef": null,
  "UsageFlags": [ "WillowGame.CustomizationUsage_Runner" ],
  "VfTableObject": "",
  "HashNext": "",
  "ObjectFlags": "",
  "HashOuterNext": "",
  "StateFrame": "",
  "Linker": null,
  "LinkerIndex": "",
  "ObjectInternalInteger": 123171,
  "NetIndex": 314,
  "Outer": "GD_AllCustoms_MainGame.Runner",
  "Name": "Skin_PinkLt",
  "Class": "WillowGame.CustomizationDefinition",
  "ObjectArchetype": "WillowGame.Default__CustomizationDefinition"
}