{
  "VfTable_IIDlcLicensableObject": "",
  "CustomizationName": "Alkaline Mistress",
  "CustomizationType": "WillowGame.CustomizationType_Head",
  "PackageName": "CD_Siren_Head_Siren004",
  "CustomizationDataName": "Siren004",
  "ProfileEntryID": 300,
  "ProfileEntryIndex": 402,
  "PrimarySort": 0,
  "SecondarySort": 0,
  "DlcCustomizationSetDef": null,
  "UsageFlags": [ "WillowGame.CustomizationUsage_Siren" ],
  "VfTableObject": "",
  "HashNext": "",
  "ObjectFlags": "",
  "HashOuterNext": "",
  "StateFrame": "",
  "Linker": null,
  "LinkerIndex": "",
  "ObjectInternalInteger": 123200,
  "NetIndex": 342,
  "Outer": "GD_AllCustoms_MainGame.Siren",
  "Name": "Head_Siren004",
  "Class": "WillowGame.CustomizationDefinition",
  "ObjectArchetype": "WillowGame.Default__CustomizationDefinition"
}