{
  "VfTable_IIDlcLicensableObject": "",
  "CustomizationName": "This Skin is Cyan",
  "CustomizationType": "WillowGame.CustomizationType_Skin",
  "PackageName": "CD_Assassin_Skin_CyanD",
  "CustomizationDataName": "CyanD",
  "ProfileEntryID": 300,
  "ProfileEntryIndex": 193,
  "PrimarySort": 6,
  "SecondarySort": 3,
  "DlcCustomizationSetDef": null,
  "UsageFlags": [ "WillowGame.CustomizationUsage_Assassin" ],
  "VfTableObject": "",
  "HashNext": "",
  "ObjectFlags": "",
  "HashOuterNext": "",
  "StateFrame": "",
  "Linker": null,
  "LinkerIndex": "",
  "ObjectInternalInteger": 122886,
  "NetIndex": 32,
  "Outer": "GD_AllCustoms_MainGame.Assassin",
  "Name": "Skin_CyanD",
  "Class": "WillowGame.CustomizationDefinition",
  "ObjectArchetype": "WillowGame.Default__CustomizationDefinition"
}