{
  "VfTable_IIDlcLicensableObject": "",
  "CustomizationName": "Amber Assassin",
  "CustomizationType": "WillowGame.CustomizationType_Skin",
  "PackageName": "CD_Assassin_Skin_OrangeE",
  "CustomizationDataName": "OrangeE",
  "ProfileEntryID": 300,
  "ProfileEntryIndex": 218,
  "PrimarySort": 5,
  "SecondarySort": 4,
  "DlcCustomizationSetDef": null,
  "UsageFlags": [ "WillowGame.CustomizationUsage_Assassin" ],
  "VfTableObject": "",
  "HashNext": "",
  "ObjectFlags": "",
  "HashOuterNext": "",
  "StateFrame": "",
  "Linker": null,
  "LinkerIndex": "",
  "ObjectInternalInteger": 122919,
  "NetIndex": 65,
  "Outer": "GD_AllCustoms_MainGame.Assassin",
  "Name": "Skin_OrangeE",
  "Class": "WillowGame.CustomizationDefinition",
  "ObjectArchetype": "WillowGame.Default__CustomizationDefinition"
}