{
  "VfTable_IIDlcLicensableObject": "",
  "CustomizationName": "Elysium Green",
  "CustomizationType": "WillowGame.CustomizationType_Skin",
  "PackageName": "CD_Runner_Skin_Green",
  "CustomizationDataName": "Green",
  "ProfileEntryID": 300,
  "ProfileEntryIndex": 69,
  "PrimarySort": 6,
  "SecondarySort": 0,
  "DlcCustomizationSetDef": null,
  "UsageFlags": [ "WillowGame.CustomizationUsage_Runner" ],
  "VfTableObject": "",
  "HashNext": "",
  "ObjectFlags": "",
  "HashOuterNext": "",
  "StateFrame": "",
  "Linker": null,
  "LinkerIndex": "",
  "ObjectInternalInteger": 123149,
  "NetIndex": 292,
  "Outer": "GD_AllCustoms_MainGame.Runner",
  "Name": "Skin_Green",
  "Class": "WillowGame.CustomizationDefinition",
  "ObjectArchetype": "WillowGame.Default__CustomizationDefinition"
}