{
  "VfTable_IIDlcLicensableObject": "",
  "CustomizationName": "Jakobs Filigree",
  "CustomizationType": "WillowGame.CustomizationType_Skin",
  "PackageName": "CD_Mercenary_Skin_JakobsC",
  "CustomizationDataName": "JakobsC",
  "ProfileEntryID": 300,
  "ProfileEntryIndex": 348,
  "PrimarySort": 15,
  "SecondarySort": 5,
  "DlcCustomizationSetDef": null,
  "UsageFlags": [ "WillowGame.CustomizationUsage_Mercenary" ],
  "VfTableObject": "",
  "HashNext": "",
  "ObjectFlags": "",
  "HashOuterNext": "",
  "StateFrame": "",
  "Linker": null,
  "LinkerIndex": "",
  "ObjectInternalInteger": 123083,
  "NetIndex": 227,
  "Outer": "GD_AllCustoms_MainGame.Mercenary",
  "Name": "Skin_JakobsC",
  "Class": "WillowGame.CustomizationDefinition",
  "ObjectArchetype": "WillowGame.Default__CustomizationDefinition"
}