{
  "VfTable_IIDlcLicensableObject": "",
  "CustomizationName": "Oxidized",
  "CustomizationType": "WillowGame.CustomizationType_Skin",
  "PackageName": "CD_Hovercraft_Skin_DirtSpl",
  "CustomizationDataName": "DirtSpl",
  "ProfileEntryID": 300,
  "ProfileEntryIndex": 560,
  "PrimarySort": 17,
  "SecondarySort": 2,
  "DlcCustomizationSetDef":
    "GD_OrchidPackageDef.Customization.CustomizationSet_Orchid",
  "UsageFlags": [ "WillowGame.CustomizationUsage_Hovercraft" ],
  "VfTableObject": "",
  "HashNext": "",
  "ObjectFlags": "",
  "HashOuterNext": "",
  "StateFrame": "",
  "Linker": null,
  "LinkerIndex": "",
  "ObjectInternalInteger": 175852,
  "NetIndex": 12,
  "Outer": "GD_AllCustoms_Orchid.Hovercraft",
  "Name": "Skin_DirtSpl",
  "Class": "WillowGame.CustomizationDefinition",
  "ObjectArchetype": "WillowGame.Default__CustomizationDefinition"
}