{
  "VfTable_IIDlcLicensableObject": "",
  "CustomizationName": "Dahl Efficiency",
  "CustomizationType": "WillowGame.CustomizationType_Skin",
  "PackageName": "CD_Mercenary_Skin_DahlB",
  "CustomizationDataName": "DahlB",
  "ProfileEntryID": 300,
  "ProfileEntryIndex": 334,
  "PrimarySort": 13,
  "SecondarySort": 1,
  "DlcCustomizationSetDef": null,
  "UsageFlags": [ "WillowGame.CustomizationUsage_Mercenary" ],
  "VfTableObject": "",
  "HashNext": "",
  "ObjectFlags": "",
  "HashOuterNext": "",
  "StateFrame": "",
  "Linker": null,
  "LinkerIndex": "",
  "ObjectInternalInteger": 123065,
  "NetIndex": 209,
  "Outer": "GD_AllCustoms_MainGame.Mercenary",
  "Name": "Skin_DahlB",
  "Class": "WillowGame.CustomizationDefinition",
  "ObjectArchetype": "WillowGame.Default__CustomizationDefinition"
}