{
  "VfTable_IIDlcLicensableObject": "",
  "CustomizationName": "Frankenzerker",
  "CustomizationType": "WillowGame.CustomizationType_Skin",
  "PackageName": "CD_Mercenary_Skin_Zombie",
  "CustomizationDataName": "Zombie",
  "ProfileEntryID": 300,
  "ProfileEntryIndex": 800,
  "PrimarySort": 25,
  "SecondarySort": 0,
  "DlcCustomizationSetDef": "GD_FlaxPackageDef.CustomizationSet_Flax",
  "UsageFlags": [ "WillowGame.CustomizationUsage_Mercenary" ],
  "VfTableObject": "",
  "HashNext": "",
  "ObjectFlags": "",
  "HashOuterNext": "",
  "StateFrame": "",
  "Linker": null,
  "LinkerIndex": "",
  "ObjectInternalInteger": 166776,
  "NetIndex": 5,
  "Outer": "GD_AllCustoms_flax.Mercenary",
  "Name": "Skin_Zombie",
  "Class": "WillowGame.CustomizationDefinition",
  "ObjectArchetype": "WillowGame.Default__CustomizationDefinition"
}