{
  "VfTable_IIDlcLicensableObject": "",
  "CustomizationName": "Steampunk Rock",
  "CustomizationType": "WillowGame.CustomizationType_Skin",
  "PackageName": "CD_Mechro_Skin_MechroHP04",
  "CustomizationDataName": "MechroHP04",
  "ProfileEntryID": 300,
  "ProfileEntryIndex": -1,
  "PrimarySort": 22,
  "SecondarySort": 0,
  "DlcCustomizationSetDef":
    "GD_Gardenia04PackageDef.Customization.CustomizationSet_Gardenia04_MechroHP04",
  "UsageFlags": [ "WillowGame.CustomizationUsage_ExtraPlayerA" ],
  "VfTableObject": "",
  "HashNext": "",
  "ObjectFlags": "",
  "HashOuterNext": "",
  "StateFrame": "",
  "Linker": null,
  "LinkerIndex": "",
  "ObjectInternalInteger": 167314,
  "NetIndex": 3,
  "Outer": "GD_AllCustoms_Gardenia04.Mechro",
  "Name": "Skin_MechroHP04",
  "Class": "WillowGame.CustomizationDefinition",
  "ObjectArchetype": "WillowGame.Default__CustomizationDefinition"
}