{
  "VfTable_IIDlcLicensableObject": "",
  "CustomizationName": "Scrap Parts",
  "CustomizationType": "WillowGame.CustomizationType_Skin",
  "PackageName": "CD_BanditTech_Skin_M_Grey",
  "CustomizationDataName": "M_Grey",
  "ProfileEntryID": 300,
  "ProfileEntryIndex": 34,
  "PrimarySort": 16,
  "SecondarySort": 0,
  "DlcCustomizationSetDef": null,
  "UsageFlags": [ "WillowGame.CustomizationUsage_BanditTech" ],
  "VfTableObject": "",
  "HashNext": "",
  "ObjectFlags": "",
  "HashOuterNext": "",
  "StateFrame": "",
  "Linker": null,
  "LinkerIndex": "",
  "ObjectInternalInteger": 122990,
  "NetIndex": 135,
  "Outer": "GD_AllCustoms_MainGame.BanditTech",
  "Name": "Skin_M_Grey",
  "Class": "WillowGame.CustomizationDefinition",
  "ObjectArchetype": "WillowGame.Default__CustomizationDefinition"
}