{
  "VfTable_IIDlcLicensableObject": "",
  "CustomizationName": "Sun Stare",
  "CustomizationType": "WillowGame.CustomizationType_Skin",
  "PackageName": "CD_Hovercraft_Skin_Yellow",
  "CustomizationDataName": "Yellow",
  "ProfileEntryID": 300,
  "ProfileEntryIndex": -1,
  "PrimarySort": 4,
  "SecondarySort": 0,
  "DlcCustomizationSetDef":
    "GD_OrchidPackageDef.Customization.CustomizationSet_Orchid",
  "UsageFlags": [ "WillowGame.CustomizationUsage_Hovercraft" ],
  "VfTableObject": "",
  "HashNext": "",
  "ObjectFlags": "",
  "HashOuterNext": "",
  "StateFrame": "",
  "Linker": null,
  "LinkerIndex": "",
  "ObjectInternalInteger": 175905,
  "NetIndex": 65,
  "Outer": "GD_AllCustoms_Orchid.Hovercraft",
  "Name": "Skin_Yellow",
  "Class": "WillowGame.CustomizationDefinition",
  "ObjectArchetype": "WillowGame.Default__CustomizationDefinition"
}