{
  "VfTable_IIDlcLicensableObject": "",
  "CustomizationName": "Minecraft",
  "CustomizationType": "WillowGame.CustomizationType_Skin",
  "PackageName": "CD_Assassin_Skin_Minecraft",
  "CustomizationDataName": "Minecraft",
  "ProfileEntryID": 300,
  "ProfileEntryIndex": 247,
  "PrimarySort": 20,
  "SecondarySort": 1,
  "DlcCustomizationSetDef": null,
  "UsageFlags": [ "WillowGame.CustomizationUsage_Assassin" ],
  "VfTableObject": "",
  "HashNext": "",
  "ObjectFlags": "",
  "HashOuterNext": "",
  "StateFrame": "",
  "Linker": null,
  "LinkerIndex": "",
  "ObjectInternalInteger": 122914,
  "NetIndex": 60,
  "Outer": "GD_AllCustoms_MainGame.Assassin",
  "Name": "Skin_Minecraft",
  "Class": "WillowGame.CustomizationDefinition",
  "ObjectArchetype": "WillowGame.Default__CustomizationDefinition"
}