{
  "VfTable_IIDlcLicensableObject": "",
  "CustomizationName": "The Nature of Fear",
  "CustomizationType": "WillowGame.CustomizationType_Skin",
  "PackageName": "CD_Assassin_Skin_AsZany",
  "CustomizationDataName": "AsZany",
  "ProfileEntryID": 300,
  "ProfileEntryIndex": -1,
  "PrimarySort": 21,
  "SecondarySort": 1,
  "DlcCustomizationSetDef":
    "GD_Gardenia01PackageDef.Customization.CustomizationSet_Gardenia01_AssassinZany",
  "UsageFlags": [ "WillowGame.CustomizationUsage_Assassin" ],
  "VfTableObject": "",
  "HashNext": "",
  "ObjectFlags": "",
  "HashOuterNext": "",
  "StateFrame": "",
  "Linker": null,
  "LinkerIndex": "",
  "ObjectInternalInteger": 167253,
  "NetIndex": 5,
  "Outer": "GD_AllCustoms_Gardenia01.Assassin",
  "Name": "Skin_AsZany",
  "Class": "WillowGame.CustomizationDefinition",
  "ObjectArchetype": "WillowGame.Default__CustomizationDefinition"
}