{
  "VfTable_IIDlcLicensableObject": "",
  "CustomizationName": "HAHAHAHAHAH",
  "CustomizationType": "WillowGame.CustomizationType_Head",
  "PackageName": "CD_Psycho_Head_Psycho008",
  "CustomizationDataName": "Psycho008",
  "ProfileEntryID": 300,
  "ProfileEntryIndex": 729,
  "PrimarySort": 7,
  "SecondarySort": 0,
  "DlcCustomizationSetDef": "GD_LilacPackageDef.CustomizationSet_Lilac",
  "UsageFlags": [ "WillowGame.CustomizationUsage_ExtraPlayerB" ],
  "VfTableObject": "",
  "HashNext": "",
  "ObjectFlags": "",
  "HashOuterNext": "",
  "StateFrame": "",
  "Linker": null,
  "LinkerIndex": "",
  "ObjectInternalInteger": 171783,
  "NetIndex": 7,
  "Outer": "GD_AllCustoms_Lilac.Psycho",
  "Name": "Head_Psycho008",
  "Class": "WillowGame.CustomizationDefinition",
  "ObjectArchetype": "WillowGame.Default__CustomizationDefinition"
}