{
  "VfTable_IIDlcLicensableObject": "",
  "CustomizationName": "Plasma Blue",
  "CustomizationType": "WillowGame.CustomizationType_Skin",
  "PackageName": "CD_Runner_Skin_Blue",
  "CustomizationDataName": "Blue",
  "ProfileEntryID": 300,
  "ProfileEntryIndex": -1,
  "PrimarySort": 8,
  "SecondarySort": 0,
  "DlcCustomizationSetDef": null,
  "UsageFlags": [ "WillowGame.CustomizationUsage_Runner" ],
  "VfTableObject": "",
  "HashNext": "",
  "ObjectFlags": "",
  "HashOuterNext": "",
  "StateFrame": "",
  "Linker": null,
  "LinkerIndex": "",
  "ObjectInternalInteger": 123132,
  "NetIndex": 275,
  "Outer": "GD_AllCustoms_MainGame.Runner",
  "Name": "Skin_Blue",
  "Class": "WillowGame.CustomizationDefinition",
  "ObjectArchetype": "WillowGame.Default__CustomizationDefinition"
}