{
  "VfTable_IIDlcLicensableObject": "",
  "CustomizationName": "Sandblaster",
  "CustomizationType": "WillowGame.CustomizationType_Head",
  "PackageName": "CD_Soldier_Head_Soldier040",
  "CustomizationDataName": "Soldier040",
  "ProfileEntryID": 300,
  "ProfileEntryIndex": 397,
  "PrimarySort": 11,
  "SecondarySort": 0,
  "DlcCustomizationSetDef": null,
  "UsageFlags": [ "WillowGame.CustomizationUsage_Soldier" ],
  "VfTableObject": "",
  "HashNext": "",
  "ObjectFlags": "",
  "HashOuterNext": "",
  "StateFrame": "",
  "Linker": null,
  "LinkerIndex": "",
  "ObjectInternalInteger": 123316,
  "NetIndex": 457,
  "Outer": "GD_AllCustoms_MainGame.Soldier",
  "Name": "Head_Soldier040",
  "Class": "WillowGame.CustomizationDefinition",
  "ObjectArchetype": "WillowGame.Default__CustomizationDefinition"
}