{
  "VfTable_IIDlcLicensableObject": "",
  "CustomizationName": "Gecko",
  "CustomizationType": "WillowGame.CustomizationType_Skin",
  "PackageName": "CD_Siren_Skin_GreenD",
  "CustomizationDataName": "GreenD",
  "ProfileEntryID": 300,
  "ProfileEntryIndex": 134,
  "PrimarySort": 2,
  "SecondarySort": 3,
  "DlcCustomizationSetDef": null,
  "UsageFlags": [ "WillowGame.CustomizationUsage_Siren" ],
  "VfTableObject": "",
  "HashNext": "",
  "ObjectFlags": "",
  "HashOuterNext": "",
  "StateFrame": "",
  "Linker": null,
  "LinkerIndex": "",
  "ObjectInternalInteger": 123246,
  "NetIndex": 388,
  "Outer": "GD_AllCustoms_MainGame.Siren",
  "Name": "Skin_GreenD",
  "Class": "WillowGame.CustomizationDefinition",
  "ObjectArchetype": "WillowGame.Default__CustomizationDefinition"
}