{
  "VfTable_IIDlcLicensableObject": "",
  "CustomizationName": "Slate",
  "CustomizationType": "WillowGame.CustomizationType_Skin",
  "PackageName": "CD_BanditTech_Skin_GreyLt",
  "CustomizationDataName": "GreyLt",
  "ProfileEntryID": 300,
  "ProfileEntryIndex": 1,
  "PrimarySort": 1,
  "SecondarySort": 1,
  "DlcCustomizationSetDef": null,
  "UsageFlags": [ "WillowGame.CustomizationUsage_BanditTech" ],
  "VfTableObject": "",
  "HashNext": "",
  "ObjectFlags": "",
  "HashOuterNext": "",
  "StateFrame": "",
  "Linker": null,
  "LinkerIndex": "",
  "ObjectInternalInteger": 122982,
  "NetIndex": 127,
  "Outer": "GD_AllCustoms_MainGame.BanditTech",
  "Name": "Skin_GreyLt",
  "Class": "WillowGame.CustomizationDefinition",
  "ObjectArchetype": "WillowGame.Default__CustomizationDefinition"
}