{
  "VfTable_IIDlcLicensableObject": "",
  "CustomizationName": "Hyperion Hornet",
  "CustomizationType": "WillowGame.CustomizationType_Skin",
  "PackageName": "CD_Soldier_Skin_HyperionC",
  "CustomizationDataName": "HyperionC",
  "ProfileEntryID": 300,
  "ProfileEntryIndex": 276,
  "PrimarySort": 14,
  "SecondarySort": 2,
  "DlcCustomizationSetDef": null,
  "UsageFlags": [ "WillowGame.CustomizationUsage_Soldier" ],
  "VfTableObject": "",
  "HashNext": "",
  "ObjectFlags": "",
  "HashOuterNext": "",
  "StateFrame": "",
  "Linker": null,
  "LinkerIndex": "",
  "ObjectInternalInteger": 123357,
  "NetIndex": 498,
  "Outer": "GD_AllCustoms_MainGame.Soldier",
  "Name": "Skin_HyperionC",
  "Class": "WillowGame.CustomizationDefinition",
  "ObjectArchetype": "WillowGame.Default__CustomizationDefinition"
}