{
  "VfTable_IIDlcLicensableObject": "",
  "CustomizationName": "Maya",
  "CustomizationType": "WillowGame.CustomizationType_Head",
  "PackageName": "CD_Siren_Head_Default",
  "CustomizationDataName": "Default",
  "ProfileEntryID": 300,
  "ProfileEntryIndex": -1,
  "PrimarySort": 0,
  "SecondarySort": 0,
  "DlcCustomizationSetDef": null,
  "UsageFlags": [ "WillowGame.CustomizationUsage_Siren" ],
  "VfTableObject": "",
  "HashNext": "",
  "ObjectFlags": "",
  "HashOuterNext": "",
  "StateFrame": "",
  "Linker": null,
  "LinkerIndex": "",
  "ObjectInternalInteger": 123419,
  "NetIndex": 6,
  "Outer": "GD_DefaultCustoms_MainGame.Siren",
  "Name": "Head_Default",
  "Class": "WillowGame.CustomizationDefinition",
  "ObjectArchetype": "WillowGame.Default__CustomizationDefinition"
}