{
  "Definition": "D_Resourcepools.PlayerPools.HealthPool",
  "PoolGUID": 11,
  "MinValue": 0.0,
  "MinValueBaseValue": 0.0,
  "MaxValue": 546480.9375,
  "MaxValueBaseValue": 530564.0,
  "CurrentValue": 546480.9375,
  "ConsumptionRate": 0.0,
  "ConsumptionRateBaseValue": 0.0,
  "ActiveRegenerationRate": 0.0,
  "ActiveRegenerationRateBaseValue": 0.0,
  "OnIdleRegenerationRate": 0.0,
  "OnIdleRegenerationRateBaseValue": 0.0,
  "OnIdleRegenerationDelay": 0.5,
  "OnIdleRegenerationDelayBaseValue": 0.5,
  "PassiveRegenerationRate": 0.0,
  "PassiveRegenerationRateBaseValue": 0.0,
  "LastMinValue": 0.0,
  "LastMaxValue": 546480.9375,
  "LastCurrentValue": 546480.9375,
  "PoolIdleDelayStartTime": 0.4,
  "RateRemainder": 0.0,
  "RecentImpulseCount": 0,
  "RegenerationDisabled": 0,
  "RegenerationDisabledBaseValue": 0,
  "ResetRecentImpulseCountTime": 0.0,
  "bIsAuthoritative": true,
  "bIsBeingInitialized": false,
  "bHasPoolBeenFullSinceLastBeingDepleted": true,
  "bDisallowReinitialization": false,
  "bHideHUDDisplay": false,
  "bCreatedAndNotModified": false,
  "WasRegenerating": false,
  "AssociatedProvider":
    "Loader.TheWorld:PersistentLevel.WillowPlayerController_43",
  "HUDMaterialInstance": null,
  "RegenerationPool": null,
  "IsRegenerating": 0,
  "MaxValueModifierStack": [
    "Loader.TheWorld:PersistentLevel.SkillEffectManager_43.Skill_798.AttributeModifier_65129"
  ],
  "VfTableObject": "",
  "HashNext": "",
  "ObjectFlags": "",
  "HashOuterNext": "",
  "StateFrame": "",
  "Linker": null,
  "LinkerIndex": "",
  "ObjectInternalInteger": 233879,
  "NetIndex": -1,
  "Outer": "Loader.TheWorld:PersistentLevel.ResourcePoolManager_209",
  "Name": "HealthResourcePool_112",
  "Class": "Engine.HealthResourcePool",
  "ObjectArchetype": "Engine.Default__HealthResourcePool"
}