{
  "Definition": "GD_Balance_HealthAndDamage.ResourcePools.Pool_Health",
  "PoolGUID": 0,
  "MinValue": 0.0,
  "MinValueBaseValue": 0.0,
  "MaxValue": 87.309448,
  "MaxValueBaseValue": 87.309448,
  "CurrentValue": 87.309448,
  "ConsumptionRate": 0.0,
  "ConsumptionRateBaseValue": 0.0,
  "ActiveRegenerationRate": 0.0,
  "ActiveRegenerationRateBaseValue": 0.0,
  "OnIdleRegenerationRate": 0.0,
  "OnIdleRegenerationRateBaseValue": 0.0,
  "OnIdleRegenerationDelay": 45.0,
  "OnIdleRegenerationDelayBaseValue": 45.0,
  "PassiveRegenerationRate": 0.0,
  "PassiveRegenerationRateBaseValue": 0.0,
  "LastMinValue": 0.0,
  "LastMaxValue": 87.309448,
  "LastCurrentValue": 87.309448,
  "PoolIdleDelayStartTime": 4.6429,
  "RateRemainder": 0.0,
  "RecentImpulseCount": 0,
  "RegenerationDisabled": 0,
  "RegenerationDisabledBaseValue": 0,
  "ResetRecentImpulseCountTime": 0.0,
  "bIsAuthoritative": true,
  "bIsBeingInitialized": false,
  "bHasPoolBeenFullSinceLastBeingDepleted": true,
  "bDisallowReinitialization": false,
  "bHideHUDDisplay": false,
  "bCreatedAndNotModified": false,
  "WasRegenerating": false,
  "AssociatedProvider":
    "Sage_Cliffs_P.TheWorld:PersistentLevel.WillowMind_30",
  "HUDMaterialInstance": null,
  "RegenerationPool": null,
  "IsRegenerating": 0,
  "VfTableObject": "",
  "HashNext": "",
  "ObjectFlags": "",
  "HashOuterNext": "",
  "StateFrame": "",
  "Linker": null,
  "LinkerIndex": "",
  "ObjectInternalInteger": 232682,
  "NetIndex": -1,
  "Outer": "Sage_Cliffs_P.TheWorld:PersistentLevel.ResourcePoolManager_50",
  "Name": "HealthResourcePool_26",
  "Class": "Engine.HealthResourcePool",
  "ObjectArchetype": "Engine.Default__HealthResourcePool"
}