{
  "VfTable_IIBehaviorProvider": "",
  "VfTable_IIConstructObject": "",
  "HitRegionName": "R_FootCrystal",
  "OverrideDOTSocket": null,
  "bCriticalHit": true,
  "bAllowRadiusDamage": true,
  "bUseIndependentHealth": false,
  "bShowDamageNumbers": false,
  "bScaleHealthWithAttribute": false,
  "bAllowRejuvenationFromHeals": false,
  "bOnlyReflectToAttacker": false,
  "bReflectProjectiles": false,
  "bRicochetIfReflectionChanceFails": false,
  "bTrackDamage": true,
  "bMigratedUseOwnerHealth": true,
  "bWasUseOwnerHealthOne": false,
  "bPlayImpactWithNoDamage": true,
  "OwnerHealthPercent": 1.0,
  "PercentOfMaxHealthLimit": 0.34,
  "BulletReflectionOffSelfChance": {
    "BaseValueConstant": 1.0,
    "BaseValueAttribute": null,
    "InitializationDefinition": null,
    "BaseValueScaleConstant": 1.0
  },
  "BulletReflectedOffSelfDamageScale": {
    "BaseValueConstant": 0.5,
    "BaseValueAttribute": null,
    "InitializationDefinition": null,
    "BaseValueScaleConstant": 1.0
  },
  "BulletReflectedOffSelfDamageTakenScale": {
    "BaseValueConstant": 1.0,
    "BaseValueAttribute": null,
    "InitializationDefinition": null,
    "BaseValueScaleConstant": 1.0
  },
  "ReflectionAccuracyModifier": {
    "BaseValueConstant": 150.0,
    "BaseValueAttribute": null,
    "InitializationDefinition": null,
    "BaseValueScaleConstant": 1.0
  },
  "RicochetAccuracyModifier": {
    "BaseValueConstant": 45.0,
    "BaseValueAttribute": null,
    "InitializationDefinition": null,
    "BaseValueScaleConstant": 1.0
  },
  "PhysicalMaterial":
    "GD_PhysicalMaterial_Creatures.PhysMats.Crystalisk.PhysMat_Crystalisk",
  "DefaultImpactResponse": {
    "bCensorThisEffect": false,
    "CensoredEffectAlternative": null,
    "DamageModifierPercent": 1.0,
    "ImpactEvent": null,
    "AINoiseLevel": 0.0,
    "ParticleTemplate": null,
    "bAttachParticleToHitActor": false,
    "bHideEffectFromHitActor": false,
    "MaxEffectDistance": 0.0,
    "DecalMaterials": null,
    "DecalWidth": 16.0,
    "DecalHeight": 16.0,
    "DecalMinScale": 1.0,
    "DecalMaxScale": 1.0,
    "DecalDepth": 10.0,
    "DecalRandomRotation": false,
    "DecalCreateNewMaterialInstanceConstant": false,
    "ImpactFlashLightClass": null,
    "EffectParameters": {
      "ParticleParameters": null,
      "FontParameterValues": null,
      "ScalarParameterValues": null,
      "TextureParameterValues": null,
      "VectorParameterValues": null,
      "RtpcParameterValues": null,
      "bNoSound": false
    }
  },
  "DefaultDamageSurfaceType": "DMGSURFACE_Generic",
  "BloodImpact": null,
  "BloodSplatterMinDistance": 0.0,
  "BloodSplatterMaxDistance": 0.0,
  "BloodSplatterDirectionRandomness": 0.0,
  "ParticleSystemTemplate": null,
  "StatusEffectResistanceOverride": null,
  "StatusEffectBaseChanceOverride": {
    "BaseValueConstant": 1.0,
    "BaseValueAttribute": null,
    "InitializationDefinition": null,
    "BaseValueScaleConstant": 1.0
  },
  "StatusEffectDamageModifierOverride": {
    "BaseValueConstant": 1.0,
    "BaseValueAttribute": null,
    "InitializationDefinition": null,
    "BaseValueScaleConstant": 1.0
  },
  "OverrideDeathDef": null,
  "BehaviorProviderDefinition":
    "GD_CrystaliskShared.HitRegions.HitRegion_R_FootCrystal:BehaviorProviderDefinition_0",
  "DamageTriggeredReactions": [
    {
      "DamageTriggers": null,
      "PercentOfHealthTrigger": 1.0,
      "DamageSpecialMove": null,
      "ReactionBehaviors": null,
      "bDamageThreshold": true,
      "bRepeatableEvent": false,
      "bCensored": false,
      "bOnlyTriggeredOnOwnerDeath": false,
      "EventName": "RemoveCrystal"
    }
  ],
  "VfTableObject": "",
  "HashNext": "",
  "ObjectFlags": "",
  "HashOuterNext": "",
  "StateFrame": "",
  "Linker": null,
  "LinkerIndex": "",
  "ObjectInternalInteger": 237328,
  "NetIndex": 355,
  "Outer": "GD_CrystaliskShared.HitRegions",
  "Name": "HitRegion_R_FootCrystal",
  "Class": "WillowGame.BodyHitRegionDefinition",
  "ObjectArchetype": "WillowGame.Default__BodyHitRegionDefinition"
}