{
  "VfTable_IIBehaviorProvider": "",
  "VfTable_IIConstructObject": "",
  "HitRegionName": "crit spot",
  "OverrideDOTSocket": null,
  "bCriticalHit": true,
  "bAllowRadiusDamage": false,
  "bUseIndependentHealth": true,
  "bShowDamageNumbers": true,
  "bScaleHealthWithAttribute": false,
  "bAllowRejuvenationFromHeals": false,
  "bOnlyReflectToAttacker": false,
  "bReflectProjectiles": false,
  "bRicochetIfReflectionChanceFails": false,
  "bTrackDamage": true,
  "bMigratedUseOwnerHealth": true,
  "bWasUseOwnerHealthOne": true,
  "bPlayImpactWithNoDamage": true,
  "OwnerHealthPercent": 0.003,
  "PercentOfMaxHealthLimit": 0.0,
  "BulletReflectionOffSelfChance": {
    "BaseValueConstant": 0.0,
    "BaseValueAttribute": null,
    "InitializationDefinition": null,
    "BaseValueScaleConstant": 1.0
  },
  "BulletReflectedOffSelfDamageScale": {
    "BaseValueConstant": 1.0,
    "BaseValueAttribute": null,
    "InitializationDefinition": null,
    "BaseValueScaleConstant": 1.0
  },
  "BulletReflectedOffSelfDamageTakenScale": {
    "BaseValueConstant": 1.0,
    "BaseValueAttribute": null,
    "InitializationDefinition": null,
    "BaseValueScaleConstant": 1.0
  },
  "ReflectionAccuracyModifier": {
    "BaseValueConstant": 0.0,
    "BaseValueAttribute": null,
    "InitializationDefinition": null,
    "BaseValueScaleConstant": 1.0
  },
  "RicochetAccuracyModifier": {
    "BaseValueConstant": 45.0,
    "BaseValueAttribute": null,
    "InitializationDefinition": null,
    "BaseValueScaleConstant": 1.0
  },
  "PhysicalMaterial": "GD_DrifterShared.PhysMats.PhysMat_DrifterCrit",
  "DefaultImpactResponse": {
    "bCensorThisEffect": false,
    "CensoredEffectAlternative": null,
    "DamageModifierPercent": 1.0,
    "ImpactEvent": null,
    "AINoiseLevel": 0.0,
    "ParticleTemplate": null,
    "bAttachParticleToHitActor": false,
    "bHideEffectFromHitActor": false,
    "MaxEffectDistance": 0.0,
    "DecalMaterials": null,
    "DecalWidth": 16.0,
    "DecalHeight": 16.0,
    "DecalMinScale": 10.0,
    "DecalMaxScale": 10.0,
    "DecalDepth": 10.0,
    "DecalRandomRotation": true,
    "DecalCreateNewMaterialInstanceConstant": false,
    "ImpactFlashLightClass": null,
    "EffectParameters": {
      "ParticleParameters": null,
      "FontParameterValues": null,
      "ScalarParameterValues": null,
      "TextureParameterValues": null,
      "VectorParameterValues": null,
      "RtpcParameterValues": null,
      "bNoSound": false
    }
  },
  "DefaultDamageSurfaceType": "DMGSURFACE_Flesh",
  "BloodImpact": null,
  "BloodSplatterMinDistance": 300.0,
  "BloodSplatterMaxDistance": 750.0,
  "BloodSplatterDirectionRandomness": 0.1,
  "ParticleSystemTemplate":
    "FX_CHAR_Damage_Matrix.Particles.Part_Character_DamageType_Matrix",
  "StatusEffectResistanceOverride": null,
  "StatusEffectBaseChanceOverride": {
    "BaseValueConstant": 1.0,
    "BaseValueAttribute": null,
    "InitializationDefinition": null,
    "BaseValueScaleConstant": 1.0
  },
  "StatusEffectDamageModifierOverride": {
    "BaseValueConstant": 1.0,
    "BaseValueAttribute": null,
    "InitializationDefinition": null,
    "BaseValueScaleConstant": 1.0
  },
  "OverrideDeathDef": null,
  "BehaviorProviderDefinition":
    "GD_DrifterShared.HitRegions.HitRegion_CriticalSpotC:BehaviorProviderDefinition_1",
  "RegionBoneNames": [ "Left_Sac_Base" ],
  "VfTableObject": "",
  "HashNext": "",
  "ObjectFlags": "",
  "HashOuterNext": "",
  "StateFrame": "",
  "Linker": null,
  "LinkerIndex": "",
  "ObjectInternalInteger": 208151,
  "NetIndex": 472,
  "Outer": "GD_DrifterShared.HitRegions",
  "Name": "HitRegion_CriticalSpotC",
  "Class": "WillowGame.BodyHitRegionDefinition",
  "ObjectArchetype": "WillowGame.Default__BodyHitRegionDefinition"
}