{
  "VfTable_IIBehaviorProvider": "",
  "VfTable_IIConstructObject": "",
  "HitRegionName": "Region1",
  "OverrideDOTSocket": null,
  "bCriticalHit": false,
  "bAllowRadiusDamage": false,
  "bUseIndependentHealth": false,
  "bShowDamageNumbers": false,
  "bScaleHealthWithAttribute": false,
  "bAllowRejuvenationFromHeals": false,
  "bOnlyReflectToAttacker": false,
  "bReflectProjectiles": false,
  "bRicochetIfReflectionChanceFails": false,
  "bTrackDamage": true,
  "bMigratedUseOwnerHealth": true,
  "bWasUseOwnerHealthOne": false,
  "bPlayImpactWithNoDamage": false,
  "OwnerHealthPercent": 0.0,
  "PercentOfMaxHealthLimit": 0.0,
  "BulletReflectionOffSelfChance": {
    "BaseValueConstant": 0.0,
    "BaseValueAttribute": null,
    "InitializationDefinition": null,
    "BaseValueScaleConstant": 1.0
  },
  "BulletReflectedOffSelfDamageScale": {
    "BaseValueConstant": 1.0,
    "BaseValueAttribute": null,
    "InitializationDefinition": null,
    "BaseValueScaleConstant": 1.0
  },
  "BulletReflectedOffSelfDamageTakenScale": {
    "BaseValueConstant": 1.0,
    "BaseValueAttribute": null,
    "InitializationDefinition": null,
    "BaseValueScaleConstant": 1.0
  },
  "ReflectionAccuracyModifier": {
    "BaseValueConstant": 0.0,
    "BaseValueAttribute": null,
    "InitializationDefinition": null,
    "BaseValueScaleConstant": 1.0
  },
  "RicochetAccuracyModifier": {
    "BaseValueConstant": 45.0,
    "BaseValueAttribute": null,
    "InitializationDefinition": null,
    "BaseValueScaleConstant": 1.0
  },
  "PhysicalMaterial": null,
  "DefaultImpactResponse": {
    "bCensorThisEffect": false,
    "CensoredEffectAlternative": null,
    "DamageModifierPercent": 1.0,
    "ImpactEvent": null,
    "AINoiseLevel": 0.0,
    "ParticleTemplate": null,
    "bAttachParticleToHitActor": false,
    "bHideEffectFromHitActor": false,
    "MaxEffectDistance": 0.0,
    "DecalMaterials": null,
    "DecalWidth": 16.0,
    "DecalHeight": 16.0,
    "DecalMinScale": 1.0,
    "DecalMaxScale": 1.0,
    "DecalDepth": 10.0,
    "DecalRandomRotation": false,
    "DecalCreateNewMaterialInstanceConstant": false,
    "ImpactFlashLightClass": null,
    "EffectParameters": {
      "ParticleParameters": null,
      "FontParameterValues": null,
      "ScalarParameterValues": null,
      "TextureParameterValues": null,
      "VectorParameterValues": null,
      "RtpcParameterValues": null,
      "bNoSound": false
    }
  },
  "DefaultDamageSurfaceType": "DMGSURFACE_Armor",
  "BloodImpact": null,
  "BloodSplatterMinDistance": 300.0,
  "BloodSplatterMaxDistance": 750.0,
  "BloodSplatterDirectionRandomness": 0.1,
  "ParticleSystemTemplate": null,
  "StatusEffectResistanceOverride": null,
  "StatusEffectBaseChanceOverride": {
    "BaseValueConstant": 1.0,
    "BaseValueAttribute": null,
    "InitializationDefinition": null,
    "BaseValueScaleConstant": 1.0
  },
  "StatusEffectDamageModifierOverride": {
    "BaseValueConstant": 1.0,
    "BaseValueAttribute": null,
    "InitializationDefinition": null,
    "BaseValueScaleConstant": 1.0
  },
  "OverrideDeathDef": null,
  "BehaviorProviderDefinition":
    "GD_Episode09Data.BeaconHitRegion:BehaviorProviderDefinition_0",
  "DamageTriggeredReactions": [
    {
      "DamageTriggers": [
        {
          "DamageTypeTrigger": null,
          "DamageSourceTrigger": null,
          "HealthPctDamageThreshold": 0.0
        }
      ],
      "PercentOfHealthTrigger": 1.0,
      "DamageSpecialMove": null,
      "ReactionBehaviors": null,
      "bDamageThreshold": true,
      "bRepeatableEvent": true,
      "bCensored": false,
      "bOnlyTriggeredOnOwnerDeath": false,
      "EventName": "Test1"
    }
  ],
  "RegionBoneNames": [
    "R_Arm", "L_Arm", "B_Arm", "F_Arm", "L_Foot", "B_Foot", "R_Foot",
    "Box 0", "Box 1", "F_Foot", "BL_Ant", "BR_Ant", "FR_Ant", "FL_Ant",
    "Base"
  ],
  "VfTableObject": "",
  "HashNext": "",
  "ObjectFlags": "",
  "HashOuterNext": "",
  "StateFrame": "",
  "Linker": null,
  "LinkerIndex": "",
  "ObjectInternalInteger": 200437,
  "NetIndex": 580,
  "Outer": "Package'GD_Episode09Data'",
  "Name": "BeaconHitRegion",
  "Class": "WillowGame.BodyHitRegionDefinition",
  "ObjectArchetype": "WillowGame.Default__BodyHitRegionDefinition"
}