{
  "VfTable_IIBehaviorProvider": "",
  "VfTable_IIConstructObject": "",
  "HitRegionName": "BanditBody",
  "OverrideDOTSocket": null,
  "bCriticalHit": false,
  "bAllowRadiusDamage": false,
  "bUseIndependentHealth": false,
  "bShowDamageNumbers": false,
  "bScaleHealthWithAttribute": false,
  "bAllowRejuvenationFromHeals": false,
  "bOnlyReflectToAttacker": false,
  "bReflectProjectiles": false,
  "bRicochetIfReflectionChanceFails": false,
  "bTrackDamage": true,
  "bMigratedUseOwnerHealth": true,
  "bWasUseOwnerHealthOne": true,
  "bPlayImpactWithNoDamage": true,
  "OwnerHealthPercent": 0.0,
  "PercentOfMaxHealthLimit": 0.0,
  "BulletReflectionOffSelfChance": {
    "BaseValueConstant": 0.0,
    "BaseValueAttribute": null,
    "InitializationDefinition": null,
    "BaseValueScaleConstant": 1.0
  },
  "BulletReflectedOffSelfDamageScale": {
    "BaseValueConstant": 1.0,
    "BaseValueAttribute": null,
    "InitializationDefinition": null,
    "BaseValueScaleConstant": 1.0
  },
  "BulletReflectedOffSelfDamageTakenScale": {
    "BaseValueConstant": 1.0,
    "BaseValueAttribute": null,
    "InitializationDefinition": null,
    "BaseValueScaleConstant": 1.0
  },
  "ReflectionAccuracyModifier": {
    "BaseValueConstant": 0.0,
    "BaseValueAttribute": null,
    "InitializationDefinition": null,
    "BaseValueScaleConstant": 1.0
  },
  "RicochetAccuracyModifier": {
    "BaseValueConstant": 45.0,
    "BaseValueAttribute": null,
    "InitializationDefinition": null,
    "BaseValueScaleConstant": 1.0
  },
  "PhysicalMaterial": "GD_Jeffrey.PhysMats.PhysMat_Jeffery_NormalHit",
  "DefaultImpactResponse": {
    "bCensorThisEffect": false,
    "CensoredEffectAlternative": null,
    "DamageModifierPercent": 1.0,
    "ImpactEvent": null,
    "AINoiseLevel": 0.0,
    "ParticleTemplate": null,
    "bAttachParticleToHitActor": false,
    "bHideEffectFromHitActor": false,
    "MaxEffectDistance": 0.0,
    "DecalMaterials": null,
    "DecalWidth": 16.0,
    "DecalHeight": 16.0,
    "DecalMinScale": 1.0,
    "DecalMaxScale": 1.0,
    "DecalDepth": 10.0,
    "DecalRandomRotation": false,
    "DecalCreateNewMaterialInstanceConstant": false,
    "ImpactFlashLightClass": null,
    "EffectParameters": {
      "ParticleParameters": null,
      "FontParameterValues": null,
      "ScalarParameterValues": null,
      "TextureParameterValues": null,
      "VectorParameterValues": null,
      "RtpcParameterValues": null,
      "bNoSound": false
    }
  },
  "DefaultDamageSurfaceType": "DMGSURFACE_Flesh",
  "BloodImpact": "GD_Impacts.Splatters.Splatter_Blood",
  "BloodSplatterMinDistance": 300.0,
  "BloodSplatterMaxDistance": 750.0,
  "BloodSplatterDirectionRandomness": 0.1,
  "ParticleSystemTemplate":
    "FX_CHAR_Damage_Matrix.Particles.Part_Character_DamageType_Matrix",
  "StatusEffectResistanceOverride": null,
  "StatusEffectBaseChanceOverride": {
    "BaseValueConstant": 1.0,
    "BaseValueAttribute": null,
    "InitializationDefinition": null,
    "BaseValueScaleConstant": 1.0
  },
  "StatusEffectDamageModifierOverride": {
    "BaseValueConstant": 1.0,
    "BaseValueAttribute": null,
    "InitializationDefinition": null,
    "BaseValueScaleConstant": 1.0
  },
  "OverrideDeathDef": null,
  "BehaviorProviderDefinition": null,
  "StatusEffectSockets": [ "Dam_Body" ],
  "DamageTriggeredReactions": [
    {
      "DamageTriggers": [
        {
          "DamageTypeTrigger":
            "GD_Explosive.DamageType.DmgType_Explosive_Impact",
          "DamageSourceTrigger": null,
          "HealthPctDamageThreshold": 0.7
        },
        {
          "DamageTypeTrigger":
            "GD_Explosive.DamageType.DmgType_Explosive_Impact",
          "DamageSourceTrigger": null,
          "HealthPctDamageThreshold": 0.7
        },
        {
          "DamageTypeTrigger": null,
          "DamageSourceTrigger": null,
          "HealthPctDamageThreshold": 1.75
        }
      ],
      "PercentOfHealthTrigger": 1.0,
      "DamageSpecialMove": null,
      "ReactionBehaviors": null,
      "bDamageThreshold": true,
      "bRepeatableEvent": false,
      "bCensored": true,
      "bOnlyTriggeredOnOwnerDeath": false,
      "EventName": null
    },
    {
      "DamageTriggers": [
        {
          "DamageTypeTrigger": "GD_Shock.DamageType.DmgType_Shock_Status",
          "DamageSourceTrigger": null,
          "HealthPctDamageThreshold": 0.0
        },
        {
          "DamageTypeTrigger": "GD_Shock.DamageType.DmgType_Shock_Impact",
          "DamageSourceTrigger": null,
          "HealthPctDamageThreshold": 0.0
        }
      ],
      "PercentOfHealthTrigger": 1.0,
      "DamageSpecialMove": null,
      "ReactionBehaviors": null,
      "bDamageThreshold": true,
      "bRepeatableEvent": false,
      "bCensored": true,
      "bOnlyTriggeredOnOwnerDeath": false,
      "EventName": null
    },
    {
      "DamageTriggers": [
        {
          "DamageTypeTrigger":
            "GD_Corrosive.DamageType.DmgType_Corrosive_Impact",
          "DamageSourceTrigger": null,
          "HealthPctDamageThreshold": 0.0
        },
        {
          "DamageTypeTrigger":
            "GD_Corrosive.DamageType.DmgType_Corrosive_Status",
          "DamageSourceTrigger": null,
          "HealthPctDamageThreshold": 0.0
        }
      ],
      "PercentOfHealthTrigger": 1.0,
      "DamageSpecialMove": null,
      "ReactionBehaviors": null,
      "bDamageThreshold": true,
      "bRepeatableEvent": false,
      "bCensored": true,
      "bOnlyTriggeredOnOwnerDeath": false,
      "EventName": null
    },
    {
      "DamageTriggers": [
        {
          "DamageTypeTrigger":
            "GD_Incendiary.DamageType.DmgType_Incendiary_Impact",
          "DamageSourceTrigger": null,
          "HealthPctDamageThreshold": 0.0
        },
        {
          "DamageTypeTrigger":
            "GD_Incendiary.DamageType.DmgType_Incendiary_Status",
          "DamageSourceTrigger": null,
          "HealthPctDamageThreshold": 0.0
        }
      ],
      "PercentOfHealthTrigger": 1.0,
      "DamageSpecialMove": null,
      "ReactionBehaviors": null,
      "bDamageThreshold": true,
      "bRepeatableEvent": false,
      "bCensored": true,
      "bOnlyTriggeredOnOwnerDeath": false,
      "EventName": null
    },
    {
      "DamageTriggers": null,
      "PercentOfHealthTrigger": 0.01,
      "DamageSpecialMove": null,
      "ReactionBehaviors": null,
      "bDamageThreshold": true,
      "bRepeatableEvent": true,
      "bCensored": true,
      "bOnlyTriggeredOnOwnerDeath": false,
      "EventName": "BodyHit"
    }
  ],
  "AdjacentHitRegions": [
    "GD_Shootyface.HitRegions.HitRegion_ArmLeft",
    "GD_Shootyface.HitRegions.HitRegion_ArmRight",
    "GD_Shootyface.HitRegions.HitRegion_Head",
    "GD_Shootyface.HitRegions.HitRegion_LegLeft",
    "GD_Shootyface.HitRegions.HitRegion_LegRight"
  ],
  "RegionBoneNames": [
    "Neck", "L_Clav", "R_Clav", "Spine3", "Spine2", "Spine1"
  ],
  "VfTableObject": "",
  "HashNext": "",
  "ObjectFlags": "",
  "HashOuterNext": "",
  "StateFrame": "",
  "Linker": null,
  "LinkerIndex": "",
  "ObjectInternalInteger": 213946,
  "NetIndex": 200,
  "Outer": "GD_Jeffrey.HitRegions",
  "Name": "HitRegion_Body",
  "Class": "WillowGame.BodyHitRegionDefinition",
  "ObjectArchetype": "WillowGame.Default__BodyHitRegionDefinition"
}