{
  "VfTable_IIBehaviorProvider": "",
  "VfTable_IIConstructObject": "",
  "HitRegionName": "Eye",
  "OverrideDOTSocket": null,
  "bCriticalHit": true,
  "bAllowRadiusDamage": false,
  "bUseIndependentHealth": false,
  "bShowDamageNumbers": false,
  "bScaleHealthWithAttribute": false,
  "bAllowRejuvenationFromHeals": false,
  "bOnlyReflectToAttacker": false,
  "bReflectProjectiles": false,
  "bRicochetIfReflectionChanceFails": false,
  "bTrackDamage": true,
  "bMigratedUseOwnerHealth": true,
  "bWasUseOwnerHealthOne": true,
  "bPlayImpactWithNoDamage": true,
  "OwnerHealthPercent": 0.0,
  "PercentOfMaxHealthLimit": 0.0,
  "BulletReflectionOffSelfChance": {
    "BaseValueConstant": 0.0,
    "BaseValueAttribute": null,
    "InitializationDefinition": null,
    "BaseValueScaleConstant": 1.0
  },
  "BulletReflectedOffSelfDamageScale": {
    "BaseValueConstant": 1.0,
    "BaseValueAttribute": null,
    "InitializationDefinition": null,
    "BaseValueScaleConstant": 1.0
  },
  "BulletReflectedOffSelfDamageTakenScale": {
    "BaseValueConstant": 1.0,
    "BaseValueAttribute": null,
    "InitializationDefinition": null,
    "BaseValueScaleConstant": 1.0
  },
  "ReflectionAccuracyModifier": {
    "BaseValueConstant": 0.0,
    "BaseValueAttribute": null,
    "InitializationDefinition": null,
    "BaseValueScaleConstant": 1.0
  },
  "RicochetAccuracyModifier": {
    "BaseValueConstant": 45.0,
    "BaseValueAttribute": null,
    "InitializationDefinition": null,
    "BaseValueScaleConstant": 1.0
  },
  "PhysicalMaterial": "GD_PhysicalMaterial_Armor.PhysMats.PhysMat_Armor",
  "DefaultImpactResponse": {
    "bCensorThisEffect": false,
    "CensoredEffectAlternative": null,
    "DamageModifierPercent": 1.0,
    "ImpactEvent": null,
    "AINoiseLevel": 0.0,
    "ParticleTemplate": null,
    "bAttachParticleToHitActor": false,
    "bHideEffectFromHitActor": false,
    "MaxEffectDistance": 0.0,
    "DecalMaterials": null,
    "DecalWidth": 16.0,
    "DecalHeight": 16.0,
    "DecalMinScale": 1.0,
    "DecalMaxScale": 1.0,
    "DecalDepth": 10.0,
    "DecalRandomRotation": false,
    "DecalCreateNewMaterialInstanceConstant": false,
    "ImpactFlashLightClass": null,
    "EffectParameters": {
      "ParticleParameters": null,
      "FontParameterValues": null,
      "ScalarParameterValues": null,
      "TextureParameterValues": null,
      "VectorParameterValues": null,
      "RtpcParameterValues": null,
      "bNoSound": false
    }
  },
  "DefaultDamageSurfaceType": "DMGSURFACE_Flesh",
  "BloodImpact": null,
  "BloodSplatterMinDistance": 0.0,
  "BloodSplatterMaxDistance": 0.0,
  "BloodSplatterDirectionRandomness": 0.0,
  "ParticleSystemTemplate":
    "FX_CHAR_Damage_Matrix.Particles.Part_Character_DamageType_Matrix",
  "StatusEffectResistanceOverride": null,
  "StatusEffectBaseChanceOverride": {
    "BaseValueConstant": 1.0,
    "BaseValueAttribute": null,
    "InitializationDefinition": null,
    "BaseValueScaleConstant": 1.0
  },
  "StatusEffectDamageModifierOverride": {
    "BaseValueConstant": 1.0,
    "BaseValueAttribute": null,
    "InitializationDefinition": null,
    "BaseValueScaleConstant": 1.0
  },
  "OverrideDeathDef": null,
  "BehaviorProviderDefinition":
    "GD_MimicShared.HitRegions.HitRegion_Eye:BehaviorProviderDefinition_0",
  "DamageTriggeredReactions": [
    {
      "DamageTriggers": null,
      "PercentOfHealthTrigger": 0.25,
      "DamageSpecialMove": null,
      "ReactionBehaviors": null,
      "bDamageThreshold": true,
      "bRepeatableEvent": false,
      "bCensored": false,
      "bOnlyTriggeredOnOwnerDeath": false,
      "EventName": "HardFlinch_Body"
    },
    {
      "DamageTriggers": null,
      "PercentOfHealthTrigger": 0.5,
      "DamageSpecialMove": null,
      "ReactionBehaviors": null,
      "bDamageThreshold": true,
      "bRepeatableEvent": false,
      "bCensored": false,
      "bOnlyTriggeredOnOwnerDeath": false,
      "EventName": "HardFlinch_Body"
    },
    {
      "DamageTriggers": null,
      "PercentOfHealthTrigger": 0.75,
      "DamageSpecialMove": null,
      "ReactionBehaviors": null,
      "bDamageThreshold": true,
      "bRepeatableEvent": false,
      "bCensored": false,
      "bOnlyTriggeredOnOwnerDeath": false,
      "EventName": "HardFlinch_Body"
    }
  ],
  "AdjacentHitRegions": [ "GD_MimicShared.HitRegions.HitRegion_Body" ],
  "RegionBoneNames": [ "Eye_Chest" ],
  "VfTableObject": "",
  "HashNext": "",
  "ObjectFlags": "",
  "HashOuterNext": "",
  "StateFrame": "",
  "Linker": null,
  "LinkerIndex": "",
  "ObjectInternalInteger": 227776,
  "NetIndex": 100,
  "Outer": "GD_MimicShared.HitRegions",
  "Name": "HitRegion_Eye",
  "Class": "WillowGame.BodyHitRegionDefinition",
  "ObjectArchetype": "WillowGame.Default__BodyHitRegionDefinition"
}