{
  "VfTable_IIBehaviorProvider": "",
  "VfTable_IIConstructObject": "",
  "HitRegionName": "BanditArmRight",
  "OverrideDOTSocket": null,
  "bCriticalHit": false,
  "bAllowRadiusDamage": false,
  "bUseIndependentHealth": false,
  "bShowDamageNumbers": false,
  "bScaleHealthWithAttribute": false,
  "bAllowRejuvenationFromHeals": false,
  "bOnlyReflectToAttacker": false,
  "bReflectProjectiles": false,
  "bRicochetIfReflectionChanceFails": false,
  "bTrackDamage": true,
  "bMigratedUseOwnerHealth": true,
  "bWasUseOwnerHealthOne": true,
  "bPlayImpactWithNoDamage": true,
  "OwnerHealthPercent": 0.0,
  "PercentOfMaxHealthLimit": 0.0,
  "BulletReflectionOffSelfChance": {
    "BaseValueConstant": 0.0,
    "BaseValueAttribute": null,
    "InitializationDefinition": null,
    "BaseValueScaleConstant": 1.0
  },
  "BulletReflectedOffSelfDamageScale": {
    "BaseValueConstant": 1.0,
    "BaseValueAttribute": null,
    "InitializationDefinition": null,
    "BaseValueScaleConstant": 1.0
  },
  "BulletReflectedOffSelfDamageTakenScale": {
    "BaseValueConstant": 1.0,
    "BaseValueAttribute": null,
    "InitializationDefinition": null,
    "BaseValueScaleConstant": 1.0
  },
  "ReflectionAccuracyModifier": {
    "BaseValueConstant": 0.0,
    "BaseValueAttribute": null,
    "InitializationDefinition": null,
    "BaseValueScaleConstant": 1.0
  },
  "RicochetAccuracyModifier": {
    "BaseValueConstant": 45.0,
    "BaseValueAttribute": null,
    "InitializationDefinition": null,
    "BaseValueScaleConstant": 1.0
  },
  "PhysicalMaterial":
    "GD_PhysicalMaterial_Shield.PhysicalMaterials.PhysMat_GenericShield",
  "DefaultImpactResponse": {
    "bCensorThisEffect": false,
    "CensoredEffectAlternative": null,
    "DamageModifierPercent": 1.0,
    "ImpactEvent": null,
    "AINoiseLevel": 0.0,
    "ParticleTemplate": null,
    "bAttachParticleToHitActor": false,
    "bHideEffectFromHitActor": false,
    "MaxEffectDistance": 0.0,
    "DecalMaterials": null,
    "DecalWidth": 16.0,
    "DecalHeight": 16.0,
    "DecalMinScale": 1.0,
    "DecalMaxScale": 1.0,
    "DecalDepth": 10.0,
    "DecalRandomRotation": false,
    "DecalCreateNewMaterialInstanceConstant": false,
    "ImpactFlashLightClass": null,
    "EffectParameters": {
      "ParticleParameters": null,
      "FontParameterValues": null,
      "ScalarParameterValues": null,
      "TextureParameterValues": null,
      "VectorParameterValues": null,
      "RtpcParameterValues": null,
      "bNoSound": false
    }
  },
  "DefaultDamageSurfaceType": "DMGSURFACE_Flesh",
  "BloodImpact": "GD_Impacts.Splatters.Splatter_Blood",
  "BloodSplatterMinDistance": 300.0,
  "BloodSplatterMaxDistance": 750.0,
  "BloodSplatterDirectionRandomness": 0.1,
  "ParticleSystemTemplate":
    "FX_CHAR_Damage_Matrix.Particles.Part_Character_DamageType_Matrix",
  "StatusEffectResistanceOverride": null,
  "StatusEffectBaseChanceOverride": {
    "BaseValueConstant": 1.0,
    "BaseValueAttribute": null,
    "InitializationDefinition": null,
    "BaseValueScaleConstant": 1.0
  },
  "StatusEffectDamageModifierOverride": {
    "BaseValueConstant": 1.0,
    "BaseValueAttribute": null,
    "InitializationDefinition": null,
    "BaseValueScaleConstant": 1.0
  },
  "OverrideDeathDef": null,
  "BehaviorProviderDefinition": null,
  "StatusEffectSockets": [ "Dam_RightArm" ],
  "AdjacentHitRegions": [
    "GD_MarauderRegular_Digi.HitRegions.HitRegion_Body_Digi"
  ],
  "RegionBoneNames": [
    "R_Upperarm", "R_Forearm", "R_Forearm_Twist", "R_Hand"
  ],
  "VfTableObject": "",
  "HashNext": "",
  "ObjectFlags": "",
  "HashOuterNext": "",
  "StateFrame": "",
  "Linker": null,
  "LinkerIndex": "",
  "ObjectInternalInteger": 212362,
  "NetIndex": 265,
  "Outer": "GD_MarauderRegular_Digi.HitRegions",
  "Name": "HitRegion_ArmRight_Digi",
  "Class": "WillowGame.BodyHitRegionDefinition",
  "ObjectArchetype": "WillowGame.Default__BodyHitRegionDefinition"
}