{
  "VfTable_IIBehaviorProvider": "",
  "VfTable_IIConstructObject": "",
  "HitRegionName": "BanditLegLeft",
  "OverrideDOTSocket": null,
  "bCriticalHit": false,
  "bAllowRadiusDamage": false,
  "bUseIndependentHealth": false,
  "bShowDamageNumbers": false,
  "bScaleHealthWithAttribute": false,
  "bAllowRejuvenationFromHeals": false,
  "bOnlyReflectToAttacker": false,
  "bReflectProjectiles": false,
  "bRicochetIfReflectionChanceFails": false,
  "bTrackDamage": true,
  "bMigratedUseOwnerHealth": true,
  "bWasUseOwnerHealthOne": true,
  "bPlayImpactWithNoDamage": true,
  "OwnerHealthPercent": 0.0,
  "PercentOfMaxHealthLimit": 0.0,
  "BulletReflectionOffSelfChance": {
    "BaseValueConstant": 0.0,
    "BaseValueAttribute": null,
    "InitializationDefinition": null,
    "BaseValueScaleConstant": 1.0
  },
  "BulletReflectedOffSelfDamageScale": {
    "BaseValueConstant": 1.0,
    "BaseValueAttribute": null,
    "InitializationDefinition": null,
    "BaseValueScaleConstant": 1.0
  },
  "BulletReflectedOffSelfDamageTakenScale": {
    "BaseValueConstant": 1.0,
    "BaseValueAttribute": null,
    "InitializationDefinition": null,
    "BaseValueScaleConstant": 1.0
  },
  "ReflectionAccuracyModifier": {
    "BaseValueConstant": 0.0,
    "BaseValueAttribute": null,
    "InitializationDefinition": null,
    "BaseValueScaleConstant": 1.0
  },
  "RicochetAccuracyModifier": {
    "BaseValueConstant": 45.0,
    "BaseValueAttribute": null,
    "InitializationDefinition": null,
    "BaseValueScaleConstant": 1.0
  },
  "PhysicalMaterial":
    "GD_PhysicalMaterial_Flesh.PhysMats.PhysMat_HumanFlesh_NormalHit",
  "DefaultImpactResponse": {
    "bCensorThisEffect": false,
    "CensoredEffectAlternative": null,
    "DamageModifierPercent": 1.0,
    "ImpactEvent": null,
    "AINoiseLevel": 0.0,
    "ParticleTemplate": null,
    "bAttachParticleToHitActor": false,
    "bHideEffectFromHitActor": false,
    "MaxEffectDistance": 0.0,
    "DecalMaterials": null,
    "DecalWidth": 16.0,
    "DecalHeight": 16.0,
    "DecalMinScale": 1.0,
    "DecalMaxScale": 1.0,
    "DecalDepth": 10.0,
    "DecalRandomRotation": false,
    "DecalCreateNewMaterialInstanceConstant": false,
    "ImpactFlashLightClass": null,
    "EffectParameters": {
      "ParticleParameters": null,
      "FontParameterValues": null,
      "ScalarParameterValues": null,
      "TextureParameterValues": null,
      "VectorParameterValues": null,
      "RtpcParameterValues": null,
      "bNoSound": false
    }
  },
  "DefaultDamageSurfaceType": "DMGSURFACE_Flesh",
  "BloodImpact": "GD_Impacts.Splatters.Splatter_Blood",
  "BloodSplatterMinDistance": 300.0,
  "BloodSplatterMaxDistance": 750.0,
  "BloodSplatterDirectionRandomness": 0.1,
  "ParticleSystemTemplate":
    "FX_CHAR_Damage_Matrix.Particles.Part_Character_DamageType_Matrix",
  "StatusEffectResistanceOverride": null,
  "StatusEffectBaseChanceOverride": {
    "BaseValueConstant": 1.0,
    "BaseValueAttribute": null,
    "InitializationDefinition": null,
    "BaseValueScaleConstant": 1.0
  },
  "StatusEffectDamageModifierOverride": {
    "BaseValueConstant": 1.0,
    "BaseValueAttribute": null,
    "InitializationDefinition": null,
    "BaseValueScaleConstant": 1.0
  },
  "OverrideDeathDef": null,
  "BehaviorProviderDefinition":
    "GD_Native_Badass.HitRegions.HitRegion_LegLeft:BehaviorProviderDefinition_2",
  "StatusEffectSockets": [ "Dam_LeftLeg" ],
  "DamageTriggeredReactions": [
    {
      "DamageTriggers": null,
      "PercentOfHealthTrigger": 0.1,
      "DamageSpecialMove": null,
      "ReactionBehaviors": null,
      "bDamageThreshold": true,
      "bRepeatableEvent": true,
      "bCensored": false,
      "bOnlyTriggeredOnOwnerDeath": false,
      "EventName": "HardFlinch_Leg_L"
    },
    {
      "DamageTriggers": [
        {
          "DamageTypeTrigger": null,
          "DamageSourceTrigger": "WillowGame.WillowDmgSource_Bullet",
          "HealthPctDamageThreshold": 0.0
        }
      ],
      "PercentOfHealthTrigger": 0.75,
      "DamageSpecialMove": "GD_PsychoShared.Anims.Anim_PsychoShared_Death1",
      "ReactionBehaviors": null,
      "bDamageThreshold": false,
      "bRepeatableEvent": true,
      "bCensored": true,
      "bOnlyTriggeredOnOwnerDeath": true,
      "EventName": "LeftLegRemoved"
    },
    {
      "DamageTriggers": [
        {
          "DamageTypeTrigger": null,
          "DamageSourceTrigger": "WillowGame.WillowDmgSource_Shotgun",
          "HealthPctDamageThreshold": 0.0
        }
      ],
      "PercentOfHealthTrigger": 0.5,
      "DamageSpecialMove": "GD_PsychoShared.Anims.Anim_PsychoShared_Death1",
      "ReactionBehaviors": null,
      "bDamageThreshold": false,
      "bRepeatableEvent": true,
      "bCensored": true,
      "bOnlyTriggeredOnOwnerDeath": true,
      "EventName": "LeftLegRemoved"
    },
    {
      "DamageTriggers": [
        {
          "DamageTypeTrigger":
            "GD_Explosive.DamageType.DmgType_Explosive_Impact",
          "DamageSourceTrigger": null,
          "HealthPctDamageThreshold": 0.0
        }
      ],
      "PercentOfHealthTrigger": 0.2,
      "DamageSpecialMove": null,
      "ReactionBehaviors": null,
      "bDamageThreshold": false,
      "bRepeatableEvent": true,
      "bCensored": true,
      "bOnlyTriggeredOnOwnerDeath": true,
      "EventName": "LeftLegRemoved"
    },
    {
      "DamageTriggers": [
        {
          "DamageTypeTrigger": null,
          "DamageSourceTrigger": "WillowGame.WillowDmgSource_MeleeWithBlade",
          "HealthPctDamageThreshold": 0.0
        }
      ],
      "PercentOfHealthTrigger": 0.0,
      "DamageSpecialMove": "GD_PsychoShared.Anims.Anim_PsychoShared_Death1",
      "ReactionBehaviors": null,
      "bDamageThreshold": false,
      "bRepeatableEvent": true,
      "bCensored": true,
      "bOnlyTriggeredOnOwnerDeath": true,
      "EventName": "LeftLegRemoved"
    }
  ],
  "AdjacentHitRegions": [ "GD_PsychoShared.HitRegions.HitRegion_Body" ],
  "RegionBoneNames": [ "L_Thigh", "L_Shin", "L_Foot", "L_Toe" ],
  "VfTableObject": "",
  "HashNext": "",
  "ObjectFlags": "",
  "HashOuterNext": "",
  "StateFrame": "",
  "Linker": null,
  "LinkerIndex": "",
  "ObjectInternalInteger": 219006,
  "NetIndex": 499,
  "Outer": "GD_Native_Badass.HitRegions",
  "Name": "HitRegion_LegLeft",
  "Class": "WillowGame.BodyHitRegionDefinition",
  "ObjectArchetype": "WillowGame.Default__BodyHitRegionDefinition"
}