{
  "VfTable_IIBehaviorProvider": "",
  "VfTable_IIConstructObject": "",
  "HitRegionName": "Legs",
  "OverrideDOTSocket": null,
  "bCriticalHit": false,
  "bAllowRadiusDamage": false,
  "bUseIndependentHealth": false,
  "bShowDamageNumbers": false,
  "bScaleHealthWithAttribute": false,
  "bAllowRejuvenationFromHeals": false,
  "bOnlyReflectToAttacker": false,
  "bReflectProjectiles": false,
  "bRicochetIfReflectionChanceFails": false,
  "bTrackDamage": true,
  "bMigratedUseOwnerHealth": true,
  "bWasUseOwnerHealthOne": false,
  "bPlayImpactWithNoDamage": true,
  "OwnerHealthPercent": 0.0,
  "PercentOfMaxHealthLimit": 0.0,
  "BulletReflectionOffSelfChance": {
    "BaseValueConstant": 0.0,
    "BaseValueAttribute": null,
    "InitializationDefinition": null,
    "BaseValueScaleConstant": 1.0
  },
  "BulletReflectedOffSelfDamageScale": {
    "BaseValueConstant": 1.0,
    "BaseValueAttribute": null,
    "InitializationDefinition": null,
    "BaseValueScaleConstant": 1.0
  },
  "BulletReflectedOffSelfDamageTakenScale": {
    "BaseValueConstant": 1.0,
    "BaseValueAttribute": null,
    "InitializationDefinition": null,
    "BaseValueScaleConstant": 1.0
  },
  "ReflectionAccuracyModifier": {
    "BaseValueConstant": 0.0,
    "BaseValueAttribute": null,
    "InitializationDefinition": null,
    "BaseValueScaleConstant": 1.0
  },
  "RicochetAccuracyModifier": {
    "BaseValueConstant": 45.0,
    "BaseValueAttribute": null,
    "InitializationDefinition": null,
    "BaseValueScaleConstant": 1.0
  },
  "PhysicalMaterial": "GD_PhysicalMaterial_Armor.PhysMats.PhysMat_Armor",
  "DefaultImpactResponse": {
    "bCensorThisEffect": false,
    "CensoredEffectAlternative": null,
    "DamageModifierPercent": 1.0,
    "ImpactEvent": null,
    "AINoiseLevel": 0.0,
    "ParticleTemplate": null,
    "bAttachParticleToHitActor": false,
    "bHideEffectFromHitActor": false,
    "MaxEffectDistance": 0.0,
    "DecalMaterials": null,
    "DecalWidth": 16.0,
    "DecalHeight": 16.0,
    "DecalMinScale": 1.0,
    "DecalMaxScale": 1.0,
    "DecalDepth": 10.0,
    "DecalRandomRotation": false,
    "DecalCreateNewMaterialInstanceConstant": false,
    "ImpactFlashLightClass": null,
    "EffectParameters": {
      "ParticleParameters": null,
      "FontParameterValues": null,
      "ScalarParameterValues": null,
      "TextureParameterValues": null,
      "VectorParameterValues": null,
      "RtpcParameterValues": null,
      "bNoSound": false
    }
  },
  "DefaultDamageSurfaceType": "DMGSURFACE_Flesh",
  "BloodImpact": null,
  "BloodSplatterMinDistance": 300.0,
  "BloodSplatterMaxDistance": 750.0,
  "BloodSplatterDirectionRandomness": 0.1,
  "ParticleSystemTemplate":
    "FX_CHAR_Damage_Matrix.Particles.Part_Character_DamageType_Matrix",
  "StatusEffectResistanceOverride": null,
  "StatusEffectBaseChanceOverride": {
    "BaseValueConstant": 1.0,
    "BaseValueAttribute": null,
    "InitializationDefinition": null,
    "BaseValueScaleConstant": 1.0
  },
  "StatusEffectDamageModifierOverride": {
    "BaseValueConstant": 1.0,
    "BaseValueAttribute": null,
    "InitializationDefinition": null,
    "BaseValueScaleConstant": 1.0
  },
  "OverrideDeathDef": null,
  "BehaviorProviderDefinition": null,
  "StatusEffectSockets": [ "Dam_RightLeg" ],
  "AdjacentHitRegions": [ "GD_BugMorphShared.HitRegions.HitRegion_Body" ],
  "RegionBoneNames": [
    "rFrontLeg04", "rFrontLeg03", "rFrontLeg02", "rFrontLeg01", "rMidLeg04",
    "rMidLeg03", "rMidLeg02", "rMidLeg01", "rBackLeg04", "rBackLeg03",
    "rBackLeg02", "rBackLeg01"
  ],
  "VfTableObject": "",
  "HashNext": "",
  "ObjectFlags": "",
  "HashOuterNext": "",
  "StateFrame": "",
  "Linker": null,
  "LinkerIndex": "",
  "ObjectInternalInteger": 193254,
  "NetIndex": 97,
  "Outer": "GD_Nast_BugMorph_BadassBloodhound.HitRegions",
  "Name": "HitRegion_Legs_R_Badass",
  "Class": "WillowGame.BodyHitRegionDefinition",
  "ObjectArchetype": "WillowGame.Default__BodyHitRegionDefinition"
}