{
  "VfTable_IIBehaviorProvider": "",
  "VfTable_IIConstructObject": "",
  "HitRegionName": "Body",
  "OverrideDOTSocket": null,
  "bCriticalHit": false,
  "bAllowRadiusDamage": false,
  "bUseIndependentHealth": false,
  "bShowDamageNumbers": false,
  "bScaleHealthWithAttribute": false,
  "bAllowRejuvenationFromHeals": false,
  "bOnlyReflectToAttacker": false,
  "bReflectProjectiles": false,
  "bRicochetIfReflectionChanceFails": false,
  "bTrackDamage": true,
  "bMigratedUseOwnerHealth": true,
  "bWasUseOwnerHealthOne": false,
  "bPlayImpactWithNoDamage": true,
  "OwnerHealthPercent": 0.0,
  "PercentOfMaxHealthLimit": 0.0,
  "BulletReflectionOffSelfChance": {
    "BaseValueConstant": 0.0,
    "BaseValueAttribute": null,
    "InitializationDefinition": null,
    "BaseValueScaleConstant": 1.0
  },
  "BulletReflectedOffSelfDamageScale": {
    "BaseValueConstant": 1.0,
    "BaseValueAttribute": null,
    "InitializationDefinition": null,
    "BaseValueScaleConstant": 1.0
  },
  "BulletReflectedOffSelfDamageTakenScale": {
    "BaseValueConstant": 1.0,
    "BaseValueAttribute": null,
    "InitializationDefinition": null,
    "BaseValueScaleConstant": 1.0
  },
  "ReflectionAccuracyModifier": {
    "BaseValueConstant": 0.0,
    "BaseValueAttribute": null,
    "InitializationDefinition": null,
    "BaseValueScaleConstant": 1.0
  },
  "RicochetAccuracyModifier": {
    "BaseValueConstant": 45.0,
    "BaseValueAttribute": null,
    "InitializationDefinition": null,
    "BaseValueScaleConstant": 1.0
  },
  "PhysicalMaterial": "GD_PhysicalMaterial_Armor.PhysMats.PhysMat_Armor",
  "DefaultImpactResponse": {
    "bCensorThisEffect": false,
    "CensoredEffectAlternative": null,
    "DamageModifierPercent": 1.0,
    "ImpactEvent": null,
    "AINoiseLevel": 0.0,
    "ParticleTemplate": null,
    "bAttachParticleToHitActor": false,
    "bHideEffectFromHitActor": false,
    "MaxEffectDistance": 0.0,
    "DecalMaterials": null,
    "DecalWidth": 16.0,
    "DecalHeight": 16.0,
    "DecalMinScale": 10.0,
    "DecalMaxScale": 10.0,
    "DecalDepth": 10.0,
    "DecalRandomRotation": true,
    "DecalCreateNewMaterialInstanceConstant": false,
    "ImpactFlashLightClass": null,
    "EffectParameters": {
      "ParticleParameters": null,
      "FontParameterValues": null,
      "ScalarParameterValues": null,
      "TextureParameterValues": null,
      "VectorParameterValues": null,
      "RtpcParameterValues": null,
      "bNoSound": false
    }
  },
  "DefaultDamageSurfaceType": "DMGSURFACE_Armor",
  "BloodImpact": null,
  "BloodSplatterMinDistance": 300.0,
  "BloodSplatterMaxDistance": 750.0,
  "BloodSplatterDirectionRandomness": 0.1,
  "ParticleSystemTemplate":
    "FX_CHAR_Damage_Matrix.Particles.Part_Character_DamageType_Matrix",
  "StatusEffectResistanceOverride": null,
  "StatusEffectBaseChanceOverride": {
    "BaseValueConstant": 1.0,
    "BaseValueAttribute": null,
    "InitializationDefinition": null,
    "BaseValueScaleConstant": 1.0
  },
  "StatusEffectDamageModifierOverride": {
    "BaseValueConstant": 1.0,
    "BaseValueAttribute": null,
    "InitializationDefinition": null,
    "BaseValueScaleConstant": 1.0
  },
  "OverrideDeathDef": null,
  "BehaviorProviderDefinition":
    "GD_ProbeShared.HitRegions.HitRegion_ProbeShared_Body:BehaviorProviderDefinition_0",
  "StatusEffectSockets": [ "Dam_Overlay" ],
  "DamageTriggeredReactions": [
    {
      "DamageTriggers": null,
      "PercentOfHealthTrigger": 0.001,
      "DamageSpecialMove": null,
      "ReactionBehaviors": null,
      "bDamageThreshold": true,
      "bRepeatableEvent": true,
      "bCensored": false,
      "bOnlyTriggeredOnOwnerDeath": false,
      "EventName": "Dodge"
    }
  ],
  "RegionBoneNames": [
    "L_Front_Wing", "R_Front_Wing", "Front_Top_Lid", "UpperHull", "Engine",
    "Back_Top_Lid", "R_Back_Wing", "L_Back_Wing"
  ],
  "VfTableObject": "",
  "HashNext": "",
  "ObjectFlags": "",
  "HashOuterNext": "",
  "StateFrame": "",
  "Linker": null,
  "LinkerIndex": "",
  "ObjectInternalInteger": 206399,
  "NetIndex": 304,
  "Outer": "GD_ProbeShared.HitRegions",
  "Name": "HitRegion_ProbeShared_Body",
  "Class": "WillowGame.BodyHitRegionDefinition",
  "ObjectArchetype": "WillowGame.Default__BodyHitRegionDefinition"
}