{
  "bEnabled": true,
  "bPrimaryStart": true,
  "bBestStart": false,
  "TeamIndex": 0,
  "Score": 0,
  "SelectionIndex": 0,
  "bEndPoint": false,
  "bTransientEndPoint": false,
  "bHideEditorPaths": false,
  "bCanReach": false,
  "bBlocked": false,
  "bOneWayPath": false,
  "bNeverUseStrafing": false,
  "bAlwaysUseStrafing": false,
  "bForceNoStrafing": false,
  "bAutoBuilt": false,
  "bSpecialMove": false,
  "bNoAutoConnect": false,
  "bNotBased": false,
  "bPathsChanged": true,
  "bDestinationOnly": false,
  "bSourceOnly": false,
  "bSpecialForced": false,
  "bMustBeReachable": false,
  "bBlockable": false,
  "bFlyingPreferred": false,
  "bMayCausePain": false,
  "bAlreadyVisited": false,
  "bVehicleDestination": false,
  "bMakeSourceOnly": false,
  "bMustTouchToReach": true,
  "bCanWalkOnToReach": false,
  "bBuildLongPaths": true,
  "bBlockedForVehicles": false,
  "bPreferredVehiclePath": false,
  "bHasCrossLevelPaths": false,
  "bShouldSaveForCheckpoint": false,
  "bRequireTraceTest": true,
  "bIsValidStoppingPoint": true,
  "bReservationRequiredToStopHere": false,
  "bDisplayAreaReach": false,
  "NavOctreeObject": {
    "BoundingBox": {
      "Min": { "X": 56249.398438, "Y": 81988.414063, "Z": 7121.0 },
      "Max": { "X": 56329.398438, "Y": 82068.414063, "Z": 7281.0 },
      "IsValid": 1
    },
    "BoxCenter": { "X": 56289.398438, "Y": 82028.414063, "Z": 7201.0 },
    "Owner": "Outwash_P.TheWorld:PersistentLevel.WillowCoopPlayerStart_0",
    "OwnerType": 1
  },
  "PathRenderingComponentClass": "Engine.PathRenderingComponent",
  "visitedWeight": 10000000,
  "bestPathWeight": 0,
  "nextNavigationPoint": "Outwash_P.TheWorld:PersistentLevel.AutoLadder_12",
  "nextOrdered": null,
  "prevOrdered": null,
  "previousPath": null,
  "Cost": 0,
  "ExtraCost": 0,
  "TransientCost": 0,
  "LastDetourWeight": 0.0,
  "CylinderComponent":
    "Outwash_P.TheWorld:PersistentLevel.WillowCoopPlayerStart_0.CylinderComponent_0",
  "MaxPathSize": { "Radius": 0.0, "Height": 0.0 },
  "NavGuid": {
    "A": 737327496,
    "B": 1098151572,
    "C": -1893796442,
    "D": 1892130027
  },
  "NetworkID": -1,
  "AnchoredPawn": null,
  "LastAnchoredPawnTime": 0.0,
  "NodeSearchFlags": 0,
  "AreaActor": null,
  "AreaName": null,
  "AreaReach": 2048,
  "AreaVerticalReach": 1024,
  "NoStoppingRadius": 0,
  "BusyPathCostMultiplier": 1.0,
  "VfTable_IIWorldBody": "",
  "VfTable_IISpawnActor": "",
  "VfTable_IIDamageCauser": "",
  "Location": { "X": 56289.398438, "Y": 82028.414063, "Z": 7201.0 },
  "Rotation": { "Pitch": 0, "Yaw": -27072, "Roll": 0 },
  "DrawScale": 1.0,
  "DrawScale3D": { "X": 1.0, "Y": 1.0, "Z": 1.0 },
  "PrePivot": { "X": 0.0, "Y": 0.0, "Z": 0.0 },
  "DetachFence": "",
  "CustomTimeDilation": 1.0,
  "Physics": "PHYS_None",
  "RemoteRole": "ROLE_None",
  "Role": "ROLE_Authority",
  "CollisionType": "COLLIDE_NoCollision",
  "ReplicatedCollisionType": [ "INVALID" ],
  "TickGroup": "TG_PreAsyncWork",
  "Owner": null,
  "Base": "Outwash_P.TheWorld:PersistentLevel.Terrain_4",
  "bUseOrthonormalizedLighting": false,
  "bStatic": true,
  "bHidden": false,
  "bNoDelete": true,
  "bDeleteMe": false,
  "bTicked": false,
  "bOnlyOwnerSee": false,
  "bTickIsDisabled": false,
  "bWorldGeometry": false,
  "bIgnoreRigidBodyPawns": false,
  "bOrientOnSlope": false,
  "bIgnoreEncroachers": false,
  "bPushedByEncroachers": true,
  "bRouteBeginPlayEvenIfStatic": true,
  "bIsMoving": false,
  "bAlwaysEncroachCheck": false,
  "bCanStepUpOn": true,
  "bNetTemporary": false,
  "bOnlyRelevantToOwner": false,
  "bNetDirty": false,
  "bAlwaysRelevant": false,
  "bReplicateInstigator": false,
  "bReplicateMovement": true,
  "bSkipRotationReplication": false,
  "bForceRotationReplication": false,
  "bSkipActorPropertyReplication": false,
  "bUpdateSimulatedPosition": false,
  "bTearOff": false,
  "bOnlyDirtyReplication": false,
  "bSkipHiddenReplication": false,
  "bAllowFluidSurfaceInteraction": true,
  "bDemoRecording": false,
  "bDemoOwner": false,
  "bForceDemoRelevant": false,
  "bNetInitialRotation": false,
  "bReplicateRigidBodyLocation": false,
  "bKillDuringLevelTransition": false,
  "bExchangedRoles": false,
  "bConsiderAllStaticMeshComponentsForStreaming": false,
  "bPostRenderIfNotVisible": false,
  "bForceNetUpdate": false,
  "bPendingNetUpdate": false,
  "bHardAttach": false,
  "bIgnoreBaseRotation": false,
  "bSkipAttachedMoves": true,
  "bHurtEntry": false,
  "bGameRelevant": false,
  "bMovable": true,
  "bDestroyInPainVolume": false,
  "bCanBeDamaged": false,
  "bShouldBaseAtStartup": false,
  "bPendingDelete": false,
  "bCanTeleport": false,
  "bAlwaysTick": false,
  "bBlocksNavigation": false,
  "bCanTarget": false,
  "bCanTargetCheat": false,
  "BlockRigidBody": false,
  "bCollideWhenPlacing": true,
  "bCollideActors": false,
  "bCollideWorld": false,
  "bCollideComplex": false,
  "bBlockActors": false,
  "bProjTarget": false,
  "bBlocksTeleport": false,
  "bProjectileMoveSingleBlocking": false,
  "bTraceListeners": false,
  "bIsBlockingMesh": false,
  "bIsWillowInteractiveObject": false,
  "bIgnoreRadiusDamageCheck": false,
  "bNoEncroachCheck": false,
  "bCollideAsEncroacher": false,
  "bPhysRigidBodyOutOfWorldCheck": false,
  "bComponentOutsideWorld": false,
  "bForceOctreeSNFilter": false,
  "bRigidBodyWasAwake": false,
  "bCallRigidBodyWakeEvents": false,
  "bBounce": false,
  "bJustTeleported": true,
  "bNetInitial": false,
  "bNetOwner": false,
  "bHiddenEd": false,
  "bEditable": true,
  "bHiddenEdLayer": false,
  "bHiddenEdTemporary": false,
  "bHiddenEdLevel": false,
  "bEdShouldSnap": true,
  "bTempEditor": false,
  "bPathColliding": false,
  "bPathTemp": false,
  "bScriptInitialized": true,
  "bLockLocation": false,
  "bForceAllowKismetModification": true,
  "bTraceIgnoreRigidBodyForPawns": false,
  "bAutoMovePlayerOnInterpActor": false,
  "bMoveActorDoZeroExtentTrace": false,
  "bDebugEffectIsRelevant": false,
  "bLoadIfPhysXLevel0": true,
  "bLoadIfPhysXLevel1": true,
  "bLoadIfPhysXLevel2": true,
  "NetTag": 0,
  "NetUpdateTime": 0.0,
  "NetUpdateFrequency": 100.0,
  "NetPriority": 1.0,
  "LastNetUpdateTime": 0.0,
  "Instigator": null,
  "WorldInfo": "Loader.TheWorld:PersistentLevel.WorldInfo_1",
  "LifeSpan": 0.0,
  "CreationTime": 0.0,
  "LastRenderTime": -3.4028234663852886e+38,
  "LatentFloat": 0.0,
  "PhysicsVolume": "Loader.TheWorld:PersistentLevel.DefaultPhysicsVolume_74",
  "Velocity": { "X": 0.0, "Y": 0.0, "Z": 0.0 },
  "Acceleration": { "X": 0.0, "Y": 0.0, "Z": 0.0 },
  "AngularVelocity": { "X": 0.0, "Y": 0.0, "Z": 0.0 },
  "BaseSkelComponent": null,
  "BaseBoneName": null,
  "RelativeLocation": {
    "X": 5601.398438,
    "Y": 52076.414063,
    "Z": 7169.999512
  },
  "RelativeRotation": { "Pitch": 0, "Yaw": 0, "Roll": 0 },
  "CollisionComponent":
    "Outwash_P.TheWorld:PersistentLevel.WillowCoopPlayerStart_0.CylinderComponent_0",
  "OverlapTag": 0,
  "RotationRate": { "Pitch": 0, "Yaw": 0, "Roll": 0 },
  "MostRecentDamageTaken": 0.0,
  "AllComponents": [
    "Outwash_P.TheWorld:PersistentLevel.WillowCoopPlayerStart_0.CylinderComponent_0"
  ],
  "Components": [
    null, null, null,
    "Outwash_P.TheWorld:PersistentLevel.WillowCoopPlayerStart_0.CylinderComponent_0",
    null, null
  ],
  "VfTableObject": "",
  "HashNext": "",
  "ObjectFlags": "",
  "HashOuterNext": "",
  "StateFrame": "",
  "Linker": null,
  "LinkerIndex": "",
  "ObjectInternalInteger": 226640,
  "NetIndex": 9321,
  "Outer": "Outwash_P.TheWorld:PersistentLevel",
  "Name": "WillowCoopPlayerStart_0",
  "Class": "WillowGame.WillowCoopPlayerStart",
  "ObjectArchetype": "WillowGame.Default__WillowCoopPlayerStart"
}