{
  "Icon": "INTERACTION_ICON_Use",
  "Action": "Use",
  "Text": "INSPECT FURNACE",
  "VfTableObject": "",
  "HashNext": "",
  "ObjectFlags": "",
  "HashOuterNext": "",
  "StateFrame": "",
  "Linker": null,
  "LinkerIndex": "",
  "ObjectInternalInteger": 197909,
  "NetIndex": 22,
  "Outer": "GD_Allium_InteractionIcons.XmasMissionIcons",
  "Name": "Icon_InspectFurnace",
  "Class": "WillowGame.InteractionIconDefinition",
  "ObjectArchetype": "WillowGame.Default__InteractionIconDefinition"
}