{
  "Icon": "INTERACTION_ICON_Smash",
  "Action": "Melee",
  "Text": "MELEE BOARDS",
  "VfTableObject": "",
  "HashNext": "",
  "ObjectFlags": "",
  "HashOuterNext": "",
  "StateFrame": "",
  "Linker": null,
  "LinkerIndex": "",
  "ObjectInternalInteger": 198575,
  "NetIndex": 2,
  "Outer": "GD_Flax_InteractionIcons.MissionIcons",
  "Name": "Icon_Flax_Melee",
  "Class": "WillowGame.InteractionIconDefinition",
  "ObjectArchetype": "WillowGame.Default__InteractionIconDefinition"
}