{
  "Icon": "INTERACTION_ICON_Talk",
  "Action": "Use",
  "Text": "DOUSE",
  "VfTableObject": "",
  "HashNext": "",
  "ObjectFlags": "",
  "HashOuterNext": "",
  "StateFrame": "",
  "Linker": null,
  "LinkerIndex": "",
  "ObjectInternalInteger": 220345,
  "NetIndex": 34,
  "Outer": "GD_InteractionIcons.Default",
  "Name": "Icon_Douse",
  "Class": "WillowGame.InteractionIconDefinition",
  "ObjectArchetype": "WillowGame.Default__InteractionIconDefinition"
}