{
  "Icon": "INTERACTION_ICON_Open",
  "Action": "Use",
  "Text": "UNLOCK ROLAND'S COMMAND CENTER",
  "VfTableObject": "",
  "HashNext": "",
  "ObjectFlags": "",
  "HashOuterNext": "",
  "StateFrame": "",
  "Linker": null,
  "LinkerIndex": "",
  "ObjectInternalInteger": 222014,
  "NetIndex": 94,
  "Outer": "GD_InteractionIcons.MissionIcons",
  "Name": "Icon_Ep4_UnlockArchives",
  "Class": "WillowGame.InteractionIconDefinition",
  "ObjectArchetype": "WillowGame.Default__InteractionIconDefinition"
}