{
  "Icon": "INTERACTION_ICON_Talk",
  "Action": "Use",
  "Text": "TALK",
  "VfTableObject": "",
  "HashNext": "",
  "ObjectFlags": "",
  "HashOuterNext": "",
  "StateFrame": "",
  "Linker": null,
  "LinkerIndex": "",
  "ObjectInternalInteger": 129093,
  "NetIndex": 23,
  "Outer": "GD_InteractionIcons.Default",
  "Name": "Icon_DefaultTalk",
  "Class": "WillowGame.InteractionIconDefinition",
  "ObjectArchetype": "WillowGame.Default__InteractionIconDefinition"
}