{
  "Icon": "INTERACTION_ICON_Use",
  "Action": "Use",
  "Text": "INSTALL AI CORE",
  "VfTableObject": "",
  "HashNext": "",
  "ObjectFlags": "",
  "HashOuterNext": "",
  "StateFrame": "",
  "Linker": null,
  "LinkerIndex": "",
  "ObjectInternalInteger": 205626,
  "NetIndex": 125,
  "Outer": "GD_InteractionIcons.MissionIcons",
  "Name": "Icon_OutOfBody_InstallCore",
  "Class": "WillowGame.InteractionIconDefinition",
  "ObjectArchetype": "WillowGame.Default__InteractionIconDefinition"
}