{
  "Icon": "INTERACTION_ICON_Open",
  "Action": "Use",
  "Text": "DELIVER SHIELDS",
  "VfTableObject": "",
  "HashNext": "",
  "ObjectFlags": "",
  "HashOuterNext": "",
  "StateFrame": "",
  "Linker": null,
  "LinkerIndex": "",
  "ObjectInternalInteger": 196225,
  "NetIndex": 128,
  "Outer": "GD_InteractionIcons.MissionIcons",
  "Name": "Icon_Overlooked_DeliverShields",
  "Class": "WillowGame.InteractionIconDefinition",
  "ObjectArchetype": "WillowGame.Default__InteractionIconDefinition"
}