{
  "Icon": "INTERACTION_ICON_Open",
  "Action": "Use",
  "Text": "OPEN",
  "VfTableObject": "",
  "HashNext": "",
  "ObjectFlags": "",
  "HashOuterNext": "",
  "StateFrame": "",
  "Linker": null,
  "LinkerIndex": "",
  "ObjectInternalInteger": 161072,
  "NetIndex": 16,
  "Outer": "GD_InteractionIcons.Default",
  "Name": "Icon_DefaultOpen",
  "Class": "WillowGame.InteractionIconDefinition",
  "ObjectArchetype": "WillowGame.Default__InteractionIconDefinition"
}