{
  "Icon": "INTERACTION_ICON_Use",
  "Action": "Use",
  "Text": "TAKE",
  "VfTableObject": "",
  "HashNext": "",
  "ObjectFlags": "",
  "HashOuterNext": "",
  "StateFrame": "",
  "Linker": null,
  "LinkerIndex": "",
  "ObjectInternalInteger": 226118,
  "NetIndex": 70,
  "Outer": "GD_InteractionIcons.MissionIcons",
  "Name": "Icon_Ep15_Take",
  "Class": "WillowGame.InteractionIconDefinition",
  "ObjectArchetype": "WillowGame.Default__InteractionIconDefinition"
}