{
  "Icon": "INTERACTION_ICON_Open",
  "Action": "Use",
  "Text": "INVESTIGATE",
  "VfTableObject": "",
  "HashNext": "",
  "ObjectFlags": "",
  "HashOuterNext": "",
  "StateFrame": "",
  "Linker": null,
  "LinkerIndex": "",
  "ObjectInternalInteger": 191553,
  "NetIndex": 10,
  "Outer": "GD_Nasturtium_InteractionIcons.NastEMissionIcons",
  "Name": "Icon_Investigate",
  "Class": "WillowGame.InteractionIconDefinition",
  "ObjectArchetype": "WillowGame.Default__InteractionIconDefinition"
}