{
  "Icon": "INTERACTION_ICON_Shop",
  "Action": "Use",
  "Text": "PLACE ERIDIUM",
  "VfTableObject": "",
  "HashNext": "",
  "ObjectFlags": "",
  "HashOuterNext": "",
  "StateFrame": "",
  "Linker": null,
  "LinkerIndex": "",
  "ObjectInternalInteger": 199250,
  "NetIndex": 0,
  "Outer": "GD_Nasturtium_InteractionIcons.EasterMissionIcons",
  "Name": "Icon_BuyTreasureSyringe",
  "Class": "WillowGame.InteractionIconDefinition",
  "ObjectArchetype": "WillowGame.Default__InteractionIconDefinition"
}