{
  "Icon": "INTERACTION_ICON_Use",
  "Action": "Use",
  "Text": "ACTIVATE SYRINGE MACHINE",
  "VfTableObject": "",
  "HashNext": "",
  "ObjectFlags": "",
  "HashOuterNext": "",
  "StateFrame": "",
  "Linker": null,
  "LinkerIndex": "",
  "ObjectInternalInteger": 188655,
  "NetIndex": 1,
  "Outer": "GD_Nasturtium_InteractionIcons.EasterMissionIcons",
  "Name": "Icon_CreateTreasure",
  "Class": "WillowGame.InteractionIconDefinition",
  "ObjectArchetype": "WillowGame.Default__InteractionIconDefinition"
}