{
  "Icon": "INTERACTION_ICON_Use",
  "Action": "Use",
  "Text": "DRINK WHISKEY",
  "VfTableObject": "",
  "HashNext": "",
  "ObjectFlags": "",
  "HashOuterNext": "",
  "StateFrame": "",
  "Linker": null,
  "LinkerIndex": "",
  "ObjectInternalInteger": 190489,
  "NetIndex": 24,
  "Outer": "GD_Nasturtium_InteractionIcons.VdayMissionIcons",
  "Name": "Icon_TakeSip",
  "Class": "WillowGame.InteractionIconDefinition",
  "ObjectArchetype": "WillowGame.Default__InteractionIconDefinition"
}