{
  "Icon": "INTERACTION_ICON_Use",
  "Action": "Use",
  "Text": "OFFER GIFT",
  "VfTableObject": "",
  "HashNext": "",
  "ObjectFlags": "",
  "HashOuterNext": "",
  "StateFrame": "",
  "Linker": null,
  "LinkerIndex": "",
  "ObjectInternalInteger": 198032,
  "NetIndex": 18,
  "Outer": "GD_Nasturtium_InteractionIcons.VdayMissionIcons",
  "Name": "Icon_OfferGift",
  "Class": "WillowGame.InteractionIconDefinition",
  "ObjectArchetype": "WillowGame.Default__InteractionIconDefinition"
}