{
  "Icon": "INTERACTION_ICON_Use",
  "Action": "Use",
  "Text": "REQUEST WIG",
  "VfTableObject": "",
  "HashNext": "",
  "ObjectFlags": "",
  "HashOuterNext": "",
  "StateFrame": "",
  "Linker": null,
  "LinkerIndex": "",
  "ObjectInternalInteger": 194364,
  "NetIndex": 21,
  "Outer": "GD_Nasturtium_InteractionIcons.VdayMissionIcons",
  "Name": "Icon_RequestWig",
  "Class": "WillowGame.InteractionIconDefinition",
  "ObjectArchetype": "WillowGame.Default__InteractionIconDefinition"
}