{
  "Icon": "INTERACTION_ICON_Use",
  "Action": "Use",
  "Text": "INJECT",
  "VfTableObject": "",
  "HashNext": "",
  "ObjectFlags": "",
  "HashOuterNext": "",
  "StateFrame": "",
  "Linker": null,
  "LinkerIndex": "",
  "ObjectInternalInteger": 213090,
  "NetIndex": 8,
  "Outer": "GD_Nasturtium_InteractionIcons.MissionIcons",
  "Name": "Icon_NastE_Inject",
  "Class": "WillowGame.InteractionIconDefinition",
  "ObjectArchetype": "WillowGame.Default__InteractionIconDefinition"
}