{
  "Icon": "INTERACTION_ICON_Use",
  "Action": "Use",
  "Text": "INSTALL COOLANT DISPERSER",
  "VfTableObject": "",
  "HashNext": "",
  "ObjectFlags": "",
  "HashOuterNext": "",
  "StateFrame": "",
  "Linker": null,
  "LinkerIndex": "",
  "ObjectInternalInteger": 197277,
  "NetIndex": 707,
  "Outer": "Package'GD_Orchid_PlotDataMission02'",
  "Name": "Orchid_Icon_InstallCoolantDisperser",
  "Class": "WillowGame.InteractionIconDefinition",
  "ObjectArchetype": "WillowGame.Default__InteractionIconDefinition"
}