{
  "Icon": "INTERACTION_ICON_Use",
  "Action": "Use",
  "Text": "PLACE SIR REGINALD",
  "VfTableObject": "",
  "HashNext": "",
  "ObjectFlags": "",
  "HashOuterNext": "",
  "StateFrame": "",
  "Linker": null,
  "LinkerIndex": "",
  "ObjectInternalInteger": 191380,
  "NetIndex": 471,
  "Outer": "GD_Z1_CordiallyInvitedData.Icons",
  "Name": "Icon_Cordially_PlaceSirReginald",
  "Class": "WillowGame.InteractionIconDefinition",
  "ObjectArchetype": "WillowGame.Default__InteractionIconDefinition"
}