{
  "Icon": "INTERACTION_ICON_Use",
  "Action": "Use",
  "Text": "PLACE LOOT",
  "VfTableObject": "",
  "HashNext": "",
  "ObjectFlags": "",
  "HashOuterNext": "",
  "StateFrame": "",
  "Linker": null,
  "LinkerIndex": "",
  "ObjectInternalInteger": 185827,
  "NetIndex": 398,
  "Outer": "GD_Z2_TheBankJobData.Icons",
  "Name": "Icon_Z2_TheBankJob_PlaceMoney",
  "Class": "WillowGame.InteractionIconDefinition",
  "ObjectArchetype": "WillowGame.Default__InteractionIconDefinition"
}