{
  "Icon": "INTERACTION_ICON_Use",
  "Action": "Use",
  "Text": "PLACE FLAG",
  "VfTableObject": "",
  "HashNext": "",
  "ObjectFlags": "",
  "HashOuterNext": "",
  "StateFrame": "",
  "Linker": null,
  "LinkerIndex": "",
  "ObjectInternalInteger": 222109,
  "NetIndex": 458,
  "Outer": "GD_Z3_CaptureTheFlagsData.Icons",
  "Name": "Icon_Z3_CapturetheFlags_PlaceFlag",
  "Class": "WillowGame.InteractionIconDefinition",
  "ObjectArchetype": "WillowGame.Default__InteractionIconDefinition"
}