{
  "Icon": "INTERACTION_ICON_Use",
  "Action": "Use",
  "Text": "START CART",
  "VfTableObject": "",
  "HashNext": "",
  "ObjectFlags": "",
  "HashOuterNext": "",
  "StateFrame": "",
  "Linker": null,
  "LinkerIndex": "",
  "ObjectInternalInteger": 221681,
  "NetIndex": 161,
  "Outer": "GD_Z2_BlowTheBridgeData.Icons",
  "Name": "Icon_Z2_BlowTheBridge_StartCart",
  "Class": "WillowGame.InteractionIconDefinition",
  "ObjectArchetype": "WillowGame.Default__InteractionIconDefinition"
}