{
  "Icon": "INTERACTION_ICON_Use",
  "Action": "Use",
  "Text": "PLACE MEDICINE",
  "VfTableObject": "",
  "HashNext": "",
  "ObjectFlags": "",
  "HashOuterNext": "",
  "StateFrame": "",
  "Linker": null,
  "LinkerIndex": "",
  "ObjectInternalInteger": 185828,
  "NetIndex": 299,
  "Outer": "GD_Z2_Skagzilla2Data.Icons",
  "Name": "Icon_Z2_Skagzilla_PlaceMeds",
  "Class": "WillowGame.InteractionIconDefinition",
  "ObjectArchetype": "WillowGame.Default__InteractionIconDefinition"
}