{
  "Icon": "INTERACTION_ICON_Use",
  "Action": "Use",
  "Text": "RESCUE",
  "VfTableObject": "",
  "HashNext": "",
  "ObjectFlags": "",
  "HashOuterNext": "",
  "StateFrame": "",
  "Linker": null,
  "LinkerIndex": "",
  "ObjectInternalInteger": 191378,
  "NetIndex": 473,
  "Outer": "GD_Z1_CordiallyInvitedData.Icons",
  "Name": "Icon_Z1_CordiallyInvited_Rescue",
  "Class": "WillowGame.InteractionIconDefinition",
  "ObjectArchetype": "WillowGame.Default__InteractionIconDefinition"
}