{
  "Icon": "INTERACTION_ICON_Use",
  "Action": "Use",
  "Text": "",
  "VfTableObject": "",
  "HashNext": "",
  "ObjectFlags": "",
  "HashOuterNext": "",
  "StateFrame": "",
  "Linker": null,
  "LinkerIndex": "",
  "ObjectInternalInteger": 3973,
  "NetIndex": 2457,
  "Outer": "Package'WillowGame'",
  "Name": "Default__InteractionIconDefinition",
  "Class": "WillowGame.InteractionIconDefinition",
  "ObjectArchetype": "Engine.Default__EngineInteractionIconDefinition"
}