{
  "PackageName": null,
  "LoadedLevel": null,
  "Offset": { "X": 0.0, "Y": 0.0, "Z": 0.0 },
  "OldOffset": { "X": 0.0, "Y": 0.0, "Z": 0.0 },
  "bIsVisible": false,
  "bHasLoadRequestPending": false,
  "bHasUnloadRequestPending": false,
  "bShouldBeVisibleInEditor": false,
  "bShouldBeVisibleInEditorOnLoad": false,
  "bBoundingBoxVisible": false,
  "bLocked": false,
  "bIsFullyStatic": false,
  "bShouldBeLoaded": false,
  "bShouldBeVisible": false,
  "bShouldBlockOnLoad": false,
  "bDrawOnLevelStatusMap": true,
  "bIsRequestingUnloadAndRemoval": false,
  "DrawColor": { "B": 255, "G": 255, "R": 255, "A": 255 },
  "MinTimeBetweenVolumeUnloadRequests": 2.0,
  "LastVolumeUnloadRequestTime": 0.0,
  "EditorGridVolume": null,
  "GridPosition": [ 0, 0, 0 ],
  "VfTableObject": "",
  "HashNext": "",
  "ObjectFlags": "",
  "HashOuterNext": "",
  "StateFrame": "",
  "Linker": null,
  "LinkerIndex": "",
  "ObjectInternalInteger": 670,
  "NetIndex": 18484,
  "Outer": "Package'Engine'",
  "Name": "Default__LevelStreamingPersistent",
  "Class": "Engine.LevelStreamingPersistent",
  "ObjectArchetype": "Engine.Default__LevelStreaming"
}