{
  "PackageName": "Orchid_OasisTown_P",
  "LoadedLevel": "Orchid_OasisTown_P.TheWorld:PersistentLevel",
  "Offset": { "X": 0.0, "Y": 0.0, "Z": 0.0 },
  "OldOffset": { "X": 0.0, "Y": 0.0, "Z": 0.0 },
  "bIsVisible": true,
  "bHasLoadRequestPending": false,
  "bHasUnloadRequestPending": false,
  "bShouldBeVisibleInEditor": false,
  "bShouldBeVisibleInEditorOnLoad": false,
  "bBoundingBoxVisible": false,
  "bLocked": false,
  "bIsFullyStatic": false,
  "bShouldBeLoaded": true,
  "bShouldBeVisible": true,
  "bShouldBlockOnLoad": false,
  "bDrawOnLevelStatusMap": true,
  "bIsRequestingUnloadAndRemoval": false,
  "DrawColor": { "B": 255, "G": 255, "R": 255, "A": 255 },
  "MinTimeBetweenVolumeUnloadRequests": 2.0,
  "LastVolumeUnloadRequestTime": 0.0,
  "EditorGridVolume": null,
  "GridPosition": [ 0, 0, 0 ],
  "VfTableObject": "",
  "HashNext": "",
  "ObjectFlags": "",
  "HashOuterNext": "",
  "StateFrame": "",
  "Linker": null,
  "LinkerIndex": "",
  "ObjectInternalInteger": 238809,
  "NetIndex": -1,
  "Outer": "Package'Transient'",
  "Name": "LevelStreamingPersistent_Orchid_OasisTown_P",
  "Class": "Engine.LevelStreamingPersistent",
  "ObjectArchetype": "Engine.Default__LevelStreamingPersistent"
}