{
  "Mission": null,
  "MissionLevel": null,
  "bActive": false,
  "VfTable_IIWorldBody": "",
  "Scene": "",
  "Owner": null,
  "bAttached": false,
  "bSkipChildComponentUpdate": false,
  "bTickInEditor": false,
  "bTickInGame": false,
  "bTickInStatusMenu": true,
  "bNeedsReattach": false,
  "bNeedsUpdateTransform": false,
  "TickGroup": "TG_DuringAsyncWork",
  "TemplateOwnerClass": null,
  "TemplateName": null,
  "VfTableObject": "",
  "HashNext": "",
  "ObjectFlags": "",
  "HashOuterNext": "",
  "StateFrame": "",
  "Linker": null,
  "LinkerIndex": "",
  "ObjectInternalInteger": 4359,
  "NetIndex": 26797,
  "Outer": "Package'WillowGame'",
  "Name": "Default__LevelTransitionWaypointComponent",
  "Class": "WillowGame.LevelTransitionWaypointComponent",
  "ObjectArchetype": "WillowGame.Default__WaypointComponent"
}