{
  "VfTable_IIDlcLicenseObject": "",
  "PackageDef": "GD_TulipPackageDef.PackageDef_Tulip",
  "ContentId": 1,
  "LicenseMask": 1,
  "ContentDisplayName": "Mechromancer",
  "VfTableObject": "",
  "HashNext": "",
  "ObjectFlags": "",
  "HashOuterNext": "",
  "StateFrame": "",
  "Linker": null,
  "LinkerIndex": "",
  "ObjectInternalInteger": 179917,
  "NetIndex": 0,
  "Outer": "Package'GD_TulipPackageDef'",
  "Name": "CharacterDef_Tulip",
  "Class": "WillowGame.DownloadableCharacterDefinition",
  "ObjectArchetype": "WillowGame.Default__DownloadableCharacterDefinition"
}