{
  "BlackMarketName": "Crazy Earl's Black Market of Sane Prices",
  "ItemOfTheDay": "GD_BlackMarket.Upgrades_Ammo.Upgrades_Backpack",
  "MaxUpgradeLevel": 5,
  "GeneralStock": [
    "GD_BlackMarket.Upgrades_Ammo.Upgrades_Ammo_AssaultRifle",
    "GD_BlackMarket.Upgrades_Ammo.Upgrades_Ammo_Pistol",
    "GD_BlackMarket.Upgrades_Ammo.Upgrades_Ammo_RocketLauncher",
    "GD_BlackMarket.Upgrades_Ammo.Upgrades_Ammo_Shotgun",
    "GD_BlackMarket.Upgrades_Ammo.Upgrades_Ammo_SMG",
    "GD_BlackMarket.Upgrades_Ammo.Upgrades_Ammo_SniperRifles",
    "GD_BlackMarket.Upgrades_Ammo.Upgrades_Ammo_Grenades",
    "GD_BlackMarket.Upgrades_Ammo.Upgrades_Bank"
  ],
  "VfTableObject": "",
  "HashNext": "",
  "ObjectFlags": "",
  "HashOuterNext": "",
  "StateFrame": "",
  "Linker": null,
  "LinkerIndex": "",
  "ObjectInternalInteger": 207025,
  "NetIndex": 83,
  "Outer": "GD_BlackMarket.BlackMarket",
  "Name": "MarketDef_BlackMarket",
  "Class": "WillowGame.BlackMarketDefinition",
  "ObjectArchetype": "WillowGame.Default__BlackMarketDefinition"
}