{
  "ExpCombatPointsScale": 1.0,
  "ExpCombatPointsScaleBaseValue": 1.0,
  "ExpMissionPointsScale": 1.0,
  "ExpMissionPointsScaleBaseValue": 1.0,
  "ExpAllPointsScale": 1.0,
  "ExpAllPointsScaleBaseValue": 1.0,
  "Definition": "D_Resourcepools.PlayerPools.ExperiencePool",
  "PoolGUID": 8,
  "MinValue": 0.0,
  "MinValueBaseValue": 0.0,
  "MaxValue": 100000000.0,
  "MaxValueBaseValue": 100000000.0,
  "CurrentValue": 9520932.0,
  "ConsumptionRate": 0.0,
  "ConsumptionRateBaseValue": 0.0,
  "ActiveRegenerationRate": 0.0,
  "ActiveRegenerationRateBaseValue": 0.0,
  "OnIdleRegenerationRate": 0.0,
  "OnIdleRegenerationRateBaseValue": 0.0,
  "OnIdleRegenerationDelay": 0.0,
  "OnIdleRegenerationDelayBaseValue": 0.0,
  "PassiveRegenerationRate": 0.0,
  "PassiveRegenerationRateBaseValue": 0.0,
  "LastMinValue": 0.0,
  "LastMaxValue": 100000000.0,
  "LastCurrentValue": 9520932.0,
  "PoolIdleDelayStartTime": 0.4,
  "RateRemainder": 0.0,
  "RecentImpulseCount": 0,
  "RegenerationDisabled": 0,
  "RegenerationDisabledBaseValue": 0,
  "ResetRecentImpulseCountTime": 0.0,
  "bIsAuthoritative": true,
  "bIsBeingInitialized": false,
  "bHasPoolBeenFullSinceLastBeingDepleted": false,
  "bDisallowReinitialization": true,
  "bHideHUDDisplay": false,
  "bCreatedAndNotModified": false,
  "WasRegenerating": false,
  "AssociatedProvider":
    "Loader.TheWorld:PersistentLevel.WillowPlayerController_33",
  "HUDMaterialInstance": null,
  "RegenerationPool": null,
  "IsRegenerating": 0,
  "VfTableObject": "",
  "HashNext": "",
  "ObjectFlags": "",
  "HashOuterNext": "",
  "StateFrame": "",
  "Linker": null,
  "LinkerIndex": "",
  "ObjectInternalInteger": 234494,
  "NetIndex": -1,
  "Outer": "Loader.TheWorld:PersistentLevel.ResourcePoolManager_193",
  "Name": "ExperienceResourcePool_31",
  "Class": "WillowGame.ExperienceResourcePool",
  "ObjectArchetype": "WillowGame.Default__ExperienceResourcePool"
}