{
  "ManufacturerOverride": "GD_Manufacturers.Manufacturers.Anshin",
  "DisplayClassModAtBeginningOfName": 0,
  "DamageTypeIcon": "DAMAGE_TYPE_Unknown",
  "VfTable_IIBehaviorProvider": "",
  "VfTable_IIConstructObject": "",
  "DroppedImpact": "GD_Impacts.Loot.Loot_Drop_Ammo",
  "UseFailureCharacterMessage": "You must be a %s to use this item.",
  "ItemName": "",
  "bItemNameIsFullName": false,
  "bUseMeshCompositing": false,
  "NonCompositeStaticMesh": null,
  "NonCompositeSkeletalMesh": "Item_ClassMods.Meshes.SirenClassmod01",
  "OverrideMaterial": "Item_ClassMods.Mat.Mati_ClassMod_Siren_Nurse",
  "GestaltMesh": null,
  "AlphaParts": "GD_ClassMods.Specialization.Z_PartsList_SpecializationParts",
  "BetaParts": "GD_ClassMods.StatPrimary.Z_PartsList_PrimaryStatParts",
  "GammaParts": "GD_ClassMods.StatPrimary02.Z_PartsList_PrimaryStat02Parts",
  "DeltaParts": null,
  "EpsilonParts": null,
  "ZetaParts": null,
  "EtaParts": null,
  "ThetaParts": null,
  "MaterialParts": "GD_ClassMods.StatPenalty.Z_PartsList_StatPenaltyParts",
  "BehaviorProviderDefinition":
    "GD_ClassMods.A_Item_Siren.ClassMod_Siren_Nurse:BehaviorProviderDefinition_0",
  "Behaviors": { "OnUsed": null },
  "RequiredPlayerClass": "GD_PlayerClassId.Siren",
  "PickupIconOverride": null,
  "PrefixList": [
    "GD_ClassMods.Prefix_Siren.Prefix_Nurse_00_Nurse",
    "GD_ClassMods.Prefix_Siren.Prefix_Nurse_01_MercifulNurse",
    "GD_ClassMods.Prefix_Siren.Prefix_Nurse_02_AngelicNurse",
    "GD_ClassMods.Prefix_Siren.Prefix_Nurse_03_HeavenlyNurse"
  ],
  "TitleList": [ "GD_ClassMods.Title.Title_ClassMod" ],
  "InventoryClass": "WillowGame.WillowClassMod",
  "bAutomaticallyPickup": false,
  "bPickupInBulk": false,
  "bDisallowAIFromGrabbingPickup": false,
  "bDuplicatePickupJustAddsQuantity": false,
  "bSuppressPickupCard": false,
  "bTorque": false,
  "bNeverDisplayPickupMessage": false,
  "bShopsHaveInfiniteQuantity": false,
  "bCanCompare": true,
  "bUsesPlayerLevelRequirement": true,
  "bUIMeshRotationNeedsTransformFixup": false,
  "bIsConsumable": false,
  "bAllowInventoryDefToModifyPartWeight": false,
  "PlayerDroppability": "EPD_Droppable",
  "FormOfCurrency": "CURRENCY_Credits",
  "OnUseConstraintsMode": "EXPRMODE_And",
  "AttributeSlotEffectMode": "ATTRSLOTEFFECTMODE_Default",
  "PickupLifeSpan": 0.0,
  "PickupFlagScale": 1.0,
  "PickupFlagIcon": "fx_shared_items.Textures.CommDeck_Dif",
  "PickupFlagOffset": { "X": 0.0, "Y": 0.0, "Z": 0.0 },
  "Torque": { "X": 0.0, "Y": 0.0, "Z": 0.0 },
  "ThirdPersonMeshScale": 1.0,
  "MaterialClass": "Engine.MaterialInstanceConstant",
  "PhysicsAsset": "Item_ClassMods.Meshes.SirenClassmod01_Physics",
  "PickupMessage": "You got %s",
  "UseFailureLevelMessage": "You must be at least level %d to use this item.",
  "UseFailureConstraintsMessage": "You cannot use this item.",
  "NoManufacturerName": "Generic",
  "BaseRarity": {
    "BaseValueConstant": 0.0,
    "BaseValueAttribute": null,
    "InitializationDefinition": null,
    "BaseValueScaleConstant": 1.0
  },
  "MonetaryValue": {
    "BaseValueConstant": 0.0,
    "BaseValueAttribute": null,
    "InitializationDefinition":
      "GD_Economy.PriceCalc.Init_ClassMods_Team_PriceCalculator",
    "BaseValueScaleConstant": 1.0
  },
  "BaseMonetaryValueModifier": 1.0,
  "PlayerUseLevelBonus": {
    "BaseValueConstant": 0.0,
    "BaseValueAttribute": null,
    "InitializationDefinition":
      "GD_Balance_Inventory.LevelRequirement.Init_BaseGearLevelRequirementBonus",
    "BaseValueScaleConstant": 1.0
  },
  "UIMeshRotation": { "Pitch": 0, "Yaw": 20936, "Roll": 3644 },
  "Presentation": "GD_InventoryPresentations.Definitions.CommDeck",
  "CalloutDefinition": null,
  "PickedUpStatID": null,
  "PurchasedStatID": null,
  "FocusRadius": 55.0,
  "FocusOffset": { "X": -0.4, "Y": -0.075, "Z": 0.0 },
  "AttributeSlotEffectSkillDuration": {
    "BaseValueConstant": 0.0,
    "BaseValueAttribute": null,
    "InitializationDefinition": null,
    "BaseValueScaleConstant": 1.0
  },
  "AttributeSlotBaseGrade": {
    "BaseValueConstant": 1.0,
    "BaseValueAttribute": null,
    "InitializationDefinition": null,
    "BaseValueScaleConstant": 1.0
  },
  "AttributeSlotMaxActivated": 19,
  "LootBeamColorOverride": { "B": 0, "G": 0, "R": 0, "A": 0 },
  "AttributeSlotUpgrades": [
    {
      "SlotName": "PrimaryStatBonus",
      "GradeIncrease": 1,
      "bActivateSlot": true
    },
    { "SlotName": "StatPenalty", "GradeIncrease": 0, "bActivateSlot": true }
  ],
  "AttributeSlotEffects": [
    {
      "SlotName": "PrimaryStatBonus",
      "bExternalSlot": true,
      "bRunEffectsAsSkill": true,
      "AttributeToModify":
        "D_Attributes.HealthResourcePool.HealthOnIdleRegenerationRate",
      "ConstraintAttribute": "GD_ClassMods.Misc.Att_TeamConstraint",
      "ModifierType": "MT_PostAdd",
      "BaseModifierValue": {
        "BaseValueConstant": 1.0,
        "BaseValueAttribute": null,
        "InitializationDefinition":
          "GD_Balance_HealthAndDamage.HealthAndDamage.Init_HealthRegenerationBonusFromClassMods_Formula",
        "BaseValueScaleConstant": 0.8
      },
      "PerGradeUpgrade": {
        "BaseValueConstant": 1.0,
        "BaseValueAttribute": null,
        "InitializationDefinition":
          "GD_Balance_HealthAndDamage.HealthAndDamage.Init_HealthRegenerationBonusFromClassMods_Formula",
        "BaseValueScaleConstant": 0.05
      },
      "bIncludeInFunStats": false,
      "bIncludeAlliesAsTarget": true,
      "bEnforceMinimumGrade": false,
      "bEnforceMaximumGrade": false,
      "MinimumGrade": 0,
      "MaximumGrade": 0,
      "TargetInstanceDataName": null
    },
    {
      "SlotName": "Skill1",
      "bExternalSlot": true,
      "bRunEffectsAsSkill": true,
      "AttributeToModify": "GD_Siren_Skills.SkillGradeModifiers.Restoration",
      "ConstraintAttribute": null,
      "ModifierType": "MT_PostAdd",
      "BaseModifierValue": {
        "BaseValueConstant": 0.0,
        "BaseValueAttribute": null,
        "InitializationDefinition":
          "GD_ClassMods.Misc.Init_BaseSkillPointCalculation",
        "BaseValueScaleConstant": 1.0
      },
      "PerGradeUpgrade": {
        "BaseValueConstant": 0.34,
        "BaseValueAttribute": null,
        "InitializationDefinition": null,
        "BaseValueScaleConstant": 1.0
      },
      "bIncludeInFunStats": true,
      "bIncludeAlliesAsTarget": false,
      "bEnforceMinimumGrade": true,
      "bEnforceMaximumGrade": false,
      "MinimumGrade": 0,
      "MaximumGrade": 0,
      "TargetInstanceDataName": null
    },
    {
      "SlotName": "Skill2",
      "bExternalSlot": true,
      "bRunEffectsAsSkill": true,
      "AttributeToModify": "GD_Siren_Skills.SkillGradeModifiers.Elated",
      "ConstraintAttribute": null,
      "ModifierType": "MT_PostAdd",
      "BaseModifierValue": {
        "BaseValueConstant": 0.0,
        "BaseValueAttribute": null,
        "InitializationDefinition":
          "GD_ClassMods.Misc.Init_BaseSkillPointCalculation",
        "BaseValueScaleConstant": 1.0
      },
      "PerGradeUpgrade": {
        "BaseValueConstant": 0.34,
        "BaseValueAttribute": null,
        "InitializationDefinition": null,
        "BaseValueScaleConstant": 1.0
      },
      "bIncludeInFunStats": true,
      "bIncludeAlliesAsTarget": false,
      "bEnforceMinimumGrade": true,
      "bEnforceMaximumGrade": false,
      "MinimumGrade": 0,
      "MaximumGrade": 0,
      "TargetInstanceDataName": null
    },
    {
      "SlotName": "Skill3",
      "bExternalSlot": true,
      "bRunEffectsAsSkill": true,
      "AttributeToModify": "GD_Siren_Skills.SkillGradeModifiers.SweetRelease",
      "ConstraintAttribute": null,
      "ModifierType": "MT_PostAdd",
      "BaseModifierValue": {
        "BaseValueConstant": 0.0,
        "BaseValueAttribute": null,
        "InitializationDefinition":
          "GD_ClassMods.Misc.Init_BaseSkillPointCalculation",
        "BaseValueScaleConstant": 1.0
      },
      "PerGradeUpgrade": {
        "BaseValueConstant": 0.34,
        "BaseValueAttribute": null,
        "InitializationDefinition": null,
        "BaseValueScaleConstant": 1.0
      },
      "bIncludeInFunStats": true,
      "bIncludeAlliesAsTarget": false,
      "bEnforceMinimumGrade": true,
      "bEnforceMaximumGrade": false,
      "MinimumGrade": 0,
      "MaximumGrade": 0,
      "TargetInstanceDataName": null
    }
  ],
  "UIStatList": [
    {
      "bDisplayAsModifierOnly": true,
      "AttributeStyle": "ATTRSTYLE_ModifierText",
      "SupplementalAttributeStyle": "ATTRSTYLE_JustNumber",
      "StatCombinationMethod": "SCM_Multiply",
      "Attribute":
        "D_Attributes.HealthResourcePool.HealthOnIdleRegenerationRate",
      "ConstraintAttribute": "GD_ClassMods.Misc.Att_TeamConstraint",
      "SupplementalAttributeExpression": {
        "AttributeOperand1": null,
        "ComparisonOperator": "OPERATOR_EqualTo",
        "Operand2Usage": "OPERAND_PreferAttribute",
        "AttributeOperand2": null,
        "ConstantOperand2": 0.0
      },
      "SupplementalAttributeToAppend": null
    }
  ],
  "PickupSounds": [
    {
      "Event": "Ake_Obj_Pickup.Obj_Pickup.Ak_Play_Obj_Pickup_Class_Mod",
      "Cue": null,
      "Expressions": null
    }
  ],
  "VfTableObject": "",
  "HashNext": "",
  "ObjectFlags": "",
  "HashOuterNext": "",
  "StateFrame": "",
  "Linker": null,
  "LinkerIndex": "",
  "ObjectInternalInteger": 112405,
  "NetIndex": 357,
  "Outer": "GD_ClassMods.A_Item_Siren",
  "Name": "ClassMod_Siren_Nurse",
  "Class": "WillowGame.ClassModDefinition",
  "ObjectArchetype": "WillowGame.Default__ClassModDefinition"
}