{
  "ManufacturerOverride": "GD_Manufacturers.Manufacturers.Bandit",
  "DisplayClassModAtBeginningOfName": 0,
  "DamageTypeIcon": "DAMAGE_TYPE_Unknown",
  "VfTable_IIBehaviorProvider": "",
  "VfTable_IIConstructObject": "",
  "DroppedImpact": "GD_Impacts.Loot.Loot_Drop_Ammo",
  "UseFailureCharacterMessage": "You must be a %s to use this item.",
  "ItemName": "",
  "bItemNameIsFullName": false,
  "bUseMeshCompositing": false,
  "NonCompositeStaticMesh": null,
  "NonCompositeSkeletalMesh": "Lilac_Item_ClassMods.Meshes.PsychoClassMod",
  "OverrideMaterial":
    "Lilac_Item_ClassMods.Materials.Mati_ClassMod_Psycho_Legendary",
  "GestaltMesh": null,
  "AlphaParts": "GD_ClassMods.Specialization.Z_PartsList_SpecializationParts",
  "BetaParts": "GD_ClassMods.StatPrimary.Z_PartsList_PrimaryStatParts",
  "GammaParts": "GD_ClassMods.StatPrimary02.Z_PartsList_PrimaryStat02Parts",
  "DeltaParts": null,
  "EpsilonParts": null,
  "ZetaParts": null,
  "EtaParts": null,
  "ThetaParts": null,
  "MaterialParts": "GD_ClassMods.StatPenalty.Z_PartsList_StatPenaltyParts",
  "BehaviorProviderDefinition": null,
  "Behaviors": { "OnUsed": null },
  "RequiredPlayerClass": "GD_LilacPackageDef.PlayerClassId.Psycho",
  "PickupIconOverride": null,
  "CustomPresentations": [
    "GD_Lilac_ClassMods.A_Item_Lilac.ClassMod_Psycho_Z_LengendaryPsycho:AttributePresentationDefinition_3"
  ],
  "PrefixList": [
    "GD_Lilac_ClassMods.Prefix_Psycho.Prefix_Z_00_LengendaryPsycho"
  ],
  "TitleList": [ "GD_ClassMods.Title.Title_ClassMod" ],
  "InventoryClass": "WillowGame.WillowClassMod",
  "bAutomaticallyPickup": false,
  "bPickupInBulk": false,
  "bDisallowAIFromGrabbingPickup": false,
  "bDuplicatePickupJustAddsQuantity": false,
  "bSuppressPickupCard": false,
  "bTorque": false,
  "bNeverDisplayPickupMessage": false,
  "bShopsHaveInfiniteQuantity": false,
  "bCanCompare": true,
  "bUsesPlayerLevelRequirement": true,
  "bUIMeshRotationNeedsTransformFixup": false,
  "bIsConsumable": false,
  "bAllowInventoryDefToModifyPartWeight": false,
  "PlayerDroppability": "EPD_Droppable",
  "FormOfCurrency": "CURRENCY_Credits",
  "OnUseConstraintsMode": "EXPRMODE_And",
  "AttributeSlotEffectMode": "ATTRSLOTEFFECTMODE_Default",
  "PickupLifeSpan": 0.0,
  "PickupFlagScale": 1.0,
  "PickupFlagIcon": "fx_shared_items.Textures.CommDeck_Dif",
  "PickupFlagOffset": { "X": 0.0, "Y": 0.0, "Z": 0.0 },
  "Torque": { "X": 0.0, "Y": 0.0, "Z": 0.0 },
  "ThirdPersonMeshScale": 1.0,
  "MaterialClass": "Engine.MaterialInstanceConstant",
  "PhysicsAsset": "Lilac_Item_ClassMods.Meshes.Phat_PsychoClassMod",
  "PickupMessage": "You got %s",
  "UseFailureLevelMessage": "You must be at least level %d to use this item.",
  "UseFailureConstraintsMessage": "You cannot use this item.",
  "NoManufacturerName": "Generic",
  "BaseRarity": {
    "BaseValueConstant": 0.0,
    "BaseValueAttribute": null,
    "InitializationDefinition": null,
    "BaseValueScaleConstant": 1.0
  },
  "MonetaryValue": {
    "BaseValueConstant": 0.0,
    "BaseValueAttribute": null,
    "InitializationDefinition":
      "GD_Economy.PriceCalc.Init_ClassMods_Standard_PriceCalculator",
    "BaseValueScaleConstant": 1.0
  },
  "BaseMonetaryValueModifier": 1.0,
  "PlayerUseLevelBonus": {
    "BaseValueConstant": 0.0,
    "BaseValueAttribute": null,
    "InitializationDefinition":
      "GD_Balance_Inventory.LevelRequirement.Init_BaseGearLevelRequirementBonus",
    "BaseValueScaleConstant": 1.0
  },
  "UIMeshRotation": { "Pitch": 2730, "Yaw": 14563, "Roll": 10012 },
  "Presentation": "GD_InventoryPresentations.Definitions.CommDeck",
  "CalloutDefinition": null,
  "PickedUpStatID": null,
  "PurchasedStatID": null,
  "FocusRadius": 55.0,
  "FocusOffset": { "X": -0.4, "Y": -0.075, "Z": 0.0 },
  "AttributeSlotEffectSkillDuration": {
    "BaseValueConstant": 0.0,
    "BaseValueAttribute": null,
    "InitializationDefinition": null,
    "BaseValueScaleConstant": 1.0
  },
  "AttributeSlotBaseGrade": {
    "BaseValueConstant": 1.0,
    "BaseValueAttribute": null,
    "InitializationDefinition": null,
    "BaseValueScaleConstant": 1.0
  },
  "AttributeSlotMaxActivated": 19,
  "LootBeamColorOverride": { "B": 0, "G": 0, "R": 0, "A": 0 },
  "AttributeSlotUpgrades": [
    {
      "SlotName": "PrimaryStatBonus",
      "GradeIncrease": 0,
      "bActivateSlot": true
    },
    {
      "SlotName": "PrimaryStatBonus02",
      "GradeIncrease": 0,
      "bActivateSlot": true
    },
    { "SlotName": "StatPenalty", "GradeIncrease": 0, "bActivateSlot": true },
    { "SlotName": "Skill1", "GradeIncrease": 3, "bActivateSlot": true },
    { "SlotName": "Skill2", "GradeIncrease": 3, "bActivateSlot": true },
    { "SlotName": "Skill3", "GradeIncrease": 3, "bActivateSlot": true },
    { "SlotName": "Skill4", "GradeIncrease": 3, "bActivateSlot": true },
    { "SlotName": "Skill5", "GradeIncrease": 3, "bActivateSlot": true },
    { "SlotName": "Skill6", "GradeIncrease": 3, "bActivateSlot": true }
  ],
  "AttributeSlotEffects": [
    {
      "SlotName": "PrimaryStatBonus",
      "bExternalSlot": true,
      "bRunEffectsAsSkill": false,
      "AttributeToModify":
        "D_Attributes.DamageTypeModifers.InstigatedIncendiaryStatusDamageModifier",
      "ConstraintAttribute": null,
      "ModifierType": "MT_Scale",
      "BaseModifierValue": {
        "BaseValueConstant": 0.2,
        "BaseValueAttribute": null,
        "InitializationDefinition": "GD_ClassMods.Misc.Init_StatBonus_Weak",
        "BaseValueScaleConstant": 0.75
      },
      "PerGradeUpgrade": {
        "BaseValueConstant": 0.01,
        "BaseValueAttribute": null,
        "InitializationDefinition": null,
        "BaseValueScaleConstant": 1.0
      },
      "bIncludeInFunStats": false,
      "bIncludeAlliesAsTarget": false,
      "bEnforceMinimumGrade": true,
      "bEnforceMaximumGrade": false,
      "MinimumGrade": 0,
      "MaximumGrade": 0,
      "TargetInstanceDataName": null
    },
    {
      "SlotName": "PrimaryStatBonus02",
      "bExternalSlot": true,
      "bRunEffectsAsSkill": true,
      "AttributeToModify": "D_Attributes.Weapon.WeaponClipSize",
      "ConstraintAttribute": null,
      "ModifierType": "MT_Scale",
      "BaseModifierValue": {
        "BaseValueConstant": 0.2,
        "BaseValueAttribute": null,
        "InitializationDefinition": "GD_ClassMods.Misc.Init_StatBonus_Weak",
        "BaseValueScaleConstant": 0.75
      },
      "PerGradeUpgrade": {
        "BaseValueConstant": 0.01,
        "BaseValueAttribute": null,
        "InitializationDefinition": null,
        "BaseValueScaleConstant": 1.0
      },
      "bIncludeInFunStats": false,
      "bIncludeAlliesAsTarget": false,
      "bEnforceMinimumGrade": true,
      "bEnforceMaximumGrade": false,
      "MinimumGrade": 0,
      "MaximumGrade": 0,
      "TargetInstanceDataName": null
    },
    {
      "SlotName": "StatPenalty",
      "bExternalSlot": true,
      "bRunEffectsAsSkill": true,
      "AttributeToModify":
        "D_Attributes.ShieldResourcePool.ShieldOnIdleRegenerationDelay",
      "ConstraintAttribute": null,
      "ModifierType": "MT_PostAdd",
      "BaseModifierValue": {
        "BaseValueConstant": 0.25,
        "BaseValueAttribute": null,
        "InitializationDefinition": null,
        "BaseValueScaleConstant": 1.0
      },
      "PerGradeUpgrade": {
        "BaseValueConstant": 0.25,
        "BaseValueAttribute": null,
        "InitializationDefinition": null,
        "BaseValueScaleConstant": 1.0
      },
      "bIncludeInFunStats": false,
      "bIncludeAlliesAsTarget": false,
      "bEnforceMinimumGrade": true,
      "bEnforceMaximumGrade": false,
      "MinimumGrade": 0,
      "MaximumGrade": 0,
      "TargetInstanceDataName": null
    },
    {
      "SlotName": "Skill1",
      "bExternalSlot": true,
      "bRunEffectsAsSkill": true,
      "AttributeToModify":
        "GD_Lilac_ClassMods.SkillGradeModifiers.BloodfilledGuns",
      "ConstraintAttribute": null,
      "ModifierType": "MT_PostAdd",
      "BaseModifierValue": {
        "BaseValueConstant": 0.0,
        "BaseValueAttribute": null,
        "InitializationDefinition":
          "GD_ClassMods.Misc.Init_BaseSkillPointCalculation",
        "BaseValueScaleConstant": 1.0
      },
      "PerGradeUpgrade": {
        "BaseValueConstant": 0.34,
        "BaseValueAttribute": null,
        "InitializationDefinition": null,
        "BaseValueScaleConstant": 1.0
      },
      "bIncludeInFunStats": true,
      "bIncludeAlliesAsTarget": false,
      "bEnforceMinimumGrade": true,
      "bEnforceMaximumGrade": false,
      "MinimumGrade": 0,
      "MaximumGrade": 0,
      "TargetInstanceDataName": null
    },
    {
      "SlotName": "Skill2",
      "bExternalSlot": true,
      "bRunEffectsAsSkill": true,
      "AttributeToModify":
        "GD_Lilac_ClassMods.SkillGradeModifiers.BloodTwitch",
      "ConstraintAttribute": null,
      "ModifierType": "MT_PostAdd",
      "BaseModifierValue": {
        "BaseValueConstant": 0.0,
        "BaseValueAttribute": null,
        "InitializationDefinition":
          "GD_ClassMods.Misc.Init_BaseSkillPointCalculation",
        "BaseValueScaleConstant": 1.0
      },
      "PerGradeUpgrade": {
        "BaseValueConstant": 0.34,
        "BaseValueAttribute": null,
        "InitializationDefinition": null,
        "BaseValueScaleConstant": 1.0
      },
      "bIncludeInFunStats": true,
      "bIncludeAlliesAsTarget": false,
      "bEnforceMinimumGrade": true,
      "bEnforceMaximumGrade": false,
      "MinimumGrade": 0,
      "MaximumGrade": 0,
      "TargetInstanceDataName": null
    },
    {
      "SlotName": "Skill3",
      "bExternalSlot": true,
      "bRunEffectsAsSkill": true,
      "AttributeToModify":
        "GD_Lilac_ClassMods.SkillGradeModifiers.EmptyTheRage",
      "ConstraintAttribute": null,
      "ModifierType": "MT_PostAdd",
      "BaseModifierValue": {
        "BaseValueConstant": 0.0,
        "BaseValueAttribute": null,
        "InitializationDefinition":
          "GD_ClassMods.Misc.Init_BaseSkillPointCalculation",
        "BaseValueScaleConstant": 1.0
      },
      "PerGradeUpgrade": {
        "BaseValueConstant": 0.34,
        "BaseValueAttribute": null,
        "InitializationDefinition": null,
        "BaseValueScaleConstant": 1.0
      },
      "bIncludeInFunStats": true,
      "bIncludeAlliesAsTarget": false,
      "bEnforceMinimumGrade": true,
      "bEnforceMaximumGrade": false,
      "MinimumGrade": 0,
      "MaximumGrade": 0,
      "TargetInstanceDataName": null
    },
    {
      "SlotName": "Skill4",
      "bExternalSlot": true,
      "bRunEffectsAsSkill": true,
      "AttributeToModify":
        "GD_Lilac_ClassMods.SkillGradeModifiers.FeedTheMeat",
      "ConstraintAttribute": null,
      "ModifierType": "MT_PostAdd",
      "BaseModifierValue": {
        "BaseValueConstant": 0.0,
        "BaseValueAttribute": null,
        "InitializationDefinition":
          "GD_ClassMods.Misc.Init_BaseSkillPointCalculation",
        "BaseValueScaleConstant": 1.0
      },
      "PerGradeUpgrade": {
        "BaseValueConstant": 0.34,
        "BaseValueAttribute": null,
        "InitializationDefinition": null,
        "BaseValueScaleConstant": 1.0
      },
      "bIncludeInFunStats": true,
      "bIncludeAlliesAsTarget": false,
      "bEnforceMinimumGrade": true,
      "bEnforceMaximumGrade": false,
      "MinimumGrade": 0,
      "MaximumGrade": 0,
      "TargetInstanceDataName": null
    },
    {
      "SlotName": "Skill5",
      "bExternalSlot": true,
      "bRunEffectsAsSkill": true,
      "AttributeToModify":
        "GD_Lilac_ClassMods.SkillGradeModifiers.BurnBabyBurn",
      "ConstraintAttribute": null,
      "ModifierType": "MT_PostAdd",
      "BaseModifierValue": {
        "BaseValueConstant": 0.0,
        "BaseValueAttribute": null,
        "InitializationDefinition":
          "GD_ClassMods.Misc.Init_BaseSkillPointCalculation",
        "BaseValueScaleConstant": 1.0
      },
      "PerGradeUpgrade": {
        "BaseValueConstant": 0.34,
        "BaseValueAttribute": null,
        "InitializationDefinition": null,
        "BaseValueScaleConstant": 1.0
      },
      "bIncludeInFunStats": true,
      "bIncludeAlliesAsTarget": false,
      "bEnforceMinimumGrade": true,
      "bEnforceMaximumGrade": false,
      "MinimumGrade": 0,
      "MaximumGrade": 0,
      "TargetInstanceDataName": null
    },
    {
      "SlotName": "Skill6",
      "bExternalSlot": true,
      "bRunEffectsAsSkill": true,
      "AttributeToModify":
        "GD_Lilac_ClassMods.SkillGradeModifiers.FuelTheFire",
      "ConstraintAttribute": null,
      "ModifierType": "MT_PostAdd",
      "BaseModifierValue": {
        "BaseValueConstant": 0.0,
        "BaseValueAttribute": null,
        "InitializationDefinition":
          "GD_ClassMods.Misc.Init_BaseSkillPointCalculation",
        "BaseValueScaleConstant": 1.0
      },
      "PerGradeUpgrade": {
        "BaseValueConstant": 0.34,
        "BaseValueAttribute": null,
        "InitializationDefinition": null,
        "BaseValueScaleConstant": 1.0
      },
      "bIncludeInFunStats": true,
      "bIncludeAlliesAsTarget": false,
      "bEnforceMinimumGrade": true,
      "bEnforceMaximumGrade": false,
      "MinimumGrade": 0,
      "MaximumGrade": 0,
      "TargetInstanceDataName": null
    }
  ],
  "UIStatList": [
    {
      "bDisplayAsModifierOnly": true,
      "AttributeStyle": "ATTRSTYLE_ModifierText",
      "SupplementalAttributeStyle": "ATTRSTYLE_JustNumber",
      "StatCombinationMethod": "SCM_Multiply",
      "Attribute":
        "D_Attributes.DamageTypeModifers.InstigatedIncendiaryStatusDamageModifier",
      "ConstraintAttribute": null,
      "SupplementalAttributeExpression": {
        "AttributeOperand1": null,
        "ComparisonOperator": "OPERATOR_EqualTo",
        "Operand2Usage": "OPERAND_PreferAttribute",
        "AttributeOperand2": null,
        "ConstantOperand2": 0.0
      },
      "SupplementalAttributeToAppend": null
    },
    {
      "bDisplayAsModifierOnly": true,
      "AttributeStyle": "ATTRSTYLE_ModifierText",
      "SupplementalAttributeStyle": "ATTRSTYLE_JustNumber",
      "StatCombinationMethod": "SCM_Multiply",
      "Attribute": "D_Attributes.Weapon.WeaponClipSize",
      "ConstraintAttribute": null,
      "SupplementalAttributeExpression": {
        "AttributeOperand1": null,
        "ComparisonOperator": "OPERATOR_EqualTo",
        "Operand2Usage": "OPERAND_PreferAttribute",
        "AttributeOperand2": null,
        "ConstantOperand2": 0.0
      },
      "SupplementalAttributeToAppend": null
    },
    {
      "bDisplayAsModifierOnly": false,
      "AttributeStyle": "ATTRSTYLE_JustNumber",
      "SupplementalAttributeStyle": "ATTRSTYLE_JustNumber",
      "StatCombinationMethod": "SCM_Multiply",
      "Attribute":
        "D_Attributes.ShieldResourcePool.ShieldOnIdleRegenerationDelay",
      "ConstraintAttribute": null,
      "SupplementalAttributeExpression": {
        "AttributeOperand1": null,
        "ComparisonOperator": "OPERATOR_EqualTo",
        "Operand2Usage": "OPERAND_PreferAttribute",
        "AttributeOperand2": null,
        "ConstantOperand2": 0.0
      },
      "SupplementalAttributeToAppend": null
    }
  ],
  "PickupSounds": [
    {
      "Event": "Ake_Obj_Pickup.Obj_Pickup.Ak_Play_Obj_Pickup_Class_Mod",
      "Cue": null,
      "Expressions": null
    }
  ],
  "VfTableObject": "",
  "HashNext": "",
  "ObjectFlags": "",
  "HashOuterNext": "",
  "StateFrame": "",
  "Linker": null,
  "LinkerIndex": "",
  "ObjectInternalInteger": 171614,
  "NetIndex": 115,
  "Outer": "GD_Lilac_ClassMods.A_Item_Lilac",
  "Name": "ClassMod_Psycho_Z_LengendaryPsycho",
  "Class": "WillowGame.ClassModDefinition",
  "ObjectArchetype": "WillowGame.Default__ClassModDefinition"
}