{
  "VfTable_IIBehaviorProvider": "",
  "PartType": "IP_Alpha",
  "BehaviorProviderDefinition":
    "GD_Flax_Items.CandyParts.CandyPart_Damage:BehaviorProviderDefinition_0",
  "CustomPresentations": [
    "GD_Flax_Items.CandyParts.CandyPart_Damage:AttributePresentationDefinition_1",
    "GD_Flax_Items.CandyParts.CandyPart_Damage:AttributePresentationDefinition_2",
    "GD_Flax_Items.CandyParts.CandyPart_Damage:AttributePresentationDefinition_3",
    "GD_Flax_Items.CandyParts.CandyPart_Damage:AttributePresentationDefinition_0"
  ],
  "PrefixList": [ "GD_Flax_Items.CandyParts.Prefix_Damage" ],
  "Material": null,
  "bIsGestaltMode": true,
  "GestaltModeSkeletalMeshName": "Type_Enemies",
  "NongestaltSkeletalMesh": null,
  "MonetaryValueMod": null,
  "Rarity": {
    "BaseValueConstant": 0.0,
    "BaseValueAttribute": null,
    "InitializationDefinition": null,
    "BaseValueScaleConstant": 1.0
  },
  "MaterialVectorParameterValues": [
    {
      "ParameterName": "Crystal Color",
      "ParameterValue": { "R": 0.0, "G": 0.0, "B": 0.0, "A": 1.0 },
      "ExpressionGUID": { "A": 0, "B": 0, "C": 0, "D": 0 }
    },
    {
      "ParameterName": "Glow Color",
      "ParameterValue": { "R": 30.0, "G": 10.0, "B": 10.0, "A": 1.0 },
      "ExpressionGUID": { "A": 0, "B": 0, "C": 0, "D": 0 }
    },
    {
      "ParameterName": "Rim Color",
      "ParameterValue": { "R": 4.0, "G": 0.05, "B": 0.0, "A": 1.0 },
      "ExpressionGUID": { "A": 0, "B": 0, "C": 0, "D": 0 }
    }
  ],
  "AdditionalGestaltModeSkeletalMeshNames": [ null, null ],
  "VfTableObject": "",
  "HashNext": "",
  "ObjectFlags": "",
  "HashOuterNext": "",
  "StateFrame": "",
  "Linker": null,
  "LinkerIndex": "",
  "ObjectInternalInteger": 166511,
  "NetIndex": 873,
  "Outer": "GD_Flax_Items.CandyParts",
  "Name": "CandyPart_Damage",
  "Class": "WillowGame.UsableItemPartDefinition",
  "ObjectArchetype": "WillowGame.Default__UsableItemPartDefinition"
}