{
  "OverrideMaterial": "Common_Materials.Vehicle.Mat_Vehicle_Spawn",
  "CriticialHitParticle": null,
  "EffectDuration": 4.7,
  "ParticleSpeedMultiplier": 1.4,
  "NextEffect": null,
  "MutexName": null,
  "bInfiniteDuration": false,
  "bCensored": false,
  "bReplicated": true,
  "bRemoveShadows": false,
  "bHideInstanceDataParticles": false,
  "bHidePawnWeaponParticleAttachments": false,
  "AudioEffects": [
    {
      "TriggerEvent":
        "Ake_Seq_Missions.Missions.Ep06.Ak_Play_Seq_Ep06_Pimp_Ride_Digistruct",
      "TriggerTime": 0.0,
      "RTPC": null,
      "RTPCOverTime": {
        "Points": null,
        "InterpMethod": "IMT_UseFixedTangentEvalAndNewAutoTangents"
      }
    }
  ],
  "MaterialScalarParameters": [
    {
      "ParamName": "swipe",
      "ParamValueOverTime": {
        "Points": [
          {
            "InVal": 0.0,
            "OutVal": 0.9,
            "ArriveTangent": 0.0,
            "LeaveTangent": 0.0,
            "InterpMode": "CIM_Linear"
          },
          {
            "InVal": 1.0,
            "OutVal": -0.9,
            "ArriveTangent": 0.0,
            "LeaveTangent": 0.0,
            "InterpMode": "CIM_Linear"
          }
        ],
        "InterpMethod": "IMT_UseFixedTangentEvalAndNewAutoTangents"
      },
      "BoundsScale": 0,
      "bConvertAxisToWorldSpace": false
    }
  ],
  "ParticleEffects": [
    {
      "ParticleSystem":
        "FX_Placeholder_Particles.Particles.Part_LoaderDigiStructTemp",
      "LocationOffset": { "X": 0.0, "Y": 0.0, "Z": 0.0 },
      "RotationOffset": { "Pitch": 0, "Yaw": 16384, "Roll": 0 },
      "TriggerTime": 0.0,
      "ParticleScale": 1.0,
      "Parameters": null,
      "VectorParameters": null,
      "ScaleByObjectSize": "CPSM_None"
    }
  ],
  "VfTableObject": "",
  "HashNext": "",
  "ObjectFlags": "",
  "HashOuterNext": "",
  "StateFrame": "",
  "Linker": null,
  "LinkerIndex": "",
  "ObjectInternalInteger": 196051,
  "NetIndex": 0,
  "Outer": "Env_Interlude.Vehicle",
  "Name": "Vehicle_Ep6EllieTruck_DeSpawn",
  "Class": "WillowGame.CoordinatedEffectDefinition",
  "ObjectArchetype": "WillowGame.Default__CoordinatedEffectDefinition"
}