{
  "OverrideMaterial": null,
  "CriticialHitParticle": null,
  "EffectDuration": 4.0,
  "ParticleSpeedMultiplier": 0.5,
  "NextEffect": null,
  "MutexName": null,
  "bInfiniteDuration": false,
  "bCensored": false,
  "bReplicated": true,
  "bRemoveShadows": false,
  "bHideInstanceDataParticles": true,
  "bHidePawnWeaponParticleAttachments": false,
  "AudioEffects": [
    {
      "TriggerEvent": null,
      "TriggerTime": 0.026042,
      "RTPC": null,
      "RTPCOverTime": {
        "Points": null,
        "InterpMethod": "IMT_UseFixedTangentEvalAndNewAutoTangents"
      }
    }
  ],
  "MaterialScalarParameters": [
    {
      "ParamName": "p_DigiStructEnable",
      "ParamValueOverTime": {
        "Points": [
          {
            "InVal": 0.9,
            "OutVal": 1.0,
            "ArriveTangent": 0.0,
            "LeaveTangent": 0.0,
            "InterpMode": "CIM_Constant"
          },
          {
            "InVal": 1.0,
            "OutVal": 0.0,
            "ArriveTangent": 0.0,
            "LeaveTangent": 0.0,
            "InterpMode": "CIM_Constant"
          }
        ],
        "InterpMethod": "IMT_UseFixedTangentEvalAndNewAutoTangents"
      },
      "BoundsScale": 0,
      "bConvertAxisToWorldSpace": false
    },
    {
      "ParamName": "p_DigistructThreshold",
      "ParamValueOverTime": {
        "Points": [
          {
            "InVal": 0.0,
            "OutVal": -1.0,
            "ArriveTangent": 0.0,
            "LeaveTangent": 0.0,
            "InterpMode": "CIM_Linear"
          },
          {
            "InVal": 0.5,
            "OutVal": 0.0,
            "ArriveTangent": 0.0,
            "LeaveTangent": 0.0,
            "InterpMode": "CIM_Linear"
          },
          {
            "InVal": 1.0,
            "OutVal": 1.0,
            "ArriveTangent": 0.0,
            "LeaveTangent": 0.0,
            "InterpMode": "CIM_Linear"
          }
        ],
        "InterpMethod": "IMT_UseFixedTangentEvalAndNewAutoTangents"
      },
      "BoundsScale": 3,
      "bConvertAxisToWorldSpace": true
    }
  ],
  "VfTableObject": "",
  "HashNext": "",
  "ObjectFlags": "",
  "HashOuterNext": "",
  "StateFrame": "",
  "Linker": null,
  "LinkerIndex": "",
  "ObjectInternalInteger": 186769,
  "NetIndex": 31,
  "Outer": "Package'GD_CoordinatedEffects'",
  "Name": "Digistruct_Statue",
  "Class": "WillowGame.CoordinatedEffectDefinition",
  "ObjectArchetype": "WillowGame.Default__CoordinatedEffectDefinition"
}