{
  "OverrideMaterial": null,
  "CriticialHitParticle": null,
  "EffectDuration": 7.0,
  "ParticleSpeedMultiplier": 1.0,
  "NextEffect": "GD_CoordinatedEffects.Angel.Angel_TattooPulse",
  "MutexName": "Tattoo",
  "bInfiniteDuration": false,
  "bCensored": false,
  "bReplicated": true,
  "bRemoveShadows": false,
  "bHideInstanceDataParticles": false,
  "bHidePawnWeaponParticleAttachments": false,
  "MaterialScalarParameters": [
    {
      "ParamName": "Tattoo Intensity",
      "ParamValueOverTime": {
        "Points": [
          {
            "InVal": 0.0,
            "OutVal": 1.0,
            "ArriveTangent": 0.0,
            "LeaveTangent": 0.0,
            "InterpMode": "CIM_CurveAuto"
          },
          {
            "InVal": 0.3,
            "OutVal": 15.0,
            "ArriveTangent": 0.0,
            "LeaveTangent": 0.0,
            "InterpMode": "CIM_CurveAuto"
          },
          {
            "InVal": 0.31,
            "OutVal": 15.0,
            "ArriveTangent": 0.0,
            "LeaveTangent": 0.0,
            "InterpMode": "CIM_CurveAuto"
          },
          {
            "InVal": 0.61,
            "OutVal": 1.0,
            "ArriveTangent": 0.0,
            "LeaveTangent": 0.0,
            "InterpMode": "CIM_CurveAuto"
          },
          {
            "InVal": 1.0,
            "OutVal": 1.0,
            "ArriveTangent": 0.0,
            "LeaveTangent": 0.0,
            "InterpMode": "CIM_CurveAuto"
          }
        ],
        "InterpMethod": "IMT_UseFixedTangentEvalAndNewAutoTangents"
      },
      "BoundsScale": 0,
      "bConvertAxisToWorldSpace": false
    }
  ],
  "VfTableObject": "",
  "HashNext": "",
  "ObjectFlags": "",
  "HashOuterNext": "",
  "StateFrame": "",
  "Linker": null,
  "LinkerIndex": "",
  "ObjectInternalInteger": 213931,
  "NetIndex": 3,
  "Outer": "GD_CoordinatedEffects.Angel",
  "Name": "Angel_TattooPulse",
  "Class": "WillowGame.CoordinatedEffectDefinition",
  "ObjectArchetype": "WillowGame.Default__CoordinatedEffectDefinition"
}