{
  "OverrideMaterial": null,
  "CriticialHitParticle": null,
  "EffectDuration": 3.0,
  "ParticleSpeedMultiplier": 1.25,
  "NextEffect": null,
  "MutexName": null,
  "bInfiniteDuration": false,
  "bCensored": true,
  "bReplicated": true,
  "bRemoveShadows": false,
  "bHideInstanceDataParticles": true,
  "bHidePawnWeaponParticleAttachments": false,
  "MaterialVectorParameters": [
    {
      "ParamName": "p_DissolveColor",
      "ParamValueOverTime": {
        "Points": [
          {
            "InVal": 0.0,
            "OutVal": { "X": 0.0, "Y": 0.0, "Z": 1.0 },
            "ArriveTangent": { "X": 0.0, "Y": 0.0, "Z": 0.0 },
            "LeaveTangent": { "X": 0.0, "Y": 0.0, "Z": 0.0 },
            "InterpMode": "CIM_Linear"
          }
        ],
        "InterpMethod": "IMT_UseFixedTangentEvalAndNewAutoTangents"
      }
    }
  ],
  "MaterialScalarParameters": [
    {
      "ParamName": "p_fade",
      "ParamValueOverTime": {
        "Points": [
          {
            "InVal": 0.0,
            "OutVal": 1.0,
            "ArriveTangent": 0.0,
            "LeaveTangent": 0.0,
            "InterpMode": "CIM_Linear"
          },
          {
            "InVal": 1.0,
            "OutVal": 0.0,
            "ArriveTangent": 0.0,
            "LeaveTangent": 0.0,
            "InterpMode": "CIM_Linear"
          }
        ],
        "InterpMethod": "IMT_UseFixedTangentEvalAndNewAutoTangents"
      },
      "BoundsScale": 0,
      "bConvertAxisToWorldSpace": false
    }
  ],
  "ParticleEffects": [
    {
      "ParticleSystem": "FX_CharacterAbilities.Particles.Part_Re_Rez",
      "LocationOffset": { "X": 0.0, "Y": 0.0, "Z": -0.9 },
      "RotationOffset": { "Pitch": 0, "Yaw": 0, "Roll": 0 },
      "TriggerTime": 0.0,
      "ParticleScale": 1.0,
      "Parameters": null,
      "VectorParameters": null,
      "ScaleByObjectSize": "CPSM_None"
    }
  ],
  "VfTableObject": "",
  "HashNext": "",
  "ObjectFlags": "",
  "HashOuterNext": "",
  "StateFrame": "",
  "Linker": null,
  "LinkerIndex": "",
  "ObjectInternalInteger": 198827,
  "NetIndex": 75,
  "Outer": "Package'GD_CoordinatedEffects'",
  "Name": "JackClone_DeRez",
  "Class": "WillowGame.CoordinatedEffectDefinition",
  "ObjectArchetype": "WillowGame.Default__CoordinatedEffectDefinition"
}