{
  "OverrideMaterial": null,
  "CriticialHitParticle": null,
  "EffectDuration": 5.0,
  "ParticleSpeedMultiplier": 1.0,
  "NextEffect": null,
  "MutexName": "GoliathRage1",
  "bInfiniteDuration": true,
  "bCensored": false,
  "bReplicated": true,
  "bRemoveShadows": false,
  "bHideInstanceDataParticles": false,
  "bHidePawnWeaponParticleAttachments": false,
  "MaterialVectorParameters": [
    {
      "ParamName": "p_AColorHilight",
      "ParamValueOverTime": {
        "Points": [
          {
            "InVal": 0.0,
            "OutVal": { "X": 0.082886, "Y": 0.265184, "Z": 0.057147 },
            "ArriveTangent": { "X": 0.0, "Y": 0.0, "Z": 0.0 },
            "LeaveTangent": { "X": 0.0, "Y": 0.0, "Z": 0.0 },
            "InterpMode": "CIM_Linear"
          },
          {
            "InVal": 1.0,
            "OutVal": { "X": 2.705628, "Y": 10.416664, "Z": 1.616855 },
            "ArriveTangent": { "X": 0.0, "Y": 0.0, "Z": 0.0 },
            "LeaveTangent": { "X": 0.0, "Y": 0.0, "Z": 0.0 },
            "InterpMode": "CIM_Linear"
          }
        ],
        "InterpMethod": "IMT_UseFixedTangentEvalAndNewAutoTangents"
      }
    },
    {
      "ParamName": "p_AColorMidtone",
      "ParamValueOverTime": {
        "Points": [
          {
            "InVal": 0.0,
            "OutVal": { "X": 0.852694, "Y": 0.932086, "Z": 0.960674 },
            "ArriveTangent": { "X": 0.0, "Y": 0.0, "Z": 0.0 },
            "LeaveTangent": { "X": 0.0, "Y": 0.0, "Z": 0.0 },
            "InterpMode": "CIM_Linear"
          },
          {
            "InVal": 1.0,
            "OutVal": { "X": 0.852694, "Y": 0.932086, "Z": 0.960674 },
            "ArriveTangent": { "X": 0.0, "Y": 0.0, "Z": 0.0 },
            "LeaveTangent": { "X": 0.0, "Y": 0.0, "Z": 0.0 },
            "InterpMode": "CIM_Linear"
          }
        ],
        "InterpMethod": "IMT_UseFixedTangentEvalAndNewAutoTangents"
      }
    },
    {
      "ParamName": "p_AColorShadow",
      "ParamValueOverTime": {
        "Points": [
          {
            "InVal": 0.0,
            "OutVal": { "X": 0.25974, "Y": 1.0, "Z": 0.155218 },
            "ArriveTangent": { "X": 0.0, "Y": 0.0, "Z": 0.0 },
            "LeaveTangent": { "X": 0.0, "Y": 0.0, "Z": 0.0 },
            "InterpMode": "CIM_Linear"
          },
          {
            "InVal": 1.0,
            "OutVal": { "X": 2.705628, "Y": 10.416664, "Z": 1.616855 },
            "ArriveTangent": { "X": 0.0, "Y": 0.0, "Z": 0.0 },
            "LeaveTangent": { "X": 0.0, "Y": 0.0, "Z": 0.0 },
            "InterpMode": "CIM_Linear"
          }
        ],
        "InterpMethod": "IMT_UseFixedTangentEvalAndNewAutoTangents"
      }
    },
    {
      "ParamName": "p_BColorHilight",
      "ParamValueOverTime": {
        "Points": [
          {
            "InVal": 0.0,
            "OutVal": { "X": 0.484204, "Y": 0.850797, "Z": 0.437165 },
            "ArriveTangent": { "X": 0.0, "Y": 0.0, "Z": 0.0 },
            "LeaveTangent": { "X": 0.0, "Y": 0.0, "Z": 0.0 },
            "InterpMode": "CIM_Linear"
          },
          {
            "InVal": 1.0,
            "OutVal": { "X": 0.562524, "Y": 1.87456, "Z": 0.394172 },
            "ArriveTangent": { "X": 0.0, "Y": 0.0, "Z": 0.0 },
            "LeaveTangent": { "X": 0.0, "Y": 0.0, "Z": 0.0 },
            "InterpMode": "CIM_Linear"
          }
        ],
        "InterpMethod": "IMT_UseFixedTangentEvalAndNewAutoTangents"
      }
    },
    {
      "ParamName": "p_BColorMidtone",
      "ParamValueOverTime": {
        "Points": [
          {
            "InVal": 0.0,
            "OutVal": { "X": 0.351631, "Y": 0.530367, "Z": 0.353521 },
            "ArriveTangent": { "X": 0.0, "Y": 0.0, "Z": 0.0 },
            "LeaveTangent": { "X": 0.0, "Y": 0.0, "Z": 0.0 },
            "InterpMode": "CIM_Linear"
          },
          {
            "InVal": 1.0,
            "OutVal": { "X": 0.038574, "Y": 0.308989, "Z": 0.041434 },
            "ArriveTangent": { "X": 0.0, "Y": 0.0, "Z": 0.0 },
            "LeaveTangent": { "X": 0.0, "Y": 0.0, "Z": 0.0 },
            "InterpMode": "CIM_Linear"
          }
        ],
        "InterpMethod": "IMT_UseFixedTangentEvalAndNewAutoTangents"
      }
    },
    {
      "ParamName": "p_BColorShadow",
      "ParamValueOverTime": {
        "Points": [
          {
            "InVal": 0.0,
            "OutVal": { "X": 0.132259, "Y": 0.635336, "Z": 0.148537 },
            "ArriveTangent": { "X": 0.0, "Y": 0.0, "Z": 0.0 },
            "LeaveTangent": { "X": 0.0, "Y": 0.0, "Z": 0.0 },
            "InterpMode": "CIM_Linear"
          },
          {
            "InVal": 1.0,
            "OutVal": { "X": 3.44199, "Y": 16.534391, "Z": 3.865633 },
            "ArriveTangent": { "X": 0.0, "Y": 0.0, "Z": 0.0 },
            "LeaveTangent": { "X": 0.0, "Y": 0.0, "Z": 0.0 },
            "InterpMode": "CIM_Linear"
          }
        ],
        "InterpMethod": "IMT_UseFixedTangentEvalAndNewAutoTangents"
      }
    },
    {
      "ParamName": "p_CColorHilight",
      "ParamValueOverTime": {
        "Points": [
          {
            "InVal": 0.0,
            "OutVal": { "X": 0.480682, "Y": 1.0, "Z": 0.49419 },
            "ArriveTangent": { "X": 0.0, "Y": 0.0, "Z": 0.0 },
            "LeaveTangent": { "X": 0.0, "Y": 0.0, "Z": 0.0 },
            "InterpMode": "CIM_Linear"
          },
          {
            "InVal": 1.0,
            "OutVal": {
              "X": 1.449289,
              "Y": 9.793530000000001,
              "Z": 1.666336
            },
            "ArriveTangent": { "X": 0.0, "Y": 0.0, "Z": 0.0 },
            "LeaveTangent": { "X": 0.0, "Y": 0.0, "Z": 0.0 },
            "InterpMode": "CIM_Linear"
          }
        ],
        "InterpMethod": "IMT_UseFixedTangentEvalAndNewAutoTangents"
      }
    },
    {
      "ParamName": "p_CColorMidtone",
      "ParamValueOverTime": {
        "Points": [
          {
            "InVal": 0.0,
            "OutVal": { "X": 1.0, "Y": 0.580592, "Z": 0.346427 },
            "ArriveTangent": { "X": 0.0, "Y": 0.0, "Z": 0.0 },
            "LeaveTangent": { "X": 0.0, "Y": 0.0, "Z": 0.0 },
            "InterpMode": "CIM_Linear"
          },
          {
            "InVal": 1.0,
            "OutVal": {
              "X": 2.078693,
              "Y": 1.206873,
              "Z": 0.7201149999999999
            },
            "ArriveTangent": { "X": 0.0, "Y": 0.0, "Z": 0.0 },
            "LeaveTangent": { "X": 0.0, "Y": 0.0, "Z": 0.0 },
            "InterpMode": "CIM_Linear"
          }
        ],
        "InterpMethod": "IMT_UseFixedTangentEvalAndNewAutoTangents"
      }
    },
    {
      "ParamName": "p_CColorShadow",
      "ParamValueOverTime": {
        "Points": [
          {
            "InVal": 0.0,
            "OutVal": { "X": 0.324292, "Y": 1.0, "Z": 0.17446 },
            "ArriveTangent": { "X": 0.0, "Y": 0.0, "Z": 0.0 },
            "LeaveTangent": { "X": 0.0, "Y": 0.0, "Z": 0.0 },
            "InterpMode": "CIM_Linear"
          },
          {
            "InVal": 1.0,
            "OutVal": { "X": 0.371652, "Y": 1.14604, "Z": 0.199938 },
            "ArriveTangent": { "X": 0.0, "Y": 0.0, "Z": 0.0 },
            "LeaveTangent": { "X": 0.0, "Y": 0.0, "Z": 0.0 },
            "InterpMode": "CIM_Linear"
          }
        ],
        "InterpMethod": "IMT_UseFixedTangentEvalAndNewAutoTangents"
      }
    }
  ],
  "MaterialScalarParameters": [
    {
      "ParamName": "p_PatternIntensity",
      "ParamValueOverTime": {
        "Points": [
          {
            "InVal": 0.0,
            "OutVal": 0.0,
            "ArriveTangent": 0.0,
            "LeaveTangent": 0.0,
            "InterpMode": "CIM_Linear"
          },
          {
            "InVal": 1.0,
            "OutVal": 2.0,
            "ArriveTangent": 0.0,
            "LeaveTangent": 0.0,
            "InterpMode": "CIM_Linear"
          }
        ],
        "InterpMethod": "IMT_UseFixedTangentEvalAndNewAutoTangents"
      },
      "BoundsScale": 0,
      "bConvertAxisToWorldSpace": false
    }
  ],
  "VfTableObject": "",
  "HashNext": "",
  "ObjectFlags": "",
  "HashOuterNext": "",
  "StateFrame": "",
  "Linker": null,
  "LinkerIndex": "",
  "ObjectInternalInteger": 205200,
  "NetIndex": 50,
  "Outer": "Package'GD_CoordinatedEffects'",
  "Name": "FadeIn_GoliathRageCorrosiveColor",
  "Class": "WillowGame.CoordinatedEffectDefinition",
  "ObjectArchetype": "WillowGame.Default__CoordinatedEffectDefinition"
}