{
  "OverrideMaterial": "Char_Stalker.Materials.Mat_StalkerBodyTrans2",
  "CriticialHitParticle": null,
  "EffectDuration": 0.25,
  "ParticleSpeedMultiplier": 1.0,
  "NextEffect": null,
  "MutexName": "Cloak",
  "bInfiniteDuration": true,
  "bCensored": false,
  "bReplicated": false,
  "bRemoveShadows": false,
  "bHideInstanceDataParticles": true,
  "bHidePawnWeaponParticleAttachments": false,
  "MaterialScalarParameters": [
    {
      "ParamName": "p_fade",
      "ParamValueOverTime": {
        "Points": [
          {
            "InVal": 0.0,
            "OutVal": 0.0,
            "ArriveTangent": 0.0,
            "LeaveTangent": 0.0,
            "InterpMode": "CIM_Linear"
          },
          {
            "InVal": 1.0,
            "OutVal": 1.0,
            "ArriveTangent": 0.0,
            "LeaveTangent": 0.0,
            "InterpMode": "CIM_Linear"
          }
        ],
        "InterpMethod": "IMT_UseFixedTangentEvalAndNewAutoTangents"
      },
      "BoundsScale": 0,
      "bConvertAxisToWorldSpace": false
    }
  ],
  "VfTableObject": "",
  "HashNext": "",
  "ObjectFlags": "",
  "HashOuterNext": "",
  "StateFrame": "",
  "Linker": null,
  "LinkerIndex": "",
  "ObjectInternalInteger": 185749,
  "NetIndex": 15,
  "Outer": "Package'GD_CoordinatedEffects'",
  "Name": "Cloak_Stalker_2",
  "Class": "WillowGame.CoordinatedEffectDefinition",
  "ObjectArchetype": "WillowGame.Default__CoordinatedEffectDefinition"
}