{
  "OverrideMaterial": null,
  "CriticialHitParticle": null,
  "EffectDuration": 3.0,
  "ParticleSpeedMultiplier": 1.0,
  "NextEffect": null,
  "MutexName": "Native",
  "bInfiniteDuration": false,
  "bCensored": false,
  "bReplicated": true,
  "bRemoveShadows": false,
  "bHideInstanceDataParticles": false,
  "bHidePawnWeaponParticleAttachments": false,
  "MaterialVectorParameters": [
    {
      "ParamName": "p_MuscleFat",
      "ParamValueOverTime": {
        "Points": [
          {
            "InVal": 0.0,
            "OutVal": { "X": 0.0, "Y": 0.0, "Z": 0.0 },
            "ArriveTangent": { "X": 0.0, "Y": 0.0, "Z": 0.0 },
            "LeaveTangent": { "X": 0.0, "Y": 0.0, "Z": 0.0 },
            "InterpMode": "CIM_Linear"
          },
          {
            "InVal": 1.0,
            "OutVal": { "X": 0.0, "Y": 10.0, "Z": 0.0 },
            "ArriveTangent": { "X": 0.0, "Y": 0.0, "Z": 0.0 },
            "LeaveTangent": { "X": 0.0, "Y": 0.0, "Z": 0.0 },
            "InterpMode": "CIM_Linear"
          }
        ],
        "InterpMethod": "IMT_UseFixedTangentEvalAndNewAutoTangents"
      }
    },
    {
      "ParamName": "p_BColorMidtone",
      "ParamValueOverTime": {
        "Points": [
          {
            "InVal": 0.0,
            "OutVal": { "X": 0.729255, "Y": 0.507666, "Z": 0.525359 },
            "ArriveTangent": { "X": 0.0, "Y": 0.0, "Z": 0.0 },
            "LeaveTangent": { "X": 0.0, "Y": 0.0, "Z": 0.0 },
            "InterpMode": "CIM_Linear"
          },
          {
            "InVal": 1.0,
            "OutVal": { "X": 0.729255, "Y": 0.0, "Z": 0.001889 },
            "ArriveTangent": { "X": 0.0, "Y": 0.0, "Z": 0.0 },
            "LeaveTangent": { "X": 0.0, "Y": 0.0, "Z": 0.0 },
            "InterpMode": "CIM_Linear"
          }
        ],
        "InterpMethod": "IMT_UseFixedTangentEvalAndNewAutoTangents"
      }
    },
    {
      "ParamName": "p_BColorShadow",
      "ParamValueOverTime": {
        "Points": [
          {
            "InVal": 0.0,
            "OutVal": { "X": 0.392548, "Y": 0.329651, "Z": 0.397775 },
            "ArriveTangent": { "X": 0.0, "Y": 0.0, "Z": 0.0 },
            "LeaveTangent": { "X": 0.0, "Y": 0.0, "Z": 0.0 },
            "InterpMode": "CIM_Linear"
          },
          {
            "InVal": 1.0,
            "OutVal": { "X": 1.0, "Y": 0.0, "Z": 0.0 },
            "ArriveTangent": { "X": 0.0, "Y": 0.0, "Z": 0.0 },
            "LeaveTangent": { "X": 0.0, "Y": 0.0, "Z": 0.0 },
            "InterpMode": "CIM_Linear"
          }
        ],
        "InterpMethod": "IMT_UseFixedTangentEvalAndNewAutoTangents"
      }
    },
    {
      "ParamName": "p_BColorHilight",
      "ParamValueOverTime": {
        "Points": [
          {
            "InVal": 0.0,
            "OutVal": { "X": 1.0, "Y": 0.865108, "Z": 0.690991 },
            "ArriveTangent": { "X": 0.0, "Y": 0.0, "Z": 0.0 },
            "LeaveTangent": { "X": 0.0, "Y": 0.0, "Z": 0.0 },
            "InterpMode": "CIM_Linear"
          },
          {
            "InVal": 1.0,
            "OutVal": {
              "X": 0.9213479999999999,
              "Y": 0.183742,
              "Z": 0.108698
            },
            "ArriveTangent": { "X": 0.0, "Y": 0.0, "Z": 0.0 },
            "LeaveTangent": { "X": 0.0, "Y": 0.0, "Z": 0.0 },
            "InterpMode": "CIM_Linear"
          }
        ],
        "InterpMethod": "IMT_UseFixedTangentEvalAndNewAutoTangents"
      }
    }
  ],
  "VfTableObject": "",
  "HashNext": "",
  "ObjectFlags": "",
  "HashOuterNext": "",
  "StateFrame": "",
  "Linker": null,
  "LinkerIndex": "",
  "ObjectInternalInteger": 213757,
  "NetIndex": 431,
  "Outer": "GD_Nast_Native_Shared.Effects",
  "Name": "Native_FadeIn_Demon",
  "Class": "WillowGame.CoordinatedEffectDefinition",
  "ObjectArchetype": "WillowGame.Default__CoordinatedEffectDefinition"
}