{
  "OverrideMaterial": null,
  "CriticialHitParticle": null,
  "EffectDuration": 1.0,
  "ParticleSpeedMultiplier": 1.0,
  "NextEffect": null,
  "MutexName": null,
  "bInfiniteDuration": false,
  "bCensored": false,
  "bReplicated": true,
  "bRemoveShadows": false,
  "bHideInstanceDataParticles": false,
  "bHidePawnWeaponParticleAttachments": false,
  "MaterialVectorParameters": [
    {
      "ParamName": "p_DissolveColor",
      "ParamValueOverTime": {
        "Points": [
          {
            "InVal": 0.0,
            "OutVal": { "X": 1.0, "Y": 1.0, "Z": 1.0 },
            "ArriveTangent": { "X": 0.0, "Y": 0.0, "Z": 0.0 },
            "LeaveTangent": { "X": 0.0, "Y": 0.0, "Z": 0.0 },
            "InterpMode": "CIM_Linear"
          }
        ],
        "InterpMethod": "IMT_UseFixedTangentEvalAndNewAutoTangents"
      }
    }
  ],
  "MaterialScalarParameters": [
    {
      "ParamName": "p_fade",
      "ParamValueOverTime": {
        "Points": [
          {
            "InVal": 0.0,
            "OutVal": 1.0,
            "ArriveTangent": 0.0,
            "LeaveTangent": 0.0,
            "InterpMode": "CIM_Linear"
          },
          {
            "InVal": 1.0,
            "OutVal": 0.0,
            "ArriveTangent": 0.0,
            "LeaveTangent": 0.0,
            "InterpMode": "CIM_Linear"
          }
        ],
        "InterpMethod": "IMT_UseFixedTangentEvalAndNewAutoTangents"
      },
      "BoundsScale": 0,
      "bConvertAxisToWorldSpace": false
    }
  ],
  "VfTableObject": "",
  "HashNext": "",
  "ObjectFlags": "",
  "HashOuterNext": "",
  "StateFrame": "",
  "Linker": null,
  "LinkerIndex": "",
  "ObjectInternalInteger": 212254,
  "NetIndex": 441,
  "Outer": "GD_Native_WitchDoctorShared.Effects",
  "Name": "Native_FadeOut_Standard",
  "Class": "WillowGame.CoordinatedEffectDefinition",
  "ObjectArchetype": "WillowGame.Default__CoordinatedEffectDefinition"
}