{
  "OverrideMaterial": null,
  "CriticialHitParticle": null,
  "EffectDuration": 5.0,
  "ParticleSpeedMultiplier": 1.0,
  "NextEffect": null,
  "MutexName": null,
  "bInfiniteDuration": false,
  "bCensored": false,
  "bReplicated": true,
  "bRemoveShadows": false,
  "bHideInstanceDataParticles": false,
  "bHidePawnWeaponParticleAttachments": false,
  "MaterialVectorParameters": [
    {
      "ParamName": "p_MuscleFat",
      "ParamValueOverTime": {
        "Points": [
          {
            "InVal": 0.0,
            "OutVal": { "X": 0.0, "Y": 0.0, "Z": 0.0 },
            "ArriveTangent": { "X": 0.0, "Y": 0.0, "Z": 0.0 },
            "LeaveTangent": { "X": 0.0, "Y": 0.0, "Z": 0.0 },
            "InterpMode": "CIM_CurveAutoClamped"
          },
          {
            "InVal": 1.0,
            "OutVal": { "X": 50.0, "Y": 50.0, "Z": 0.0 },
            "ArriveTangent": { "X": 0.0, "Y": 0.0, "Z": 0.0 },
            "LeaveTangent": { "X": 0.0, "Y": 0.0, "Z": 0.0 },
            "InterpMode": "CIM_CurveAutoClamped"
          }
        ],
        "InterpMethod": "IMT_UseFixedTangentEvalAndNewAutoTangents"
      }
    }
  ],
  "VfTableObject": "",
  "HashNext": "",
  "ObjectFlags": "",
  "HashOuterNext": "",
  "StateFrame": "",
  "Linker": null,
  "LinkerIndex": "",
  "ObjectInternalInteger": 220886,
  "NetIndex": 4,
  "Outer": "GD_Orchid_CoordinatedEffects.Effects",
  "Name": "Rakkhive_Swell",
  "Class": "WillowGame.CoordinatedEffectDefinition",
  "ObjectArchetype": "WillowGame.Default__CoordinatedEffectDefinition"
}