{
  "OverrideMaterial": "Char_Sage_Borok.Materials.Mati_Sage_Borok_FireBadass",
  "CriticialHitParticle": null,
  "EffectDuration": 6.0,
  "ParticleSpeedMultiplier": 1.0,
  "NextEffect": null,
  "MutexName": "SkagTransform",
  "bInfiniteDuration": true,
  "bCensored": false,
  "bReplicated": true,
  "bRemoveShadows": false,
  "bHideInstanceDataParticles": false,
  "bHidePawnWeaponParticleAttachments": false,
  "MaterialScalarParameters": [
    {
      "ParamName": "p_FxScaleFire",
      "ParamValueOverTime": {
        "Points": [
          {
            "InVal": 0.0,
            "OutVal": 0.0,
            "ArriveTangent": 0.0,
            "LeaveTangent": 0.0,
            "InterpMode": "CIM_Linear"
          },
          {
            "InVal": 1.0,
            "OutVal": 10.0,
            "ArriveTangent": 0.0,
            "LeaveTangent": 0.0,
            "InterpMode": "CIM_Linear"
          }
        ],
        "InterpMethod": "IMT_UseFixedTangentEvalAndNewAutoTangents"
      },
      "BoundsScale": 0,
      "bConvertAxisToWorldSpace": false
    }
  ],
  "VfTableObject": "",
  "HashNext": "",
  "ObjectFlags": "",
  "HashOuterNext": "",
  "StateFrame": "",
  "Linker": null,
  "LinkerIndex": "",
  "ObjectInternalInteger": 188124,
  "NetIndex": 1,
  "Outer": "GD_Sage_CoordinatedEffects.Borok",
  "Name": "FadeIn_Fire",
  "Class": "WillowGame.CoordinatedEffectDefinition",
  "ObjectArchetype": "WillowGame.Default__CoordinatedEffectDefinition"
}