{
  "OverrideMaterial": null,
  "CriticialHitParticle": null,
  "EffectDuration": 0.8,
  "ParticleSpeedMultiplier": 1.0,
  "NextEffect": null,
  "MutexName": "Uncloak",
  "bInfiniteDuration": false,
  "bCensored": false,
  "bReplicated": true,
  "bRemoveShadows": false,
  "bHideInstanceDataParticles": false,
  "bHidePawnWeaponParticleAttachments": false,
  "AudioEffects": [
    {
      "TriggerEvent": "Ake_Aster_Mon_Pixie.Ak_Play_Aster_Mon_Pixie_Cloak",
      "TriggerTime": 0.0,
      "RTPC": null,
      "RTPCOverTime": {
        "Points": null,
        "InterpMethod": "IMT_UseFixedTangentEvalAndNewAutoTangents"
      }
    }
  ],
  "MaterialScalarParameters": [
    {
      "ParamName": "p_fade",
      "ParamValueOverTime": {
        "Points": [
          {
            "InVal": 0.0,
            "OutVal": 0.0,
            "ArriveTangent": 0.0,
            "LeaveTangent": 0.0,
            "InterpMode": "CIM_Linear"
          },
          {
            "InVal": 1.0,
            "OutVal": 1.0,
            "ArriveTangent": 0.0,
            "LeaveTangent": 0.0,
            "InterpMode": "CIM_Linear"
          }
        ],
        "InterpMethod": "IMT_UseFixedTangentEvalAndNewAutoTangents"
      },
      "BoundsScale": 0,
      "bConvertAxisToWorldSpace": false
    }
  ],
  "VfTableObject": "",
  "HashNext": "",
  "ObjectFlags": "",
  "HashOuterNext": "",
  "StateFrame": "",
  "Linker": null,
  "LinkerIndex": "",
  "ObjectInternalInteger": 219003,
  "NetIndex": 630,
  "Outer": "GD_Wisp.CoordinatedEffects",
  "Name": "Uncloak_Wisp",
  "Class": "WillowGame.CoordinatedEffectDefinition",
  "ObjectArchetype": "WillowGame.Default__CoordinatedEffectDefinition"
}