{
  "OverrideMaterial": null,
  "CriticialHitParticle": null,
  "EffectDuration": 0.0,
  "ParticleSpeedMultiplier": 1.0,
  "NextEffect": null,
  "MutexName": null,
  "bInfiniteDuration": false,
  "bCensored": false,
  "bReplicated": false,
  "bRemoveShadows": false,
  "bHideInstanceDataParticles": false,
  "bHidePawnWeaponParticleAttachments": false,
  "VfTableObject": "",
  "HashNext": "",
  "ObjectFlags": "",
  "HashOuterNext": "",
  "StateFrame": "",
  "Linker": null,
  "LinkerIndex": "",
  "ObjectInternalInteger": 3787,
  "NetIndex": 18910,
  "Outer": "Package'WillowGame'",
  "Name": "Default__CoordinatedEffectDefinition",
  "Class": "WillowGame.CoordinatedEffectDefinition",
  "ObjectArchetype": "Engine.Default__GBXDefinition"
}