{
  "VfTable_IIBehaviorProvider": "",
  "PartType": "IP_Theta",
  "BehaviorProviderDefinition": null,
  "Material": null,
  "bIsGestaltMode": false,
  "GestaltModeSkeletalMeshName": null,
  "NongestaltSkeletalMesh": null,
  "MonetaryValueMod":
    "GD_Economy.Rarity.Att_Price_RarityMultiplier_01_Common",
  "Rarity": {
    "BaseValueConstant": 0.0,
    "BaseValueAttribute":
      "GD_Balance_Inventory.Rarity_Item.ItemRarity1_Common",
    "InitializationDefinition": null,
    "BaseValueScaleConstant": 1.0
  },
  "AttributeSlotUpgrades": [
    { "SlotName": "Effect1", "GradeIncrease": 1, "bActivateSlot": false },
    { "SlotName": "Effect2", "GradeIncrease": 1, "bActivateSlot": false },
    { "SlotName": "Effect3", "GradeIncrease": 1, "bActivateSlot": false },
    { "SlotName": "Effect4", "GradeIncrease": 1, "bActivateSlot": false },
    { "SlotName": "Effect5", "GradeIncrease": 1, "bActivateSlot": false },
    { "SlotName": "Effect6", "GradeIncrease": 1, "bActivateSlot": false },
    { "SlotName": "Effect7", "GradeIncrease": 1, "bActivateSlot": false }
  ],
  "AdditionalGestaltModeSkeletalMeshNames": [ null, null ],
  "VfTableObject": "",
  "HashNext": "",
  "ObjectFlags": "",
  "HashOuterNext": "",
  "StateFrame": "",
  "Linker": null,
  "LinkerIndex": "",
  "ObjectInternalInteger": 107246,
  "NetIndex": 78,
  "Outer": "GD_Artifacts.Upgrade",
  "Name": "Upgrade_Grade1",
  "Class": "WillowGame.ArtifactPartDefinition",
  "ObjectArchetype": "WillowGame.Default__ArtifactPartDefinition"
}