{
  "VfTable_IIBehaviorProvider": "",
  "PartType": "IP_Theta",
  "BehaviorProviderDefinition": null,
  "Material": null,
  "bIsGestaltMode": false,
  "GestaltModeSkeletalMeshName": null,
  "NongestaltSkeletalMesh": null,
  "MonetaryValueMod":
    "GD_Economy.Rarity.Att_Price_RarityMultiplier_01_Common",
  "Rarity": {
    "BaseValueConstant": 501.0,
    "BaseValueAttribute": null,
    "InitializationDefinition": null,
    "BaseValueScaleConstant": 1.0
  },
  "AttributeSlotUpgrades": [
    { "SlotName": "Effect1", "GradeIncrease": 0, "bActivateSlot": false },
    { "SlotName": "Effect2", "GradeIncrease": 0, "bActivateSlot": false }
  ],
  "AdditionalGestaltModeSkeletalMeshNames": [ null, null ],
  "VfTableObject": "",
  "HashNext": "",
  "ObjectFlags": "",
  "HashOuterNext": "",
  "StateFrame": "",
  "Linker": null,
  "LinkerIndex": "",
  "ObjectInternalInteger": 163145,
  "NetIndex": 7,
  "Outer": "GD_Aster_Artifacts.Upgrade",
  "Name": "Upgrade_SeraphShadow_Grade0",
  "Class": "WillowGame.ArtifactPartDefinition",
  "ObjectArchetype": "WillowGame.Default__ArtifactPartDefinition"
}