{
  "VfTable_IIBehaviorProvider": "",
  "PartType": "IP_Alpha",
  "BehaviorProviderDefinition": null,
  "Material": null,
  "bIsGestaltMode": false,
  "GestaltModeSkeletalMeshName": "Type_Weapons",
  "NongestaltSkeletalMesh": null,
  "MonetaryValueMod": null,
  "Rarity": {
    "BaseValueConstant": 0.0,
    "BaseValueAttribute": null,
    "InitializationDefinition": null,
    "BaseValueScaleConstant": 1.0
  },
  "AttributeSlotUpgrades": [
    { "SlotName": "Effect5", "GradeIncrease": 1, "bActivateSlot": true }
  ],
  "AdditionalGestaltModeSkeletalMeshNames": [ null, null ],
  "VfTableObject": "",
  "HashNext": "",
  "ObjectFlags": "",
  "HashOuterNext": "",
  "StateFrame": "",
  "Linker": null,
  "LinkerIndex": "",
  "ObjectInternalInteger": 107218,
  "NetIndex": 53,
  "Outer": "GD_Artifacts.Enable1st",
  "Name": "EnableFirst_Effect5",
  "Class": "WillowGame.ArtifactPartDefinition",
  "ObjectArchetype": "WillowGame.Default__ArtifactPartDefinition"
}