{
  "VfTable_IIBehaviorProvider": "",
  "PartType": "IP_Eta",
  "BehaviorProviderDefinition": null,
  "CustomPresentations": [
    "GD_Artifacts.Body.Body_Resistance:AttributePresentationDefinition_0"
  ],
  "Material": null,
  "bIsGestaltMode": true,
  "GestaltModeSkeletalMeshName": "Type_Elemental",
  "NongestaltSkeletalMesh": null,
  "MonetaryValueMod": null,
  "Rarity": {
    "BaseValueConstant": 0.0,
    "BaseValueAttribute": null,
    "InitializationDefinition": null,
    "BaseValueScaleConstant": 1.0
  },
  "MaterialVectorParameterValues": [
    {
      "ParameterName": "p_EmissiveColor",
      "ParameterValue": { "R": 0.033645, "G": 0.1, "B": 1.0, "A": 2.5 },
      "ExpressionGUID": { "A": 0, "B": 0, "C": 0, "D": 0 }
    },
    {
      "ParameterName": "Ring_ScaleSpeedOffset",
      "ParameterValue": { "R": 2.0, "G": 0.5, "B": 0.43, "A": 1.0 },
      "ExpressionGUID": { "A": 0, "B": 0, "C": 0, "D": 0 }
    }
  ],
  "AdditionalGestaltModeSkeletalMeshNames": [ null, null ],
  "VfTableObject": "",
  "HashNext": "",
  "ObjectFlags": "",
  "HashOuterNext": "",
  "StateFrame": "",
  "Linker": null,
  "LinkerIndex": "",
  "ObjectInternalInteger": 107193,
  "NetIndex": 41,
  "Outer": "GD_Artifacts.Body",
  "Name": "Body_Resistance",
  "Class": "WillowGame.ArtifactPartDefinition",
  "ObjectArchetype": "WillowGame.Default__ArtifactPartDefinition"
}