{
  "VfTable_IIBehaviorProvider": "",
  "PartType": "IP_Theta",
  "BehaviorProviderDefinition": null,
  "Material": null,
  "bIsGestaltMode": true,
  "GestaltModeSkeletalMeshName": "Ring_Double",
  "NongestaltSkeletalMesh": null,
  "MonetaryValueMod": "GD_Economy.Rarity.Att_Price_RarityMultiplier_03_Rare",
  "Rarity": {
    "BaseValueConstant": 0.0,
    "BaseValueAttribute": null,
    "InitializationDefinition": null,
    "BaseValueScaleConstant": 1.0
  },
  "AttributeSlotUpgrades": [
    { "SlotName": "Effect1", "GradeIncrease": 11, "bActivateSlot": false },
    { "SlotName": "Effect2", "GradeIncrease": 11, "bActivateSlot": false },
    { "SlotName": "Effect3", "GradeIncrease": 11, "bActivateSlot": false },
    { "SlotName": "Effect4", "GradeIncrease": 11, "bActivateSlot": false },
    { "SlotName": "Effect5", "GradeIncrease": 11, "bActivateSlot": false },
    { "SlotName": "Effect6", "GradeIncrease": 11, "bActivateSlot": false },
    { "SlotName": "Effect7", "GradeIncrease": 11, "bActivateSlot": false }
  ],
  "AdditionalGestaltModeSkeletalMeshNames": [ null, null ],
  "VfTableObject": "",
  "HashNext": "",
  "ObjectFlags": "",
  "HashOuterNext": "",
  "StateFrame": "",
  "Linker": null,
  "LinkerIndex": "",
  "ObjectInternalInteger": 168585,
  "NetIndex": 2,
  "Outer": "GD_Iris_SeraphItems.Might",
  "Name": "Iris_Seraph_Artifact_Might_Part_Upgrade11",
  "Class": "WillowGame.ArtifactPartDefinition",
  "ObjectArchetype": "WillowGame.Default__ArtifactPartDefinition"
}