{
  "MeshRotation": { "Pitch": 0, "Yaw": 15473, "Roll": 0 },
  "ViewOffsetClamp": { "X": 0.0, "Y": 3.0, "Z": 2.75 },
  "ViewOffsetScale": 0.25,
  "TextureParameterName": "gfx",
  "RenderTextureMode": "RTM_AlphaComposite",
  "DialogBoxDefinition": "UI_Popup_DialogBox.Dialog_Box_DEF",
  "TrainingDialogBoxDefinition": "UI_Popup_DialogBox.Dialog_Box_Training_DEF",
  "TrainingDialogBoxDefinition_NoPause":
    "UI_Popup_DialogBox.Dialog_Box_Training_NoPause_DEF",
  "EditDialogBoxDefinition": null,
  "RenderTextureSize": 0,
  "MeshTranslation": [
    { "X": 20.0, "Y": -1.5, "Z": 0.0 },
    { "X": 16.0, "Y": 1.0, "Z": 0.0 },
    { "X": 16.0, "Y": -1.0, "Z": 0.0 },
    { "X": 20.0, "Y": 0.0, "Z": 0.0 },
    { "X": 16.0, "Y": 0.0, "Z": -0.5 },
    { "X": 16.0, "Y": 0.0, "Z": 0.5 }
  ],
  "VfTableObject": "",
  "HashNext": "",
  "ObjectFlags": "",
  "HashOuterNext": "",
  "StateFrame": "",
  "Linker": null,
  "LinkerIndex": "",
  "ObjectInternalInteger": 57307,
  "NetIndex": 82,
  "Outer": "Menus_Common.Definitions",
  "Name": "GFxUIManager",
  "Class": "WillowGame.WillowGFxUIManagerDefinition",
  "ObjectArchetype": "WillowGame.Default__WillowGFxUIManagerDefinition"
}