{
  "VfTable_IIDlcLicensableObject": "",
  "bInterpolateExpLevel": true,
  "InventoryDefinition": "GD_Artifacts.A_Item_Unique.Artifact_Endowment",
  "BaseDefinition": null,
  "DlcItemSet": null,
  "PartListCollection": "GD_Artifacts.PartLists_Unique.Parts_Endowment",
  "PlayerClassId": null,
  "Manufacturers": [
    {
      "Manufacturer": "GD_Manufacturers.Artifacts.Artifact_TypeA",
      "Grades": [
        {
          "GradeModifiers": {
            "ExpLevel": 0,
            "CustomInventoryDefinition": null
          },
          "GameStageRequirement": { "MinGameStage": 1, "MaxGameStage": 100 },
          "MinSpawnProbabilityModifier": {
            "BaseValueConstant": 1.0,
            "BaseValueAttribute": null,
            "InitializationDefinition": null,
            "BaseValueScaleConstant": 1.0
          },
          "MaxSpawnProbabilityModifier": {
            "BaseValueConstant": 1.0,
            "BaseValueAttribute": null,
            "InitializationDefinition": null,
            "BaseValueScaleConstant": 1.0
          }
        }
      ]
    }
  ],
  "VfTableObject": "",
  "HashNext": "",
  "ObjectFlags": "",
  "HashOuterNext": "",
  "StateFrame": "",
  "Linker": null,
  "LinkerIndex": "",
  "ObjectInternalInteger": 129854,
  "NetIndex": 332,
  "Outer": "GD_Artifacts.A_Item_Unique",
  "Name": "A_Endowment",
  "Class": "WillowGame.InventoryBalanceDefinition",
  "ObjectArchetype": "WillowGame.Default__InventoryBalanceDefinition"
}