{
  "VfTable_IIDlcLicensableObject": "",
  "bInterpolateExpLevel": true,
  "InventoryDefinition": "GD_Aster_GrenadeMods.A_Item.GrenadeMod_MagicSpell",
  "BaseDefinition": null,
  "DlcItemSet": "GD_AsterPackageDef.ItemSetDef_Aster",
  "PartListCollection": "GD_Aster_GrenadeMods.PartLists.Parts_MagicMissile",
  "PlayerClassId": null,
  "Manufacturers": [
    {
      "Manufacturer": "GD_Manufacturers.Manufacturers.Maliwan",
      "Grades": [
        {
          "GradeModifiers": {
            "ExpLevel": 1,
            "CustomInventoryDefinition": null
          },
          "GameStageRequirement": { "MinGameStage": 0, "MaxGameStage": 100 },
          "MinSpawnProbabilityModifier": {
            "BaseValueConstant": 1.0,
            "BaseValueAttribute": null,
            "InitializationDefinition": null,
            "BaseValueScaleConstant": 1.0
          },
          "MaxSpawnProbabilityModifier": {
            "BaseValueConstant": 1.0,
            "BaseValueAttribute": null,
            "InitializationDefinition": null,
            "BaseValueScaleConstant": 1.0
          }
        }
      ]
    }
  ],
  "VfTableObject": "",
  "HashNext": "",
  "ObjectFlags": "",
  "HashOuterNext": "",
  "StateFrame": "",
  "Linker": null,
  "LinkerIndex": "",
  "ObjectInternalInteger": 165375,
  "NetIndex": 672,
  "Outer": "GD_Aster_GrenadeMods.A_Item",
  "Name": "GM_MagicMissile",
  "Class": "WillowGame.InventoryBalanceDefinition",
  "ObjectArchetype": "WillowGame.Default__InventoryBalanceDefinition"
}