{
  "VfTable_IIDlcLicensableObject": "",
  "bInterpolateExpLevel": true,
  "InventoryDefinition":
    "GD_Gladiolus_Artifacts.A_Item.Artifact_ResistanceProtection",
  "BaseDefinition": null,
  "DlcItemSet": "GD_GladiolusPackageDef.ItemSetDef_Gladiolus",
  "PartListCollection":
    "GD_Gladiolus_Artifacts.PartLists.Parts_ResistanceProtection_VeryRare",
  "PlayerClassId": null,
  "Manufacturers": [
    {
      "Manufacturer": "GD_Manufacturers.Artifacts.Artifact_TypeB",
      "Grades": [
        {
          "GradeModifiers": {
            "ExpLevel": 0,
            "CustomInventoryDefinition": null
          },
          "GameStageRequirement": { "MinGameStage": 1, "MaxGameStage": 100 },
          "MinSpawnProbabilityModifier": {
            "BaseValueConstant": 1.0,
            "BaseValueAttribute": null,
            "InitializationDefinition": null,
            "BaseValueScaleConstant": 1.0
          },
          "MaxSpawnProbabilityModifier": {
            "BaseValueConstant": 1.0,
            "BaseValueAttribute": null,
            "InitializationDefinition": null,
            "BaseValueScaleConstant": 1.0
          }
        }
      ]
    },
    {
      "Manufacturer": "GD_Manufacturers.Artifacts.Artifact_TypeC",
      "Grades": [
        {
          "GradeModifiers": {
            "ExpLevel": 0,
            "CustomInventoryDefinition": null
          },
          "GameStageRequirement": { "MinGameStage": 1, "MaxGameStage": 100 },
          "MinSpawnProbabilityModifier": {
            "BaseValueConstant": 1.0,
            "BaseValueAttribute": null,
            "InitializationDefinition": null,
            "BaseValueScaleConstant": 1.0
          },
          "MaxSpawnProbabilityModifier": {
            "BaseValueConstant": 1.0,
            "BaseValueAttribute": null,
            "InitializationDefinition": null,
            "BaseValueScaleConstant": 1.0
          }
        }
      ]
    },
    {
      "Manufacturer": "GD_Manufacturers.Artifacts.Artifact_TypeD",
      "Grades": [
        {
          "GradeModifiers": {
            "ExpLevel": 0,
            "CustomInventoryDefinition": null
          },
          "GameStageRequirement": { "MinGameStage": 1, "MaxGameStage": 100 },
          "MinSpawnProbabilityModifier": {
            "BaseValueConstant": 1.0,
            "BaseValueAttribute": null,
            "InitializationDefinition": null,
            "BaseValueScaleConstant": 1.0
          },
          "MaxSpawnProbabilityModifier": {
            "BaseValueConstant": 1.0,
            "BaseValueAttribute": null,
            "InitializationDefinition": null,
            "BaseValueScaleConstant": 1.0
          }
        }
      ]
    }
  ],
  "VfTableObject": "",
  "HashNext": "",
  "ObjectFlags": "",
  "HashOuterNext": "",
  "StateFrame": "",
  "Linker": null,
  "LinkerIndex": "",
  "ObjectInternalInteger": 168038,
  "NetIndex": 53,
  "Outer": "GD_Gladiolus_Artifacts.A_Item",
  "Name": "A_ResistanceProtection_VeryRare",
  "Class": "WillowGame.InventoryBalanceDefinition",
  "ObjectArchetype": "WillowGame.Default__InventoryBalanceDefinition"
}