{
  "VfTable_IIDlcLicensableObject": "",
  "bInterpolateExpLevel": true,
  "InventoryDefinition": "GD_GrenadeMods.A_Item_Legendary.GrenadeMod_Leech",
  "BaseDefinition": null,
  "DlcItemSet": null,
  "PartListCollection": "GD_GrenadeMods.PartLists.Parts_Leech",
  "PlayerClassId": null,
  "Manufacturers": [
    {
      "Manufacturer": "GD_Manufacturers.Manufacturers.Maliwan",
      "Grades": [
        {
          "GradeModifiers": {
            "ExpLevel": 1,
            "CustomInventoryDefinition": null
          },
          "GameStageRequirement": { "MinGameStage": 1, "MaxGameStage": 100 },
          "MinSpawnProbabilityModifier": {
            "BaseValueConstant": 1.0,
            "BaseValueAttribute": null,
            "InitializationDefinition": null,
            "BaseValueScaleConstant": 1.0
          },
          "MaxSpawnProbabilityModifier": {
            "BaseValueConstant": 1.0,
            "BaseValueAttribute": null,
            "InitializationDefinition": null,
            "BaseValueScaleConstant": 1.0
          }
        }
      ]
    }
  ],
  "VfTableObject": "",
  "HashNext": "",
  "ObjectFlags": "",
  "HashOuterNext": "",
  "StateFrame": "",
  "Linker": null,
  "LinkerIndex": "",
  "ObjectInternalInteger": 130312,
  "NetIndex": 2777,
  "Outer": "GD_GrenadeMods.A_Item_Legendary",
  "Name": "GM_Leech",
  "Class": "WillowGame.InventoryBalanceDefinition",
  "ObjectArchetype": "WillowGame.Default__InventoryBalanceDefinition"
}