{
  "VfTable_IIDlcLicensableObject": "",
  "bInterpolateExpLevel": true,
  "InventoryDefinition": "GD_Hovercraft_Items_Orchid.Hovercraft.Skin_M_Alien",
  "BaseDefinition": null,
  "DlcItemSet": "GD_OrchidPackageDef.ItemSetDef_Orchid",
  "PartListCollection": null,
  "PlayerClassId": null,
  "Manufacturers": [
    {
      "Manufacturer": "GD_Manufacturers.Manufacturers.Stock",
      "Grades": [
        {
          "GradeModifiers": {
            "ExpLevel": 1,
            "CustomInventoryDefinition": null
          },
          "GameStageRequirement": { "MinGameStage": 0, "MaxGameStage": 100 },
          "MinSpawnProbabilityModifier": {
            "BaseValueConstant": 1.0,
            "BaseValueAttribute": null,
            "InitializationDefinition": null,
            "BaseValueScaleConstant": 1.0
          },
          "MaxSpawnProbabilityModifier": {
            "BaseValueConstant": 1.0,
            "BaseValueAttribute": null,
            "InitializationDefinition": null,
            "BaseValueScaleConstant": 1.0
          }
        }
      ]
    }
  ],
  "VfTableObject": "",
  "HashNext": "",
  "ObjectFlags": "",
  "HashOuterNext": "",
  "StateFrame": "",
  "Linker": null,
  "LinkerIndex": "",
  "ObjectInternalInteger": 176198,
  "NetIndex": 34,
  "Outer": "GD_Hovercraft_Items_Orchid.BalanceDefs",
  "Name": "Hovercraft_Skin_M_Alien",
  "Class": "WillowGame.InventoryBalanceDefinition",
  "ObjectArchetype": "WillowGame.Default__InventoryBalanceDefinition"
}