{
  "VfTable_IIDlcLicensableObject": "",
  "bInterpolateExpLevel": true,
  "InventoryDefinition":
    "GD_Knight_Paladin.Shields.Shield_EnemyPaladin_Standard",
  "BaseDefinition": null,
  "DlcItemSet": "GD_AsterPackageDef.ItemSetDef_Aster",
  "PartListCollection": null,
  "PlayerClassId": null,
  "Manufacturers": [
    {
      "Manufacturer": "GD_Manufacturers.Manufacturers.Tediore",
      "Grades": [
        {
          "GradeModifiers": {
            "ExpLevel": 1,
            "CustomInventoryDefinition": null
          },
          "GameStageRequirement": { "MinGameStage": 1, "MaxGameStage": 100 },
          "MinSpawnProbabilityModifier": {
            "BaseValueConstant": 0.5,
            "BaseValueAttribute": null,
            "InitializationDefinition": null,
            "BaseValueScaleConstant": 1.0
          },
          "MaxSpawnProbabilityModifier": {
            "BaseValueConstant": 1.0,
            "BaseValueAttribute": null,
            "InitializationDefinition": null,
            "BaseValueScaleConstant": 1.0
          }
        }
      ]
    }
  ],
  "VfTableObject": "",
  "HashNext": "",
  "ObjectFlags": "",
  "HashOuterNext": "",
  "StateFrame": "",
  "Linker": null,
  "LinkerIndex": "",
  "ObjectInternalInteger": 215358,
  "NetIndex": 365,
  "Outer": "GD_Knight_Paladin.Shields",
  "Name": "ItemGrade_Gear_Shield_EnemyPaladin_Standard",
  "Class": "WillowGame.InventoryBalanceDefinition",
  "ObjectArchetype": "WillowGame.Default__InventoryBalanceDefinition"
}