{
  "bIsProceduralBuildingLODLevel": false,
  "PackageName": "Ash_Px",
  "LoadedLevel": null,
  "Offset": { "X": 0.0, "Y": 0.0, "Z": 0.0 },
  "OldOffset": { "X": 0.0, "Y": 0.0, "Z": 0.0 },
  "bIsVisible": false,
  "bHasLoadRequestPending": false,
  "bHasUnloadRequestPending": false,
  "bShouldBeVisibleInEditor": false,
  "bShouldBeVisibleInEditorOnLoad": false,
  "bBoundingBoxVisible": false,
  "bLocked": false,
  "bIsFullyStatic": false,
  "bShouldBeLoaded": false,
  "bShouldBeVisible": false,
  "bShouldBlockOnLoad": false,
  "bDrawOnLevelStatusMap": true,
  "bIsRequestingUnloadAndRemoval": false,
  "DrawColor": { "B": 0, "G": 233, "R": 0, "A": 255 },
  "MinTimeBetweenVolumeUnloadRequests": 2.0,
  "LastVolumeUnloadRequestTime": 0.0,
  "EditorGridVolume": null,
  "GridPosition": [ 0, 0, 0 ],
  "VfTableObject": "",
  "HashNext": "",
  "ObjectFlags": "",
  "HashOuterNext": "",
  "StateFrame": "",
  "Linker": null,
  "LinkerIndex": "",
  "ObjectInternalInteger": 221791,
  "NetIndex": 1541,
  "Outer": "Ash_P.TheWorld",
  "Name": "LevelStreamingAlwaysLoaded_0",
  "Class": "Engine.LevelStreamingAlwaysLoaded",
  "ObjectArchetype": "Engine.Default__LevelStreamingAlwaysLoaded"
}