{
  "bIsProceduralBuildingLODLevel": false,
  "PackageName": "PUMPKIN_PATCH_AUDIO",
  "LoadedLevel": "PUMPKIN_PATCH_AUDIO.TheWorld:PersistentLevel",
  "Offset": { "X": 0.0, "Y": 0.0, "Z": 0.0 },
  "OldOffset": { "X": 0.0, "Y": 0.0, "Z": 0.0 },
  "bIsVisible": true,
  "bHasLoadRequestPending": false,
  "bHasUnloadRequestPending": false,
  "bShouldBeVisibleInEditor": false,
  "bShouldBeVisibleInEditorOnLoad": true,
  "bBoundingBoxVisible": false,
  "bLocked": false,
  "bIsFullyStatic": false,
  "bShouldBeLoaded": true,
  "bShouldBeVisible": true,
  "bShouldBlockOnLoad": false,
  "bDrawOnLevelStatusMap": true,
  "bIsRequestingUnloadAndRemoval": false,
  "DrawColor": { "B": 136, "G": 197, "R": 0, "A": 255 },
  "MinTimeBetweenVolumeUnloadRequests": 2.0,
  "LastVolumeUnloadRequestTime": 0.0,
  "EditorGridVolume": null,
  "GridPosition": [ 0, 0, 0 ],
  "VfTableObject": "",
  "HashNext": "",
  "ObjectFlags": "",
  "HashOuterNext": "",
  "StateFrame": "",
  "Linker": null,
  "LinkerIndex": "",
  "ObjectInternalInteger": 224456,
  "NetIndex": 1270,
  "Outer": "Pumpkin_Patch_P.TheWorld",
  "Name": "LevelStreamingAlwaysLoaded_0",
  "Class": "Engine.LevelStreamingAlwaysLoaded",
  "ObjectArchetype": "Engine.Default__LevelStreamingAlwaysLoaded"
}