{
  "VfTable_IIBehaviorProvider": "",
  "BehaviorProviderDefinition":
    "GD_Orchid_PlotDataMission02.Class_Orchid_BrokenHovercraft:BehaviorProviderDefinition_0",
  "VehicleImpactDamage": {
    "DamageType": null,
    "DamageTypes": null,
    "Formula": {
      "BaseValueConstant": 0.0,
      "BaseValueAttribute": null,
      "InitializationDefinition": null,
      "BaseValueScaleConstant": 1.0
    },
    "MomentumFactor": 300.0,
    "AddZMomentum": 200.0,
    "bApplyReverseMomentum": false,
    "bPercentOfTargetHealth": false,
    "bApplySpeedDamage": true,
    "bApplySpeedMomentum": true
  },
  "VehicleRunOverDamage": {
    "DamageType": null,
    "DamageTypes": null,
    "Formula": {
      "BaseValueConstant": 0.0,
      "BaseValueAttribute": null,
      "InitializationDefinition": null,
      "BaseValueScaleConstant": 1.0
    },
    "MomentumFactor": 300.0,
    "AddZMomentum": 200.0,
    "bApplyReverseMomentum": false,
    "bPercentOfTargetHealth": false,
    "bApplySpeedDamage": true,
    "bApplySpeedMomentum": true
  },
  "VehicleFeedbackDamage": {
    "DamageType": null,
    "DamageTypes": null,
    "Formula": {
      "BaseValueConstant": 0.0,
      "BaseValueAttribute": null,
      "InitializationDefinition": null,
      "BaseValueScaleConstant": 1.0
    },
    "MomentumFactor": 300.0,
    "AddZMomentum": 200.0,
    "bApplyReverseMomentum": false,
    "bPercentOfTargetHealth": false,
    "bApplySpeedDamage": true,
    "bApplySpeedMomentum": true
  },
  "DelayBetweenCollisionDamageDealtToSelf": 1.0,
  "SpeedVDamageCurve": {
    "Points": [
      {
        "InVal": 0.0,
        "OutVal": 0.0,
        "ArriveTangent": 0.0,
        "LeaveTangent": 0.0,
        "InterpMode": "CIM_Linear"
      },
      {
        "InVal": 200.0,
        "OutVal": 0.3,
        "ArriveTangent": 0.0,
        "LeaveTangent": 0.0,
        "InterpMode": "CIM_Linear"
      },
      {
        "InVal": 500.0,
        "OutVal": 1.0,
        "ArriveTangent": 0.0,
        "LeaveTangent": 0.0,
        "InterpMode": "CIM_Linear"
      },
      {
        "InVal": 1000.0,
        "OutVal": 1.0,
        "ArriveTangent": 0.0,
        "LeaveTangent": 0.0,
        "InterpMode": "CIM_Linear"
      }
    ],
    "InterpMethod": "IMT_UseFixedTangentEvalAndNewAutoTangents"
  },
  "NormalDamageModifiers": {
    "ResistanceToImpact": {
      "BaseValueConstant": 1.0,
      "BaseValueAttribute": null,
      "InitializationDefinition": null,
      "BaseValueScaleConstant": 1.0
    },
    "ResistanceToStatusEffect": {
      "BaseValueConstant": 1.0,
      "BaseValueAttribute": null,
      "InitializationDefinition": null,
      "BaseValueScaleConstant": 1.0
    }
  },
  "ExplosiveDamageModifiers": {
    "ResistanceToImpact": {
      "BaseValueConstant": 1.0,
      "BaseValueAttribute": null,
      "InitializationDefinition": null,
      "BaseValueScaleConstant": 1.0
    },
    "ResistanceToStatusEffect": {
      "BaseValueConstant": 1.0,
      "BaseValueAttribute": null,
      "InitializationDefinition": null,
      "BaseValueScaleConstant": 1.0
    }
  },
  "ShockDamageModifiers": {
    "ResistanceToImpact": {
      "BaseValueConstant": 1.0,
      "BaseValueAttribute": null,
      "InitializationDefinition": null,
      "BaseValueScaleConstant": 1.0
    },
    "ResistanceToStatusEffect": {
      "BaseValueConstant": 1.0,
      "BaseValueAttribute": null,
      "InitializationDefinition": null,
      "BaseValueScaleConstant": 1.0
    }
  },
  "CorrosiveDamageModifiers": {
    "ResistanceToImpact": {
      "BaseValueConstant": 1.0,
      "BaseValueAttribute": null,
      "InitializationDefinition": null,
      "BaseValueScaleConstant": 1.0
    },
    "ResistanceToStatusEffect": {
      "BaseValueConstant": 1.0,
      "BaseValueAttribute": null,
      "InitializationDefinition": null,
      "BaseValueScaleConstant": 1.0
    }
  },
  "IncendiaryDamageModifiers": {
    "ResistanceToImpact": {
      "BaseValueConstant": 1.0,
      "BaseValueAttribute": null,
      "InitializationDefinition": null,
      "BaseValueScaleConstant": 1.0
    },
    "ResistanceToStatusEffect": {
      "BaseValueConstant": 1.0,
      "BaseValueAttribute": null,
      "InitializationDefinition": null,
      "BaseValueScaleConstant": 1.0
    }
  },
  "AmpDamageModifiers": {
    "ResistanceToImpact": {
      "BaseValueConstant": 1.0,
      "BaseValueAttribute": null,
      "InitializationDefinition": null,
      "BaseValueScaleConstant": 1.0
    },
    "ResistanceToStatusEffect": {
      "BaseValueConstant": 1.0,
      "BaseValueAttribute": null,
      "InitializationDefinition": null,
      "BaseValueScaleConstant": 1.0
    }
  },
  "IgniteResistanceModifiers": {
    "ChanceResistance": {
      "BaseValueConstant": 1.0,
      "BaseValueAttribute": null,
      "InitializationDefinition": null,
      "BaseValueScaleConstant": 1.0
    },
    "DurationResistance": {
      "BaseValueConstant": 1.0,
      "BaseValueAttribute": null,
      "InitializationDefinition": null,
      "BaseValueScaleConstant": 1.0
    }
  },
  "ShockResistanceModifiers": {
    "ChanceResistance": {
      "BaseValueConstant": 1.0,
      "BaseValueAttribute": null,
      "InitializationDefinition": null,
      "BaseValueScaleConstant": 1.0
    },
    "DurationResistance": {
      "BaseValueConstant": 1.0,
      "BaseValueAttribute": null,
      "InitializationDefinition": null,
      "BaseValueScaleConstant": 1.0
    }
  },
  "CorrosiveResistanceModifiers": {
    "ChanceResistance": {
      "BaseValueConstant": 1.0,
      "BaseValueAttribute": null,
      "InitializationDefinition": null,
      "BaseValueScaleConstant": 1.0
    },
    "DurationResistance": {
      "BaseValueConstant": 1.0,
      "BaseValueAttribute": null,
      "InitializationDefinition": null,
      "BaseValueScaleConstant": 1.0
    }
  },
  "AmpResistanceModifiers": {
    "ChanceResistance": {
      "BaseValueConstant": 1.0,
      "BaseValueAttribute": null,
      "InitializationDefinition": null,
      "BaseValueScaleConstant": 1.0
    },
    "DurationResistance": {
      "BaseValueConstant": 1.0,
      "BaseValueAttribute": null,
      "InitializationDefinition": null,
      "BaseValueScaleConstant": 1.0
    }
  },
  "DisplayName": "Hovercraft",
  "HealthPoolDefinition": null,
  "DeathImpulseScalar": { "X": 0.0, "Y": 0.0, "Z": 0.0 },
  "PlayerShieldDamagePercentOnVehicleDeath": 0.0,
  "PlayerHealthDamagePercentOnVehicleDeath": 0.0,
  "RestThreshold": 0.0,
  "AfterburnerSpeed": 0.0,
  "AfterburnerForceMagnitude": 0.0,
  "AllowAfterburner": false,
  "AfterburnerNoThrottleShutoff": false,
  "bAIVehicle": false,
  "bSnapToTarget": true,
  "SupportsTraining": false,
  "AfterburnerActivationSpeed": 0.0,
  "AfterburnerMinSpeed": 0.0,
  "AfterburnerMinSpeedTimeoutDuration": 0.0,
  "AfterburnerCameraShake": {
    "OffsetMag": { "X": 0.0, "Y": 0.0, "Z": 0.0 },
    "OffsetRate": { "X": 0.0, "Y": 0.0, "Z": 0.0 },
    "OffsetTime": 0.0,
    "RotMag": { "X": 0.0, "Y": 0.0, "Z": 0.0 },
    "RotRate": { "X": 0.0, "Y": 0.0, "Z": 0.0 },
    "RotTime": 0.0,
    "FOVMag": 0.0,
    "FOVRate": 0.0,
    "FOVTime": 0.0
  },
  "AfterburnerCameraShakeRepeatTime": 0.0,
  "AfterburnerBoostTime": 0.0,
  "AfterburnerMaxFOV": 0.0,
  "AfterburnerImpulseOrigin": { "X": 0.0, "Y": 0.0, "Z": 0.0 },
  "AfterburnerPoolDefinition": null,
  "AfterburnerBrakingBonus": 0.0,
  "AfterburnerImpulse": { "X": 0.0, "Y": 0.0, "Z": 0.0 },
  "AfterburnerChassisTorqueScalar": 0.0,
  "AfterburnerTorqueBonus": 0.0,
  "AfterburnerTorqueDecayRate": 0.0,
  "AfterburnerRumble": null,
  "BrakingRumble": null,
  "BrakingRumbleScaleAdjustment": 0.0,
  "SkidParticleScale": 2.0,
  "SkidParticleScaleDecaySpeed": 2.0,
  "SkidParticleMinVehicleSpeed": 1000.0,
  "FOV": 70.0,
  "DefaultFOVModifierSpeed": 10.0,
  "AfterburnerOnFOVModifierSpeed": 1.0,
  "AfterburnerOffFOVModifierSpeed": 2.0,
  "PlayerSpeed": 0.0,
  "AIPatrolSpeed": 500.0,
  "AIPursuitSpeed": 700.0,
  "AICatchUpSpeed": 900.0,
  "AIMatchDistance": 256.0,
  "AIAdjustDistance": 2048.0,
  "AISpeedModifier": 0.05,
  "AIDirectionModifier": 0.25,
  "AITargetSpeedLimit": 500.0,
  "TargetableSocket": "SnapZoom",
  "DefaultRootRotationMode": "RMRM_Ignore",
  "DefaultRootTranslationMode": "RMM_Ignore",
  "RotationRate": { "Pitch": 20000, "Yaw": 20000, "Roll": 20000 },
  "CrewAnimSetLookupTable":
    "GD_Orchid_Hovercraft.AnimSets.AnimSets_Hovercraft",
  "StatNameFirstTimeUse": null,
  "Seats": [
    {
      "SeatDefinition":
        "GD_Orchid_PlotDataMission02.SeatDef_Driver_BrokenHovercraft",
      "bDoNotUseThisSeat": false,
      "WeaponBalanceDefinition": null,
      "WeaponFireSMD": null,
      "NextSeatIndex": -1,
      "Anim_SeatSwap": null,
      "SeatAIDef": "GD_Population_Vehicles.AI.AIDef_VehicleDriver",
      "SeatInteractTextDefinition": null,
      "GunSocket": null,
      "SeatNameEnter": "Driver_Enter",
      "SeatNameExit": "Driver_Exit"
    }
  ],
  "VfTableObject": "",
  "HashNext": "",
  "ObjectFlags": "",
  "HashOuterNext": "",
  "StateFrame": "",
  "Linker": null,
  "LinkerIndex": "",
  "ObjectInternalInteger": 198014,
  "NetIndex": 1598,
  "Outer": "Package'GD_Orchid_PlotDataMission02'",
  "Name": "Class_Orchid_BrokenHovercraft",
  "Class": "WillowGame.VehicleClassDefinition",
  "ObjectArchetype": "WillowGame.Default__VehicleClassDefinition"
}