{
  "bDirectDamage": true,
  "bSeversHead": false,
  "bCauseConvulsions": false,
  "bUseTearOffMomentum": false,
  "bThrowRagdoll": false,
  "bLeaveBodyEffect": false,
  "bBulletHit": true,
  "bVehicleHit": false,
  "bCausesBlood": true,
  "GibPerterbation": 0.06,
  "DamageWeaponClass": "WillowGame.WillowWeapon",
  "DamageWeaponFireMode": 2,
  "UBMKilledByMessageString": "Riddled with bullets!",
  "bArmorStops": true,
  "bCausedByWorld": false,
  "bExtraMomentumZ": true,
  "bCausesFracture": false,
  "bRadialDamageVelChange": false,
  "KDamageImpulse": 200.0,
  "KDeathVel": 0.0,
  "KDeathUpKick": 0.0,
  "RadialDamageImpulse": 0.0,
  "VehicleDamageScaling": 0.63,
  "VehicleMomentumScaling": 1.0,
  "DamagedFFWaveform": null,
  "KilledFFWaveform": null,
  "FracturedMeshDamage": 1.0,
  "VfTableObject": "",
  "HashNext": "",
  "ObjectFlags": "",
  "HashOuterNext": "",
  "StateFrame": "",
  "Linker": null,
  "LinkerIndex": "",
  "ObjectInternalInteger": 4441,
  "NetIndex": 38596,
  "Outer": "Package'WillowGame'",
  "Name": "Default__WillowDmgSource_Bullet",
  "Class": "WillowGame.WillowDmgSource_Bullet",
  "ObjectArchetype": "WillowGame.Default__WillowDamageSource"
}