{
  "CurrentViewShake": {
    "OffsetMag": { "X": 0.0, "Y": 0.0, "Z": 0.0 },
    "OffsetRate": { "X": 0.0, "Y": 0.0, "Z": 0.0 },
    "OffsetTime": 0.0,
    "RotMag": { "X": 0.0, "Y": 0.0, "Z": 0.0 },
    "RotRate": { "X": 0.0, "Y": 0.0, "Z": 0.0 },
    "RotTime": 0.0,
    "FOVMag": 0.0,
    "FOVRate": 0.0,
    "FOVTime": 0.0
  },
  "BaseDamageShake": {
    "OffsetMag": { "X": 0.0, "Y": 0.0, "Z": 0.0 },
    "OffsetRate": { "X": 0.0, "Y": 0.0, "Z": 0.0 },
    "OffsetTime": 0.0,
    "RotMag": { "X": 0.0, "Y": 0.0, "Z": 0.0 },
    "RotRate": { "X": 0.0, "Y": 0.0, "Z": 0.0 },
    "RotTime": 0.0,
    "FOVMag": 0.0,
    "FOVRate": 0.0,
    "FOVTime": 0.0
  },
  "ShakeOffset": { "X": 0.0, "Y": 0.0, "Z": 0.0 },
  "ShakeRot": { "Pitch": 0, "Yaw": 0, "Roll": 0 },
  "ShakeFOV": 0.0,
  "bWantsToShowStorageMenu": false,
  "bShouldCheckForProfileDeviceRemoval": false,
  "AIDebugCam": null,
  "PreviousDebugPawn": null,
  "AIDebugCamClass": "GearboxFramework.AIDebugCamera",
  "DamageShakeMagnitudeMultiplier": 1.0,
  "DamageShakeMagnitudeMultiplierBaseValue": 1.0,
  "DamageShakeTimeMultiplier": 1.0,
  "DamageShakeTimeMultiplierBaseValue": 1.0,
  "LeviathanReplicationChannel": null,
  "PlaySessionGuid": { "A": 0, "B": 0, "C": 0, "D": 0 },
  "SessionBundleNumber": 0,
  "CachedProfileSettings": null,
  "CurrentSoundMode": null,
  "bIsWarmupPaused": false,
  "Player": null,
  "PlayerCamera": null,
  "CameraClass": "Engine.Camera",
  "bFrozen": false,
  "bPressedJump": false,
  "bDoubleJump": false,
  "bUpdatePosition": false,
  "bUpdating": false,
  "bNeverSwitchOnPickup": false,
  "bCheatFlying": false,
  "bCameraPositionLocked": false,
  "bShortConnectTimeOut": false,
  "bPendingDestroy": false,
  "bWasSpeedHack": false,
  "bWasSaturated": false,
  "bAimingHelp": false,
  "bCameraCut": false,
  "bClientSimulatingViewTarget": false,
  "bForegroundFOV": false,
  "bHasVoiceHandshakeCompleted": false,
  "bCinematicMode": false,
  "bCinematicSplitScreen": false,
  "bKismetEnabledCinematicMode": false,
  "bInteractiveMode": true,
  "bCinemaDisableInputMove": false,
  "bCinemaDisableInputLook": false,
  "bCinemaDisableInputButton": false,
  "bCinematicModeHidePlayer": false,
  "bIgnoreNetworkMessages": false,
  "bReplicateAllPawns": false,
  "bIsUsingStreamingVolumes": true,
  "bIsExternalUIOpen": false,
  "bIsControllerConnected": false,
  "bCheckSoundOcclusion": false,
  "bDebugCameraAnims": false,
  "bFreeCamera": false,
  "bBlockCameraAnimsFromOverridingPostProcess": false,
  "bLogHearSoundOverflow": false,
  "bCheckRelevancyThroughPortals": true,
  "bDebugClientAdjustPosition": false,
  "bIsInHolding": false,
  "bOverrideOnlineProfileName": false,
  "bEnableAnalogMovement": false,
  "bStatusMenuOpen": false,
  "bUsingVendingMachine": false,
  "bUsingVehicleSpawnStation": false,
  "bUsingFastTravelStation": false,
  "bWantsCensoredContent": false,
  "MaxResponseTime": 0.125,
  "WaitDelay": 0.0,
  "AcknowledgedPawn": null,
  "DoubleClickDir": "DCLICK_None",
  "LastAckedAnalogPct": 0,
  "bIgnoreMoveInput": 0,
  "bIgnoreLookInput": 0,
  "bIgnoreButtonInput": 0,
  "bRun": 0,
  "bDuck": 0,
  "NetPlayerIndex": 0,
  "ViewTarget": null,
  "RealViewTarget": null,
  "ControllingDirTrackInst": null,
  "FOVAngle": 85.0,
  "DesiredFOV": 85.0,
  "DesiredFOVBaseValue": 85.0,
  "DefaultFOV": 85.0,
  "LODDistanceFactor": 1.0,
  "ForegroundFOV": 0.0,
  "TargetViewRotation": { "Pitch": 0, "Yaw": 0, "Roll": 0 },
  "TargetEyeHeight": 0.0,
  "BlendedTargetViewRotation": { "Pitch": 0, "Yaw": 0, "Roll": 0 },
  "myHUD": null,
  "SavedMoveClass": "Engine.SavedMove",
  "SavedMoves": null,
  "FreeMoves": null,
  "PendingMove": null,
  "LastAckedAccel": { "X": 0.0, "Y": 0.0, "Z": 0.0 },
  "CurrentTimeStamp": 0.0,
  "LastUpdateTime": 0.0,
  "ServerTimeStamp": 0.0,
  "TimeMargin": 0.0,
  "ClientUpdateTime": 0.0,
  "MaxTimeMargin": 0.0,
  "LastActiveTime": 0.0,
  "ClientCap": 0,
  "DynamicPingThreshold": 0.0,
  "LastPingUpdate": 0.0,
  "LastSpeedHackLog": -100.0,
  "PendingAdjustment": {
    "TimeStamp": 0.0,
    "newPhysics": "PHYS_None",
    "NewLoc": { "X": 0.0, "Y": 0.0, "Z": 0.0 },
    "NewVel": { "X": 0.0, "Y": 0.0, "Z": 0.0 },
    "NewBase": null,
    "NewFloor": { "X": 0.0, "Y": 0.0, "Z": 0.0 },
    "bAckGoodMove": 0
  },
  "GroundPitch": 0,
  "CheatManager": null,
  "CheatClass": "GearboxFramework.GearboxCheatManager",
  "PlayerInput": null,
  "InputClass": "Engine.PlayerInput",
  "FailedPathStart": { "X": 0.0, "Y": 0.0, "Z": 0.0 },
  "CylinderComponent": "CollisionCylinder",
  "ForceFeedbackManagerClassName": "WinDrv.XnaForceFeedbackManager",
  "ForceFeedbackManager": null,
  "CurrentWaveform": null,
  "MigratedSearchToJoin": null,
  "OnlineSub": null,
  "VoiceInterface": null,
  "OnlinePlayerData": null,
  "StringAliasMap": null,
  "InteractDistance": 512.0,
  "DelayedJoinSessionName": null,
  "LastPresenceStatusUpdateString": "",
  "LastLocationStatusUpdateString": "",
  "LastBroadcastTime": 0.0,
  "MyCoverReplicator": null,
  "SpectatorCameraSpeed": 600.0,
  "PendingSwapConnection": null,
  "MinRespawnDelay": 1.0,
  "MaxConcurrentHearSounds": 32,
  "LastSpectatorStateSynchTime": 0.0,
  "HoldingDest": { "X": 0.0, "Y": 0.0, "Z": 0.0 },
  "HoldingRotation": { "Pitch": 0, "Yaw": 0, "Roll": 0 },
  "HoldingDestActor": null,
  "__OnMissingPeersUnregistered__Delegate": "(null).None",
  "__CanUnpause__Delegate": "(null).None",
  "__InputMatchDelegate__Delegate": "(null).None",
  "LastBroadcastString": [ "", "", "", "" ],
  "VfTable_IIResourcePoolProvider": "",
  "VfTable_IInterface_NavigationHandle": "",
  "Pawn": null,
  "PlayerReplicationInfo": null,
  "PlayerNum": 0,
  "NextController": null,
  "bIsPlayer": true,
  "bIsHumanPlayer": true,
  "bShowControllerInfo": false,
  "bGodMode": false,
  "bNonCheatGodMode": false,
  "bDontTargetMode": false,
  "bSoaking": false,
  "bSlowerZAcquire": true,
  "bNotifyPostLanded": false,
  "bNotifyApex": false,
  "bOverrideSearchStart": false,
  "bAdvancedTactics": false,
  "bCanDoSpecial": true,
  "bAdjusting": false,
  "bPreparingMove": false,
  "bForceStrafe": false,
  "bPauseNavigationUpdate": false,
  "bLOSflag": false,
  "bSkipExtraLOSChecks": false,
  "bNotifyFallingHitWall": false,
  "bEarlyOutOfSighTestsForSameType": false,
  "bPreciseDestination": false,
  "bSeeFriendly": false,
  "bUsingPathLanes": false,
  "PrevRotation": { "Pitch": 0, "Yaw": 0, "Roll": 0 },
  "bFire": 0,
  "bAltFire": 0,
  "MinHitWall": -1.0,
  "NavigationHandleClass": "Engine.NavigationHandle",
  "NavigationHandle": null,
  "OverrideSearchStart": { "X": 0.0, "Y": 0.0, "Z": 0.0 },
  "MoveTimer": 0.0,
  "MoveTarget": null,
  "DestinationPosition": {
    "Base": null,
    "Position": { "X": 0.0, "Y": 0.0, "Z": 0.0 },
    "CachedBaseLocation": { "X": 0.0, "Y": 0.0, "Z": 0.0 },
    "CachedBaseRotation": { "Pitch": 0, "Yaw": 0, "Roll": 0 },
    "CachedTransPosition": { "X": 0.0, "Y": 0.0, "Z": 0.0 }
  },
  "FocalPosition": {
    "Base": null,
    "Position": { "X": 0.0, "Y": 0.0, "Z": 0.0 },
    "CachedBaseLocation": { "X": 0.0, "Y": 0.0, "Z": 0.0 },
    "CachedBaseRotation": { "Pitch": 0, "Yaw": 0, "Roll": 0 },
    "CachedTransPosition": { "X": 0.0, "Y": 0.0, "Z": 0.0 }
  },
  "Focus": null,
  "AdjustPosition": {
    "Base": null,
    "Position": { "X": 0.0, "Y": 0.0, "Z": 0.0 },
    "CachedBaseLocation": { "X": 0.0, "Y": 0.0, "Z": 0.0 },
    "CachedBaseRotation": { "Pitch": 0, "Yaw": 0, "Roll": 0 },
    "CachedTransPosition": { "X": 0.0, "Y": 0.0, "Z": 0.0 }
  },
  "StartSpot": null,
  "CurrentPath": null,
  "NextRoutePath": null,
  "CurrentPathDir": { "X": 0.0, "Y": 0.0, "Z": 0.0 },
  "RouteGoal": null,
  "RouteDist": 0.0,
  "LastRouteFind": 0.0,
  "PendingMover": null,
  "FailedMoveTarget": null,
  "MoveFailureCount": 0,
  "GroundPitchTime": 0.0,
  "ViewX": { "X": 0.0, "Y": 0.0, "Z": 0.0 },
  "ViewY": { "X": 0.0, "Y": 0.0, "Z": 0.0 },
  "ViewZ": { "X": 0.0, "Y": 0.0, "Z": 0.0 },
  "ShotTarget": null,
  "LastFailedReach": null,
  "FailedReachTime": 0.0,
  "FailedReachLocation": { "X": 0.0, "Y": 0.0, "Z": 0.0 },
  "SightCounter": 0.0,
  "SightCounterInterval": 0.2,
  "InUseNodeCostMultiplier": 0.0,
  "HighJumpNodeCostModifier": 0,
  "MaxMoveTowardPawnTargetTime": 1.2,
  "Enemy": null,
  "LaneOffset": 0.0,
  "OldBasedRotation": { "Pitch": 0, "Yaw": 0, "Roll": 0 },
  "NavMeshPath_SearchExtent_Modifier": { "X": 0.0, "Y": 0.0, "Z": 0.0 },
  "ResourcePoolManager": null,
  "AccuracyPool": {
    "PoolManager": null,
    "PoolIndexInManager": 255,
    "PoolGUID": 0,
    "Data": null
  },
  "OffHandAccuracyPool": {
    "PoolManager": null,
    "PoolIndexInManager": 255,
    "PoolGUID": 0,
    "Data": null
  },
  "CharacterClass": null,
  "InstigatedBulletDamageModifier": 1.0,
  "InstigatedBulletDamageModifierBaseValue": 1.0,
  "InstigatedMeleeDamageModifier": 1.0,
  "InstigatedMeleeDamageModifierBaseValue": 1.0,
  "InstigatedGrenadeDamageModifier": 1.0,
  "InstigatedGrenadeDamageModifierBaseValue": 1.0,
  "InstigatedRocketDamageModifier": 1.0,
  "InstigatedRocketDamageModifierBaseValue": 1.0,
  "InstigatedStatusEffectDamageModifier": 1.0,
  "InstigatedStatusEffectDamageModifierBaseValue": 1.0,
  "InstigatedSkillDamageModifier": 1.0,
  "InstigatedSkillDamageModifierBaseValue": 1.0,
  "InstigatedStatusEffectStatusChanceModifier": 1.0,
  "InstigatedStatusEffectStatusChanceModifierBaseValue": 1.0,
  "InstigatedIncendiaryStatusChanceModifier": 1.0,
  "InstigatedIncendiaryStatusChanceModifierBaseValue": 1.0,
  "InstigatedShockStatusChanceModifier": 1.0,
  "InstigatedShockStatusChanceModifierBaseValue": 1.0,
  "InstigatedCorrosiveStatusChanceModifier": 1.0,
  "InstigatedCorrosiveStatusChanceModifierBaseValue": 1.0,
  "InstigatedAmpStatusChanceModifier": 1.0,
  "InstigatedAmpStatusChanceModifierBaseValue": 1.0,
  "InstigatedStatusEffectStatusDamageModifier": 1.0,
  "InstigatedStatusEffectStatusDamageModifierBaseValue": 1.0,
  "InstigatedIncendiaryStatusDamageModifier": 1.0,
  "InstigatedIncendiaryStatusDamageModifierBaseValue": 1.0,
  "InstigatedShockStatusDamageModifier": 1.0,
  "InstigatedShockStatusDamageModifierBaseValue": 1.0,
  "InstigatedCorrosiveStatusDamageModifier": 1.0,
  "InstigatedCorrosiveStatusDamageModifierBaseValue": 1.0,
  "InstigatedAmpStatusDamageModifier": 1.0,
  "InstigatedAmpStatusDamageModifierBaseValue": 1.0,
  "ReceivedBulletDamageModifier": 1.0,
  "ReceivedBulletDamageModifierBaseValue": 1.0,
  "ReceivedAmplifyDamageModifier": 1.0,
  "ReceivedAmplifyDamageModifierBaseValue": 1.0,
  "ReceivedMeleeDamageModifier": 1.0,
  "ReceivedMeleeDamageModifierBaseValue": 1.0,
  "ReceivedGrenadeDamageModifier": 1.0,
  "ReceivedGrenadeDamageModifierBaseValue": 1.0,
  "ReceivedRocketDamageModifier": 1.0,
  "ReceivedRocketDamageModifierBaseValue": 1.0,
  "ReceivedStatusEffectDamageModifier": 1.0,
  "ReceivedStatusEffectDamageModifierBaseValue": 1.0,
  "ReceivedSkillDamageModifier": 1.0,
  "ReceivedSkillDamageModifierBaseValue": 1.0,
  "InstigatedIncindiaryDamageModifier": 1.0,
  "InstigatedIncindiaryDamageModifierBaseValue": 1.0,
  "InstigatedShockDamageModifier": 1.0,
  "InstigatedShockDamageModifierBaseValue": 1.0,
  "InstigatedExplosiveDamageModifier": 1.0,
  "InstigatedExplosiveDamageModifierBaseValue": 1.0,
  "InstigatedCorrosiveDamageModifier": 1.0,
  "InstigatedCorrosiveDamageModifierBaseValue": 1.0,
  "InstigatedImpactDamageModifier": 1.0,
  "InstigatedImpactDamageModifierBaseValue": 1.0,
  "InstigatedAmpDamageModifier": 1.0,
  "InstigatedAmpDamageModifierBaseValue": 1.0,
  "InstigatedBulletDamageAmmoTheftAmount": 0,
  "InstigatedBulletDamageAmmoTheftAmountBaseValue": 0,
  "InstigatedMeleeDamageAmmoTheftAmount": 0,
  "InstigatedMeleeDamageAmmoTheftAmountBaseValue": 0,
  "InstigatedGrenadeDamageAmmoTheftAmount": 0,
  "InstigatedGrenadeDamageAmmoTheftAmountBaseValue": 0,
  "InstigatedRocketDamageAmmoTheftAmount": 0,
  "InstigatedRocketDamageAmmoTheftAmountBaseValue": 0,
  "InstigatedStatusEffectDamageAmmoTheftAmount": 0,
  "InstigatedStatusEffectDamageAmmoTheftAmountBaseValue": 0,
  "ReceivedBulletDamageAmmoTheftAmount": 0,
  "ReceivedBulletDamageAmmoTheftAmountBaseValue": 0,
  "ReceivedMeleeDamageAmmoTheftAmount": 0,
  "ReceivedMeleeDamageAmmoTheftAmountBaseValue": 0,
  "ReceivedGrenadeDamageAmmoTheftAmount": 0,
  "ReceivedGrenadeDamageAmmoTheftAmountBaseValue": 0,
  "ReceivedRocketDamageAmmoTheftAmount": 0,
  "ReceivedRocketDamageAmmoTheftAmountBaseValue": 0,
  "ReceivedStatusEffectDamageAmmoTheftAmount": 0,
  "ReceivedStatusEffectDamageAmmoTheftAmountBaseValue": 0,
  "GoalList": [ null, null, null, null ],
  "VfTable_IIWorldBody": "",
  "VfTable_IISpawnActor": "",
  "VfTable_IIDamageCauser": "",
  "Location": { "X": 0.0, "Y": 0.0, "Z": 0.0 },
  "Rotation": { "Pitch": 0, "Yaw": 0, "Roll": 0 },
  "DrawScale": 1.0,
  "DrawScale3D": { "X": 1.0, "Y": 1.0, "Z": 1.0 },
  "PrePivot": { "X": 0.0, "Y": 0.0, "Z": 0.0 },
  "DetachFence": "",
  "CustomTimeDilation": 1.0,
  "Physics": "PHYS_None",
  "RemoteRole": "ROLE_None",
  "Role": "ROLE_Authority",
  "CollisionType": "COLLIDE_NoCollision",
  "ReplicatedCollisionType": [ "INVALID" ],
  "TickGroup": "TG_PreAsyncWork",
  "Owner": null,
  "Base": null,
  "bUseOrthonormalizedLighting": false,
  "bStatic": false,
  "bHidden": true,
  "bNoDelete": false,
  "bDeleteMe": false,
  "bTicked": false,
  "bOnlyOwnerSee": false,
  "bTickIsDisabled": false,
  "bWorldGeometry": false,
  "bIgnoreRigidBodyPawns": false,
  "bOrientOnSlope": false,
  "bIgnoreEncroachers": false,
  "bPushedByEncroachers": true,
  "bRouteBeginPlayEvenIfStatic": true,
  "bIsMoving": false,
  "bAlwaysEncroachCheck": false,
  "bCanStepUpOn": true,
  "bNetTemporary": false,
  "bOnlyRelevantToOwner": true,
  "bNetDirty": false,
  "bAlwaysRelevant": false,
  "bReplicateInstigator": false,
  "bReplicateMovement": true,
  "bSkipRotationReplication": false,
  "bForceRotationReplication": false,
  "bSkipActorPropertyReplication": false,
  "bUpdateSimulatedPosition": false,
  "bTearOff": false,
  "bOnlyDirtyReplication": false,
  "bSkipHiddenReplication": false,
  "bAllowFluidSurfaceInteraction": true,
  "bDemoRecording": false,
  "bDemoOwner": false,
  "bForceDemoRelevant": false,
  "bNetInitialRotation": false,
  "bReplicateRigidBodyLocation": false,
  "bKillDuringLevelTransition": false,
  "bExchangedRoles": false,
  "bConsiderAllStaticMeshComponentsForStreaming": false,
  "bPostRenderIfNotVisible": false,
  "bForceNetUpdate": false,
  "bPendingNetUpdate": false,
  "bHardAttach": false,
  "bIgnoreBaseRotation": false,
  "bSkipAttachedMoves": true,
  "bHurtEntry": false,
  "bGameRelevant": false,
  "bMovable": true,
  "bDestroyInPainVolume": false,
  "bCanBeDamaged": false,
  "bShouldBaseAtStartup": false,
  "bPendingDelete": false,
  "bCanTeleport": false,
  "bAlwaysTick": false,
  "bBlocksNavigation": false,
  "bCanTarget": false,
  "bCanTargetCheat": false,
  "BlockRigidBody": false,
  "bCollideWhenPlacing": false,
  "bCollideActors": false,
  "bCollideWorld": false,
  "bCollideComplex": false,
  "bBlockActors": false,
  "bProjTarget": false,
  "bBlocksTeleport": false,
  "bProjectileMoveSingleBlocking": false,
  "bTraceListeners": false,
  "bIsBlockingMesh": false,
  "bIsWillowInteractiveObject": false,
  "bIgnoreRadiusDamageCheck": false,
  "bNoEncroachCheck": false,
  "bCollideAsEncroacher": false,
  "bPhysRigidBodyOutOfWorldCheck": false,
  "bComponentOutsideWorld": false,
  "bForceOctreeSNFilter": false,
  "bRigidBodyWasAwake": false,
  "bCallRigidBodyWakeEvents": false,
  "bBounce": false,
  "bJustTeleported": true,
  "bNetInitial": false,
  "bNetOwner": false,
  "bHiddenEd": true,
  "bEditable": true,
  "bHiddenEdLayer": false,
  "bHiddenEdTemporary": false,
  "bHiddenEdLevel": false,
  "bEdShouldSnap": false,
  "bTempEditor": false,
  "bPathColliding": false,
  "bPathTemp": false,
  "bScriptInitialized": false,
  "bLockLocation": false,
  "bForceAllowKismetModification": false,
  "bTraceIgnoreRigidBodyForPawns": false,
  "bAutoMovePlayerOnInterpActor": false,
  "bMoveActorDoZeroExtentTrace": false,
  "bDebugEffectIsRelevant": false,
  "bLoadIfPhysXLevel0": true,
  "bLoadIfPhysXLevel1": true,
  "bLoadIfPhysXLevel2": true,
  "NetTag": 0,
  "NetUpdateTime": 0.0,
  "NetUpdateFrequency": 100.0,
  "NetPriority": 3.0,
  "LastNetUpdateTime": 0.0,
  "Instigator": null,
  "WorldInfo": null,
  "LifeSpan": 0.0,
  "CreationTime": 0.0,
  "LastRenderTime": 0.0,
  "LatentFloat": 0.0,
  "PhysicsVolume": null,
  "Velocity": { "X": 0.0, "Y": 0.0, "Z": 0.0 },
  "Acceleration": { "X": 0.0, "Y": 0.0, "Z": 0.0 },
  "AngularVelocity": { "X": 0.0, "Y": 0.0, "Z": 0.0 },
  "BaseSkelComponent": null,
  "BaseBoneName": null,
  "RelativeLocation": { "X": 0.0, "Y": 0.0, "Z": 0.0 },
  "RelativeRotation": { "Pitch": 0, "Yaw": 0, "Roll": 0 },
  "CollisionComponent": "CollisionCylinder",
  "OverlapTag": 0,
  "RotationRate": { "Pitch": 30000, "Yaw": 30000, "Roll": 2048 },
  "MostRecentDamageTaken": 0.0,
  "Components": [ "CollisionCylinder" ],
  "VfTableObject": "",
  "HashNext": "",
  "ObjectFlags": "",
  "HashOuterNext": "",
  "StateFrame": "",
  "Linker": null,
  "LinkerIndex": "",
  "ObjectInternalInteger": 2981,
  "NetIndex": 4792,
  "Outer": "Package'GearboxFramework'",
  "Name": "Default__GearboxPlayerController",
  "Class": "GearboxFramework.GearboxPlayerController",
  "ObjectArchetype": "GameFramework.Default__GamePlayerController"
}