{
  "bStopWeaponRecoilAnim": true,
  "VfTable_IIBehaviorProvider": "",
  "AnimName": "ClaptrapIntro",
  "BlendInTime": 0.0,
  "BlendOutTime": 1.0,
  "PlayRate": 1.0,
  "EndingCondition": "EC_OnBlendOut",
  "AnimSet": "Anim_Glacial.Anim_UnarmedHands",
  "bMirrored": false,
  "BlendPerBone": false,
  "DisableAnimSequenceNotifies": false,
  "bOnlyPlayNotifiesWhileActive": false,
  "bReverseAnimSearchOrder": false,
  "AnimNodeName": "WeaponAction",
  "RootMotionDef": null,
  "BoneBlendDef": null,
  "BehaviorProviderDefinition": null,
  "StopBehaviors": [
    {
      "PlayServer": true,
      "PlayClient": false,
      "PlayLocal": true,
      "Behaviors": [
        "GD_Episode02Data.SpecialMoves.SpecialMove_ClaptrapIntroHands_First:Behavior_AdjustCameraAnimByEyeHeight_1"
      ]
    }
  ],
  "StartBehaviors": [
    {
      "PlayServer": true,
      "PlayClient": false,
      "PlayLocal": true,
      "Behaviors": [
        "GD_Episode02Data.SpecialMoves.SpecialMove_ClaptrapIntroHands_First:Behavior_AdjustCameraAnimByEyeHeight_0"
      ]
    }
  ],
  "NextSpecialMove": null,
  "StopExpression": null,
  "bOwnerAlwaysRelevant": false,
  "bClientHasAuthority": false,
  "VfTableObject": "",
  "HashNext": "",
  "ObjectFlags": "",
  "HashOuterNext": "",
  "StateFrame": "",
  "Linker": null,
  "LinkerIndex": "",
  "ObjectInternalInteger": 220543,
  "NetIndex": 771,
  "Outer": "GD_Episode02Data.SpecialMoves",
  "Name": "SpecialMove_ClaptrapIntroHands_First",
  "Class": "WillowGame.SpecialMove_FirstPerson",
  "ObjectArchetype": "WillowGame.Default__SpecialMove_FirstPerson"
}