{
  "bStopWeaponRecoilAnim": true,
  "VfTable_IIBehaviorProvider": "",
  "AnimName": "Melee",
  "BlendInTime": 0.1,
  "BlendOutTime": 0.15,
  "PlayRate": 1.0,
  "EndingCondition": "EC_OnBlendOut",
  "AnimSet": null,
  "bMirrored": false,
  "BlendPerBone": false,
  "DisableAnimSequenceNotifies": false,
  "bOnlyPlayNotifiesWhileActive": false,
  "bReverseAnimSearchOrder": false,
  "AnimNodeName": "WeaponAction",
  "RootMotionDef": null,
  "BoneBlendDef": null,
  "BehaviorProviderDefinition": null,
  "StopBehaviors": [
    {
      "PlayServer": false,
      "PlayClient": false,
      "PlayLocal": true,
      "Behaviors": [
        "GD_Mercenary_Streaming.Anims1st.WeaponAnim_Melee:PlayerBehavior_ToggleMeleeWeapon_3"
      ]
    }
  ],
  "SMNotifies": [
    {
      "Time": 0.1,
      "PlayServer": false,
      "PlayClient": false,
      "PlayLocal": true,
      "Behaviors": [
        "GD_Mercenary_Streaming.Anims1st.WeaponAnim_Melee:PlayerBehavior_ToggleMeleeWeapon_1"
      ]
    },
    {
      "Time": 0.45,
      "PlayServer": false,
      "PlayClient": false,
      "PlayLocal": true,
      "Behaviors": [
        "GD_Mercenary_Streaming.Anims1st.WeaponAnim_Melee:PlayerBehavior_ToggleMeleeWeapon_2"
      ]
    }
  ],
  "NextSpecialMove": null,
  "StopExpression": null,
  "bOwnerAlwaysRelevant": false,
  "bClientHasAuthority": false,
  "VfTableObject": "",
  "HashNext": "",
  "ObjectFlags": "",
  "HashOuterNext": "",
  "StateFrame": "",
  "Linker": null,
  "LinkerIndex": "",
  "ObjectInternalInteger": 206777,
  "NetIndex": 522,
  "Outer": "GD_Mercenary_Streaming.Anims1st",
  "Name": "WeaponAnim_Melee",
  "Class": "WillowGame.SpecialMove_FirstPerson",
  "ObjectArchetype": "WillowGame.Default__SpecialMove_FirstPerson"
}