{
  "bStopWeaponRecoilAnim": true,
  "VfTable_IIBehaviorProvider": "",
  "AnimName": "Reload_Vladof",
  "BlendInTime": 0.1,
  "BlendOutTime": 0.1,
  "PlayRate": 1.0,
  "EndingCondition": "EC_OnBlendOut",
  "AnimSet": null,
  "bMirrored": false,
  "BlendPerBone": false,
  "DisableAnimSequenceNotifies": false,
  "bOnlyPlayNotifiesWhileActive": false,
  "bReverseAnimSearchOrder": false,
  "AnimNodeName": "WeaponAction",
  "RootMotionDef": null,
  "BoneBlendDef": null,
  "BehaviorProviderDefinition": null,
  "NextSpecialMove": null,
  "StopExpression": null,
  "bOwnerAlwaysRelevant": false,
  "bClientHasAuthority": false,
  "VfTableObject": "",
  "HashNext": "",
  "ObjectFlags": "",
  "HashOuterNext": "",
  "StateFrame": "",
  "Linker": null,
  "LinkerIndex": "",
  "ObjectInternalInteger": 226157,
  "NetIndex": 407,
  "Outer": "GD_PlayerShared.Anims1st",
  "Name": "WeaponAnim_Reload_Vladof",
  "Class": "WillowGame.SpecialMove_FirstPerson",
  "ObjectArchetype": "WillowGame.Default__SpecialMove_FirstPerson"
}