{
  "PropertyName": null,
  "VfTableObject": "",
  "HashNext": "",
  "ObjectFlags": "",
  "HashOuterNext": "",
  "StateFrame": "",
  "Linker": null,
  "LinkerIndex": "",
  "ObjectInternalInteger": 5101,
  "NetIndex": 33798,
  "Outer": "Package'WillowGame'",
  "Name": "Default__TargetMetaInfoValueResolver",
  "Class": "WillowGame.TargetMetaInfoValueResolver",
  "ObjectArchetype": "Engine.Default__AttributeValueResolver"
}