{
  "CustomizationUsageName": "Universal",
  "VfTableObject": "",
  "HashNext": "",
  "ObjectFlags": "",
  "HashOuterNext": "",
  "StateFrame": "",
  "Linker": null,
  "LinkerIndex": "",
  "ObjectInternalInteger": 69523,
  "NetIndex": 19399,
  "Outer": "Package'WillowGame'",
  "Name": "Default__CustomizationUsage_ExtraPlayerL",
  "Class": "WillowGame.CustomizationUsage_ExtraPlayerL",
  "ObjectArchetype": "WillowGame.Default__CustomizationUsage_Player"
}