{
  "VfTable_IIConstructObject": "",
  "ConsolidatedAttributeInitData": [
    {
      "BaseValueConstant": 1.0,
      "BaseValueAttribute": null,
      "InitializationDefinition": null,
      "BaseValueScaleConstant": 1.0
    },
    {
      "BaseValueConstant": 100.0,
      "BaseValueAttribute": null,
      "InitializationDefinition": null,
      "BaseValueScaleConstant": 1.0
    },
    {
      "BaseValueConstant": 0.0,
      "BaseValueAttribute": null,
      "InitializationDefinition": "GD_Balance.Weighting.Weight_1_Common",
      "BaseValueScaleConstant": 1.0
    }
  ],
  "WeightedParts": [
    {
      "Part": "GD_Currency.BigMoney.BigMoney_01",
      "Manufacturers": [ { "Manufacturer": null, "DefaultWeightIndex": 1 } ],
      "MinGameStageIndex": 0,
      "MaxGameStageIndex": 1,
      "DefaultWeightIndex": 2
    },
    {
      "Part": "GD_Currency.BigMoney.BigMoney_02",
      "Manufacturers": [ { "Manufacturer": null, "DefaultWeightIndex": 1 } ],
      "MinGameStageIndex": 0,
      "MaxGameStageIndex": 1,
      "DefaultWeightIndex": 2
    },
    {
      "Part": "GD_Currency.BigMoney.BigMoney_03",
      "Manufacturers": [ { "Manufacturer": null, "DefaultWeightIndex": 1 } ],
      "MinGameStageIndex": 0,
      "MaxGameStageIndex": 1,
      "DefaultWeightIndex": 2
    },
    {
      "Part": "GD_Currency.BigMoney.BigMoney_04",
      "Manufacturers": [ { "Manufacturer": null, "DefaultWeightIndex": 1 } ],
      "MinGameStageIndex": 0,
      "MaxGameStageIndex": 1,
      "DefaultWeightIndex": 2
    },
    {
      "Part": "GD_Currency.BigMoney.BigMoney_05",
      "Manufacturers": [ { "Manufacturer": null, "DefaultWeightIndex": 1 } ],
      "MinGameStageIndex": 0,
      "MaxGameStageIndex": 1,
      "DefaultWeightIndex": 2
    }
  ],
  "VfTableObject": "",
  "HashNext": "",
  "ObjectFlags": "",
  "HashOuterNext": "",
  "StateFrame": "",
  "Linker": null,
  "LinkerIndex": "",
  "ObjectInternalInteger": 131624,
  "NetIndex": 41,
  "Outer": "GD_Currency.BigMoney",
  "Name": "BigMoneyParts",
  "Class": "WillowGame.ItemPartListDefinition",
  "ObjectArchetype": "WillowGame.Default__ItemPartListDefinition"
}