{
  "VfTable_IIConstructObject": "",
  "ConsolidatedAttributeInitData": [
    {
      "BaseValueConstant": 1.0,
      "BaseValueAttribute": null,
      "InitializationDefinition": null,
      "BaseValueScaleConstant": 1.0
    },
    {
      "BaseValueConstant": 100.0,
      "BaseValueAttribute": null,
      "InitializationDefinition": null,
      "BaseValueScaleConstant": 1.0
    }
  ],
  "WeightedParts": [
    {
      "Part": "GD_GrenadeMods.ChildCount.ChildCount_Grade0",
      "Manufacturers": null,
      "MinGameStageIndex": 0,
      "MaxGameStageIndex": 1,
      "DefaultWeightIndex": 0
    },
    {
      "Part": "GD_GrenadeMods.ChildCount.ChildCount_Grade1",
      "Manufacturers": null,
      "MinGameStageIndex": 0,
      "MaxGameStageIndex": 1,
      "DefaultWeightIndex": 0
    },
    {
      "Part": "GD_GrenadeMods.ChildCount.ChildCount_Grade2",
      "Manufacturers": null,
      "MinGameStageIndex": 0,
      "MaxGameStageIndex": 1,
      "DefaultWeightIndex": 0
    },
    {
      "Part": "GD_GrenadeMods.ChildCount.ChildCount_Grade3",
      "Manufacturers": null,
      "MinGameStageIndex": 0,
      "MaxGameStageIndex": 1,
      "DefaultWeightIndex": 0
    },
    {
      "Part": "GD_GrenadeMods.ChildCount.ChildCount_Grade4",
      "Manufacturers": null,
      "MinGameStageIndex": 0,
      "MaxGameStageIndex": 1,
      "DefaultWeightIndex": 0
    },
    {
      "Part": "GD_GrenadeMods.ChildCount.ChildCount_Grade5",
      "Manufacturers": null,
      "MinGameStageIndex": 0,
      "MaxGameStageIndex": 1,
      "DefaultWeightIndex": 0
    },
    {
      "Part": "GD_GrenadeMods.ChildCount.ChildCount_Grade6",
      "Manufacturers": null,
      "MinGameStageIndex": 0,
      "MaxGameStageIndex": 1,
      "DefaultWeightIndex": 0
    }
  ],
  "VfTableObject": "",
  "HashNext": "",
  "ObjectFlags": "",
  "HashOuterNext": "",
  "StateFrame": "",
  "Linker": null,
  "LinkerIndex": "",
  "ObjectInternalInteger": 129128,
  "NetIndex": 2902,
  "Outer": "GD_GrenadeMods.ChildCount",
  "Name": "PartList_ChildCount",
  "Class": "WillowGame.ItemPartListDefinition",
  "ObjectArchetype": "WillowGame.Default__ItemPartListDefinition"
}