{
  "VfTable_IIConstructObject": "",
  "ConsolidatedAttributeInitData": [
    {
      "BaseValueConstant": 1.0,
      "BaseValueAttribute": null,
      "InitializationDefinition": null,
      "BaseValueScaleConstant": 1.0
    },
    {
      "BaseValueConstant": 100.0,
      "BaseValueAttribute": null,
      "InitializationDefinition": null,
      "BaseValueScaleConstant": 1.0
    },
    {
      "BaseValueConstant": 1.0,
      "BaseValueAttribute": null,
      "InitializationDefinition": "GD_Balance.Weighting.Weight_1_Common",
      "BaseValueScaleConstant": 1.0
    },
    {
      "BaseValueConstant": 0.0,
      "BaseValueAttribute": null,
      "InitializationDefinition": null,
      "BaseValueScaleConstant": 1.0
    },
    {
      "BaseValueConstant": 1.0,
      "BaseValueAttribute": null,
      "InitializationDefinition": "GD_Balance.Weighting.Weight_2_Uncommon",
      "BaseValueScaleConstant": 1.0
    }
  ],
  "WeightedParts": [
    {
      "Part": "GD_Shields.Battery.Battery1_Tediore",
      "Manufacturers": [ { "Manufacturer": null, "DefaultWeightIndex": 3 } ],
      "MinGameStageIndex": 0,
      "MaxGameStageIndex": 1,
      "DefaultWeightIndex": 2
    },
    {
      "Part": "GD_Shields.Battery.Battery2_Bandit",
      "Manufacturers": [ { "Manufacturer": null, "DefaultWeightIndex": 3 } ],
      "MinGameStageIndex": 0,
      "MaxGameStageIndex": 1,
      "DefaultWeightIndex": 2
    },
    {
      "Part": "GD_Shields.Battery.Battery3_Vladof",
      "Manufacturers": [ { "Manufacturer": null, "DefaultWeightIndex": 3 } ],
      "MinGameStageIndex": 0,
      "MaxGameStageIndex": 1,
      "DefaultWeightIndex": 2
    },
    {
      "Part": "GD_Shields.Battery.Battery4_Dahl",
      "Manufacturers": [ { "Manufacturer": null, "DefaultWeightIndex": 3 } ],
      "MinGameStageIndex": 0,
      "MaxGameStageIndex": 1,
      "DefaultWeightIndex": 2
    },
    {
      "Part": "GD_Shields.Battery.Battery5_Anshin",
      "Manufacturers": [ { "Manufacturer": null, "DefaultWeightIndex": 3 } ],
      "MinGameStageIndex": 0,
      "MaxGameStageIndex": 1,
      "DefaultWeightIndex": 2
    },
    {
      "Part": "GD_Shields.Battery.Battery5_Maliwan",
      "Manufacturers": [ { "Manufacturer": null, "DefaultWeightIndex": 3 } ],
      "MinGameStageIndex": 0,
      "MaxGameStageIndex": 1,
      "DefaultWeightIndex": 4
    },
    {
      "Part": "GD_Shields.Battery.Battery6_Torgue",
      "Manufacturers": [ { "Manufacturer": null, "DefaultWeightIndex": 3 } ],
      "MinGameStageIndex": 0,
      "MaxGameStageIndex": 1,
      "DefaultWeightIndex": 2
    },
    {
      "Part": "GD_Shields.Battery.Battery7_Hyperion",
      "Manufacturers": [ { "Manufacturer": null, "DefaultWeightIndex": 3 } ],
      "MinGameStageIndex": 0,
      "MaxGameStageIndex": 1,
      "DefaultWeightIndex": 2
    },
    {
      "Part": "GD_Shields.Battery.Battery8_Pangolin",
      "Manufacturers": [ { "Manufacturer": null, "DefaultWeightIndex": 3 } ],
      "MinGameStageIndex": 0,
      "MaxGameStageIndex": 1,
      "DefaultWeightIndex": 2
    }
  ],
  "VfTableObject": "",
  "HashNext": "",
  "ObjectFlags": "",
  "HashOuterNext": "",
  "StateFrame": "",
  "Linker": null,
  "LinkerIndex": "",
  "ObjectInternalInteger": 171056,
  "NetIndex": 280,
  "Outer": "GD_Iris_SeraphItems.Sponge",
  "Name": "Iris_Seraph_Shield_Sponge_PartList_Battery",
  "Class": "WillowGame.ItemPartListDefinition",
  "ObjectArchetype": "WillowGame.Default__ItemPartListDefinition"
}