{
  "VfTable_IIConstructObject": "",
  "ConsolidatedAttributeInitData": [
    {
      "BaseValueConstant": 1.0,
      "BaseValueAttribute": null,
      "InitializationDefinition": null,
      "BaseValueScaleConstant": 1.0
    },
    {
      "BaseValueConstant": 100.0,
      "BaseValueAttribute": null,
      "InitializationDefinition": null,
      "BaseValueScaleConstant": 1.0
    },
    {
      "BaseValueConstant": 0.0,
      "BaseValueAttribute": null,
      "InitializationDefinition": null,
      "BaseValueScaleConstant": 1.0
    }
  ],
  "WeightedParts": [
    {
      "Part": "GD_Orchid_Artifacts.Effects.Effect_SeraphBloodRelic",
      "Manufacturers": null,
      "MinGameStageIndex": 0,
      "MaxGameStageIndex": 1,
      "DefaultWeightIndex": 0
    },
    {
      "Part": "GD_Orchid_Artifacts.Body.Body_SeraphBloodRelic",
      "Manufacturers": null,
      "MinGameStageIndex": 0,
      "MaxGameStageIndex": 1,
      "DefaultWeightIndex": 0
    },
    {
      "Part": "GD_Orchid_Artifacts.Upgrade.Upgrade_SeraphBloodRelic",
      "Manufacturers": null,
      "MinGameStageIndex": 0,
      "MaxGameStageIndex": 1,
      "DefaultWeightIndex": 2
    }
  ],
  "VfTableObject": "",
  "HashNext": "",
  "ObjectFlags": "",
  "HashOuterNext": "",
  "StateFrame": "",
  "Linker": null,
  "LinkerIndex": "",
  "ObjectInternalInteger": 174544,
  "NetIndex": 51,
  "Outer": "GD_Orchid_Artifacts.PartLists_Unique",
  "Name": "PartList_SeraphBloodRelic",
  "Class": "WillowGame.ItemPartListDefinition",
  "ObjectArchetype": "WillowGame.Default__ItemPartListDefinition"
}