{
  "VfTable_IIConstructObject": "",
  "ConsolidatedAttributeInitData": [
    {
      "BaseValueConstant": 1.0,
      "BaseValueAttribute": null,
      "InitializationDefinition": null,
      "BaseValueScaleConstant": 1.0
    },
    {
      "BaseValueConstant": 100.0,
      "BaseValueAttribute": null,
      "InitializationDefinition": null,
      "BaseValueScaleConstant": 1.0
    },
    {
      "BaseValueConstant": 1.0,
      "BaseValueAttribute": null,
      "InitializationDefinition": "GD_Balance.Weighting.Weight_1_Common",
      "BaseValueScaleConstant": 1.0
    },
    {
      "BaseValueConstant": 0.0,
      "BaseValueAttribute": null,
      "InitializationDefinition": null,
      "BaseValueScaleConstant": 1.0
    }
  ],
  "WeightedParts": [
    {
      "Part": "GD_Shields.Body.Body1_Tediore",
      "Manufacturers": [ { "Manufacturer": null, "DefaultWeightIndex": 3 } ],
      "MinGameStageIndex": 0,
      "MaxGameStageIndex": 1,
      "DefaultWeightIndex": 2
    },
    {
      "Part": "GD_Shields.Body.Body2_Bandit",
      "Manufacturers": [ { "Manufacturer": null, "DefaultWeightIndex": 3 } ],
      "MinGameStageIndex": 0,
      "MaxGameStageIndex": 1,
      "DefaultWeightIndex": 2
    },
    {
      "Part": "GD_Shields.Body.Body3_Vladof",
      "Manufacturers": [ { "Manufacturer": null, "DefaultWeightIndex": 3 } ],
      "MinGameStageIndex": 0,
      "MaxGameStageIndex": 1,
      "DefaultWeightIndex": 2
    },
    {
      "Part": "GD_Shields.Body.Body4_Dahl",
      "Manufacturers": [ { "Manufacturer": null, "DefaultWeightIndex": 3 } ],
      "MinGameStageIndex": 0,
      "MaxGameStageIndex": 1,
      "DefaultWeightIndex": 2
    },
    {
      "Part": "GD_Shields.Body.Body7_Hyperion",
      "Manufacturers": [ { "Manufacturer": null, "DefaultWeightIndex": 3 } ],
      "MinGameStageIndex": 0,
      "MaxGameStageIndex": 1,
      "DefaultWeightIndex": 2
    }
  ],
  "VfTableObject": "",
  "HashNext": "",
  "ObjectFlags": "",
  "HashOuterNext": "",
  "StateFrame": "",
  "Linker": null,
  "LinkerIndex": "",
  "ObjectInternalInteger": 131736,
  "NetIndex": 2330,
  "Outer": "GD_Shields.Body",
  "Name": "PartsList_Body_Standard_CrackedSash",
  "Class": "WillowGame.ItemPartListDefinition",
  "ObjectArchetype": "WillowGame.Default__ItemPartListDefinition"
}