{
  "VfTable_IIConstructObject": "",
  "ConsolidatedAttributeInitData": [
    {
      "BaseValueConstant": 1.0,
      "BaseValueAttribute": null,
      "InitializationDefinition": null,
      "BaseValueScaleConstant": 1.0
    },
    {
      "BaseValueConstant": 100.0,
      "BaseValueAttribute": null,
      "InitializationDefinition": null,
      "BaseValueScaleConstant": 1.0
    },
    {
      "BaseValueConstant": 0.0,
      "BaseValueAttribute": null,
      "InitializationDefinition": null,
      "BaseValueScaleConstant": 1.0
    }
  ],
  "WeightedParts": [
    {
      "Part": "GD_Shields.Material.Material1_Common",
      "Manufacturers": null,
      "MinGameStageIndex": 0,
      "MaxGameStageIndex": 1,
      "DefaultWeightIndex": 0
    },
    {
      "Part": "GD_Shields.Material.Material2_Uncommon_NoSpecial",
      "Manufacturers": null,
      "MinGameStageIndex": 0,
      "MaxGameStageIndex": 1,
      "DefaultWeightIndex": 0
    },
    {
      "Part": "GD_Shields.Material.Material3_Rare_NoSpecial",
      "Manufacturers": null,
      "MinGameStageIndex": 0,
      "MaxGameStageIndex": 1,
      "DefaultWeightIndex": 2
    },
    {
      "Part": "GD_Shields.Material.Material4_VeryRare_NoSpecial",
      "Manufacturers": null,
      "MinGameStageIndex": 0,
      "MaxGameStageIndex": 1,
      "DefaultWeightIndex": 0
    }
  ],
  "VfTableObject": "",
  "HashNext": "",
  "ObjectFlags": "",
  "HashOuterNext": "",
  "StateFrame": "",
  "Linker": null,
  "LinkerIndex": "",
  "ObjectInternalInteger": 131788,
  "NetIndex": 2370,
  "Outer": "GD_Shields.Material",
  "Name": "PartsList_Materials_NoSpecials",
  "Class": "WillowGame.ItemPartListDefinition",
  "ObjectArchetype": "WillowGame.Default__ItemPartListDefinition"
}