{
  "VfTable_IIConstructObject": "",
  "ConsolidatedAttributeInitData": [
    {
      "BaseValueConstant": 1.0,
      "BaseValueAttribute": null,
      "InitializationDefinition": null,
      "BaseValueScaleConstant": 1.0
    },
    {
      "BaseValueConstant": 100.0,
      "BaseValueAttribute": null,
      "InitializationDefinition": null,
      "BaseValueScaleConstant": 1.0
    },
    {
      "BaseValueConstant": 1.0,
      "BaseValueAttribute": null,
      "InitializationDefinition": "GD_Balance.Weighting.Weight_0_VeryCommon",
      "BaseValueScaleConstant": 1.0
    },
    {
      "BaseValueConstant": 0.0,
      "BaseValueAttribute": null,
      "InitializationDefinition": null,
      "BaseValueScaleConstant": 1.0
    },
    {
      "BaseValueConstant": 1.0,
      "BaseValueAttribute": null,
      "InitializationDefinition": "GD_Balance.Weighting.Weight_1_Common",
      "BaseValueScaleConstant": 1.0
    },
    {
      "BaseValueConstant": 1.0,
      "BaseValueAttribute": null,
      "InitializationDefinition": "GD_Balance.Weighting.Weight_2_Uncommon",
      "BaseValueScaleConstant": 1.0
    }
  ],
  "WeightedParts": [
    {
      "Part": "GD_Shields.Capacitor.Capacitor1_Tediore",
      "Manufacturers": [ { "Manufacturer": null, "DefaultWeightIndex": 3 } ],
      "MinGameStageIndex": 0,
      "MaxGameStageIndex": 1,
      "DefaultWeightIndex": 2
    },
    {
      "Part": "GD_Shields.Capacitor.Capacitor2_Bandit",
      "Manufacturers": [ { "Manufacturer": null, "DefaultWeightIndex": 3 } ],
      "MinGameStageIndex": 0,
      "MaxGameStageIndex": 1,
      "DefaultWeightIndex": 4
    },
    {
      "Part": "GD_Shields.Capacitor.Capacitor3_Vladof",
      "Manufacturers": [ { "Manufacturer": null, "DefaultWeightIndex": 3 } ],
      "MinGameStageIndex": 0,
      "MaxGameStageIndex": 1,
      "DefaultWeightIndex": 4
    },
    {
      "Part": "GD_Shields.Capacitor.Capacitor4_Dahl",
      "Manufacturers": [ { "Manufacturer": null, "DefaultWeightIndex": 3 } ],
      "MinGameStageIndex": 0,
      "MaxGameStageIndex": 1,
      "DefaultWeightIndex": 4
    },
    {
      "Part": "GD_Shields.Capacitor.Capacitor5_Anshin",
      "Manufacturers": [ { "Manufacturer": null, "DefaultWeightIndex": 3 } ],
      "MinGameStageIndex": 0,
      "MaxGameStageIndex": 1,
      "DefaultWeightIndex": 4
    },
    {
      "Part": "GD_Shields.Capacitor.Capacitor5_Maliwan_ShockRes",
      "Manufacturers": [ { "Manufacturer": null, "DefaultWeightIndex": 3 } ],
      "MinGameStageIndex": 0,
      "MaxGameStageIndex": 1,
      "DefaultWeightIndex": 5
    },
    {
      "Part": "GD_Shields.Capacitor.Capacitor7_Hyperion",
      "Manufacturers": [ { "Manufacturer": null, "DefaultWeightIndex": 3 } ],
      "MinGameStageIndex": 0,
      "MaxGameStageIndex": 1,
      "DefaultWeightIndex": 4
    },
    {
      "Part": "GD_Shields.Capacitor.Capacitor8_Pangolin",
      "Manufacturers": [ { "Manufacturer": null, "DefaultWeightIndex": 3 } ],
      "MinGameStageIndex": 0,
      "MaxGameStageIndex": 1,
      "DefaultWeightIndex": 4
    }
  ],
  "VfTableObject": "",
  "HashNext": "",
  "ObjectFlags": "",
  "HashOuterNext": "",
  "StateFrame": "",
  "Linker": null,
  "LinkerIndex": "",
  "ObjectInternalInteger": 131762,
  "NetIndex": 2351,
  "Outer": "GD_Shields.Capacitor",
  "Name": "PartsList_Capacitor_Spike_Shock",
  "Class": "WillowGame.ItemPartListDefinition",
  "ObjectArchetype": "WillowGame.Default__ItemPartListDefinition"
}