{
  "CustomizationUsageName": "Commando",
  "VfTableObject": "",
  "HashNext": "",
  "ObjectFlags": "",
  "HashOuterNext": "",
  "StateFrame": "",
  "Linker": null,
  "LinkerIndex": "",
  "ObjectInternalInteger": 69541,
  "NetIndex": 19419,
  "Outer": "Package'WillowGame'",
  "Name": "Default__CustomizationUsage_Soldier",
  "Class": "WillowGame.CustomizationUsage_Soldier",
  "ObjectArchetype": "WillowGame.Default__CustomizationUsage_Player"
}