{
  "PathToBackgroundArtClip": "../UI_Bank/Bank.swf",
  "TF_Standard": 0,
  "TF_Trash": 1,
  "TF_Favorite": 2,
  "TweenTime": 0.2,
  "CardExternalTextureMap": [ "weaptex23", "comparetex" ],
  "Cards": [
    {
      "CardName": "Main",
      "CellWidth": 228,
      "CellHeight": 77,
      "TextureWidth": 256,
      "TextureHeight": 128,
      "MainPlayerLinkageName": null,
      "SplitPlayerLinkageName": null,
      "CompareSettings": [
        {
          "PanelName": "Storage",
          "ComparePosition": { "X": -450.0, "Y": 175.0, "Z": 500.0 },
          "CompareScale": 75.0
        },
        {
          "PanelName": "Player",
          "ComparePosition": { "X": -150.0, "Y": 175.0, "Z": 500.0 },
          "CompareScale": 81.0
        }
      ]
    },
    {
      "CardName": "Compare",
      "CellWidth": 228,
      "CellHeight": 77,
      "TextureWidth": 256,
      "TextureHeight": 128,
      "MainPlayerLinkageName": null,
      "SplitPlayerLinkageName": null,
      "CompareSettings": [
        {
          "PanelName": "Storage",
          "ComparePosition": { "X": -150.0, "Y": 175.0, "Z": 500.0 },
          "CompareScale": 81.0
        },
        {
          "PanelName": "Player",
          "ComparePosition": { "X": -450.0, "Y": 175.0, "Z": 0.0 },
          "CompareScale": 75.0
        }
      ]
    }
  ],
  "Panels": [
    {
      "PanelName": "Storage",
      "PanelFocused": { "X": 0.0, "Y": 290.0, "Z": 0.0 },
      "PanelUnfocused": { "X": 0.0, "Y": 290.0, "Z": -3500.0 },
      "PanelCompare": { "X": -125.0, "Y": 290.0, "Z": -2650.0 },
      "PanelBackground": "ESPB_Bank",
      "CellWidth": 167,
      "CellHeight": 59,
      "TextureWidth": 256,
      "TextureHeight": 256
    },
    {
      "PanelName": "Player",
      "PanelFocused": { "X": 0.0, "Y": 290.0, "Z": 0.0 },
      "PanelUnfocused": { "X": 0.0, "Y": 281.0, "Z": -3500.0 },
      "PanelCompare": { "X": 200.0, "Y": 281.0, "Z": -2650.0 },
      "PanelBackground": "ESPB_Inventory",
      "CellWidth": 167,
      "CellHeight": 59,
      "TextureWidth": 256,
      "TextureHeight": 256
    }
  ],
  "CameraInterpSpeed": 6.0,
  "CloseInterpTime": 0.2,
  "CloseInterpDistSqThreshold": 4000.0,
  "bUsePPOverride": true,
  "bFixedYaw": false,
  "PostProcessInterpolationTime": 0.5,
  "CameraPitchMin": -2400.0,
  "CameraPitchMax": 1200.0,
  "MenuRotationSpeed": 8000.0,
  "MenuRotationSmoothingSpeed": 5.0,
  "TabViews": [
    {
      "RelativeCameraLocation": { "X": -175.0, "Y": -75.0, "Z": 40.0 },
      "RelativeCameraRotation": { "Pitch": 0, "Yaw": 8000, "Roll": 0 },
      "RelativeMenuLocation": { "X": 0.0, "Y": 0.0, "Z": 0.0 },
      "RelativeMenuRotation": { "Pitch": 0, "Yaw": 1000, "Roll": 0 },
      "CameraYawMin": 0.0,
      "CameraYawMax": 0.0,
      "VerticalSplitscreenCameraOffset": 0.0,
      "VerticalSplitscreenCameraSpread": 0.0,
      "FocusBoneName": null,
      "FocusScreenYaw": 0.0
    }
  ],
  "View3DFOV": -1.0,
  "View3DScale": 1.0,
  "View3DTrans": { "X": 0.0, "Y": 0.0, "Z": 0.0 },
  "View3DRot": { "Pitch": 0, "Yaw": 0, "Roll": 0 },
  "bSetMatricesEveryTick": true,
  "SplitscreenFOVScalar": 1.0,
  "SplitscreenSizeScalar": 0.9,
  "VerticalSplitscreenPanning": 92.0,
  "VerticalSplitscreenPanning_Spread": 40.0,
  "SwfMovie": "UI_TwoPanelInterface.TwoPanelInterface",
  "SwfMovieClass": "WillowGame.BankGFxMovie",
  "Movie": null,
  "ExternalInterfaceClass": null,
  "bTakeFocus": false,
  "bCaptureInput": false,
  "bStartPaused": false,
  "bIsModalGameMenu": true,
  "bOverrideWorldLighting": false,
  "bInputOwnerOnly": true,
  "bInputAllKeys": true,
  "FadeInSeconds": 0.1,
  "FadeOutSeconds": 0.1,
  "WorldLightingDirectionOffset": { "Pitch": 0, "Yaw": 0, "Roll": 0 },
  "DrawStyle": null,
  "DepthPriority": 0,
  "PoolType": "GMP_Pooled",
  "ScaleMode": "SM_FitVertical",
  "AlignMode": "Align_Center",
  "TimingMode": "TM_Real",
  "RenderTextureMode": "RTM_Opaque",
  "Pool": null,
  "RenderTexture": null,
  "InteractionOverrideSounds": [
    {
      "Interaction": "MenuOpen",
      "AkEvent": "Ake_UI.UI_Object_Interaction.Ak_Play_UI_Bank_Open"
    },
    {
      "Interaction": "Deposit",
      "AkEvent": "Ake_UI.UI_Object_Interaction.Ak_Play_UI_Bank_Place_Item"
    },
    {
      "Interaction": "Withdrawl",
      "AkEvent": "Ake_UI.UI_Object_Interaction.Ak_Play_UI_Bank_Remove_Item"
    },
    {
      "Interaction": "Swap",
      "AkEvent": "Ake_UI.UI_Object_Interaction.Ak_Play_UI_Bank_Remove_Item"
    },
    {
      "Interaction": "PanelSlide",
      "AkEvent": "Ake_UI.UI_BackMenu.Ak_Play_UI_Skills_Tree_Slide"
    }
  ],
  "VfTableObject": "",
  "HashNext": "",
  "ObjectFlags": "",
  "HashOuterNext": "",
  "StateFrame": "",
  "Linker": null,
  "LinkerIndex": "",
  "ObjectInternalInteger": 208597,
  "NetIndex": 11,
  "Outer": "Package'UI_TwoPanelInterface'",
  "Name": "BankDef",
  "Class": "WillowGame.TwoPanelInterfaceGFxDefinition",
  "ObjectArchetype": "WillowGame.Default__TwoPanelInterfaceGFxDefinition"
}