{
  "IPBanned": "Your IP address has been banned on this server.",
  "WrongPassword": "The password you entered is incorrect.",
  "NeedPassword": "You need to enter a password to join this game.",
  "SessionBanned":
    "Your IP address has been banned from the current game session.",
  "KickedMsg": "You have been forcibly removed from the game.",
  "DefaultKickReason": "None specified",
  "IdleKickReason": "Kicked for idling.",
  "AuthenticationFailed": "Authentication failed",
  "AdminClass": "Engine.Admin",
  "AdminPassword": "",
  "GamePassword": "",
  "bDontAddDefaultAdmin": false,
  "bPendingPostSeamlessInit": false,
  "bAuthenticateClients": false,
  "bAuthenticateServer": false,
  "bAuthenticateListenHost": false,
  "bPendingListenAuth": false,
  "MaxAuthRetryCount": 3,
  "AuthRetryDelay": 5,
  "OnlineSub": null,
  "CachedAuthInt": null,
  "ListenAuthBlobUID": 0,
  "ListenAuthRetryCount": 0,
  "ACDescText": [
    "If this password is set, players will have to enter it to join this server.",
    "Specifies IP addresses or address ranges which have been banned.",
    "Password required to login with administrator privileges on this server."
  ],
  "ACDisplayText": [ "Game Password", "Access Policies", "Admin Password" ],
  "IPPolicies": [ "ACCEPT;*" ],
  "VfTable_IIWorldBody": "",
  "VfTable_IISpawnActor": "",
  "VfTable_IIDamageCauser": "",
  "Location": { "X": 0.0, "Y": 0.0, "Z": 0.0 },
  "Rotation": { "Pitch": 0, "Yaw": 0, "Roll": 0 },
  "DrawScale": 1.0,
  "DrawScale3D": { "X": 1.0, "Y": 1.0, "Z": 1.0 },
  "PrePivot": { "X": 0.0, "Y": 0.0, "Z": 0.0 },
  "DetachFence": "",
  "CustomTimeDilation": 1.0,
  "Physics": "PHYS_None",
  "RemoteRole": "ROLE_None",
  "Role": "ROLE_Authority",
  "CollisionType": "COLLIDE_NoCollision",
  "ReplicatedCollisionType": [ "INVALID" ],
  "TickGroup": "TG_PreAsyncWork",
  "Owner": null,
  "Base": null,
  "bUseOrthonormalizedLighting": false,
  "bStatic": false,
  "bHidden": true,
  "bNoDelete": false,
  "bDeleteMe": false,
  "bTicked": false,
  "bOnlyOwnerSee": false,
  "bTickIsDisabled": false,
  "bWorldGeometry": false,
  "bIgnoreRigidBodyPawns": false,
  "bOrientOnSlope": false,
  "bIgnoreEncroachers": false,
  "bPushedByEncroachers": true,
  "bRouteBeginPlayEvenIfStatic": true,
  "bIsMoving": false,
  "bAlwaysEncroachCheck": false,
  "bCanStepUpOn": true,
  "bNetTemporary": false,
  "bOnlyRelevantToOwner": false,
  "bNetDirty": false,
  "bAlwaysRelevant": false,
  "bReplicateInstigator": false,
  "bReplicateMovement": true,
  "bSkipRotationReplication": false,
  "bForceRotationReplication": false,
  "bSkipActorPropertyReplication": true,
  "bUpdateSimulatedPosition": false,
  "bTearOff": false,
  "bOnlyDirtyReplication": true,
  "bSkipHiddenReplication": false,
  "bAllowFluidSurfaceInteraction": true,
  "bDemoRecording": false,
  "bDemoOwner": false,
  "bForceDemoRelevant": false,
  "bNetInitialRotation": false,
  "bReplicateRigidBodyLocation": false,
  "bKillDuringLevelTransition": false,
  "bExchangedRoles": false,
  "bConsiderAllStaticMeshComponentsForStreaming": false,
  "bPostRenderIfNotVisible": false,
  "bForceNetUpdate": false,
  "bPendingNetUpdate": false,
  "bHardAttach": false,
  "bIgnoreBaseRotation": false,
  "bSkipAttachedMoves": true,
  "bHurtEntry": false,
  "bGameRelevant": false,
  "bMovable": true,
  "bDestroyInPainVolume": false,
  "bCanBeDamaged": false,
  "bShouldBaseAtStartup": false,
  "bPendingDelete": false,
  "bCanTeleport": false,
  "bAlwaysTick": true,
  "bBlocksNavigation": false,
  "bCanTarget": false,
  "bCanTargetCheat": false,
  "BlockRigidBody": false,
  "bCollideWhenPlacing": false,
  "bCollideActors": false,
  "bCollideWorld": false,
  "bCollideComplex": false,
  "bBlockActors": false,
  "bProjTarget": false,
  "bBlocksTeleport": false,
  "bProjectileMoveSingleBlocking": false,
  "bTraceListeners": false,
  "bIsBlockingMesh": false,
  "bIsWillowInteractiveObject": false,
  "bIgnoreRadiusDamageCheck": false,
  "bNoEncroachCheck": false,
  "bCollideAsEncroacher": false,
  "bPhysRigidBodyOutOfWorldCheck": false,
  "bComponentOutsideWorld": false,
  "bForceOctreeSNFilter": false,
  "bRigidBodyWasAwake": false,
  "bCallRigidBodyWakeEvents": false,
  "bBounce": false,
  "bJustTeleported": true,
  "bNetInitial": false,
  "bNetOwner": false,
  "bHiddenEd": false,
  "bEditable": true,
  "bHiddenEdLayer": false,
  "bHiddenEdTemporary": false,
  "bHiddenEdLevel": false,
  "bEdShouldSnap": false,
  "bTempEditor": false,
  "bPathColliding": false,
  "bPathTemp": false,
  "bScriptInitialized": false,
  "bLockLocation": false,
  "bForceAllowKismetModification": false,
  "bTraceIgnoreRigidBodyForPawns": false,
  "bAutoMovePlayerOnInterpActor": false,
  "bMoveActorDoZeroExtentTrace": false,
  "bDebugEffectIsRelevant": false,
  "bLoadIfPhysXLevel0": true,
  "bLoadIfPhysXLevel1": true,
  "bLoadIfPhysXLevel2": true,
  "NetTag": 0,
  "NetUpdateTime": 0.0,
  "NetUpdateFrequency": 10.0,
  "NetPriority": 1.0,
  "LastNetUpdateTime": 0.0,
  "Instigator": null,
  "WorldInfo": null,
  "LifeSpan": 0.0,
  "CreationTime": 0.0,
  "LastRenderTime": 0.0,
  "LatentFloat": 0.0,
  "PhysicsVolume": null,
  "Velocity": { "X": 0.0, "Y": 0.0, "Z": 0.0 },
  "Acceleration": { "X": 0.0, "Y": 0.0, "Z": 0.0 },
  "AngularVelocity": { "X": 0.0, "Y": 0.0, "Z": 0.0 },
  "BaseSkelComponent": null,
  "BaseBoneName": null,
  "RelativeLocation": { "X": 0.0, "Y": 0.0, "Z": 0.0 },
  "RelativeRotation": { "Pitch": 0, "Yaw": 0, "Roll": 0 },
  "CollisionComponent": null,
  "OverlapTag": 0,
  "RotationRate": { "Pitch": 0, "Yaw": 0, "Roll": 0 },
  "MostRecentDamageTaken": 0.0,
  "Components": [ null ],
  "VfTableObject": "",
  "HashNext": "",
  "ObjectFlags": "",
  "HashOuterNext": "",
  "StateFrame": "",
  "Linker": null,
  "LinkerIndex": "",
  "ObjectInternalInteger": 9445,
  "NetIndex": 2147,
  "Outer": "Package'Engine'",
  "Name": "Default__AccessControl",
  "Class": "Engine.AccessControl",
  "ObjectArchetype": "Engine.Default__Info"
}