{
  "bWantExactMatch": true,
  "NameTag":
    "GD_Dialog_Enemy_Bandits.VOBD_Marauder_Deadhead.DialogName_BT_Marauder_Deadhead",
  "VfTableObject": "",
  "HashNext": "",
  "ObjectFlags": "",
  "HashOuterNext": "",
  "StateFrame": "",
  "Linker": null,
  "LinkerIndex": "",
  "ObjectInternalInteger": 210124,
  "NetIndex": 151,
  "Outer":
    "GD_BurningRedneck.Character.BodyClass_BurningRedneck:ExpressionTree_44",
  "Name": "DialogNameTagExpressionEvaluator_44",
  "Class": "WillowGame.DialogNameTagExpressionEvaluator",
  "ObjectArchetype": "WillowGame.Default__DialogNameTagExpressionEvaluator"
}