{
  "bWantExactMatch": true,
  "NameTag":
    "GD_Dialog_Enemy_Bandits.VOBD_Marauder_Ripper.DialogName_BT_Marauder_Ripper",
  "VfTableObject": "",
  "HashNext": "",
  "ObjectFlags": "",
  "HashOuterNext": "",
  "StateFrame": "",
  "Linker": null,
  "LinkerIndex": "",
  "ObjectInternalInteger": 216676,
  "NetIndex": 96,
  "Outer":
    "GD_BanditFireSkeleton.Character.BodyClass_BanditFireSkeleton:ExpressionTree_102",
  "Name": "DialogNameTagExpressionEvaluator_102",
  "Class": "WillowGame.DialogNameTagExpressionEvaluator",
  "ObjectArchetype": "WillowGame.Default__DialogNameTagExpressionEvaluator"
}