{
  "bWantExactMatch": true,
  "NameTag":
    "GD_Dialog_Enemy_Bandits.VOBD_Marauder_Killer.DialogName_BT_Marauder_Killer",
  "VfTableObject": "",
  "HashNext": "",
  "ObjectFlags": "",
  "HashOuterNext": "",
  "StateFrame": "",
  "Linker": null,
  "LinkerIndex": "",
  "ObjectInternalInteger": 200337,
  "NetIndex": 323,
  "Outer": "GD_FlyntSon.Character.BodyClass_FlyntSon:ExpressionTree_97",
  "Name": "DialogNameTagExpressionEvaluator_97",
  "Class": "WillowGame.DialogNameTagExpressionEvaluator",
  "ObjectArchetype": "WillowGame.Default__DialogNameTagExpressionEvaluator"
}