{
  "bWantExactMatch": true,
  "NameTag":
    "GD_Dialog_Enemy_Bandits.VOBD_Marauder_Scattershot.DialogName_BT_Marauder_Scattershot",
  "VfTableObject": "",
  "HashNext": "",
  "ObjectFlags": "",
  "HashOuterNext": "",
  "StateFrame": "",
  "Linker": null,
  "LinkerIndex": "",
  "ObjectInternalInteger": 226406,
  "NetIndex": 260,
  "Outer":
    "GD_HodunkBadass.Character.BodyClass_HodunkBadass:ExpressionTree_95",
  "Name": "DialogNameTagExpressionEvaluator_95",
  "Class": "WillowGame.DialogNameTagExpressionEvaluator",
  "ObjectArchetype": "WillowGame.Default__DialogNameTagExpressionEvaluator"
}