{
  "bWantExactMatch": true,
  "NameTag":
    "GD_Dialog_Enemy_Bandits.VOBD_Marauder_Scattershot.DialogName_BT_Marauder_Scattershot",
  "VfTableObject": "",
  "HashNext": "",
  "ObjectFlags": "",
  "HashOuterNext": "",
  "StateFrame": "",
  "Linker": null,
  "LinkerIndex": "",
  "ObjectInternalInteger": 209744,
  "NetIndex": 483,
  "Outer":
    "GD_Iris_BikeRiderMarauder.Character.BodyClass_Iris_BikeRiderMarauder:ExpressionTree_99",
  "Name": "DialogNameTagExpressionEvaluator_99",
  "Class": "WillowGame.DialogNameTagExpressionEvaluator",
  "ObjectArchetype": "WillowGame.Default__DialogNameTagExpressionEvaluator"
}