{
  "bWantExactMatch": true,
  "NameTag": "GD_Dialog_Enemy_Bandits.VOBD_Psycho.DialogName_BT_Psycho2",
  "VfTableObject": "",
  "HashNext": "",
  "ObjectFlags": "",
  "HashOuterNext": "",
  "StateFrame": "",
  "Linker": null,
  "LinkerIndex": "",
  "ObjectInternalInteger": 221661,
  "NetIndex": 202,
  "Outer":
    "GD_IncineratorMale.Character.BodyClass_IncineratorMale:ExpressionTree_139",
  "Name": "DialogNameTagExpressionEvaluator_139",
  "Class": "WillowGame.DialogNameTagExpressionEvaluator",
  "ObjectArchetype": "WillowGame.Default__DialogNameTagExpressionEvaluator"
}