{
  "bWantExactMatch": true,
  "NameTag":
    "GD_Dialog_Enemy_Hyperion.VOBD_HYP_Engineer.DialogName_HYP_Engineer2_Midget",
  "VfTableObject": "",
  "HashNext": "",
  "ObjectFlags": "",
  "HashOuterNext": "",
  "StateFrame": "",
  "Linker": null,
  "LinkerIndex": "",
  "ObjectInternalInteger": 197054,
  "NetIndex": 167,
  "Outer":
    "GD_LootMidget_Engineer.Character.BodyClass_LootMidget_Engineer:ExpressionTree_0",
  "Name": "DialogNameTagExpressionEvaluator_112",
  "Class": "WillowGame.DialogNameTagExpressionEvaluator",
  "ObjectArchetype": "WillowGame.Default__DialogNameTagExpressionEvaluator"
}