{
  "bWantExactMatch": true,
  "NameTag":
    "GD_Dialog_Enemy_Bandits.VOBD_Marauder_Scattershot.DialogName_BT_Marauder_Scattershot",
  "VfTableObject": "",
  "HashNext": "",
  "ObjectFlags": "",
  "HashOuterNext": "",
  "StateFrame": "",
  "Linker": null,
  "LinkerIndex": "",
  "ObjectInternalInteger": 159886,
  "NetIndex": 445,
  "Outer":
    "GD_MarauderShared.Character.BodyClass_MarauderShared:ExpressionTree_11",
  "Name": "DialogNameTagExpressionEvaluator_11",
  "Class": "WillowGame.DialogNameTagExpressionEvaluator",
  "ObjectArchetype": "WillowGame.Default__DialogNameTagExpressionEvaluator"
}