{
  "bWantExactMatch": true,
  "NameTag":
    "GD_Dialog_Enemy_Bandits.VOBD_Marauder_Ripper.DialogName_BT_Marauder_Ripper_Midget",
  "VfTableObject": "",
  "HashNext": "",
  "ObjectFlags": "",
  "HashOuterNext": "",
  "StateFrame": "",
  "Linker": null,
  "LinkerIndex": "",
  "ObjectInternalInteger": 220710,
  "NetIndex": 70,
  "Outer":
    "GD_MarauderMidget.Character.BodyClass_MarauderMidget:ExpressionTree_114",
  "Name": "DialogNameTagExpressionEvaluator_114",
  "Class": "WillowGame.DialogNameTagExpressionEvaluator",
  "ObjectArchetype": "WillowGame.Default__DialogNameTagExpressionEvaluator"
}