{
  "bWantExactMatch": true,
  "NameTag":
    "GD_Dialog_Enemy_Bandits.VOBD_Marauder_Killer.DialogName_BT_Marauder_Killer",
  "VfTableObject": "",
  "HashNext": "",
  "ObjectFlags": "",
  "HashOuterNext": "",
  "StateFrame": "",
  "Linker": null,
  "LinkerIndex": "",
  "ObjectInternalInteger": 210090,
  "NetIndex": 154,
  "Outer":
    "GD_MickZaford_Combat.Character.BodyClass_MickZaford_Combat:ExpressionTree_69",
  "Name": "DialogNameTagExpressionEvaluator_69",
  "Class": "WillowGame.DialogNameTagExpressionEvaluator",
  "ObjectArchetype": "WillowGame.Default__DialogNameTagExpressionEvaluator"
}