{
  "bWantExactMatch": true,
  "NameTag":
    "GD_Dialog_Enemy_Bandits.VOBD_Marauder_Killer.DialogName_BT_Marauder_Killer",
  "VfTableObject": "",
  "HashNext": "",
  "ObjectFlags": "",
  "HashOuterNext": "",
  "StateFrame": "",
  "Linker": null,
  "LinkerIndex": "",
  "ObjectInternalInteger": 210082,
  "NetIndex": 161,
  "Outer": "GD_Mobley.Character.BodyClass_Mobley:ExpressionTree_47",
  "Name": "DialogNameTagExpressionEvaluator_47",
  "Class": "WillowGame.DialogNameTagExpressionEvaluator",
  "ObjectArchetype": "WillowGame.Default__DialogNameTagExpressionEvaluator"
}