{
  "bWantExactMatch": true,
  "NameTag":
    "GD_Dialog_Enemy_Bandits.VOBD_Marauder_Scattershot.DialogName_BT_Marauder_Scattershot",
  "VfTableObject": "",
  "HashNext": "",
  "ObjectFlags": "",
  "HashOuterNext": "",
  "StateFrame": "",
  "Linker": null,
  "LinkerIndex": "",
  "ObjectInternalInteger": 210078,
  "NetIndex": 163,
  "Outer": "GD_Mobley.Character.BodyClass_Mobley:ExpressionTree_49",
  "Name": "DialogNameTagExpressionEvaluator_49",
  "Class": "WillowGame.DialogNameTagExpressionEvaluator",
  "ObjectArchetype": "WillowGame.Default__DialogNameTagExpressionEvaluator"
}