{
  "bWantExactMatch": true,
  "NameTag":
    "GD_Dialog_Enemy_Bandits.VOBD_Marauder_Killer.DialogName_BT_Marauder_Killer_Midget",
  "VfTableObject": "",
  "HashNext": "",
  "ObjectFlags": "",
  "HashOuterNext": "",
  "StateFrame": "",
  "Linker": null,
  "LinkerIndex": "",
  "ObjectInternalInteger": 218111,
  "NetIndex": 80,
  "Outer":
    "GD_Orchid_Pirate_Midget.Character.BodyClass_Orchid_Pirate_Midget:ExpressionTree_113",
  "Name": "DialogNameTagExpressionEvaluator_113",
  "Class": "WillowGame.DialogNameTagExpressionEvaluator",
  "ObjectArchetype": "WillowGame.Default__DialogNameTagExpressionEvaluator"
}