{
  "bWantExactMatch": true,
  "NameTag": "GD_Dialog_Enemy_Bandits.VOBD_Psycho.DialogName_BT_Psycho2",
  "VfTableObject": "",
  "HashNext": "",
  "ObjectFlags": "",
  "HashOuterNext": "",
  "StateFrame": "",
  "Linker": null,
  "LinkerIndex": "",
  "ObjectInternalInteger": 215309,
  "NetIndex": 306,
  "Outer":
    "GD_Psycho_Digi.Character.BodyClass_Psycho_Digi:ExpressionTree_137",
  "Name": "DialogNameTagExpressionEvaluator_137",
  "Class": "WillowGame.DialogNameTagExpressionEvaluator",
  "ObjectArchetype": "WillowGame.Default__DialogNameTagExpressionEvaluator"
}