{
  "bWantExactMatch": true,
  "NameTag": "GD_Dialog_Enemy_Bandits.VOBD_Psycho.DialogName_BT_Psycho2",
  "VfTableObject": "",
  "HashNext": "",
  "ObjectFlags": "",
  "HashOuterNext": "",
  "StateFrame": "",
  "Linker": null,
  "LinkerIndex": "",
  "ObjectInternalInteger": 215301,
  "NetIndex": 298,
  "Outer":
    "GD_PsychoBadass_Digi.Character.BodyClass_PsychoBadass_Digi:ExpressionTree_1",
  "Name": "DialogNameTagExpressionEvaluator_1",
  "Class": "WillowGame.DialogNameTagExpressionEvaluator",
  "ObjectArchetype": "WillowGame.Default__DialogNameTagExpressionEvaluator"
}