{
  "bWantExactMatch": true,
  "NameTag": "GD_Dialog_Enemy_Bandits.VOBD_Psycho.DialogName_BT_Psycho1",
  "VfTableObject": "",
  "HashNext": "",
  "ObjectFlags": "",
  "HashOuterNext": "",
  "StateFrame": "",
  "Linker": null,
  "LinkerIndex": "",
  "ObjectInternalInteger": 208413,
  "NetIndex": 1367,
  "Outer": "GD_Snowman.Character.BodyClass_FakeSnowman:ExpressionTree_136",
  "Name": "DialogNameTagExpressionEvaluator_136",
  "Class": "WillowGame.DialogNameTagExpressionEvaluator",
  "ObjectArchetype": "WillowGame.Default__DialogNameTagExpressionEvaluator"
}