{
  "bWantExactMatch": true,
  "NameTag": "GD_Dialog_Enemy_Bandits.VOBD_Psycho.DialogName_BT_Psycho2",
  "VfTableObject": "",
  "HashNext": "",
  "ObjectFlags": "",
  "HashOuterNext": "",
  "StateFrame": "",
  "Linker": null,
  "LinkerIndex": "",
  "ObjectInternalInteger": 221038,
  "NetIndex": 167,
  "Outer":
    "GD_Sage_Challenge_RockForest.BewareTheClap.SACRIFICE.BodyClass_Sage_Sacrifice:ExpressionTree_137",
  "Name": "DialogNameTagExpressionEvaluator_137",
  "Class": "WillowGame.DialogNameTagExpressionEvaluator",
  "ObjectArchetype": "WillowGame.Default__DialogNameTagExpressionEvaluator"
}