{
  "bWantExactMatch": true,
  "NameTag": "GD_Dialog_Enemy_Bandits.VOBD_Psycho.DialogName_BT_Psycho2",
  "VfTableObject": "",
  "HashNext": "",
  "ObjectFlags": "",
  "HashOuterNext": "",
  "StateFrame": "",
  "Linker": null,
  "LinkerIndex": "",
  "ObjectInternalInteger": 201165,
  "NetIndex": 126,
  "Outer":
    "GD_TargetDummy_Shield.Character.BodyClass_TargetDummy_Shield:ExpressionTree_5",
  "Name": "DialogNameTagExpressionEvaluator_5",
  "Class": "WillowGame.DialogNameTagExpressionEvaluator",
  "ObjectArchetype": "WillowGame.Default__DialogNameTagExpressionEvaluator"
}