{
  "bWantExactMatch": true,
  "NameTag":
    "GD_Dialog_Enemy_Bandits.VOBD_Marauder_Ripper.DialogName_BT_Marauder_Ripper",
  "VfTableObject": "",
  "HashNext": "",
  "ObjectFlags": "",
  "HashOuterNext": "",
  "StateFrame": "",
  "Linker": null,
  "LinkerIndex": "",
  "ObjectInternalInteger": 215073,
  "NetIndex": 97,
  "Outer":
    "GD_TundraPatrol.Character.BodyClass_TundraPatrol:ExpressionTree_86",
  "Name": "DialogNameTagExpressionEvaluator_86",
  "Class": "WillowGame.DialogNameTagExpressionEvaluator",
  "ObjectArchetype": "WillowGame.Default__DialogNameTagExpressionEvaluator"
}