{
  "AllegianceCheck": "EAllegianceExpression_IsAllegiance",
  "Allegiance": "GD_AI_Allegiance.Allegiance_Player",
  "VfTableObject": "",
  "HashNext": "",
  "ObjectFlags": "",
  "HashOuterNext": "",
  "StateFrame": "",
  "Linker": null,
  "LinkerIndex": "",
  "ObjectInternalInteger": 206009,
  "NetIndex": 24,
  "Outer":
    "GD_MordecaiNPC.Projectiles.Projectile_MordecaiSlagSnipe:BehaviorProviderDefinition_0.Behavior_Conditional_3",
  "Name": "AllegianceExpressionEvaluator_1",
  "Class": "GearboxFramework.AllegianceExpressionEvaluator",
  "ObjectArchetype":
    "GearboxFramework.Default__AllegianceExpressionEvaluator"
}