{
  "VfTable_IIBehaviorProvider": "",
  "CustomDamageTypeDefinition": null,
  "CustomFiringModeDefinition": null,
  "PartType": "WP_Body",
  "PartVariation": "WeaponPartVar_Three",
  "NumPhysicalBarrelsToFireFrom": 0,
  "LeftHandIKHoldName": null,
  "bIsSpinningEnabled": true,
  "bFlapsEnabled": false,
  "bOverrideShellCasing": true,
  "bUseWeaponMelee": false,
  "bScoped": false,
  "SpinUpDuration": {
    "BaseValueConstant": 0.0,
    "BaseValueAttribute": null,
    "InitializationDefinition": null,
    "BaseValueScaleConstant": 1.0
  },
  "SpinDownDuration": {
    "BaseValueConstant": 0.0,
    "BaseValueAttribute": null,
    "InitializationDefinition": null,
    "BaseValueScaleConstant": 1.0
  },
  "StartingSpinUpFireIntervalMultiplier": 1.0,
  "FlapsExpandDuration": {
    "BaseValueConstant": 0.0,
    "BaseValueAttribute": null,
    "InitializationDefinition": null,
    "BaseValueScaleConstant": 1.0
  },
  "FlapsCollapseDuration": {
    "BaseValueConstant": 0.0,
    "BaseValueAttribute": null,
    "InitializationDefinition": null,
    "BaseValueScaleConstant": 1.0
  },
  "ShellCasingPSCTemplate": "FX_WEP_Assault.Particles.Assault_Shells",
  "ShellCasingSocket": "EjectPort",
  "ScopedShellCasingOffset": { "X": 70.0, "Y": 0.0, "Z": -20.0 },
  "OffHandShellCasingRotOffset": { "Pitch": 32768, "Yaw": 0, "Roll": 32768 },
  "MuzzleFlashPSTemplates": null,
  "WeaponImpact": null,
  "FirstPersonParticle": null,
  "FirstPersonParticleSocketName": null,
  "FirstPersonParticleInstanceDataName": null,
  "BehaviorProviderDefinition": null,
  "ManufacturerDefinitionForScopeMovie":
    "GD_Manufacturers.Manufacturers.Jakobs",
  "ZoomedFOVLerpPct": 0.35,
  "SightFXCrosshairMaterial": null,
  "SightFXCrosshairParamName": "Crosshair",
  "SightFXCrosshairRefractionParamName": "RefractionMultiplier",
  "BoneControllers": [
    {
      "BoneName": "Loader",
      "ControlType": "WEAP_BONE_CONTROL_MagazineSpinner",
      "bUseInFirstPerson": true,
      "bUseInThirdPerson": true,
      "ControlTemplate":
        "GD_Lobelia_Weapons.AssaultRifles.AR_Body_Jakobs_6_Bekah:WillowSkelControl_RotateWeaponBoneFromFiring_44"
    },
    {
      "BoneName": "Mag_Spinner",
      "ControlType": "WEAP_BONE_CONTROL_MagazineSpinner",
      "bUseInFirstPerson": true,
      "bUseInThirdPerson": true,
      "ControlTemplate":
        "GD_Lobelia_Weapons.AssaultRifles.AR_Body_Jakobs_6_Bekah:WillowSkelControl_RotateWeaponBoneFromFiring_47"
    }
  ],
  "Material": null,
  "bIsGestaltMode": true,
  "GestaltModeSkeletalMeshName": "AR_Body_Jakobs",
  "NongestaltSkeletalMesh": null,
  "MonetaryValueMod":
    "GD_Economy.Rarity.Att_Price_RarityMultiplier_05_Legendary",
  "Rarity": {
    "BaseValueConstant": 500.0,
    "BaseValueAttribute": null,
    "InitializationDefinition": null,
    "BaseValueScaleConstant": 1.0
  },
  "AttributeSlotUpgrades": [
    {
      "SlotName": "WeaponDamage",
      "GradeIncrease": 24,
      "bActivateSlot": true
    },
    {
      "SlotName": "WeaponMagSize",
      "GradeIncrease": 7,
      "bActivateSlot": true
    },
    { "SlotName": "WeaponSpread", "GradeIncrease": 7, "bActivateSlot": true }
  ],
  "AdditionalGestaltModeSkeletalMeshNames": [
    "AR_Body_Jakobs_Var1", "AR_Body_Jakobs_Var2"
  ],
  "VfTableObject": "",
  "HashNext": "",
  "ObjectFlags": "",
  "HashOuterNext": "",
  "StateFrame": "",
  "Linker": null,
  "LinkerIndex": "",
  "ObjectInternalInteger": 172598,
  "NetIndex": 149,
  "Outer": "GD_Lobelia_Weapons.AssaultRifles",
  "Name": "AR_Body_Jakobs_6_Bekah",
  "Class": "WillowGame.WeaponPartDefinition",
  "ObjectArchetype": "WillowGame.Default__WeaponPartDefinition"
}