{
  "VfTable_IIBehaviorProvider": "",
  "CustomDamageTypeDefinition": null,
  "CustomFiringModeDefinition":
    "GD_Sage_RaidWeapons.FiringModes.Bullet_Shotgun_Interfacer",
  "PartType": "WP_Barrel",
  "PartVariation": "WeaponPartVar_Default",
  "NumPhysicalBarrelsToFireFrom": 0,
  "LeftHandIKHoldName": null,
  "bIsSpinningEnabled": false,
  "bFlapsEnabled": false,
  "bOverrideShellCasing": false,
  "bUseWeaponMelee": false,
  "bScoped": false,
  "SpinUpDuration": {
    "BaseValueConstant": 0.0,
    "BaseValueAttribute": null,
    "InitializationDefinition": null,
    "BaseValueScaleConstant": 1.0
  },
  "SpinDownDuration": {
    "BaseValueConstant": 0.0,
    "BaseValueAttribute": null,
    "InitializationDefinition": null,
    "BaseValueScaleConstant": 1.0
  },
  "StartingSpinUpFireIntervalMultiplier": 1.0,
  "FlapsExpandDuration": {
    "BaseValueConstant": 0.0,
    "BaseValueAttribute": null,
    "InitializationDefinition": null,
    "BaseValueScaleConstant": 1.0
  },
  "FlapsCollapseDuration": {
    "BaseValueConstant": 0.0,
    "BaseValueAttribute": null,
    "InitializationDefinition": null,
    "BaseValueScaleConstant": 1.0
  },
  "ShellCasingPSCTemplate": null,
  "ShellCasingSocket": "EjectPort",
  "ScopedShellCasingOffset": { "X": 70.0, "Y": 0.0, "Z": -20.0 },
  "OffHandShellCasingRotOffset": { "Pitch": -11832, "Yaw": 0, "Roll": 0 },
  "MuzzleFlashPSTemplates": null,
  "WeaponImpact": null,
  "FirstPersonParticle": null,
  "FirstPersonParticleSocketName": null,
  "FirstPersonParticleInstanceDataName": null,
  "BehaviorProviderDefinition": null,
  "ManufacturerDefinitionForScopeMovie":
    "GD_Manufacturers.Manufacturers.Hyperion",
  "ZoomedFOVLerpPct": 0.35,
  "SightFXCrosshairMaterial": null,
  "SightFXCrosshairParamName": "Crosshair",
  "SightFXCrosshairRefractionParamName": "RefractionMultiplier",
  "WeaponAttributeEffects": [
    {
      "AttributeToModify": "D_Attributes.Weapon.WeaponDamage",
      "ModifierType": "MT_Scale",
      "BaseModifierValue": {
        "BaseValueConstant": 0.35,
        "BaseValueAttribute": null,
        "InitializationDefinition": null,
        "BaseValueScaleConstant": 1.0
      }
    },
    {
      "AttributeToModify": "D_Attributes.Weapon.WeaponProjectilesPerShot",
      "ModifierType": "MT_PreAdd",
      "BaseModifierValue": {
        "BaseValueConstant": 1.0,
        "BaseValueAttribute": null,
        "InitializationDefinition": null,
        "BaseValueScaleConstant": 1.0
      }
    },
    {
      "AttributeToModify": "D_Attributes.Weapon.WeaponShotCost",
      "ModifierType": "MT_PreAdd",
      "BaseModifierValue": {
        "BaseValueConstant": 1.0,
        "BaseValueAttribute": null,
        "InitializationDefinition": null,
        "BaseValueScaleConstant": 1.0
      }
    },
    {
      "AttributeToModify": "D_Attributes.Weapon.WeaponClipSize",
      "ModifierType": "MT_PreAdd",
      "BaseModifierValue": {
        "BaseValueConstant": 3.0,
        "BaseValueAttribute": null,
        "InitializationDefinition": null,
        "BaseValueScaleConstant": 1.0
      }
    }
  ],
  "ExternalAttributeEffects": [
    {
      "AttributeToModify":
        "D_Attributes.GameplayAttributes.PlayerCriticalHitBonus",
      "ModifierType": "MT_Scale",
      "BaseModifierValue": {
        "BaseValueConstant": 0.6,
        "BaseValueAttribute": null,
        "InitializationDefinition": null,
        "BaseValueScaleConstant": 1.0
      }
    }
  ],
  "TitleList": [
    "GD_Sage_RaidWeapons.Name.Title.Sage_Seraph_Interfacer_Title"
  ],
  "Material": null,
  "bIsGestaltMode": true,
  "GestaltModeSkeletalMeshName": "SG_Barrel_Hyperion",
  "NongestaltSkeletalMesh": null,
  "MonetaryValueMod": null,
  "Rarity": {
    "BaseValueConstant": 0.0,
    "BaseValueAttribute":
      "GD_Sage_RaidWeapons.Rarity_Item.Sage_WeaponRarity6_Seraph",
    "InitializationDefinition": null,
    "BaseValueScaleConstant": 1.0
  },
  "AttributeSlotUpgrades": [
    { "SlotName": "WeaponDamage", "GradeIncrease": 2, "bActivateSlot": true },
    {
      "SlotName": "WeaponAccuracyImpulse",
      "GradeIncrease": 5,
      "bActivateSlot": true
    },
    {
      "SlotName": "WeaponFireRate",
      "GradeIncrease": 2,
      "bActivateSlot": true
    },
    { "SlotName": "WeaponSpread", "GradeIncrease": 5, "bActivateSlot": true }
  ],
  "AdditionalGestaltModeSkeletalMeshNames": [ null, null ],
  "VfTableObject": "",
  "HashNext": "",
  "ObjectFlags": "",
  "HashOuterNext": "",
  "StateFrame": "",
  "Linker": null,
  "LinkerIndex": "",
  "ObjectInternalInteger": 179565,
  "NetIndex": 58,
  "Outer": "GD_Sage_RaidWeapons.Shotgun",
  "Name": "SG_Barrel_Interfacer",
  "Class": "WillowGame.WeaponPartDefinition",
  "ObjectArchetype": "WillowGame.Default__WeaponPartDefinition"
}