{
  "VfTable_IIBehaviorProvider": "",
  "CustomDamageTypeDefinition":
    "GD_Corrosive.DamageType.DmgType_Corrosive_Impact",
  "CustomFiringModeDefinition": null,
  "PartType": "WP_Elemental",
  "PartVariation": "WeaponPartVar_Default",
  "NumPhysicalBarrelsToFireFrom": 0,
  "LeftHandIKHoldName": null,
  "bIsSpinningEnabled": false,
  "bFlapsEnabled": false,
  "bOverrideShellCasing": false,
  "bUseWeaponMelee": false,
  "bScoped": false,
  "SpinUpDuration": {
    "BaseValueConstant": 0.0,
    "BaseValueAttribute": null,
    "InitializationDefinition": null,
    "BaseValueScaleConstant": 1.0
  },
  "SpinDownDuration": {
    "BaseValueConstant": 0.0,
    "BaseValueAttribute": null,
    "InitializationDefinition": null,
    "BaseValueScaleConstant": 1.0
  },
  "StartingSpinUpFireIntervalMultiplier": 1.0,
  "FlapsExpandDuration": {
    "BaseValueConstant": 0.0,
    "BaseValueAttribute": null,
    "InitializationDefinition": null,
    "BaseValueScaleConstant": 1.0
  },
  "FlapsCollapseDuration": {
    "BaseValueConstant": 0.0,
    "BaseValueAttribute": null,
    "InitializationDefinition": null,
    "BaseValueScaleConstant": 1.0
  },
  "ShellCasingPSCTemplate": null,
  "ShellCasingSocket": "EjectPort",
  "ScopedShellCasingOffset": { "X": 70.0, "Y": 0.0, "Z": -20.0 },
  "OffHandShellCasingRotOffset": { "Pitch": -11832, "Yaw": 0, "Roll": 0 },
  "MuzzleFlashPSTemplates": null,
  "WeaponImpact": "GD_Impacts.Bullets.Bullet_Corrosive",
  "FirstPersonParticle":
    "GD_Weap_AssaultRifle.elemental.AR_Elemental_Corrosive:ParticleSystemComponent_205",
  "FirstPersonParticleSocketName": "elemental",
  "FirstPersonParticleInstanceDataName": "elemental",
  "BehaviorProviderDefinition":
    "GD_Weap_AssaultRifle.elemental.AR_Elemental_Corrosive:BehaviorProviderDefinition_0",
  "ManufacturerDefinitionForScopeMovie": null,
  "ZoomedFOVLerpPct": 0.35,
  "SightFXCrosshairMaterial": null,
  "SightFXCrosshairParamName": "Crosshair",
  "SightFXCrosshairRefractionParamName": "RefractionMultiplier",
  "WeaponAttributeEffects": [
    {
      "AttributeToModify": "D_Attributes.Weapon.WeaponDamage",
      "ModifierType": "MT_Scale",
      "BaseModifierValue": {
        "BaseValueConstant": -0.2,
        "BaseValueAttribute": null,
        "InitializationDefinition": null,
        "BaseValueScaleConstant": 1.0
      }
    }
  ],
  "PrefixList": [
    "GD_Weap_AssaultRifle.Name.Prefix.Prefix_Elemental_Corrosive",
    "GD_Weap_AssaultRifle.Name.Prefix_Bandit.Prefix_Elemental_Corrosive",
    "GD_Weap_AssaultRifle.Name.Prefix_Dahl.Prefix_Elemental_Corrosive",
    "GD_Weap_AssaultRifle.Name.Prefix_Vladof.Prefix_Elemental_Corrosive"
  ],
  "Material": null,
  "bIsGestaltMode": true,
  "GestaltModeSkeletalMeshName": "Acc_Barrel_Elemental2",
  "NongestaltSkeletalMesh": null,
  "MonetaryValueMod": null,
  "Rarity": {
    "BaseValueConstant": 0.0,
    "BaseValueAttribute": null,
    "InitializationDefinition": null,
    "BaseValueScaleConstant": 1.0
  },
  "MaterialVectorParameterValues": [
    {
      "ParameterName": "p_EmissiveColor",
      "ParameterValue": { "R": 0.51, "G": 3.07, "B": 0.0, "A": 1.0 },
      "ExpressionGUID": { "A": 0, "B": 0, "C": 0, "D": 0 }
    }
  ],
  "AdditionalGestaltModeSkeletalMeshNames": [ null, null ],
  "VfTableObject": "",
  "HashNext": "",
  "ObjectFlags": "",
  "HashOuterNext": "",
  "StateFrame": "",
  "Linker": null,
  "LinkerIndex": "",
  "ObjectInternalInteger": 111046,
  "NetIndex": 1307,
  "Outer": "GD_Weap_AssaultRifle.elemental",
  "Name": "AR_Elemental_Corrosive",
  "Class": "WillowGame.WeaponPartDefinition",
  "ObjectArchetype": "WillowGame.Default__WeaponPartDefinition"
}