{
  "VfTable_IIBehaviorProvider": "",
  "CustomDamageTypeDefinition": null,
  "CustomFiringModeDefinition":
    "GD_Weap_Shotgun.FiringModes.Bullet_Shotgun_ConferenceCall",
  "PartType": "WP_Barrel",
  "PartVariation": "WeaponPartVar_Default",
  "NumPhysicalBarrelsToFireFrom": 0,
  "LeftHandIKHoldName": null,
  "bIsSpinningEnabled": false,
  "bFlapsEnabled": false,
  "bOverrideShellCasing": false,
  "bUseWeaponMelee": false,
  "bScoped": false,
  "SpinUpDuration": {
    "BaseValueConstant": 0.0,
    "BaseValueAttribute": null,
    "InitializationDefinition": null,
    "BaseValueScaleConstant": 1.0
  },
  "SpinDownDuration": {
    "BaseValueConstant": 0.0,
    "BaseValueAttribute": null,
    "InitializationDefinition": null,
    "BaseValueScaleConstant": 1.0
  },
  "StartingSpinUpFireIntervalMultiplier": 1.0,
  "FlapsExpandDuration": {
    "BaseValueConstant": 0.0,
    "BaseValueAttribute": null,
    "InitializationDefinition": null,
    "BaseValueScaleConstant": 1.0
  },
  "FlapsCollapseDuration": {
    "BaseValueConstant": 0.0,
    "BaseValueAttribute": null,
    "InitializationDefinition": null,
    "BaseValueScaleConstant": 1.0
  },
  "ShellCasingPSCTemplate": null,
  "ShellCasingSocket": "EjectPort",
  "ScopedShellCasingOffset": { "X": 70.0, "Y": 0.0, "Z": -20.0 },
  "OffHandShellCasingRotOffset": { "Pitch": -11832, "Yaw": 0, "Roll": 0 },
  "MuzzleFlashPSTemplates": null,
  "WeaponImpact": null,
  "FirstPersonParticle": null,
  "FirstPersonParticleSocketName": null,
  "FirstPersonParticleInstanceDataName": null,
  "BehaviorProviderDefinition": null,
  "ManufacturerDefinitionForScopeMovie":
    "GD_Manufacturers.Manufacturers.Hyperion",
  "ZoomedFOVLerpPct": 0.35,
  "SightFXCrosshairMaterial": null,
  "SightFXCrosshairParamName": "Crosshair",
  "SightFXCrosshairRefractionParamName": "RefractionMultiplier",
  "WeaponAttributeEffects": [
    {
      "AttributeToModify": "D_Attributes.Weapon.WeaponDamage",
      "ModifierType": "MT_Scale",
      "BaseModifierValue": {
        "BaseValueConstant": 0.3,
        "BaseValueAttribute": null,
        "InitializationDefinition": null,
        "BaseValueScaleConstant": 1.0
      }
    },
    {
      "AttributeToModify": "D_Attributes.Weapon.WeaponProjectilesPerShot",
      "ModifierType": "MT_PreAdd",
      "BaseModifierValue": {
        "BaseValueConstant": -1.0,
        "BaseValueAttribute": null,
        "InitializationDefinition": null,
        "BaseValueScaleConstant": 1.0
      }
    },
    {
      "AttributeToModify": "D_Attributes.Weapon.WeaponPerShotAccuracyImpulse",
      "ModifierType": "MT_Scale",
      "BaseModifierValue": {
        "BaseValueConstant": 0.0,
        "BaseValueAttribute":
          "D_Attributes.WeaponManufacturer.Weapon_Is_Hyperion",
        "InitializationDefinition": null,
        "BaseValueScaleConstant": 0.2
      }
    },
    {
      "AttributeToModify": "D_Attributes.Weapon.WeaponSpread",
      "ModifierType": "MT_Scale",
      "BaseModifierValue": {
        "BaseValueConstant": 0.0,
        "BaseValueAttribute":
          "D_Attributes.WeaponManufacturer.Weapon_Is_Hyperion",
        "InitializationDefinition": null,
        "BaseValueScaleConstant": -0.15
      }
    }
  ],
  "PrefixList": [
    "GD_Weap_Shotgun.Name.Prefix.Prefix_Barrel_Hyperion_Accuracy",
    "GD_Weap_Shotgun.Name.Prefix_Bandit.Prefix_Barrel_Hyperion_Accuracy",
    "GD_Weap_Shotgun.Name.Prefix_Hyperion.Prefix_Barrel_Hyperion_Accuracy",
    "GD_Weap_Shotgun.Name.Prefix_Torgue.Prefix_Barrel_Hyperion_Accuracy"
  ],
  "TitleList": [
    "GD_Weap_Shotgun.Name.Title_Hyperion.Title_Legendary_ConferenceCall"
  ],
  "Material": null,
  "bIsGestaltMode": true,
  "GestaltModeSkeletalMeshName": "SG_Barrel_Hyperion",
  "NongestaltSkeletalMesh": null,
  "MonetaryValueMod":
    "GD_Economy.Rarity.Att_Price_RarityMultiplier_05_Legendary",
  "Rarity": {
    "BaseValueConstant": 0.0,
    "BaseValueAttribute":
      "GD_Balance_Inventory.Rarity_Item.ItemRarity5_Legendary",
    "InitializationDefinition": null,
    "BaseValueScaleConstant": 1.0
  },
  "AttributeSlotUpgrades": [
    { "SlotName": "WeaponSpread", "GradeIncrease": 0, "bActivateSlot": true },
    { "SlotName": "AccuracyMin", "GradeIncrease": 5, "bActivateSlot": true },
    {
      "SlotName": "WeaponAccuracyImpulse",
      "GradeIncrease": 2,
      "bActivateSlot": true
    }
  ],
  "AdditionalGestaltModeSkeletalMeshNames": [ null, null ],
  "VfTableObject": "",
  "HashNext": "",
  "ObjectFlags": "",
  "HashOuterNext": "",
  "StateFrame": "",
  "Linker": null,
  "LinkerIndex": "",
  "ObjectInternalInteger": 153525,
  "NetIndex": 1931,
  "Outer": "GD_Weap_Shotgun.Barrel",
  "Name": "SG_Barrel_Hyperion_ConferenceCall",
  "Class": "WillowGame.WeaponPartDefinition",
  "ObjectArchetype": "WillowGame.Default__WeaponPartDefinition"
}