{
  "VfTable_IIBehaviorProvider": "",
  "CustomDamageTypeDefinition": null,
  "CustomFiringModeDefinition": "GD_Weap_SMG.FiringModes.Bullet_SMG_Emperor",
  "PartType": "WP_Barrel",
  "PartVariation": "WeaponPartVar_Default",
  "NumPhysicalBarrelsToFireFrom": 0,
  "LeftHandIKHoldName": null,
  "bIsSpinningEnabled": false,
  "bFlapsEnabled": false,
  "bOverrideShellCasing": false,
  "bUseWeaponMelee": false,
  "bScoped": false,
  "SpinUpDuration": {
    "BaseValueConstant": 0.0,
    "BaseValueAttribute": null,
    "InitializationDefinition": null,
    "BaseValueScaleConstant": 1.0
  },
  "SpinDownDuration": {
    "BaseValueConstant": 0.0,
    "BaseValueAttribute": null,
    "InitializationDefinition": null,
    "BaseValueScaleConstant": 1.0
  },
  "StartingSpinUpFireIntervalMultiplier": 1.0,
  "FlapsExpandDuration": {
    "BaseValueConstant": 0.0,
    "BaseValueAttribute": null,
    "InitializationDefinition": null,
    "BaseValueScaleConstant": 1.0
  },
  "FlapsCollapseDuration": {
    "BaseValueConstant": 0.0,
    "BaseValueAttribute": null,
    "InitializationDefinition": null,
    "BaseValueScaleConstant": 1.0
  },
  "ShellCasingPSCTemplate": "FX_WEP_Assault.Particles.Assault_Shells",
  "ShellCasingSocket": "EjectPort",
  "ScopedShellCasingOffset": { "X": 0.0, "Y": 0.0, "Z": 0.0 },
  "OffHandShellCasingRotOffset": { "Pitch": -11832, "Yaw": 0, "Roll": 0 },
  "MuzzleFlashPSTemplates": null,
  "WeaponImpact": null,
  "FirstPersonParticle": null,
  "FirstPersonParticleSocketName": null,
  "FirstPersonParticleInstanceDataName": null,
  "BehaviorProviderDefinition": null,
  "ManufacturerDefinitionForScopeMovie":
    "GD_Manufacturers.Manufacturers.Dahl",
  "ZoomedFOVLerpPct": 0.35,
  "SightFXCrosshairMaterial": null,
  "SightFXCrosshairParamName": "Crosshair",
  "SightFXCrosshairRefractionParamName": "RefractionMultiplier",
  "ZoomWeaponAttributeEffects": [
    {
      "AttributeToModify": "D_Attributes.Weapon.WeaponAutomaticBurstCount",
      "ModifierType": "MT_PreAdd",
      "BaseModifierValue": {
        "BaseValueConstant": 0.0,
        "BaseValueAttribute":
          "D_Attributes.WeaponManufacturer.Weapon_Is_Dahl",
        "InitializationDefinition": null,
        "BaseValueScaleConstant": 3.0
      }
    }
  ],
  "WeaponAttributeEffects": [
    {
      "AttributeToModify": "D_Attributes.Weapon.WeaponDamage",
      "ModifierType": "MT_Scale",
      "BaseModifierValue": {
        "BaseValueConstant": 0.0,
        "BaseValueAttribute":
          "D_Attributes.WeaponManufacturer.Weapon_Is_Dahl",
        "InitializationDefinition": null,
        "BaseValueScaleConstant": 0.35
      }
    },
    {
      "AttributeToModify": "D_Attributes.Weapon.WeaponSpread",
      "ModifierType": "MT_Scale",
      "BaseModifierValue": {
        "BaseValueConstant": 0.0,
        "BaseValueAttribute":
          "D_Attributes.WeaponManufacturer.Weapon_Is_Dahl",
        "InitializationDefinition": null,
        "BaseValueScaleConstant": -0.2
      }
    }
  ],
  "TitleList": [ "GD_Weap_SMG.Name.Title.Title_Legendary_Dahl_Emperor" ],
  "Material": null,
  "bIsGestaltMode": true,
  "GestaltModeSkeletalMeshName": "SMG_Barrel_Dahl",
  "NongestaltSkeletalMesh": null,
  "MonetaryValueMod":
    "GD_Economy.Rarity.Att_Price_RarityMultiplier_05_Legendary",
  "Rarity": {
    "BaseValueConstant": 0.0,
    "BaseValueAttribute":
      "GD_Balance_Inventory.Rarity_Item.ItemRarity5_Legendary",
    "InitializationDefinition": null,
    "BaseValueScaleConstant": 1.0
  },
  "AttributeSlotUpgrades": [
    {
      "SlotName": "WeaponDamage",
      "GradeIncrease": 20,
      "bActivateSlot": true
    },
    {
      "SlotName": "WeaponFireRate",
      "GradeIncrease": -10,
      "bActivateSlot": true
    },
    {
      "SlotName": "WeaponSpread",
      "GradeIncrease": -10,
      "bActivateSlot": true
    },
    {
      "SlotName": "WeaponMagSize",
      "GradeIncrease": 10,
      "bActivateSlot": true
    },
    { "SlotName": "AccuracyMax", "GradeIncrease": 0, "bActivateSlot": true },
    {
      "SlotName": "WeaponAccuracyImpulse",
      "GradeIncrease": -5,
      "bActivateSlot": true
    },
    {
      "SlotName": "WeaponBurstImpulse",
      "GradeIncrease": 3,
      "bActivateSlot": true
    }
  ],
  "AdditionalGestaltModeSkeletalMeshNames": [ null, null ],
  "VfTableObject": "",
  "HashNext": "",
  "ObjectFlags": "",
  "HashOuterNext": "",
  "StateFrame": "",
  "Linker": null,
  "LinkerIndex": "",
  "ObjectInternalInteger": 153628,
  "NetIndex": 1280,
  "Outer": "GD_Weap_SMG.Barrel",
  "Name": "SMG_Barrel_Dahl_Emperor",
  "Class": "WillowGame.WeaponPartDefinition",
  "ObjectArchetype": "WillowGame.Default__WeaponPartDefinition"
}