{
  "VfTable_IIBehaviorProvider": "",
  "CustomDamageTypeDefinition": null,
  "CustomFiringModeDefinition": null,
  "PartType": "WP_Grip",
  "PartVariation": "WeaponPartVar_Default",
  "NumPhysicalBarrelsToFireFrom": 0,
  "LeftHandIKHoldName": null,
  "bIsSpinningEnabled": false,
  "bFlapsEnabled": false,
  "bOverrideShellCasing": false,
  "bUseWeaponMelee": false,
  "bScoped": false,
  "SpinUpDuration": {
    "BaseValueConstant": 0.0,
    "BaseValueAttribute": null,
    "InitializationDefinition": null,
    "BaseValueScaleConstant": 1.0
  },
  "SpinDownDuration": {
    "BaseValueConstant": 0.0,
    "BaseValueAttribute": null,
    "InitializationDefinition": null,
    "BaseValueScaleConstant": 1.0
  },
  "StartingSpinUpFireIntervalMultiplier": 1.0,
  "FlapsExpandDuration": {
    "BaseValueConstant": 0.0,
    "BaseValueAttribute": null,
    "InitializationDefinition": null,
    "BaseValueScaleConstant": 1.0
  },
  "FlapsCollapseDuration": {
    "BaseValueConstant": 0.0,
    "BaseValueAttribute": null,
    "InitializationDefinition": null,
    "BaseValueScaleConstant": 1.0
  },
  "ShellCasingPSCTemplate": null,
  "ShellCasingSocket": "EjectPort",
  "ScopedShellCasingOffset": { "X": 70.0, "Y": 0.0, "Z": -20.0 },
  "OffHandShellCasingRotOffset": { "Pitch": -11832, "Yaw": 0, "Roll": 0 },
  "MuzzleFlashPSTemplates": null,
  "WeaponImpact": null,
  "FirstPersonParticle": null,
  "FirstPersonParticleSocketName": null,
  "FirstPersonParticleInstanceDataName": null,
  "BehaviorProviderDefinition": null,
  "ManufacturerDefinitionForScopeMovie":
    "GD_Manufacturers.Manufacturers.Bandit",
  "ZoomedFOVLerpPct": 0.35,
  "SightFXCrosshairMaterial": null,
  "SightFXCrosshairParamName": "Crosshair",
  "SightFXCrosshairRefractionParamName": "RefractionMultiplier",
  "WeaponAttributeEffects": [
    {
      "AttributeToModify": "D_Attributes.Weapon.WeaponReloadSpeed",
      "ModifierType": "MT_Scale",
      "BaseModifierValue": {
        "BaseValueConstant": 0.0,
        "BaseValueAttribute":
          "D_Attributes.WeaponManufacturer.Weapon_Is_Bandit",
        "InitializationDefinition": null,
        "BaseValueScaleConstant": -0.3
      }
    },
    {
      "AttributeToModify": "D_Attributes.Weapon.WeaponClipSize",
      "ModifierType": "MT_PreAdd",
      "BaseModifierValue": {
        "BaseValueConstant": 0.0,
        "BaseValueAttribute":
          "D_Attributes.WeaponManufacturer.Weapon_Is_Bandit",
        "InitializationDefinition": null,
        "BaseValueScaleConstant": 3.0
      }
    }
  ],
  "PrefixList": [
    "GD_Weap_Shared_Names.Name.Prefix_Bandit.Prefix_Grip_Bandit",
    "GD_Weap_Shared_Names.Name.Prefix_Dahl.Prefix_Grip_Bandit",
    "GD_Weap_Shared_Names.Name.Prefix_Hyperion.Prefix_Grip_Bandit",
    "GD_Weap_Shared_Names.Name.Prefix_Jakobs.Prefix_Grip_Bandit",
    "GD_Weap_Shared_Names.Name.Prefix_Tediore.Prefix_Grip_Bandit",
    "GD_Weap_Shared_Names.Name.Prefix_Torgue.Prefix_Grip_Bandit",
    "GD_Weap_Shared_Names.Name.Prefix_Vladof.Prefix_Grip_Bandit"
  ],
  "Material": null,
  "bIsGestaltMode": true,
  "GestaltModeSkeletalMeshName": "SG_FrontGrip_Bandit",
  "NongestaltSkeletalMesh": null,
  "MonetaryValueMod": null,
  "Rarity": {
    "BaseValueConstant": 0.0,
    "BaseValueAttribute": null,
    "InitializationDefinition": null,
    "BaseValueScaleConstant": 1.0
  },
  "AttributeSlotUpgrades": [
    {
      "SlotName": "WeaponSpread",
      "GradeIncrease": -3,
      "bActivateSlot": true
    },
    {
      "SlotName": "WeaponReloadSpeed",
      "GradeIncrease": -2,
      "bActivateSlot": true
    },
    {
      "SlotName": "WeaponMagSize",
      "GradeIncrease": 5,
      "bActivateSlot": true
    }
  ],
  "AdditionalGestaltModeSkeletalMeshNames": [ null, null ],
  "VfTableObject": "",
  "HashNext": "",
  "ObjectFlags": "",
  "HashOuterNext": "",
  "StateFrame": "",
  "Linker": null,
  "LinkerIndex": "",
  "ObjectInternalInteger": 153559,
  "NetIndex": 1972,
  "Outer": "GD_Weap_Shotgun.Grip",
  "Name": "SG_Grip_Bandit",
  "Class": "WillowGame.WeaponPartDefinition",
  "ObjectArchetype": "WillowGame.Default__WeaponPartDefinition"
}