{
  "VfTable_IIBehaviorProvider": "",
  "CustomDamageTypeDefinition": null,
  "CustomFiringModeDefinition": "GD_Weap_SMG.FiringModes.Bullet_SMG_Chulainn",
  "PartType": "WP_Barrel",
  "PartVariation": "WeaponPartVar_Default",
  "NumPhysicalBarrelsToFireFrom": 0,
  "LeftHandIKHoldName": null,
  "bIsSpinningEnabled": false,
  "bFlapsEnabled": false,
  "bOverrideShellCasing": false,
  "bUseWeaponMelee": false,
  "bScoped": false,
  "SpinUpDuration": {
    "BaseValueConstant": 0.0,
    "BaseValueAttribute": null,
    "InitializationDefinition": null,
    "BaseValueScaleConstant": 1.0
  },
  "SpinDownDuration": {
    "BaseValueConstant": 0.0,
    "BaseValueAttribute": null,
    "InitializationDefinition": null,
    "BaseValueScaleConstant": 1.0
  },
  "StartingSpinUpFireIntervalMultiplier": 1.0,
  "FlapsExpandDuration": {
    "BaseValueConstant": 0.0,
    "BaseValueAttribute": null,
    "InitializationDefinition": null,
    "BaseValueScaleConstant": 1.0
  },
  "FlapsCollapseDuration": {
    "BaseValueConstant": 0.0,
    "BaseValueAttribute": null,
    "InitializationDefinition": null,
    "BaseValueScaleConstant": 1.0
  },
  "ShellCasingPSCTemplate": null,
  "ShellCasingSocket": "EjectPort",
  "ScopedShellCasingOffset": { "X": 0.0, "Y": 0.0, "Z": 0.0 },
  "OffHandShellCasingRotOffset": { "Pitch": -11832, "Yaw": 0, "Roll": 0 },
  "MuzzleFlashPSTemplates": null,
  "WeaponImpact": null,
  "FirstPersonParticle": null,
  "FirstPersonParticleSocketName": null,
  "FirstPersonParticleInstanceDataName": null,
  "BehaviorProviderDefinition":
    "GD_Weap_SMG.Barrel.SMG_Barrel_Chulainn:BehaviorProviderDefinition_23",
  "ManufacturerDefinitionForScopeMovie":
    "GD_Manufacturers.Manufacturers.Tediore",
  "ZoomedFOVLerpPct": 0.35,
  "SightFXCrosshairMaterial": null,
  "SightFXCrosshairParamName": "Crosshair",
  "SightFXCrosshairRefractionParamName": "RefractionMultiplier",
  "WeaponAttributeEffects": [
    {
      "AttributeToModify":
        "D_Attributes.Weapon.WeaponStatusEffectChanceModifier",
      "ModifierType": "MT_Scale",
      "BaseModifierValue": {
        "BaseValueConstant": 0.8,
        "BaseValueAttribute": null,
        "InitializationDefinition": null,
        "BaseValueScaleConstant": 1.0
      }
    },
    {
      "AttributeToModify": "D_Attributes.Weapon.WeaponClipSize",
      "ModifierType": "MT_PreAdd",
      "BaseModifierValue": {
        "BaseValueConstant": 4.0,
        "BaseValueAttribute": null,
        "InitializationDefinition": null,
        "BaseValueScaleConstant": 1.0
      }
    },
    {
      "AttributeToModify": "D_Attributes.Weapon.WeaponSpread",
      "ModifierType": "MT_PreAdd",
      "BaseModifierValue": {
        "BaseValueConstant": 3.0,
        "BaseValueAttribute": null,
        "InitializationDefinition": null,
        "BaseValueScaleConstant": 1.0
      }
    }
  ],
  "ExternalAttributeEffects": [
    {
      "AttributeToModify": "GD_Weap_SMG.Attribute.Att_IrishSwordEquipped",
      "ModifierType": "MT_PostAdd",
      "BaseModifierValue": {
        "BaseValueConstant": 1.0,
        "BaseValueAttribute": null,
        "InitializationDefinition": null,
        "BaseValueScaleConstant": 1.0
      }
    }
  ],
  "TitleList": [ "GD_Weap_SMG.Name.Title.Title__Unique_Chulainn" ],
  "Material": null,
  "bIsGestaltMode": true,
  "GestaltModeSkeletalMeshName": "SMG_Barrel_Tediore",
  "NongestaltSkeletalMesh": null,
  "MonetaryValueMod": null,
  "Rarity": {
    "BaseValueConstant": 0.0,
    "BaseValueAttribute": null,
    "InitializationDefinition": null,
    "BaseValueScaleConstant": 1.0
  },
  "AttributeSlotUpgrades": [
    { "SlotName": "WeaponDamage", "GradeIncrease": 3, "bActivateSlot": true },
    {
      "SlotName": "WeaponFireRate",
      "GradeIncrease": 7,
      "bActivateSlot": true
    },
    {
      "SlotName": "WeaponReloadSpeed",
      "GradeIncrease": 5,
      "bActivateSlot": true
    },
    {
      "SlotName": "WeaponMagSize",
      "GradeIncrease": 5,
      "bActivateSlot": true
    }
  ],
  "AdditionalGestaltModeSkeletalMeshNames": [ null, null ],
  "VfTableObject": "",
  "HashNext": "",
  "ObjectFlags": "",
  "HashOuterNext": "",
  "StateFrame": "",
  "Linker": null,
  "LinkerIndex": "",
  "ObjectInternalInteger": 112378,
  "NetIndex": 1277,
  "Outer": "GD_Weap_SMG.Barrel",
  "Name": "SMG_Barrel_Chulainn",
  "Class": "WillowGame.WeaponPartDefinition",
  "ObjectArchetype": "WillowGame.Default__WeaponPartDefinition"
}