{
  "VfTable_IIBehaviorProvider": "",
  "CustomDamageTypeDefinition": null,
  "CustomFiringModeDefinition": null,
  "PartType": "WP_Accessory1",
  "PartVariation": "WeaponPartVar_Default",
  "NumPhysicalBarrelsToFireFrom": 0,
  "LeftHandIKHoldName": null,
  "bIsSpinningEnabled": false,
  "bFlapsEnabled": false,
  "bOverrideShellCasing": false,
  "bUseWeaponMelee": false,
  "bScoped": false,
  "SpinUpDuration": {
    "BaseValueConstant": 0.0,
    "BaseValueAttribute": null,
    "InitializationDefinition": null,
    "BaseValueScaleConstant": 1.0
  },
  "SpinDownDuration": {
    "BaseValueConstant": 0.0,
    "BaseValueAttribute": null,
    "InitializationDefinition": null,
    "BaseValueScaleConstant": 1.0
  },
  "StartingSpinUpFireIntervalMultiplier": 1.0,
  "FlapsExpandDuration": {
    "BaseValueConstant": 0.0,
    "BaseValueAttribute": null,
    "InitializationDefinition": null,
    "BaseValueScaleConstant": 1.0
  },
  "FlapsCollapseDuration": {
    "BaseValueConstant": 0.0,
    "BaseValueAttribute": null,
    "InitializationDefinition": null,
    "BaseValueScaleConstant": 1.0
  },
  "ShellCasingPSCTemplate": null,
  "ShellCasingSocket": "EjectPort",
  "ScopedShellCasingOffset": { "X": 70.0, "Y": 0.0, "Z": -20.0 },
  "OffHandShellCasingRotOffset": { "Pitch": -11832, "Yaw": 0, "Roll": 0 },
  "MuzzleFlashPSTemplates": null,
  "WeaponImpact": null,
  "FirstPersonParticle": null,
  "FirstPersonParticleSocketName": null,
  "FirstPersonParticleInstanceDataName": null,
  "BehaviorProviderDefinition": null,
  "ManufacturerDefinitionForScopeMovie": null,
  "ZoomedFOVLerpPct": 0.35,
  "SightFXCrosshairMaterial": null,
  "SightFXCrosshairParamName": "Crosshair",
  "SightFXCrosshairRefractionParamName": "RefractionMultiplier",
  "PrefixList": [
    "GD_Weap_Launchers.Name.Prefix_Bandit.Prefix_BodyMod2_Accuracy",
    "GD_Weap_Launchers.Name.Prefix_Maliwan.Prefix_BodyMod2_Accuracy",
    "GD_Weap_Launchers.Name.Prefix_Tediore.Prefix_BodyMod2_Accuracy",
    "GD_Weap_Launchers.Name.Prefix_Torgue.Prefix_BodyMod2_Accuracy",
    "GD_Weap_Launchers.Name.Prefix_Vladof.Prefix_BodyMod2_Accuracy"
  ],
  "Material": null,
  "bIsGestaltMode": true,
  "GestaltModeSkeletalMeshName": "Acc_BodyMod2",
  "NongestaltSkeletalMesh": null,
  "MonetaryValueMod": "GD_Economy.WeaponCostModifiers.Att_Part_04_Expensive",
  "Rarity": {
    "BaseValueConstant": 0.0,
    "BaseValueAttribute": null,
    "InitializationDefinition": null,
    "BaseValueScaleConstant": 1.0
  },
  "AttributeSlotUpgrades": [
    { "SlotName": "AccuracyMax", "GradeIncrease": 5, "bActivateSlot": true },
    { "SlotName": "AccuracyMin", "GradeIncrease": 5, "bActivateSlot": true },
    { "SlotName": "WeaponSpread", "GradeIncrease": 5, "bActivateSlot": true },
    {
      "SlotName": "WeaponRocketSpeed",
      "GradeIncrease": 2,
      "bActivateSlot": true
    },
    {
      "SlotName": "WeaponZoomFOV",
      "GradeIncrease": 5,
      "bActivateSlot": true
    }
  ],
  "AdditionalGestaltModeSkeletalMeshNames": [ null, null ],
  "VfTableObject": "",
  "HashNext": "",
  "ObjectFlags": "",
  "HashOuterNext": "",
  "StateFrame": "",
  "Linker": null,
  "LinkerIndex": "",
  "ObjectInternalInteger": 153247,
  "NetIndex": 2227,
  "Outer": "GD_Weap_Launchers.Accessory",
  "Name": "RL_Accessory_BodyMod_2_Acc",
  "Class": "WillowGame.WeaponPartDefinition",
  "ObjectArchetype": "WillowGame.Default__WeaponPartDefinition"
}