{
  "VfTable_IIBehaviorProvider": "",
  "CustomDamageTypeDefinition": null,
  "CustomFiringModeDefinition":
    "GD_Weap_AssaultRifle.FiringModes.Bullet_Assault_Hammerbuster",
  "PartType": "WP_Barrel",
  "PartVariation": "WeaponPartVar_Default",
  "NumPhysicalBarrelsToFireFrom": 0,
  "LeftHandIKHoldName": null,
  "bIsSpinningEnabled": false,
  "bFlapsEnabled": false,
  "bOverrideShellCasing": true,
  "bUseWeaponMelee": false,
  "bScoped": false,
  "SpinUpDuration": {
    "BaseValueConstant": 0.0,
    "BaseValueAttribute": null,
    "InitializationDefinition": null,
    "BaseValueScaleConstant": 1.0
  },
  "SpinDownDuration": {
    "BaseValueConstant": 0.0,
    "BaseValueAttribute": null,
    "InitializationDefinition": null,
    "BaseValueScaleConstant": 1.0
  },
  "StartingSpinUpFireIntervalMultiplier": 1.0,
  "FlapsExpandDuration": {
    "BaseValueConstant": 0.0,
    "BaseValueAttribute": null,
    "InitializationDefinition": null,
    "BaseValueScaleConstant": 1.0
  },
  "FlapsCollapseDuration": {
    "BaseValueConstant": 0.0,
    "BaseValueAttribute": null,
    "InitializationDefinition": null,
    "BaseValueScaleConstant": 1.0
  },
  "ShellCasingPSCTemplate": "FX_WEP_Assault.Particles.Assault_Shells",
  "ShellCasingSocket": "EjectPort",
  "ScopedShellCasingOffset": { "X": 0.0, "Y": 0.0, "Z": 0.0 },
  "OffHandShellCasingRotOffset": { "Pitch": -11832, "Yaw": 0, "Roll": 0 },
  "MuzzleFlashPSTemplates": null,
  "WeaponImpact": null,
  "FirstPersonParticle": null,
  "FirstPersonParticleSocketName": null,
  "FirstPersonParticleInstanceDataName": null,
  "BehaviorProviderDefinition":
    "GD_Weap_AssaultRifle.Barrel.AR_Barrel_Dahl_HammerBuster:BehaviorProviderDefinition_12",
  "ManufacturerDefinitionForScopeMovie":
    "GD_Manufacturers.Manufacturers.Dahl",
  "ZoomedFOVLerpPct": 0.35,
  "SightFXCrosshairMaterial": null,
  "SightFXCrosshairParamName": "Crosshair",
  "SightFXCrosshairRefractionParamName": "RefractionMultiplier",
  "WeaponAttributeEffects": [
    {
      "AttributeToModify": "D_Attributes.Weapon.WeaponDamage",
      "ModifierType": "MT_Scale",
      "BaseModifierValue": {
        "BaseValueConstant": 1.15,
        "BaseValueAttribute": null,
        "InitializationDefinition": null,
        "BaseValueScaleConstant": 1.0
      }
    }
  ],
  "TitleList": [
    "GD_Weap_AssaultRifle.Name.Title_Jakobs.Title_Legendary_HammerBuster"
  ],
  "Material": null,
  "bIsGestaltMode": true,
  "GestaltModeSkeletalMeshName": "AR_Barrel_Dahl",
  "NongestaltSkeletalMesh": null,
  "MonetaryValueMod":
    "GD_Economy.Rarity.Att_Price_RarityMultiplier_05_Legendary",
  "Rarity": {
    "BaseValueConstant": 0.0,
    "BaseValueAttribute":
      "GD_Balance_Inventory.Rarity_Item.ItemRarity5_Legendary",
    "InitializationDefinition": null,
    "BaseValueScaleConstant": 1.0
  },
  "AttributeSlotUpgrades": [
    { "SlotName": "WeaponDamage", "GradeIncrease": 0, "bActivateSlot": true },
    {
      "SlotName": "WeaponSpread",
      "GradeIncrease": -4,
      "bActivateSlot": true
    },
    { "SlotName": "AccuracyMax", "GradeIncrease": 5, "bActivateSlot": true },
    {
      "SlotName": "AccuracyRegen",
      "GradeIncrease": 5,
      "bActivateSlot": true
    },
    {
      "SlotName": "WeaponAccuracyImpulse",
      "GradeIncrease": 8,
      "bActivateSlot": true
    },
    {
      "SlotName": "WeaponBurstImpulse",
      "GradeIncrease": 3,
      "bActivateSlot": true
    }
  ],
  "AdditionalGestaltModeSkeletalMeshNames": [ null, null ],
  "VfTableObject": "",
  "HashNext": "",
  "ObjectFlags": "",
  "HashOuterNext": "",
  "StateFrame": "",
  "Linker": null,
  "LinkerIndex": "",
  "ObjectInternalInteger": 121220,
  "NetIndex": 1271,
  "Outer": "GD_Weap_AssaultRifle.Barrel",
  "Name": "AR_Barrel_Dahl_HammerBuster",
  "Class": "WillowGame.WeaponPartDefinition",
  "ObjectArchetype": "WillowGame.Default__WeaponPartDefinition"
}