{
  "VfTable_IIBehaviorProvider": "",
  "CustomDamageTypeDefinition": null,
  "CustomFiringModeDefinition": null,
  "PartType": "WP_Material",
  "PartVariation": "WeaponPartVar_Default",
  "NumPhysicalBarrelsToFireFrom": 0,
  "LeftHandIKHoldName": null,
  "bIsSpinningEnabled": false,
  "bFlapsEnabled": false,
  "bOverrideShellCasing": false,
  "bUseWeaponMelee": false,
  "bScoped": false,
  "SpinUpDuration": {
    "BaseValueConstant": 0.0,
    "BaseValueAttribute": null,
    "InitializationDefinition": null,
    "BaseValueScaleConstant": 1.0
  },
  "SpinDownDuration": {
    "BaseValueConstant": 0.0,
    "BaseValueAttribute": null,
    "InitializationDefinition": null,
    "BaseValueScaleConstant": 1.0
  },
  "StartingSpinUpFireIntervalMultiplier": 1.0,
  "FlapsExpandDuration": {
    "BaseValueConstant": 0.0,
    "BaseValueAttribute": null,
    "InitializationDefinition": null,
    "BaseValueScaleConstant": 1.0
  },
  "FlapsCollapseDuration": {
    "BaseValueConstant": 0.0,
    "BaseValueAttribute": null,
    "InitializationDefinition": null,
    "BaseValueScaleConstant": 1.0
  },
  "ShellCasingPSCTemplate": null,
  "ShellCasingSocket": "EjectPort",
  "ScopedShellCasingOffset": { "X": 70.0, "Y": 0.0, "Z": -20.0 },
  "OffHandShellCasingRotOffset": { "Pitch": -11832, "Yaw": 0, "Roll": 0 },
  "MuzzleFlashPSTemplates": null,
  "WeaponImpact": null,
  "FirstPersonParticle": null,
  "FirstPersonParticleSocketName": null,
  "FirstPersonParticleInstanceDataName": null,
  "BehaviorProviderDefinition": null,
  "ManufacturerDefinitionForScopeMovie": null,
  "ZoomedFOVLerpPct": 0.35,
  "SightFXCrosshairMaterial": null,
  "SightFXCrosshairParamName": "Crosshair",
  "SightFXCrosshairRefractionParamName": "RefractionMultiplier",
  "Material": "Common_GunMaterials.Materials.Pistol.Mati_TorgueRarePistol",
  "bIsGestaltMode": false,
  "GestaltModeSkeletalMeshName": null,
  "NongestaltSkeletalMesh": null,
  "MonetaryValueMod": null,
  "Rarity": {
    "BaseValueConstant": 0.0,
    "BaseValueAttribute": null,
    "InitializationDefinition": null,
    "BaseValueScaleConstant": 1.0
  },
  "MaterialVectorParameterValues": [
    {
      "ParameterName": "p_EmissiveColor",
      "ParameterValue": { "R": 3.48, "G": 1.45, "B": 0.23, "A": 0.0 },
      "ExpressionGUID": { "A": 0, "B": 0, "C": 0, "D": 0 }
    }
  ],
  "AdditionalGestaltModeSkeletalMeshNames": [ null, null ],
  "VfTableObject": "",
  "HashNext": "",
  "ObjectFlags": "",
  "HashOuterNext": "",
  "StateFrame": "",
  "Linker": null,
  "LinkerIndex": "",
  "ObjectInternalInteger": 153494,
  "NetIndex": 2182,
  "Outer": "GD_Weap_Pistol.ManufacturerMaterials",
  "Name": "Mat_Torgue_3",
  "Class": "WillowGame.WeaponPartDefinition",
  "ObjectArchetype": "WillowGame.Default__WeaponPartDefinition"
}