{
  "InstanceDataName": "Shield",
  "VfTableObject": "",
  "HashNext": "",
  "ObjectFlags": "",
  "HashOuterNext": "",
  "StateFrame": "",
  "Linker": null,
  "LinkerIndex": "",
  "ObjectInternalInteger": 189732,
  "NetIndex": 707,
  "Outer": "GD_Scorpio.Shield.PlayerTurret_ShieldMaxHealth",
  "Name": "InstanceDataContextResolver_1",
  "Class": "WillowGame.InstanceDataContextResolver",
  "ObjectArchetype": "WillowGame.Default__InstanceDataContextResolver"
}