{
  "EquipmentLocation": "EQUIPLOC_Shield",
  "VfTableObject": "",
  "HashNext": "",
  "ObjectFlags": "",
  "HashOuterNext": "",
  "StateFrame": "",
  "Linker": null,
  "LinkerIndex": "",
  "ObjectInternalInteger": 107608,
  "NetIndex": 707,
  "Outer": "D_Attributes.Shield.ImpactShield_ConsumptionOnEmpower",
  "Name": "EquippedInventoryAttributeContextResolver_1",
  "Class": "WillowGame.EquippedInventoryAttributeContextResolver",
  "ObjectArchetype":
    "WillowGame.Default__EquippedInventoryAttributeContextResolver"
}