{
  "TacticalMapMovie": "UI_TacticalMap_Dam.Dam",
  "TacticalMapVolume":
    "dam_p.TheWorld:PersistentLevel.WillowTacticalMapVolume_0",
  "FrontEndMovieDef": null,
  "VfTableObject": "",
  "HashNext": "",
  "ObjectFlags": "",
  "HashOuterNext": "",
  "StateFrame": "",
  "Linker": null,
  "LinkerIndex": "",
  "ObjectInternalInteger": 209981,
  "NetIndex": 17258,
  "Outer": "dam_p.TheWorld:PersistentLevel.WorldInfo_0",
  "Name": "WillowMapInfo_0",
  "Class": "WillowGame.WillowMapInfo",
  "ObjectArchetype": "WillowGame.Default__WillowMapInfo"
}