{
  "TacticalMapMovie": "Nast_UI_TacticalMap_Easter.Easter_P",
  "TacticalMapVolume":
    "Easter_P.TheWorld:PersistentLevel.WillowTacticalMapVolume_0",
  "FrontEndMovieDef": null,
  "VfTableObject": "",
  "HashNext": "",
  "ObjectFlags": "",
  "HashOuterNext": "",
  "StateFrame": "",
  "Linker": null,
  "LinkerIndex": "",
  "ObjectInternalInteger": 218273,
  "NetIndex": 12934,
  "Outer": "Easter_P.TheWorld:PersistentLevel.WorldInfo_0",
  "Name": "WillowMapInfo_0",
  "Class": "WillowGame.WillowMapInfo",
  "ObjectArchetype": "WillowGame.Default__WillowMapInfo"
}