{
  "TacticalMapMovie": "UI_TacticalMap_Lynchwood.Lynchwood_P",
  "TacticalMapVolume":
    "Grass_Lynchwood_P.TheWorld:PersistentLevel.WillowTacticalMapVolume_1",
  "FrontEndMovieDef": null,
  "VfTableObject": "",
  "HashNext": "",
  "ObjectFlags": "",
  "HashOuterNext": "",
  "StateFrame": "",
  "Linker": null,
  "LinkerIndex": "",
  "ObjectInternalInteger": 204417,
  "NetIndex": 22447,
  "Outer": "Grass_Lynchwood_P.TheWorld:PersistentLevel.WorldInfo_4",
  "Name": "WillowMapInfo_0",
  "Class": "WillowGame.WillowMapInfo",
  "ObjectArchetype": "WillowGame.Default__WillowMapInfo"
}