{
  "TacticalMapMovie": "UI_TacticalMap_Iris_DL2.Iris_DL2_P",
  "TacticalMapVolume":
    "Iris_DL2_P.TheWorld:PersistentLevel.WillowTacticalMapVolume_0",
  "FrontEndMovieDef": null,
  "VfTableObject": "",
  "HashNext": "",
  "ObjectFlags": "",
  "HashOuterNext": "",
  "StateFrame": "",
  "Linker": null,
  "LinkerIndex": "",
  "ObjectInternalInteger": 216085,
  "NetIndex": 11809,
  "Outer": "Iris_DL2_P.TheWorld:PersistentLevel.WorldInfo_4",
  "Name": "WillowMapInfo_0",
  "Class": "WillowGame.WillowMapInfo",
  "ObjectArchetype": "WillowGame.Default__WillowMapInfo"
}