{
  "TacticalMapMovie": "Orchid_UI_TacticalMap_Refinery.Refinery_P",
  "TacticalMapVolume":
    "Orchid_Refinery_P.TheWorld:PersistentLevel.WillowTacticalMapVolume_0",
  "FrontEndMovieDef": null,
  "VfTableObject": "",
  "HashNext": "",
  "ObjectFlags": "",
  "HashOuterNext": "",
  "StateFrame": "",
  "Linker": null,
  "LinkerIndex": "",
  "ObjectInternalInteger": 216834,
  "NetIndex": 15025,
  "Outer": "Orchid_Refinery_P.TheWorld:PersistentLevel.WorldInfo_0",
  "Name": "WillowMapInfo_0",
  "Class": "WillowGame.WillowMapInfo",
  "ObjectArchetype": "WillowGame.Default__WillowMapInfo"
}