{
  "TacticalMapMovie": "Aster_UI_TacticalMap_TSlghtr.TempleSlaughter",
  "TacticalMapVolume":
    "TempleSlaughter_P.TheWorld:PersistentLevel.WillowTacticalMapVolume_0",
  "FrontEndMovieDef": null,
  "VfTableObject": "",
  "HashNext": "",
  "ObjectFlags": "",
  "HashOuterNext": "",
  "StateFrame": "",
  "Linker": null,
  "LinkerIndex": "",
  "ObjectInternalInteger": 221567,
  "NetIndex": 7468,
  "Outer": "TempleSlaughter_P.TheWorld:PersistentLevel.WorldInfo_0",
  "Name": "WillowMapInfo_0",
  "Class": "WillowGame.WillowMapInfo",
  "ObjectArchetype": "WillowGame.Default__WillowMapInfo"
}