{
  "VfTable_IIBehaviorProvider": "",
  "VfTable_IIDlcLicensableObject": "",
  "ChallengeName": "Can't Fool Me",
  "Description": "Kill mimics.",
  "AssociatedMap": null,
  "bSecret": false,
  "ChallengeType": "ECT_Stat",
  "LevelChallengeObjectGroupIdx": 0,
  "GoalValue": 1,
  "ChallengeCategoryDef": "GD_Aster_Challenges.Categories.Aster",
  "BPReward": {
    "BaseValueConstant": 20.0,
    "BaseValueAttribute": null,
    "InitializationDefinition": null,
    "BaseValueScaleConstant": 1.0
  },
  "RewardTextKey": null,
  "DlcExpansion": "GD_AsterPackageDef.ExpansionDef_Aster",
  "DlcBalanceMod": null,
  "BehaviorProvider": null,
  "LevelChallengeOneOffIdx": 0,
  "Levels": [
    {
      "ConditionDefinitions": [
        "GD_Aster_Challenges.Challenges.Challenge_Aster_KillMimics:ChallengeConditionDefinition_1"
      ],
      "ProgressNotificationOverride": [ 0.5 ],
      "CompletedAttributeEffects": null,
      "BadassPointReward": {
        "BaseValueConstant": 1.0,
        "BaseValueAttribute": null,
        "InitializationDefinition":
          "GD_Challenges.RewardBalance.Init_BadassPointsReward",
        "BaseValueScaleConstant": 1.0
      },
      "RewardItemPool": null,
      "RewardTextKey": null
    },
    {
      "ConditionDefinitions": [
        "GD_Aster_Challenges.Challenges.Challenge_Aster_KillMimics:ChallengeConditionDefinition_2"
      ],
      "ProgressNotificationOverride": [ 0.8 ],
      "CompletedAttributeEffects": null,
      "BadassPointReward": {
        "BaseValueConstant": 1.0,
        "BaseValueAttribute": null,
        "InitializationDefinition":
          "GD_Challenges.RewardBalance.Init_BadassPointsReward",
        "BaseValueScaleConstant": 5.0
      },
      "RewardItemPool": null,
      "RewardTextKey": null
    },
    {
      "ConditionDefinitions": [
        "GD_Aster_Challenges.Challenges.Challenge_Aster_KillMimics:ChallengeConditionDefinition_10"
      ],
      "ProgressNotificationOverride": [ 0.7 ],
      "CompletedAttributeEffects": null,
      "BadassPointReward": {
        "BaseValueConstant": 1.0,
        "BaseValueAttribute": null,
        "InitializationDefinition":
          "GD_Challenges.RewardBalance.Init_BadassPointsReward",
        "BaseValueScaleConstant": 10.0
      },
      "RewardItemPool": null,
      "RewardTextKey": null
    },
    {
      "ConditionDefinitions": [
        "GD_Aster_Challenges.Challenges.Challenge_Aster_KillMimics:ChallengeConditionDefinition_11"
      ],
      "ProgressNotificationOverride": [ 0.8125 ],
      "CompletedAttributeEffects": null,
      "BadassPointReward": {
        "BaseValueConstant": 1.0,
        "BaseValueAttribute": null,
        "InitializationDefinition":
          "GD_Challenges.RewardBalance.Init_BadassPointsReward",
        "BaseValueScaleConstant": 50.0
      },
      "RewardItemPool": null,
      "RewardTextKey": null
    },
    {
      "ConditionDefinitions": [
        "GD_Aster_Challenges.Challenges.Challenge_Aster_KillMimics:ChallengeConditionDefinition_12"
      ],
      "ProgressNotificationOverride": [ 0.833 ],
      "CompletedAttributeEffects": null,
      "BadassPointReward": {
        "BaseValueConstant": 1.0,
        "BaseValueAttribute": null,
        "InitializationDefinition":
          "GD_Challenges.RewardBalance.Init_BadassPointsReward",
        "BaseValueScaleConstant": 100.0
      },
      "RewardItemPool": null,
      "RewardTextKey": null
    }
  ],
  "VfTableObject": "",
  "HashNext": "",
  "ObjectFlags": "",
  "HashOuterNext": "",
  "StateFrame": "",
  "Linker": null,
  "LinkerIndex": "",
  "ObjectInternalInteger": 164918,
  "NetIndex": 85,
  "Outer": "GD_Aster_Challenges.Challenges",
  "Name": "Challenge_Aster_KillMimics",
  "Class": "WillowGame.ChallengeDefinition",
  "ObjectArchetype": "WillowGame.Default__ChallengeDefinition"
}