{
  "VfTable_IIBehaviorProvider": "",
  "VfTable_IIDlcLicensableObject": "",
  "ChallengeName": "Last Train to Nowhere",
  "Description": "Kill the bandit riding the five o'clock train.",
  "AssociatedMap": "Grass_Lynchwood_P",
  "bSecret": false,
  "ChallengeType": "ECT_DesignerTriggered",
  "LevelChallengeObjectGroupIdx": 1,
  "GoalValue": 1,
  "ChallengeCategoryDef": null,
  "BPReward": {
    "BaseValueConstant": 1.0,
    "BaseValueAttribute": null,
    "InitializationDefinition":
      "GD_Challenges.RewardBalance.Init_BadassPointsReward",
    "BaseValueScaleConstant": 10.0
  },
  "RewardTextKey": null,
  "DlcExpansion": null,
  "DlcBalanceMod": null,
  "BehaviorProvider": null,
  "LevelChallengeOneOffIdx": 13,
  "VfTableObject": "",
  "HashNext": "",
  "ObjectFlags": "",
  "HashOuterNext": "",
  "StateFrame": "",
  "Linker": null,
  "LinkerIndex": "",
  "ObjectInternalInteger": 122391,
  "NetIndex": 1178,
  "Outer": "GD_Challenges.LevelChallenges",
  "Name": "Lynchwood_TrainBandit",
  "Class": "WillowGame.ChallengeDefinition",
  "ObjectArchetype": "WillowGame.Default__ChallengeDefinition"
}