{
  "VfTable_IIBehaviorProvider": "",
  "VfTable_IIDlcLicensableObject": "",
  "ChallengeName": "Failure to Communicate",
  "Description": "Find and destroy all Hyperion comm towers.",
  "AssociatedMap": "Grass_P",
  "bSecret": false,
  "ChallengeType": "ECT_LevelObject",
  "LevelChallengeObjectGroupIdx": 50,
  "GoalValue": 4,
  "ChallengeCategoryDef": null,
  "BPReward": {
    "BaseValueConstant": 1.0,
    "BaseValueAttribute": null,
    "InitializationDefinition":
      "GD_Challenges.RewardBalance.Init_BadassPointsReward",
    "BaseValueScaleConstant": 10.0
  },
  "RewardTextKey": null,
  "DlcExpansion": null,
  "DlcBalanceMod": null,
  "BehaviorProvider": null,
  "LevelChallengeOneOffIdx": 0,
  "VfTableObject": "",
  "HashNext": "",
  "ObjectFlags": "",
  "HashOuterNext": "",
  "StateFrame": "",
  "Linker": null,
  "LinkerIndex": "",
  "ObjectInternalInteger": 122366,
  "NetIndex": 1149,
  "Outer": "GD_Challenges.LevelChallenges",
  "Name": "Grass_HyperionTowers",
  "Class": "WillowGame.ChallengeDefinition",
  "ObjectArchetype": "WillowGame.Default__ChallengeDefinition"
}