{
  "VfTable_IIBehaviorProvider": "",
  "VfTable_IIDlcLicensableObject": "",
  "ChallengeName": "Catch-a-Rocket!",
  "Description": "Kill enemies with direct hits from rocket launchers.",
  "AssociatedMap": null,
  "bSecret": true,
  "ChallengeType": "ECT_Stat",
  "LevelChallengeObjectGroupIdx": 0,
  "GoalValue": 1,
  "ChallengeCategoryDef": "GD_Challenges.Categories.RocketLauncher",
  "BPReward": {
    "BaseValueConstant": 20.0,
    "BaseValueAttribute": null,
    "InitializationDefinition": null,
    "BaseValueScaleConstant": 1.0
  },
  "RewardTextKey": null,
  "DlcExpansion": null,
  "DlcBalanceMod": null,
  "BehaviorProvider": null,
  "LevelChallengeOneOffIdx": 0,
  "Levels": [
    {
      "ConditionDefinitions": [
        "GD_Challenges.Weapons.Launcher_KillsDirectHit:ChallengeConditionDefinition_0"
      ],
      "ProgressNotificationOverride": [ 0.2 ],
      "CompletedAttributeEffects": null,
      "BadassPointReward": {
        "BaseValueConstant": 1.0,
        "BaseValueAttribute": null,
        "InitializationDefinition":
          "GD_Challenges.RewardBalance.Init_BadassPointsReward",
        "BaseValueScaleConstant": 1.0
      },
      "RewardItemPool": null,
      "RewardTextKey": null
    },
    {
      "ConditionDefinitions": [
        "GD_Challenges.Weapons.Launcher_KillsDirectHit:ChallengeConditionDefinition_1"
      ],
      "ProgressNotificationOverride": [ 0.5 ],
      "CompletedAttributeEffects": null,
      "BadassPointReward": {
        "BaseValueConstant": 1.0,
        "BaseValueAttribute": null,
        "InitializationDefinition":
          "GD_Challenges.RewardBalance.Init_BadassPointsReward",
        "BaseValueScaleConstant": 5.0
      },
      "RewardItemPool": null,
      "RewardTextKey": null
    },
    {
      "ConditionDefinitions": [
        "GD_Challenges.Weapons.Launcher_KillsDirectHit:ChallengeConditionDefinition_2"
      ],
      "ProgressNotificationOverride": [ 0.5 ],
      "CompletedAttributeEffects": null,
      "BadassPointReward": {
        "BaseValueConstant": 1.0,
        "BaseValueAttribute": null,
        "InitializationDefinition":
          "GD_Challenges.RewardBalance.Init_BadassPointsReward",
        "BaseValueScaleConstant": 10.0
      },
      "RewardItemPool": null,
      "RewardTextKey": null
    },
    {
      "ConditionDefinitions": [
        "GD_Challenges.Weapons.Launcher_KillsDirectHit:ChallengeConditionDefinition_3"
      ],
      "ProgressNotificationOverride": [ 0.75 ],
      "CompletedAttributeEffects": null,
      "BadassPointReward": {
        "BaseValueConstant": 1.0,
        "BaseValueAttribute": null,
        "InitializationDefinition":
          "GD_Challenges.RewardBalance.Init_BadassPointsReward",
        "BaseValueScaleConstant": 50.0
      },
      "RewardItemPool": null,
      "RewardTextKey": null
    },
    {
      "ConditionDefinitions": [
        "GD_Challenges.Weapons.Launcher_KillsDirectHit:ChallengeConditionDefinition_4"
      ],
      "ProgressNotificationOverride": [ 0.75, 0.9 ],
      "CompletedAttributeEffects": null,
      "BadassPointReward": {
        "BaseValueConstant": 1.0,
        "BaseValueAttribute": null,
        "InitializationDefinition":
          "GD_Challenges.RewardBalance.Init_BadassPointsReward",
        "BaseValueScaleConstant": 100.0
      },
      "RewardItemPool": "GD_CustomItemPools_MainGame.Rewards.TorgueEpic",
      "RewardTextKey": "CustomizationSkin"
    }
  ],
  "VfTableObject": "",
  "HashNext": "",
  "ObjectFlags": "",
  "HashOuterNext": "",
  "StateFrame": "",
  "Linker": null,
  "LinkerIndex": "",
  "ObjectInternalInteger": 114606,
  "NetIndex": 1257,
  "Outer": "GD_Challenges.Weapons",
  "Name": "Launcher_KillsDirectHit",
  "Class": "WillowGame.ChallengeDefinition",
  "ObjectArchetype": "WillowGame.Default__ChallengeDefinition"
}