{
  "VfTable_IIBehaviorProvider": "",
  "VfTable_IIDlcLicensableObject": "",
  "ChallengeName": "The Van Is Damned",
  "Description": "Find and loot the roaming Cara-Van.",
  "AssociatedMap": "Interlude_P",
  "bSecret": false,
  "ChallengeType": "ECT_DesignerTriggered",
  "LevelChallengeObjectGroupIdx": 1,
  "GoalValue": 1,
  "ChallengeCategoryDef": null,
  "BPReward": {
    "BaseValueConstant": 1.0,
    "BaseValueAttribute": null,
    "InitializationDefinition":
      "GD_Challenges.RewardBalance.Init_BadassPointsReward",
    "BaseValueScaleConstant": 5.0
  },
  "RewardTextKey": null,
  "DlcExpansion": null,
  "DlcBalanceMod": null,
  "BehaviorProvider": null,
  "LevelChallengeOneOffIdx": 1,
  "VfTableObject": "",
  "HashNext": "",
  "ObjectFlags": "",
  "HashOuterNext": "",
  "StateFrame": "",
  "Linker": null,
  "LinkerIndex": "",
  "ObjectInternalInteger": 122383,
  "NetIndex": 1170,
  "Outer": "GD_Challenges.LevelChallenges",
  "Name": "Interlude_Cara-Van",
  "Class": "WillowGame.ChallengeDefinition",
  "ObjectArchetype": "WillowGame.Default__ChallengeDefinition"
}