{
  "VfTable_IIBehaviorProvider": "",
  "VfTable_IIDlcLicensableObject": "",
  "ChallengeName": "Constructive Criticism",
  "Description": "Get critical hits with SMGs.",
  "AssociatedMap": null,
  "bSecret": false,
  "ChallengeType": "ECT_Stat",
  "LevelChallengeObjectGroupIdx": 0,
  "GoalValue": 1,
  "ChallengeCategoryDef": "GD_Challenges.Categories.SMG",
  "BPReward": {
    "BaseValueConstant": 20.0,
    "BaseValueAttribute": null,
    "InitializationDefinition": null,
    "BaseValueScaleConstant": 1.0
  },
  "RewardTextKey": null,
  "DlcExpansion": null,
  "DlcBalanceMod": null,
  "BehaviorProvider":
    "GD_Challenges.Weapons.SMG_CriticalHits:BehaviorProviderDefinition_0",
  "LevelChallengeOneOffIdx": 0,
  "Levels": [
    {
      "ConditionDefinitions": [
        "GD_Challenges.Weapons.SMG_CriticalHits:ChallengeConditionDefinition_0"
      ],
      "ProgressNotificationOverride": [ 0.6 ],
      "CompletedAttributeEffects": null,
      "BadassPointReward": {
        "BaseValueConstant": 1.0,
        "BaseValueAttribute": null,
        "InitializationDefinition":
          "GD_Challenges.RewardBalance.Init_BadassPointsReward",
        "BaseValueScaleConstant": 1.0
      },
      "RewardItemPool": null,
      "RewardTextKey": null
    },
    {
      "ConditionDefinitions": [
        "GD_Challenges.Weapons.SMG_CriticalHits:ChallengeConditionDefinition_1"
      ],
      "ProgressNotificationOverride": [ 0.5, 0.9 ],
      "CompletedAttributeEffects": null,
      "BadassPointReward": {
        "BaseValueConstant": 1.0,
        "BaseValueAttribute": null,
        "InitializationDefinition":
          "GD_Challenges.RewardBalance.Init_BadassPointsReward",
        "BaseValueScaleConstant": 5.0
      },
      "RewardItemPool": null,
      "RewardTextKey": null
    },
    {
      "ConditionDefinitions": [
        "GD_Challenges.Weapons.SMG_CriticalHits:ChallengeConditionDefinition_2"
      ],
      "ProgressNotificationOverride": [ 0.5, 0.75 ],
      "CompletedAttributeEffects": null,
      "BadassPointReward": {
        "BaseValueConstant": 1.0,
        "BaseValueAttribute": null,
        "InitializationDefinition":
          "GD_Challenges.RewardBalance.Init_BadassPointsReward",
        "BaseValueScaleConstant": 10.0
      },
      "RewardItemPool": null,
      "RewardTextKey": null
    },
    {
      "ConditionDefinitions": [
        "GD_Challenges.Weapons.SMG_CriticalHits:ChallengeConditionDefinition_3"
      ],
      "ProgressNotificationOverride": [ 0.6, 0.8, 0.9 ],
      "CompletedAttributeEffects": null,
      "BadassPointReward": {
        "BaseValueConstant": 1.0,
        "BaseValueAttribute": null,
        "InitializationDefinition":
          "GD_Challenges.RewardBalance.Init_BadassPointsReward",
        "BaseValueScaleConstant": 50.0
      },
      "RewardItemPool": null,
      "RewardTextKey": null
    },
    {
      "ConditionDefinitions": [
        "GD_Challenges.Weapons.SMG_CriticalHits:ChallengeConditionDefinition_4"
      ],
      "ProgressNotificationOverride": [ 0.7, 0.9, 0.95 ],
      "CompletedAttributeEffects": null,
      "BadassPointReward": {
        "BaseValueConstant": 1.0,
        "BaseValueAttribute": null,
        "InitializationDefinition":
          "GD_Challenges.RewardBalance.Init_BadassPointsReward",
        "BaseValueScaleConstant": 100.0
      },
      "RewardItemPool": null,
      "RewardTextKey": null
    }
  ],
  "VfTableObject": "",
  "HashNext": "",
  "ObjectFlags": "",
  "HashOuterNext": "",
  "StateFrame": "",
  "Linker": null,
  "LinkerIndex": "",
  "ObjectInternalInteger": 113695,
  "NetIndex": 1275,
  "Outer": "GD_Challenges.Weapons",
  "Name": "SMG_CriticalHits",
  "Class": "WillowGame.ChallengeDefinition",
  "ObjectArchetype": "WillowGame.Default__ChallengeDefinition"
}