{
  "VfTable_IIBehaviorProvider": "",
  "VfTable_IIDlcLicensableObject": "",
  "ChallengeName": "Cult of the Vault",
  "Description": "Discover the two hidden Vault Symbols.",
  "AssociatedMap": "Grass_Cliffs_P",
  "bSecret": false,
  "ChallengeType": "ECT_LevelObject",
  "LevelChallengeObjectGroupIdx": 43,
  "GoalValue": 2,
  "ChallengeCategoryDef": null,
  "BPReward": {
    "BaseValueConstant": 1.0,
    "BaseValueAttribute": null,
    "InitializationDefinition":
      "GD_Challenges.RewardBalance.Init_BadassPointsReward",
    "BaseValueScaleConstant": 5.0
  },
  "RewardTextKey": null,
  "DlcExpansion": null,
  "DlcBalanceMod": null,
  "BehaviorProvider": null,
  "LevelChallengeOneOffIdx": 0,
  "VfTableObject": "",
  "HashNext": "",
  "ObjectFlags": "",
  "HashOuterNext": "",
  "StateFrame": "",
  "Linker": null,
  "LinkerIndex": "",
  "ObjectInternalInteger": 122370,
  "NetIndex": 1157,
  "Outer": "GD_Challenges.LevelChallenges",
  "Name": "GrassCliffs_VaultRoy",
  "Class": "WillowGame.ChallengeDefinition",
  "ObjectArchetype": "WillowGame.Default__ChallengeDefinition"
}