{
  "VfTable_IIBehaviorProvider": "",
  "VfTable_IIDlcLicensableObject": "",
  "ChallengeName": "Positive Reinforcements",
  "Description":
    "Find and turn on the three alarms that summon bandit reinforcements.",
  "AssociatedMap": "tundraexpress_p",
  "bSecret": false,
  "ChallengeType": "ECT_LevelObject",
  "LevelChallengeObjectGroupIdx": 57,
  "GoalValue": 3,
  "ChallengeCategoryDef": null,
  "BPReward": {
    "BaseValueConstant": 1.0,
    "BaseValueAttribute": null,
    "InitializationDefinition":
      "GD_Challenges.RewardBalance.Init_BadassPointsReward",
    "BaseValueScaleConstant": 5.0
  },
  "RewardTextKey": null,
  "DlcExpansion": null,
  "DlcBalanceMod": null,
  "BehaviorProvider": null,
  "LevelChallengeOneOffIdx": 18,
  "VfTableObject": "",
  "HashNext": "",
  "ObjectFlags": "",
  "HashOuterNext": "",
  "StateFrame": "",
  "Linker": null,
  "LinkerIndex": "",
  "ObjectInternalInteger": 122411,
  "NetIndex": 1199,
  "Outer": "GD_Challenges.LevelChallenges",
  "Name": "TundraExpress_Reinforcements",
  "Class": "WillowGame.ChallengeDefinition",
  "ObjectArchetype": "WillowGame.Default__ChallengeDefinition"
}