{
  "VfTable_IIBehaviorProvider": "",
  "VfTable_IIDlcLicensableObject": "",
  "ChallengeName": "Boomerbang",
  "Description": "Kill enemies with Tediore reloads.",
  "AssociatedMap": null,
  "bSecret": false,
  "ChallengeType": "ECT_Stat",
  "LevelChallengeObjectGroupIdx": 0,
  "GoalValue": 1,
  "ChallengeCategoryDef": "GD_Challenges.Categories.General",
  "BPReward": {
    "BaseValueConstant": 20.0,
    "BaseValueAttribute": null,
    "InitializationDefinition": null,
    "BaseValueScaleConstant": 1.0
  },
  "RewardTextKey": null,
  "DlcExpansion": null,
  "DlcBalanceMod": null,
  "BehaviorProvider": null,
  "LevelChallengeOneOffIdx": 0,
  "Levels": [
    {
      "ConditionDefinitions": [
        "GD_Challenges.GeneralCombat.Tediore_KillWithReload:ChallengeConditionDefinition_0"
      ],
      "ProgressNotificationOverride": [ 0.2 ],
      "CompletedAttributeEffects": null,
      "BadassPointReward": {
        "BaseValueConstant": 1.0,
        "BaseValueAttribute": null,
        "InitializationDefinition":
          "GD_Challenges.RewardBalance.Init_BadassPointsReward",
        "BaseValueScaleConstant": 1.0
      },
      "RewardItemPool": null,
      "RewardTextKey": null
    },
    {
      "ConditionDefinitions": [
        "GD_Challenges.GeneralCombat.Tediore_KillWithReload:ChallengeConditionDefinition_5"
      ],
      "ProgressNotificationOverride": [ 0.5 ],
      "CompletedAttributeEffects": null,
      "BadassPointReward": {
        "BaseValueConstant": 1.0,
        "BaseValueAttribute": null,
        "InitializationDefinition":
          "GD_Challenges.RewardBalance.Init_BadassPointsReward",
        "BaseValueScaleConstant": 5.0
      },
      "RewardItemPool": null,
      "RewardTextKey": null
    },
    {
      "ConditionDefinitions": [
        "GD_Challenges.GeneralCombat.Tediore_KillWithReload:ChallengeConditionDefinition_6"
      ],
      "ProgressNotificationOverride": [ 0.5 ],
      "CompletedAttributeEffects": null,
      "BadassPointReward": {
        "BaseValueConstant": 1.0,
        "BaseValueAttribute": null,
        "InitializationDefinition":
          "GD_Challenges.RewardBalance.Init_BadassPointsReward",
        "BaseValueScaleConstant": 10.0
      },
      "RewardItemPool": null,
      "RewardTextKey": null
    },
    {
      "ConditionDefinitions": [
        "GD_Challenges.GeneralCombat.Tediore_KillWithReload:ChallengeConditionDefinition_7"
      ],
      "ProgressNotificationOverride": [ 0.75 ],
      "CompletedAttributeEffects": null,
      "BadassPointReward": {
        "BaseValueConstant": 1.0,
        "BaseValueAttribute": null,
        "InitializationDefinition":
          "GD_Challenges.RewardBalance.Init_BadassPointsReward",
        "BaseValueScaleConstant": 50.0
      },
      "RewardItemPool": null,
      "RewardTextKey": null
    },
    {
      "ConditionDefinitions": [
        "GD_Challenges.GeneralCombat.Tediore_KillWithReload:ChallengeConditionDefinition_8"
      ],
      "ProgressNotificationOverride": [ 0.75, 0.9 ],
      "CompletedAttributeEffects": null,
      "BadassPointReward": {
        "BaseValueConstant": 1.0,
        "BaseValueAttribute": null,
        "InitializationDefinition":
          "GD_Challenges.RewardBalance.Init_BadassPointsReward",
        "BaseValueScaleConstant": 100.0
      },
      "RewardItemPool": "GD_CustomItemPools_MainGame.Rewards.TedioreEpic",
      "RewardTextKey": "CustomizationSkin"
    }
  ],
  "VfTableObject": "",
  "HashNext": "",
  "ObjectFlags": "",
  "HashOuterNext": "",
  "StateFrame": "",
  "Linker": null,
  "LinkerIndex": "",
  "ObjectInternalInteger": 121898,
  "NetIndex": 1087,
  "Outer": "GD_Challenges.GeneralCombat",
  "Name": "Tediore_KillWithReload",
  "Class": "WillowGame.ChallengeDefinition",
  "ObjectArchetype": "WillowGame.Default__ChallengeDefinition"
}