{
  "VfTable_IIBehaviorProvider": "",
  "VfTable_IIDlcLicensableObject": "",
  "ChallengeName": "You're One Ugly Mother...",
  "Description": "Kill stalkers.",
  "AssociatedMap": null,
  "bSecret": true,
  "ChallengeType": "ECT_Stat",
  "LevelChallengeObjectGroupIdx": 0,
  "GoalValue": 1,
  "ChallengeCategoryDef": "GD_Challenges.Categories.enemies",
  "BPReward": {
    "BaseValueConstant": 20.0,
    "BaseValueAttribute": null,
    "InitializationDefinition": null,
    "BaseValueScaleConstant": 1.0
  },
  "RewardTextKey": null,
  "DlcExpansion": null,
  "DlcBalanceMod": null,
  "BehaviorProvider": null,
  "LevelChallengeOneOffIdx": 0,
  "Levels": [
    {
      "ConditionDefinitions": [
        "GD_Challenges.enemies.Enemies_KillStalkers:ChallengeConditionDefinition_0"
      ],
      "ProgressNotificationOverride": [ 0.5 ],
      "CompletedAttributeEffects": null,
      "BadassPointReward": {
        "BaseValueConstant": 1.0,
        "BaseValueAttribute": null,
        "InitializationDefinition":
          "GD_Challenges.RewardBalance.Init_BadassPointsReward",
        "BaseValueScaleConstant": 1.0
      },
      "RewardItemPool": null,
      "RewardTextKey": null
    },
    {
      "ConditionDefinitions": [
        "GD_Challenges.enemies.Enemies_KillStalkers:ChallengeConditionDefinition_5"
      ],
      "ProgressNotificationOverride": [ 0.8 ],
      "CompletedAttributeEffects": null,
      "BadassPointReward": {
        "BaseValueConstant": 1.0,
        "BaseValueAttribute": null,
        "InitializationDefinition":
          "GD_Challenges.RewardBalance.Init_BadassPointsReward",
        "BaseValueScaleConstant": 5.0
      },
      "RewardItemPool": null,
      "RewardTextKey": null
    },
    {
      "ConditionDefinitions": [
        "GD_Challenges.enemies.Enemies_KillStalkers:ChallengeConditionDefinition_6"
      ],
      "ProgressNotificationOverride": [ 0.666 ],
      "CompletedAttributeEffects": null,
      "BadassPointReward": {
        "BaseValueConstant": 1.0,
        "BaseValueAttribute": null,
        "InitializationDefinition":
          "GD_Challenges.RewardBalance.Init_BadassPointsReward",
        "BaseValueScaleConstant": 10.0
      },
      "RewardItemPool": null,
      "RewardTextKey": null
    },
    {
      "ConditionDefinitions": [
        "GD_Challenges.enemies.Enemies_KillStalkers:ChallengeConditionDefinition_7"
      ],
      "ProgressNotificationOverride": [ 0.8 ],
      "CompletedAttributeEffects": null,
      "BadassPointReward": {
        "BaseValueConstant": 1.0,
        "BaseValueAttribute": null,
        "InitializationDefinition":
          "GD_Challenges.RewardBalance.Init_BadassPointsReward",
        "BaseValueScaleConstant": 50.0
      },
      "RewardItemPool": null,
      "RewardTextKey": null
    },
    {
      "ConditionDefinitions": [
        "GD_Challenges.enemies.Enemies_KillStalkers:ChallengeConditionDefinition_8"
      ],
      "ProgressNotificationOverride": [ 0.666, 0.833 ],
      "CompletedAttributeEffects": null,
      "BadassPointReward": {
        "BaseValueConstant": 1.0,
        "BaseValueAttribute": null,
        "InitializationDefinition":
          "GD_Challenges.RewardBalance.Init_BadassPointsReward",
        "BaseValueScaleConstant": 100.0
      },
      "RewardItemPool": null,
      "RewardTextKey": null
    }
  ],
  "GiveChallengeWhenPlayerEntersMaps": [
    "Grass_P", "PandoraPark_P", "Fridge_P"
  ],
  "VfTableObject": "",
  "HashNext": "",
  "ObjectFlags": "",
  "HashOuterNext": "",
  "StateFrame": "",
  "Linker": null,
  "LinkerIndex": "",
  "ObjectInternalInteger": 121813,
  "NetIndex": 1071,
  "Outer": "GD_Challenges.enemies",
  "Name": "Enemies_KillStalkers",
  "Class": "WillowGame.ChallengeDefinition",
  "ObjectArchetype": "WillowGame.Default__ChallengeDefinition"
}