{
  "VfTable_IIBehaviorProvider": "",
  "VfTable_IIDlcLicensableObject": "",
  "ChallengeName": "Cut 'Em No Slack",
  "Description": "Defeat the splinter group in their assigned order.",
  "AssociatedMap": "dam_p",
  "bSecret": false,
  "ChallengeType": "ECT_DesignerTriggered",
  "LevelChallengeObjectGroupIdx": 10,
  "GoalValue": 1,
  "ChallengeCategoryDef": null,
  "BPReward": {
    "BaseValueConstant": 1.0,
    "BaseValueAttribute": null,
    "InitializationDefinition":
      "GD_Challenges.RewardBalance.Init_BadassPointsReward",
    "BaseValueScaleConstant": 5.0
  },
  "RewardTextKey": null,
  "DlcExpansion": null,
  "DlcBalanceMod": null,
  "BehaviorProvider": null,
  "LevelChallengeOneOffIdx": 29,
  "VfTableObject": "",
  "HashNext": "",
  "ObjectFlags": "",
  "HashOuterNext": "",
  "StateFrame": "",
  "Linker": null,
  "LinkerIndex": "",
  "ObjectInternalInteger": 122342,
  "NetIndex": 1124,
  "Outer": "GD_Challenges.LevelChallenges",
  "Name": "Dam_SplinterGroup",
  "Class": "WillowGame.ChallengeDefinition",
  "ObjectArchetype": "WillowGame.Default__ChallengeDefinition"
}