{
  "VfTable_IIBehaviorProvider": "",
  "VfTable_IIDlcLicensableObject": "",
  "ChallengeName": "Man's Best Friends",
  "Description": "Kill Boll without hurting any of his poor snow skags.",
  "AssociatedMap": "Ice_P",
  "bSecret": false,
  "ChallengeType": "ECT_DesignerTriggered",
  "LevelChallengeObjectGroupIdx": 10,
  "GoalValue": 1,
  "ChallengeCategoryDef": null,
  "BPReward": {
    "BaseValueConstant": 1.0,
    "BaseValueAttribute": null,
    "InitializationDefinition":
      "GD_Challenges.RewardBalance.Init_BadassPointsReward",
    "BaseValueScaleConstant": 5.0
  },
  "RewardTextKey": null,
  "DlcExpansion": null,
  "DlcBalanceMod": null,
  "BehaviorProvider": null,
  "LevelChallengeOneOffIdx": 19,
  "VfTableObject": "",
  "HashNext": "",
  "ObjectFlags": "",
  "HashOuterNext": "",
  "StateFrame": "",
  "Linker": null,
  "LinkerIndex": "",
  "ObjectInternalInteger": 122378,
  "NetIndex": 1165,
  "Outer": "GD_Challenges.LevelChallenges",
  "Name": "Ice_SnowSkags",
  "Class": "WillowGame.ChallengeDefinition",
  "ObjectArchetype": "WillowGame.Default__ChallengeDefinition"
}