{
  "VfTable_IIBehaviorProvider": "",
  "VfTable_IIDlcLicensableObject": "",
  "ChallengeName": "Stiff Competition",
  "Description": "Do not kill any Midget Boners before killing Smash-Head.",
  "AssociatedMap": "Fridge_P",
  "bSecret": true,
  "ChallengeType": "ECT_DesignerTriggered",
  "LevelChallengeObjectGroupIdx": 1,
  "GoalValue": 1,
  "ChallengeCategoryDef": null,
  "BPReward": {
    "BaseValueConstant": 1.0,
    "BaseValueAttribute": null,
    "InitializationDefinition":
      "GD_Challenges.RewardBalance.Init_BadassPointsReward",
    "BaseValueScaleConstant": 5.0
  },
  "RewardTextKey": null,
  "DlcExpansion": null,
  "DlcBalanceMod": null,
  "BehaviorProvider": null,
  "LevelChallengeOneOffIdx": 40,
  "VfTableObject": "",
  "HashNext": "",
  "ObjectFlags": "",
  "HashOuterNext": "",
  "StateFrame": "",
  "Linker": null,
  "LinkerIndex": "",
  "ObjectInternalInteger": 122351,
  "NetIndex": 1134,
  "Outer": "GD_Challenges.LevelChallenges",
  "Name": "Fridge_BossKill",
  "Class": "WillowGame.ChallengeDefinition",
  "ObjectArchetype": "WillowGame.Default__ChallengeDefinition"
}