{
  "VfTable_IIBehaviorProvider": "",
  "VfTable_IIDlcLicensableObject": "",
  "ChallengeName": "Burnin' Ring of Fire",
  "Description": "Blow up every barrel in the outer ring of the Arena.",
  "AssociatedMap": "Iris_DL1_P",
  "bSecret": false,
  "ChallengeType": "ECT_LevelObject",
  "LevelChallengeObjectGroupIdx": 2,
  "GoalValue": 11,
  "ChallengeCategoryDef": null,
  "BPReward": {
    "BaseValueConstant": 20.0,
    "BaseValueAttribute": null,
    "InitializationDefinition": null,
    "BaseValueScaleConstant": 1.0
  },
  "RewardTextKey": null,
  "DlcExpansion": "GD_IrisPackageDef.Expansions.ExpansionDef_Iris",
  "DlcBalanceMod": null,
  "BehaviorProvider": null,
  "LevelChallengeOneOffIdx": 0,
  "VfTableObject": "",
  "HashNext": "",
  "ObjectFlags": "",
  "HashOuterNext": "",
  "StateFrame": "",
  "Linker": null,
  "LinkerIndex": "",
  "ObjectInternalInteger": 170714,
  "NetIndex": 63,
  "Outer": "GD_Iris_Challenges.LevelChallenges",
  "Name": "Arena_RingOfFire",
  "Class": "WillowGame.ChallengeDefinition",
  "ObjectArchetype": "WillowGame.Default__ChallengeDefinition"
}