{
  "VfTable_IIBehaviorProvider": "",
  "VfTable_IIDlcLicensableObject": "",
  "ChallengeName": "Grenade Fishing",
  "Description":
    "Collect ten fish by tossing grenades into clear water pools.",
  "AssociatedMap": "Sage_Underground_P",
  "bSecret": false,
  "ChallengeType": "ECT_LevelObject",
  "LevelChallengeObjectGroupIdx": 0,
  "GoalValue": 10,
  "ChallengeCategoryDef": null,
  "BPReward": {
    "BaseValueConstant": 1.0,
    "BaseValueAttribute": null,
    "InitializationDefinition":
      "GD_Challenges.RewardBalance.Init_BadassPointsReward",
    "BaseValueScaleConstant": 10.0
  },
  "RewardTextKey": null,
  "DlcExpansion": "GD_SagePackageDef.ExpansionDef_Sage",
  "DlcBalanceMod": null,
  "BehaviorProvider": null,
  "LevelChallengeOneOffIdx": 0,
  "VfTableObject": "",
  "HashNext": "",
  "ObjectFlags": "",
  "HashOuterNext": "",
  "StateFrame": "",
  "Linker": null,
  "LinkerIndex": "",
  "ObjectInternalInteger": 178548,
  "NetIndex": 71,
  "Outer": "GD_Sage_Challenges.LevelChallenges",
  "Name": "Underground_Fishing",
  "Class": "WillowGame.ChallengeDefinition",
  "ObjectArchetype": "WillowGame.Default__ChallengeDefinition"
}