{
  "DamageThreshold": 0.0,
  "ShouldBeInstanced": false,
  "VfTableObject": "",
  "HashNext": "",
  "ObjectFlags": "",
  "HashOuterNext": "",
  "StateFrame": "",
  "Linker": null,
  "LinkerIndex": "",
  "ObjectInternalInteger": 201586,
  "NetIndex": 702,
  "Outer":
    "GD_BoomBoom.Character.CharClass_Boom:BehaviorProviderDefinition_5",
  "Name": "EventFilter_OnTakeDamage_29",
  "Class": "WillowGame.EventFilter_OnTakeDamage",
  "ObjectArchetype": "WillowGame.Default__EventFilter_OnTakeDamage"
}