{
  "DamageThreshold": 0.0,
  "ShouldBeInstanced": false,
  "VfTableObject": "",
  "HashNext": "",
  "ObjectFlags": "",
  "HashOuterNext": "",
  "StateFrame": "",
  "Linker": null,
  "LinkerIndex": "",
  "ObjectInternalInteger": 213414,
  "NetIndex": 188,
  "Outer":
    "GD_Hyperion_AutoCannon.Character.CharClass_Hyperion_AutoCannon:BehaviorProviderDefinition_5",
  "Name": "EventFilter_OnTakeDamage_1",
  "Class": "WillowGame.EventFilter_OnTakeDamage",
  "ObjectArchetype": "WillowGame.Default__EventFilter_OnTakeDamage"
}