{
  "DamageThreshold": 0.0,
  "ShouldBeInstanced": false,
  "VfTableObject": "",
  "HashNext": "",
  "ObjectFlags": "",
  "HashOuterNext": "",
  "StateFrame": "",
  "Linker": null,
  "LinkerIndex": "",
  "ObjectInternalInteger": 194803,
  "NetIndex": 212,
  "Outer":
    "GD_Jeffrey.Character.CharClass_Jeffrey:BehaviorProviderDefinition_0",
  "Name": "EventFilter_OnTakeDamage_12",
  "Class": "WillowGame.EventFilter_OnTakeDamage",
  "ObjectArchetype": "WillowGame.Default__EventFilter_OnTakeDamage"
}