{
  "DamageThreshold": 0.0,
  "ShouldBeInstanced": false,
  "VfTableObject": "",
  "HashNext": "",
  "ObjectFlags": "",
  "HashOuterNext": "",
  "StateFrame": "",
  "Linker": null,
  "LinkerIndex": "",
  "ObjectInternalInteger": 197992,
  "NetIndex": 178,
  "Outer":
    "GD_Knight_MMO3_Proto.Character.CharClass_Knight_MMO3_Proto:BehaviorProviderDefinition_5",
  "Name": "EventFilter_OnTakeDamage_12",
  "Class": "WillowGame.EventFilter_OnTakeDamage",
  "ObjectArchetype": "WillowGame.Default__EventFilter_OnTakeDamage"
}