{
  "DamageThreshold": 0.0,
  "ShouldBeInstanced": false,
  "VfTableObject": "",
  "HashNext": "",
  "ObjectFlags": "",
  "HashOuterNext": "",
  "StateFrame": "",
  "Linker": null,
  "LinkerIndex": "",
  "ObjectInternalInteger": 212402,
  "NetIndex": 91,
  "Outer":
    "GD_LootMidget_Marauder.Character.CharClass_LootMidget_Marauder:BehaviorProviderDefinition_5",
  "Name": "EventFilter_OnTakeDamage_117",
  "Class": "WillowGame.EventFilter_OnTakeDamage",
  "ObjectArchetype": "WillowGame.Default__EventFilter_OnTakeDamage"
}