{
  "DamageThreshold": 0.0,
  "ShouldBeInstanced": false,
  "VfTableObject": "",
  "HashNext": "",
  "ObjectFlags": "",
  "HashOuterNext": "",
  "StateFrame": "",
  "Linker": null,
  "LinkerIndex": "",
  "ObjectInternalInteger": 199303,
  "NetIndex": 120,
  "Outer":
    "GD_Nast_BugMorphTreasure.Character.CharClass_Nast_BugMorphTreasure:BehaviorProviderDefinition_5",
  "Name": "EventFilter_OnTakeDamage_3",
  "Class": "WillowGame.EventFilter_OnTakeDamage",
  "ObjectArchetype": "WillowGame.Default__EventFilter_OnTakeDamage"
}