{
  "DamageThreshold": 0.0,
  "ShouldBeInstanced": false,
  "VfTableObject": "",
  "HashNext": "",
  "ObjectFlags": "",
  "HashOuterNext": "",
  "StateFrame": "",
  "Linker": null,
  "LinkerIndex": "",
  "ObjectInternalInteger": 212616,
  "NetIndex": 155,
  "Outer":
    "GD_Nasturtium_BugMorph_Bloodhound.Character.CharClass_Nasturtium_BugMorph_Bloodhound:BehaviorProviderDefinition_5",
  "Name": "EventFilter_OnTakeDamage_1",
  "Class": "WillowGame.EventFilter_OnTakeDamage",
  "ObjectArchetype": "WillowGame.Default__EventFilter_OnTakeDamage"
}