{
  "DamageThreshold": 0.0,
  "ShouldBeInstanced": false,
  "VfTableObject": "",
  "HashNext": "",
  "ObjectFlags": "",
  "HashOuterNext": "",
  "StateFrame": "",
  "Linker": null,
  "LinkerIndex": "",
  "ObjectInternalInteger": 201399,
  "NetIndex": 147,
  "Outer":
    "GD_PrimalBeast_Ranged.Character.CharClass_PrimalBeast_Ranged:BehaviorProviderDefinition_23",
  "Name": "EventFilter_OnTakeDamage_98",
  "Class": "WillowGame.EventFilter_OnTakeDamage",
  "ObjectArchetype": "WillowGame.Default__EventFilter_OnTakeDamage"
}