{
  "DamageThreshold": 0.0,
  "ShouldBeInstanced": false,
  "VfTableObject": "",
  "HashNext": "",
  "ObjectFlags": "",
  "HashOuterNext": "",
  "StateFrame": "",
  "Linker": null,
  "LinkerIndex": "",
  "ObjectInternalInteger": 201256,
  "NetIndex": 150,
  "Outer":
    "GD_RatLab_Digi.Character.CharClass_RatLab_Digi:BehaviorProviderDefinition_5",
  "Name": "EventFilter_OnTakeDamage_0",
  "Class": "WillowGame.EventFilter_OnTakeDamage",
  "ObjectArchetype": "WillowGame.Default__EventFilter_OnTakeDamage"
}