{
  "DamageThreshold": 0.0,
  "ShouldBeInstanced": false,
  "VfTableObject": "",
  "HashNext": "",
  "ObjectFlags": "",
  "HashOuterNext": "",
  "StateFrame": "",
  "Linker": null,
  "LinkerIndex": "",
  "ObjectInternalInteger": 185055,
  "NetIndex": 132,
  "Outer":
    "GD_Rat_Ralph.Character.CharClass_Rat_Ralph:BehaviorProviderDefinition_5",
  "Name": "EventFilter_OnTakeDamage_117",
  "Class": "WillowGame.EventFilter_OnTakeDamage",
  "ObjectArchetype": "WillowGame.Default__EventFilter_OnTakeDamage"
}