{
  "DamageThreshold": 0.0,
  "ShouldBeInstanced": false,
  "VfTableObject": "",
  "HashNext": "",
  "ObjectFlags": "",
  "HashOuterNext": "",
  "StateFrame": "",
  "Linker": null,
  "LinkerIndex": "",
  "ObjectInternalInteger": 205239,
  "NetIndex": 116,
  "Outer":
    "GD_Skeleton_Crumpets.Character.AIDef_Skeleton_Crumpets:AIBehaviorProviderDefinition_0",
  "Name": "EventFilter_OnTakeDamage_1",
  "Class": "WillowGame.EventFilter_OnTakeDamage",
  "ObjectArchetype": "WillowGame.Default__EventFilter_OnTakeDamage"
}