{
  "Expression1":
    "GD_Allium_MidgetPiano.Character.BodyClass_Allium_MidgetPiano:ExpressionTree_137.AttributeExpressionEvaluator_163",
  "Operator": "CEOP_And",
  "Expression2":
    "GD_Allium_MidgetPiano.Character.BodyClass_Allium_MidgetPiano:ExpressionTree_137.DialogNameTagExpressionEvaluator_137",
  "VfTableObject": "",
  "HashNext": "",
  "ObjectFlags": "",
  "HashOuterNext": "",
  "StateFrame": "",
  "Linker": null,
  "LinkerIndex": "",
  "ObjectInternalInteger": 199470,
  "NetIndex": 56,
  "Outer":
    "GD_Allium_MidgetPiano.Character.BodyClass_Allium_MidgetPiano:ExpressionTree_137",
  "Name": "CompoundExpressionEvaluator_137",
  "Class": "GearboxFramework.CompoundExpressionEvaluator",
  "ObjectArchetype": "GearboxFramework.Default__CompoundExpressionEvaluator"
}