{
  "Expression1":
    "GD_Allium_PsychoSnow_Midget.Flags.Flag_AttachToGoliath:ExpressionTree_150.AttributeExpressionEvaluator_20",
  "Operator": "CEOP_And",
  "Expression2":
    "GD_Allium_PsychoSnow_Midget.Flags.Flag_AttachToGoliath:ExpressionTree_150.AttributeExpressionEvaluator_21",
  "VfTableObject": "",
  "HashNext": "",
  "ObjectFlags": "",
  "HashOuterNext": "",
  "StateFrame": "",
  "Linker": null,
  "LinkerIndex": "",
  "ObjectInternalInteger": 221287,
  "NetIndex": 177,
  "Outer":
    "GD_Allium_PsychoSnow_Midget.Flags.Flag_AttachToGoliath:ExpressionTree_150",
  "Name": "CompoundExpressionEvaluator_0",
  "Class": "GearboxFramework.CompoundExpressionEvaluator",
  "ObjectArchetype": "GearboxFramework.Default__CompoundExpressionEvaluator"
}