{
  "Expression1":
    "GD_AngelBoss.Character.AIDef_AngelBoss:ExpressionTree_168.FlagExpressionEvaluator_0",
  "Operator": "CEOP_And",
  "Expression2":
    "GD_AngelBoss.Character.AIDef_AngelBoss:ExpressionTree_168.AttributeExpressionEvaluator_10",
  "VfTableObject": "",
  "HashNext": "",
  "ObjectFlags": "",
  "HashOuterNext": "",
  "StateFrame": "",
  "Linker": null,
  "LinkerIndex": "",
  "ObjectInternalInteger": 219247,
  "NetIndex": 630,
  "Outer": "GD_AngelBoss.Character.AIDef_AngelBoss:ExpressionTree_168",
  "Name": "CompoundExpressionEvaluator_0",
  "Class": "GearboxFramework.CompoundExpressionEvaluator",
  "ObjectArchetype": "GearboxFramework.Default__CompoundExpressionEvaluator"
}