{
  "Expression1":
    "gd_blackqueen.Character.AIDef_BlackQueen:ExpressionTree_16.AICostExpressionEvaluator_0",
  "Operator": "CEOP_And",
  "Expression2":
    "gd_blackqueen.Character.AIDef_BlackQueen:ExpressionTree_16.CompoundExpressionEvaluator_1",
  "VfTableObject": "",
  "HashNext": "",
  "ObjectFlags": "",
  "HashOuterNext": "",
  "StateFrame": "",
  "Linker": null,
  "LinkerIndex": "",
  "ObjectInternalInteger": 197676,
  "NetIndex": 137,
  "Outer": "gd_blackqueen.Character.AIDef_BlackQueen:ExpressionTree_16",
  "Name": "CompoundExpressionEvaluator_2",
  "Class": "GearboxFramework.CompoundExpressionEvaluator",
  "ObjectArchetype": "GearboxFramework.Default__CompoundExpressionEvaluator"
}