{
  "Expression1":
    "GD_ConstructorShared.Flags.Flag_CanSpawnTurret:ExpressionTree_0.FlagExpressionEvaluator_0",
  "Operator": "CEOP_And",
  "Expression2":
    "GD_ConstructorShared.Flags.Flag_CanSpawnTurret:ExpressionTree_0.AICostExpressionEvaluator_0",
  "VfTableObject": "",
  "HashNext": "",
  "ObjectFlags": "",
  "HashOuterNext": "",
  "StateFrame": "",
  "Linker": null,
  "LinkerIndex": "",
  "ObjectInternalInteger": 197117,
  "NetIndex": 970,
  "Outer": "GD_ConstructorShared.Flags.Flag_CanSpawnTurret:ExpressionTree_0",
  "Name": "CompoundExpressionEvaluator_0",
  "Class": "GearboxFramework.CompoundExpressionEvaluator",
  "ObjectArchetype": "GearboxFramework.Default__CompoundExpressionEvaluator"
}