{
  "Expression1":
    "GD_ConstructorShared.Flags.Flag_CanSpawnBots:ExpressionTree_5.FlagExpressionEvaluator_9",
  "Operator": "CEOP_And",
  "Expression2":
    "GD_ConstructorShared.Flags.Flag_CanSpawnBots:ExpressionTree_5.AICostExpressionEvaluator_1",
  "VfTableObject": "",
  "HashNext": "",
  "ObjectFlags": "",
  "HashOuterNext": "",
  "StateFrame": "",
  "Linker": null,
  "LinkerIndex": "",
  "ObjectInternalInteger": 197119,
  "NetIndex": 968,
  "Outer": "GD_ConstructorShared.Flags.Flag_CanSpawnBots:ExpressionTree_5",
  "Name": "CompoundExpressionEvaluator_1",
  "Class": "GearboxFramework.CompoundExpressionEvaluator",
  "ObjectArchetype": "GearboxFramework.Default__CompoundExpressionEvaluator"
}