{
  "Expression1":
    "GD_ConstructorShared.Flags.Flag_CanSpawnBots:ExpressionTree_5.AttributeExpressionEvaluator_21",
  "Operator": "CEOP_And",
  "Expression2":
    "GD_ConstructorShared.Flags.Flag_CanSpawnBots:ExpressionTree_5.AttributeExpressionEvaluator_20",
  "VfTableObject": "",
  "HashNext": "",
  "ObjectFlags": "",
  "HashOuterNext": "",
  "StateFrame": "",
  "Linker": null,
  "LinkerIndex": "",
  "ObjectInternalInteger": 197120,
  "NetIndex": 969,
  "Outer": "GD_ConstructorShared.Flags.Flag_CanSpawnBots:ExpressionTree_5",
  "Name": "CompoundExpressionEvaluator_2",
  "Class": "GearboxFramework.CompoundExpressionEvaluator",
  "ObjectArchetype": "GearboxFramework.Default__CompoundExpressionEvaluator"
}