{
  "Expression1":
    "GD_GoliathOneArm.Character.BodyClass_GoliathOneArm:ExpressionTree_0.AttributeExpressionEvaluator_20",
  "Operator": "CEOP_And",
  "Expression2":
    "GD_GoliathOneArm.Character.BodyClass_GoliathOneArm:ExpressionTree_0.DialogNameTagExpressionEvaluator_0",
  "VfTableObject": "",
  "HashNext": "",
  "ObjectFlags": "",
  "HashOuterNext": "",
  "StateFrame": "",
  "Linker": null,
  "LinkerIndex": "",
  "ObjectInternalInteger": 208818,
  "NetIndex": 69,
  "Outer":
    "GD_GoliathOneArm.Character.BodyClass_GoliathOneArm:ExpressionTree_0",
  "Name": "CompoundExpressionEvaluator_0",
  "Class": "GearboxFramework.CompoundExpressionEvaluator",
  "ObjectArchetype": "GearboxFramework.Default__CompoundExpressionEvaluator"
}