{
  "Expression1":
    "GD_GoliathCorrosive.Character.AIDef_GoliathCorrosive:ExpressionTree_14.FlagExpressionEvaluator_17",
  "Operator": "CEOP_And",
  "Expression2":
    "GD_GoliathCorrosive.Character.AIDef_GoliathCorrosive:ExpressionTree_14.FlagExpressionEvaluator_15",
  "VfTableObject": "",
  "HashNext": "",
  "ObjectFlags": "",
  "HashOuterNext": "",
  "StateFrame": "",
  "Linker": null,
  "LinkerIndex": "",
  "ObjectInternalInteger": 196159,
  "NetIndex": 382,
  "Outer":
    "GD_GoliathCorrosive.Character.AIDef_GoliathCorrosive:ExpressionTree_14",
  "Name": "CompoundExpressionEvaluator_1",
  "Class": "GearboxFramework.CompoundExpressionEvaluator",
  "ObjectArchetype": "GearboxFramework.Default__CompoundExpressionEvaluator"
}