{
  "Expression1":
    "GD_Iris_EngineerArms.Character.AIDef_Iris_EngineerAms:CompoundExpressionEvaluator_2.AttributeExpressionEvaluator_19",
  "Operator": "CEOP_And",
  "Expression2":
    "GD_Iris_EngineerArms.Character.AIDef_Iris_EngineerAms:CompoundExpressionEvaluator_2.AttributeExpressionEvaluator_26",
  "VfTableObject": "",
  "HashNext": "",
  "ObjectFlags": "",
  "HashOuterNext": "",
  "StateFrame": "",
  "Linker": null,
  "LinkerIndex": "",
  "ObjectInternalInteger": 233690,
  "NetIndex": 367,
  "Outer": "GD_Iris_EngineerArms.Character.AIDef_Iris_EngineerAms",
  "Name": "CompoundExpressionEvaluator_2",
  "Class": "GearboxFramework.CompoundExpressionEvaluator",
  "ObjectArchetype": "GearboxFramework.Default__CompoundExpressionEvaluator"
}