{
  "Expression1":
    "GD_Iris_Raid_PyroPete.Character.AIDef_Iris_Raid_PyroPete:CompoundExpressionEvaluator_17.FlagExpressionEvaluator_75",
  "Operator": "CEOP_And",
  "Expression2":
    "GD_Iris_Raid_PyroPete.Character.AIDef_Iris_Raid_PyroPete:CompoundExpressionEvaluator_17.AttributeExpressionEvaluator_454",
  "VfTableObject": "",
  "HashNext": "",
  "ObjectFlags": "",
  "HashOuterNext": "",
  "StateFrame": "",
  "Linker": null,
  "LinkerIndex": "",
  "ObjectInternalInteger": 218105,
  "NetIndex": 2541,
  "Outer": "GD_Iris_Raid_PyroPete.Character.AIDef_Iris_Raid_PyroPete",
  "Name": "CompoundExpressionEvaluator_17",
  "Class": "GearboxFramework.CompoundExpressionEvaluator",
  "ObjectArchetype": "GearboxFramework.Default__CompoundExpressionEvaluator"
}