{
  "Expression1":
    "GD_Iris_BikeRiderMarauder.Character.AIDef_Iris_BikeRiderMarauder:CompoundExpressionEvaluator_772.AttributeExpressionEvaluator_142",
  "Operator": "CEOP_And",
  "Expression2":
    "GD_Iris_BikeRiderMarauder.Character.AIDef_Iris_BikeRiderMarauder:CompoundExpressionEvaluator_772.FlagExpressionEvaluator_1046",
  "VfTableObject": "",
  "HashNext": "",
  "ObjectFlags": "",
  "HashOuterNext": "",
  "StateFrame": "",
  "Linker": null,
  "LinkerIndex": "",
  "ObjectInternalInteger": 212619,
  "NetIndex": 445,
  "Outer": "GD_Iris_BikeRiderMarauder.Character.AIDef_Iris_BikeRiderMarauder",
  "Name": "CompoundExpressionEvaluator_772",
  "Class": "GearboxFramework.CompoundExpressionEvaluator",
  "ObjectArchetype": "GearboxFramework.Default__CompoundExpressionEvaluator"
}