{
  "Expression1":
    "GD_Iris_Piston_Boss.Character.AIDef_Iris_Piston_Boss:ExpressionTree_7.FlagExpressionEvaluator_17",
  "Operator": "CEOP_And",
  "Expression2":
    "GD_Iris_Piston_Boss.Character.AIDef_Iris_Piston_Boss:ExpressionTree_7.FlagExpressionEvaluator_15",
  "VfTableObject": "",
  "HashNext": "",
  "ObjectFlags": "",
  "HashOuterNext": "",
  "StateFrame": "",
  "Linker": null,
  "LinkerIndex": "",
  "ObjectInternalInteger": 216898,
  "NetIndex": 356,
  "Outer":
    "GD_Iris_Piston_Boss.Character.AIDef_Iris_Piston_Boss:ExpressionTree_7",
  "Name": "CompoundExpressionEvaluator_1",
  "Class": "GearboxFramework.CompoundExpressionEvaluator",
  "ObjectArchetype": "GearboxFramework.Default__CompoundExpressionEvaluator"
}