{
  "Expression1":
    "GD_JimboRiding.Character.BodyClass_JimboRiding:ExpressionTree_106.AttributeExpressionEvaluator_117",
  "Operator": "CEOP_And",
  "Expression2":
    "GD_JimboRiding.Character.BodyClass_JimboRiding:ExpressionTree_106.DialogNameTagExpressionEvaluator_106",
  "VfTableObject": "",
  "HashNext": "",
  "ObjectFlags": "",
  "HashOuterNext": "",
  "StateFrame": "",
  "Linker": null,
  "LinkerIndex": "",
  "ObjectInternalInteger": 210105,
  "NetIndex": 206,
  "Outer":
    "GD_JimboRiding.Character.BodyClass_JimboRiding:ExpressionTree_106",
  "Name": "CompoundExpressionEvaluator_106",
  "Class": "GearboxFramework.CompoundExpressionEvaluator",
  "ObjectArchetype": "GearboxFramework.Default__CompoundExpressionEvaluator"
}