{
  "Expression1":
    "GD_LootMidget_CombatEngineer.Character.AIDef_LootMidget_CombatEngineer:ExpressionTree_0.FlagExpressionEvaluator_29",
  "Operator": "CEOP_And",
  "Expression2":
    "GD_LootMidget_CombatEngineer.Character.AIDef_LootMidget_CombatEngineer:ExpressionTree_0.AttributeExpressionEvaluator_93",
  "VfTableObject": "",
  "HashNext": "",
  "ObjectFlags": "",
  "HashOuterNext": "",
  "StateFrame": "",
  "Linker": null,
  "LinkerIndex": "",
  "ObjectInternalInteger": 197065,
  "NetIndex": 192,
  "Outer":
    "GD_LootMidget_CombatEngineer.Character.AIDef_LootMidget_CombatEngineer:ExpressionTree_0",
  "Name": "CompoundExpressionEvaluator_0",
  "Class": "GearboxFramework.CompoundExpressionEvaluator",
  "ObjectArchetype": "GearboxFramework.Default__CompoundExpressionEvaluator"
}