{
  "Expression1":
    "GD_Lilac_Skills_Hellborn.Skills.AppliedStatusEffectListener:CompoundExpressionEvaluator_0.AttributeExpressionEvaluator_0",
  "Operator": "CEOP_Or",
  "Expression2":
    "GD_Lilac_Skills_Hellborn.Skills.AppliedStatusEffectListener:CompoundExpressionEvaluator_0.SkillExpressionEvaluator_0",
  "VfTableObject": "",
  "HashNext": "",
  "ObjectFlags": "",
  "HashOuterNext": "",
  "StateFrame": "",
  "Linker": null,
  "LinkerIndex": "",
  "ObjectInternalInteger": 221168,
  "NetIndex": 312,
  "Outer": "GD_Lilac_Skills_Hellborn.Skills.AppliedStatusEffectListener",
  "Name": "CompoundExpressionEvaluator_0",
  "Class": "GearboxFramework.CompoundExpressionEvaluator",
  "ObjectArchetype": "GearboxFramework.Default__CompoundExpressionEvaluator"
}