{
  "Expression1":
    "GD_MarauderShared.Character.BodyClass_MarauderShared:ExpressionTree_10.AttributeExpressionEvaluator_30",
  "Operator": "CEOP_And",
  "Expression2":
    "GD_MarauderShared.Character.BodyClass_MarauderShared:ExpressionTree_10.DialogNameTagExpressionEvaluator_10",
  "VfTableObject": "",
  "HashNext": "",
  "ObjectFlags": "",
  "HashOuterNext": "",
  "StateFrame": "",
  "Linker": null,
  "LinkerIndex": "",
  "ObjectInternalInteger": 159889,
  "NetIndex": 406,
  "Outer":
    "GD_MarauderShared.Character.BodyClass_MarauderShared:ExpressionTree_10",
  "Name": "CompoundExpressionEvaluator_10",
  "Class": "GearboxFramework.CompoundExpressionEvaluator",
  "ObjectArchetype": "GearboxFramework.Default__CompoundExpressionEvaluator"
}