{
  "Expression1":
    "GD_MarauderMidget.Character.BodyClass_MarauderMidget:ExpressionTree_112.AttributeExpressionEvaluator_130",
  "Operator": "CEOP_And",
  "Expression2":
    "GD_MarauderMidget.Character.BodyClass_MarauderMidget:ExpressionTree_112.DialogNameTagExpressionEvaluator_112",
  "VfTableObject": "",
  "HashNext": "",
  "ObjectFlags": "",
  "HashOuterNext": "",
  "StateFrame": "",
  "Linker": null,
  "LinkerIndex": "",
  "ObjectInternalInteger": 220715,
  "NetIndex": 62,
  "Outer":
    "GD_MarauderMidget.Character.BodyClass_MarauderMidget:ExpressionTree_112",
  "Name": "CompoundExpressionEvaluator_112",
  "Class": "GearboxFramework.CompoundExpressionEvaluator",
  "ObjectArchetype": "GearboxFramework.Default__CompoundExpressionEvaluator"
}