{
  "Expression1":
    "GD_Mineman.Character.BodyClass_Mineman:ExpressionTree_137.AttributeExpressionEvaluator_163",
  "Operator": "CEOP_And",
  "Expression2":
    "GD_Mineman.Character.BodyClass_Mineman:ExpressionTree_137.DialogNameTagExpressionEvaluator_137",
  "VfTableObject": "",
  "HashNext": "",
  "ObjectFlags": "",
  "HashOuterNext": "",
  "StateFrame": "",
  "Linker": null,
  "LinkerIndex": "",
  "ObjectInternalInteger": 217676,
  "NetIndex": 114,
  "Outer": "GD_Mineman.Character.BodyClass_Mineman:ExpressionTree_137",
  "Name": "CompoundExpressionEvaluator_137",
  "Class": "GearboxFramework.CompoundExpressionEvaluator",
  "ObjectArchetype": "GearboxFramework.Default__CompoundExpressionEvaluator"
}