{
  "Expression1":
    "GD_MarauderRegular.Character.BodyClass_MarauderRegular:ExpressionTree_27.AttributeExpressionEvaluator_49",
  "Operator": "CEOP_And",
  "Expression2":
    "GD_MarauderRegular.Character.BodyClass_MarauderRegular:ExpressionTree_27.DialogNameTagExpressionEvaluator_27",
  "VfTableObject": "",
  "HashNext": "",
  "ObjectFlags": "",
  "HashOuterNext": "",
  "StateFrame": "",
  "Linker": null,
  "LinkerIndex": "",
  "ObjectInternalInteger": 186110,
  "NetIndex": 17,
  "Outer":
    "GD_MarauderRegular.Character.BodyClass_MarauderRegular:ExpressionTree_27",
  "Name": "CompoundExpressionEvaluator_27",
  "Class": "GearboxFramework.CompoundExpressionEvaluator",
  "ObjectArchetype": "GearboxFramework.Default__CompoundExpressionEvaluator"
}