{
  "Expression1":
    "GD_Mobley.Character.BodyClass_Mobley:ExpressionTree_48.AttributeExpressionEvaluator_86",
  "Operator": "CEOP_And",
  "Expression2":
    "GD_Mobley.Character.BodyClass_Mobley:ExpressionTree_48.DialogNameTagExpressionEvaluator_48",
  "VfTableObject": "",
  "HashNext": "",
  "ObjectFlags": "",
  "HashOuterNext": "",
  "StateFrame": "",
  "Linker": null,
  "LinkerIndex": "",
  "ObjectInternalInteger": 210081,
  "NetIndex": 152,
  "Outer": "GD_Mobley.Character.BodyClass_Mobley:ExpressionTree_48",
  "Name": "CompoundExpressionEvaluator_48",
  "Class": "GearboxFramework.CompoundExpressionEvaluator",
  "ObjectArchetype": "GearboxFramework.Default__CompoundExpressionEvaluator"
}