{
  "Expression1":
    "GD_Mercenary_Streaming.WeaponHolds.WeaponHold_Merc_SniperRifle:CompoundExpressionEvaluator_0.AttributeExpressionEvaluator_26",
  "Operator": "CEOP_And",
  "Expression2":
    "GD_Mercenary_Streaming.WeaponHolds.WeaponHold_Merc_SniperRifle:CompoundExpressionEvaluator_0.AttributeExpressionEvaluator_23",
  "VfTableObject": "",
  "HashNext": "",
  "ObjectFlags": "",
  "HashOuterNext": "",
  "StateFrame": "",
  "Linker": null,
  "LinkerIndex": "",
  "ObjectInternalInteger": 217275,
  "NetIndex": 354,
  "Outer": "GD_Mercenary_Streaming.WeaponHolds.WeaponHold_Merc_SniperRifle",
  "Name": "CompoundExpressionEvaluator_0",
  "Class": "GearboxFramework.CompoundExpressionEvaluator",
  "ObjectArchetype": "GearboxFramework.Default__CompoundExpressionEvaluator"
}