{
  "Expression1":
    "GD_MarauderPsycho.Character.BodyClass_MarauderPsycho:ExpressionTree_26.AttributeExpressionEvaluator_48",
  "Operator": "CEOP_And",
  "Expression2":
    "GD_MarauderPsycho.Character.BodyClass_MarauderPsycho:ExpressionTree_26.DialogNameTagExpressionEvaluator_26",
  "VfTableObject": "",
  "HashNext": "",
  "ObjectFlags": "",
  "HashOuterNext": "",
  "StateFrame": "",
  "Linker": null,
  "LinkerIndex": "",
  "ObjectInternalInteger": 202979,
  "NetIndex": 16,
  "Outer":
    "GD_MarauderPsycho.Character.BodyClass_MarauderPsycho:ExpressionTree_26",
  "Name": "CompoundExpressionEvaluator_26",
  "Class": "GearboxFramework.CompoundExpressionEvaluator",
  "ObjectArchetype": "GearboxFramework.Default__CompoundExpressionEvaluator"
}