{
  "Expression1":
    "GD_Nast_Hodunk_Grunt.Character.BodyClass_Nast_Hodunk_Grunt:ExpressionTree_103.AttributeExpressionEvaluator_114",
  "Operator": "CEOP_And",
  "Expression2":
    "GD_Nast_Hodunk_Grunt.Character.BodyClass_Nast_Hodunk_Grunt:ExpressionTree_103.DialogNameTagExpressionEvaluator_103",
  "VfTableObject": "",
  "HashNext": "",
  "ObjectFlags": "",
  "HashOuterNext": "",
  "StateFrame": "",
  "Linker": null,
  "LinkerIndex": "",
  "ObjectInternalInteger": 226381,
  "NetIndex": 157,
  "Outer":
    "GD_Nast_Hodunk_Grunt.Character.BodyClass_Nast_Hodunk_Grunt:ExpressionTree_103",
  "Name": "CompoundExpressionEvaluator_103",
  "Class": "GearboxFramework.CompoundExpressionEvaluator",
  "ObjectArchetype": "GearboxFramework.Default__CompoundExpressionEvaluator"
}