{
  "Expression1":
    "GD_Orchid_PirateHenchman.Character.BodyClass_Orchid_PirateHenchman:ExpressionTree_94.AttributeExpressionEvaluator_105",
  "Operator": "CEOP_And",
  "Expression2":
    "GD_Orchid_PirateHenchman.Character.BodyClass_Orchid_PirateHenchman:ExpressionTree_94.DialogNameTagExpressionEvaluator_94",
  "VfTableObject": "",
  "HashNext": "",
  "ObjectFlags": "",
  "HashOuterNext": "",
  "StateFrame": "",
  "Linker": null,
  "LinkerIndex": "",
  "ObjectInternalInteger": 211765,
  "NetIndex": 101,
  "Outer":
    "GD_Orchid_PirateHenchman.Character.BodyClass_Orchid_PirateHenchman:ExpressionTree_94",
  "Name": "CompoundExpressionEvaluator_94",
  "Class": "GearboxFramework.CompoundExpressionEvaluator",
  "ObjectArchetype": "GearboxFramework.Default__CompoundExpressionEvaluator"
}