{
  "Expression1":
    "GD_Orchid_PirateHunter.BodyClass_Orchid_PirateHunter:ExpressionTree_141.AttributeExpressionEvaluator_167",
  "Operator": "CEOP_And",
  "Expression2":
    "GD_Orchid_PirateHunter.BodyClass_Orchid_PirateHunter:ExpressionTree_141.DialogNameTagExpressionEvaluator_141",
  "VfTableObject": "",
  "HashNext": "",
  "ObjectFlags": "",
  "HashOuterNext": "",
  "StateFrame": "",
  "Linker": null,
  "LinkerIndex": "",
  "ObjectInternalInteger": 218080,
  "NetIndex": 137,
  "Outer":
    "GD_Orchid_PirateHunter.BodyClass_Orchid_PirateHunter:ExpressionTree_141",
  "Name": "CompoundExpressionEvaluator_141",
  "Class": "GearboxFramework.CompoundExpressionEvaluator",
  "ObjectArchetype": "GearboxFramework.Default__CompoundExpressionEvaluator"
}