{
  "Expression1":
    "GD_Orchid_PirateMarauderSMG.BodyClass_Orchid_PirateMarauderSMG:ExpressionTree_102.AttributeExpressionEvaluator_113",
  "Operator": "CEOP_And",
  "Expression2":
    "GD_Orchid_PirateMarauderSMG.BodyClass_Orchid_PirateMarauderSMG:ExpressionTree_102.DialogNameTagExpressionEvaluator_102",
  "VfTableObject": "",
  "HashNext": "",
  "ObjectFlags": "",
  "HashOuterNext": "",
  "StateFrame": "",
  "Linker": null,
  "LinkerIndex": "",
  "ObjectInternalInteger": 218070,
  "NetIndex": 139,
  "Outer":
    "GD_Orchid_PirateMarauderSMG.BodyClass_Orchid_PirateMarauderSMG:ExpressionTree_102",
  "Name": "CompoundExpressionEvaluator_102",
  "Class": "GearboxFramework.CompoundExpressionEvaluator",
  "ObjectArchetype": "GearboxFramework.Default__CompoundExpressionEvaluator"
}