{
  "Expression1":
    "GD_Orchid_CrystaliskAqua.Character.AIDef_Orchid_CrystaliskAqua:ExpressionTree_140.FlagExpressionEvaluator_17",
  "Operator": "CEOP_And",
  "Expression2":
    "GD_Orchid_CrystaliskAqua.Character.AIDef_Orchid_CrystaliskAqua:ExpressionTree_140.CompoundExpressionEvaluator_1",
  "VfTableObject": "",
  "HashNext": "",
  "ObjectFlags": "",
  "HashOuterNext": "",
  "StateFrame": "",
  "Linker": null,
  "LinkerIndex": "",
  "ObjectInternalInteger": 218124,
  "NetIndex": 506,
  "Outer":
    "GD_Orchid_CrystaliskAqua.Character.AIDef_Orchid_CrystaliskAqua:ExpressionTree_140",
  "Name": "CompoundExpressionEvaluator_0",
  "Class": "GearboxFramework.CompoundExpressionEvaluator",
  "ObjectArchetype": "GearboxFramework.Default__CompoundExpressionEvaluator"
}