{
  "Expression1":
    "GD_PlayerShared.WeaponHolds1st.WeaponHold_Player_Pistol:ExpressionTree_3.AttributeExpressionEvaluator_20",
  "Operator": "CEOP_Or",
  "Expression2":
    "GD_PlayerShared.WeaponHolds1st.WeaponHold_Player_Pistol:ExpressionTree_3.AttributeExpressionEvaluator_21",
  "VfTableObject": "",
  "HashNext": "",
  "ObjectFlags": "",
  "HashOuterNext": "",
  "StateFrame": "",
  "Linker": null,
  "LinkerIndex": "",
  "ObjectInternalInteger": 217895,
  "NetIndex": 274,
  "Outer":
    "GD_PlayerShared.WeaponHolds1st.WeaponHold_Player_Pistol:ExpressionTree_3",
  "Name": "CompoundExpressionEvaluator_0",
  "Class": "GearboxFramework.CompoundExpressionEvaluator",
  "ObjectArchetype": "GearboxFramework.Default__CompoundExpressionEvaluator"
}