{
  "Expression1":
    "GD_ProbeShared.Flags.Flag_ProbeShared_CanTargetFriendly_Shield:ExpressionTree_0.FlagExpressionEvaluator_10",
  "Operator": "CEOP_Or",
  "Expression2":
    "GD_ProbeShared.Flags.Flag_ProbeShared_CanTargetFriendly_Shield:ExpressionTree_0.CompoundExpressionEvaluator_8",
  "VfTableObject": "",
  "HashNext": "",
  "ObjectFlags": "",
  "HashOuterNext": "",
  "StateFrame": "",
  "Linker": null,
  "LinkerIndex": "",
  "ObjectInternalInteger": 197011,
  "NetIndex": 315,
  "Outer":
    "GD_ProbeShared.Flags.Flag_ProbeShared_CanTargetFriendly_Shield:ExpressionTree_0",
  "Name": "CompoundExpressionEvaluator_6",
  "Class": "GearboxFramework.CompoundExpressionEvaluator",
  "ObjectArchetype": "GearboxFramework.Default__CompoundExpressionEvaluator"
}