{
  "Expression1":
    "GD_PlayerShared.WeaponHolds1st.WeaponHold_Player_SniperRifle:ExpressionTree_0.AttributeExpressionEvaluator_22",
  "Operator": "CEOP_And",
  "Expression2":
    "GD_PlayerShared.WeaponHolds1st.WeaponHold_Player_SniperRifle:ExpressionTree_0.CompoundExpressionEvaluator_2",
  "VfTableObject": "",
  "HashNext": "",
  "ObjectFlags": "",
  "HashOuterNext": "",
  "StateFrame": "",
  "Linker": null,
  "LinkerIndex": "",
  "ObjectInternalInteger": 217900,
  "NetIndex": 279,
  "Outer":
    "GD_PlayerShared.WeaponHolds1st.WeaponHold_Player_SniperRifle:ExpressionTree_0",
  "Name": "CompoundExpressionEvaluator_1",
  "Class": "GearboxFramework.CompoundExpressionEvaluator",
  "ObjectArchetype": "GearboxFramework.Default__CompoundExpressionEvaluator"
}