{
  "Expression1":
    "GD_PrimalBeast_BedrockBaby.Character.CharClass_PrimalBeast_BedrockBaby:BehaviorProviderDefinition_23.Behavior_Conditional_7.ExpressionTree_3.PhysicsStateExpressionEvaluator_0",
  "Operator": "CEOP_Or",
  "Expression2":
    "GD_PrimalBeast_BedrockBaby.Character.CharClass_PrimalBeast_BedrockBaby:BehaviorProviderDefinition_23.Behavior_Conditional_7.ExpressionTree_3.PhysicsStateExpressionEvaluator_1",
  "VfTableObject": "",
  "HashNext": "",
  "ObjectFlags": "",
  "HashOuterNext": "",
  "StateFrame": "",
  "Linker": null,
  "LinkerIndex": "",
  "ObjectInternalInteger": 211382,
  "NetIndex": 121,
  "Outer":
    "GD_PrimalBeast_BedrockBaby.Character.CharClass_PrimalBeast_BedrockBaby:BehaviorProviderDefinition_23.Behavior_Conditional_7.ExpressionTree_3",
  "Name": "CompoundExpressionEvaluator_0",
  "Class": "GearboxFramework.CompoundExpressionEvaluator",
  "ObjectArchetype": "GearboxFramework.Default__CompoundExpressionEvaluator"
}