{
  "Expression1":
    "GD_RatLab_Digi.Character.BodyClass_RatLab_Digi:ExpressionTree_0.AttributeExpressionEvaluator_20",
  "Operator": "CEOP_And",
  "Expression2":
    "GD_RatLab_Digi.Character.BodyClass_RatLab_Digi:ExpressionTree_0.DialogNameTagExpressionEvaluator_0",
  "VfTableObject": "",
  "HashNext": "",
  "ObjectFlags": "",
  "HashOuterNext": "",
  "StateFrame": "",
  "Linker": null,
  "LinkerIndex": "",
  "ObjectInternalInteger": 215300,
  "NetIndex": 139,
  "Outer": "GD_RatLab_Digi.Character.BodyClass_RatLab_Digi:ExpressionTree_0",
  "Name": "CompoundExpressionEvaluator_0",
  "Class": "GearboxFramework.CompoundExpressionEvaluator",
  "ObjectArchetype": "GearboxFramework.Default__CompoundExpressionEvaluator"
}