{
  "Expression1":
    "GD_Snowman.Flags.Flag_EatingTime:CompoundExpressionEvaluator_1.CompoundExpressionEvaluator_2.CompoundExpressionEvaluator_3",
  "Operator": "CEOP_Or",
  "Expression2":
    "GD_Snowman.Flags.Flag_EatingTime:CompoundExpressionEvaluator_1.CompoundExpressionEvaluator_2.CompoundExpressionEvaluator_7",
  "VfTableObject": "",
  "HashNext": "",
  "ObjectFlags": "",
  "HashOuterNext": "",
  "StateFrame": "",
  "Linker": null,
  "LinkerIndex": "",
  "ObjectInternalInteger": 214511,
  "NetIndex": 1302,
  "Outer": "GD_Snowman.Flags.Flag_EatingTime:CompoundExpressionEvaluator_1",
  "Name": "CompoundExpressionEvaluator_2",
  "Class": "GearboxFramework.CompoundExpressionEvaluator",
  "ObjectArchetype": "GearboxFramework.Default__CompoundExpressionEvaluator"
}