{
  "Expression1":
    "GD_SpiderantBlackQueen_Digi.Character.AIDef_SpiderantBlackQueen_Digi:ExpressionTree_4.AttributeExpressionEvaluator_207",
  "Operator": "CEOP_And",
  "Expression2":
    "GD_SpiderantBlackQueen_Digi.Character.AIDef_SpiderantBlackQueen_Digi:ExpressionTree_4.AttributeExpressionEvaluator_22",
  "VfTableObject": "",
  "HashNext": "",
  "ObjectFlags": "",
  "HashOuterNext": "",
  "StateFrame": "",
  "Linker": null,
  "LinkerIndex": "",
  "ObjectInternalInteger": 215296,
  "NetIndex": 191,
  "Outer":
    "GD_SpiderantBlackQueen_Digi.Character.AIDef_SpiderantBlackQueen_Digi:ExpressionTree_4",
  "Name": "CompoundExpressionEvaluator_0",
  "Class": "GearboxFramework.CompoundExpressionEvaluator",
  "ObjectArchetype": "GearboxFramework.Default__CompoundExpressionEvaluator"
}