{
  "Expression1":
    "GD_Snowman.Flags.Flag_CanSummonSnowMinions:ExpressionTree_0.FlagExpressionEvaluator_45",
  "Operator": "CEOP_And",
  "Expression2":
    "GD_Snowman.Flags.Flag_CanSummonSnowMinions:ExpressionTree_0.AICostExpressionEvaluator_0",
  "VfTableObject": "",
  "HashNext": "",
  "ObjectFlags": "",
  "HashOuterNext": "",
  "StateFrame": "",
  "Linker": null,
  "LinkerIndex": "",
  "ObjectInternalInteger": 208405,
  "NetIndex": 1300,
  "Outer": "GD_Snowman.Flags.Flag_CanSummonSnowMinions:ExpressionTree_0",
  "Name": "CompoundExpressionEvaluator_2",
  "Class": "GearboxFramework.CompoundExpressionEvaluator",
  "ObjectArchetype": "GearboxFramework.Default__CompoundExpressionEvaluator"
}