{
  "Expression1":
    "GD_ShirtlessMan.Character.BodyClass_ShirtlessMan:ExpressionTree_82.AttributeExpressionEvaluator_93",
  "Operator": "CEOP_And",
  "Expression2":
    "GD_ShirtlessMan.Character.BodyClass_ShirtlessMan:ExpressionTree_82.DialogNameTagExpressionEvaluator_82",
  "VfTableObject": "",
  "HashNext": "",
  "ObjectFlags": "",
  "HashOuterNext": "",
  "StateFrame": "",
  "Linker": null,
  "LinkerIndex": "",
  "ObjectInternalInteger": 210073,
  "NetIndex": 155,
  "Outer":
    "GD_ShirtlessMan.Character.BodyClass_ShirtlessMan:ExpressionTree_82",
  "Name": "CompoundExpressionEvaluator_82",
  "Class": "GearboxFramework.CompoundExpressionEvaluator",
  "ObjectArchetype": "GearboxFramework.Default__CompoundExpressionEvaluator"
}