{
  "Expression1":
    "GD_Sage_SM_BigFeetData.Creature.Character.AIDef_Sage_BigFeet_Creature:ExpressionTree_1.AttributeExpressionEvaluator_22",
  "Operator": "CEOP_And",
  "Expression2":
    "GD_Sage_SM_BigFeetData.Creature.Character.AIDef_Sage_BigFeet_Creature:ExpressionTree_1.AttributeExpressionEvaluator_23",
  "VfTableObject": "",
  "HashNext": "",
  "ObjectFlags": "",
  "HashOuterNext": "",
  "StateFrame": "",
  "Linker": null,
  "LinkerIndex": "",
  "ObjectInternalInteger": 196373,
  "NetIndex": 691,
  "Outer":
    "GD_Sage_SM_BigFeetData.Creature.Character.AIDef_Sage_BigFeet_Creature:ExpressionTree_1",
  "Name": "CompoundExpressionEvaluator_1",
  "Class": "GearboxFramework.CompoundExpressionEvaluator",
  "ObjectArchetype": "GearboxFramework.Default__CompoundExpressionEvaluator"
}