{
  "Expression1":
    "GD_ZafordGrunt.Character.BodyClass_ZafordGrunt:ExpressionTree_12.AttributeExpressionEvaluator_34",
  "Operator": "CEOP_And",
  "Expression2":
    "GD_ZafordGrunt.Character.BodyClass_ZafordGrunt:ExpressionTree_12.DialogNameTagExpressionEvaluator_12",
  "VfTableObject": "",
  "HashNext": "",
  "ObjectFlags": "",
  "HashOuterNext": "",
  "StateFrame": "",
  "Linker": null,
  "LinkerIndex": "",
  "ObjectInternalInteger": 210061,
  "NetIndex": 244,
  "Outer": "GD_ZafordGrunt.Character.BodyClass_ZafordGrunt:ExpressionTree_12",
  "Name": "CompoundExpressionEvaluator_12",
  "Class": "GearboxFramework.CompoundExpressionEvaluator",
  "ObjectArchetype": "GearboxFramework.Default__CompoundExpressionEvaluator"
}