{
  "Expression1":
    "GD_ZafordBadass.Character.BodyClass_ZafordBadass:ExpressionTree_0.AttributeExpressionEvaluator_20",
  "Operator": "CEOP_And",
  "Expression2":
    "GD_ZafordBadass.Character.BodyClass_ZafordBadass:ExpressionTree_0.DialogNameTagExpressionEvaluator_0",
  "VfTableObject": "",
  "HashNext": "",
  "ObjectFlags": "",
  "HashOuterNext": "",
  "StateFrame": "",
  "Linker": null,
  "LinkerIndex": "",
  "ObjectInternalInteger": 226367,
  "NetIndex": 224,
  "Outer":
    "GD_ZafordBadass.Character.BodyClass_ZafordBadass:ExpressionTree_0",
  "Name": "CompoundExpressionEvaluator_0",
  "Class": "GearboxFramework.CompoundExpressionEvaluator",
  "ObjectArchetype": "GearboxFramework.Default__CompoundExpressionEvaluator"
}