{
  "VfTable_IIBodyInfoProvider": "",
  "VfTable_IIBehaviorProvider": "",
  "VfTable_IIAnimProvider": "",
  "LoopTime": { "MinVal": 400.0, "MaxVal": 500.0 },
  "CooldownTime": { "MinVal": 9999999.0, "MaxVal": 9999999.0 },
  "bUseCollision": false,
  "bRotateYawOnly": false,
  "bOptimizeMemory": false,
  "bCheckForPlayerInRange": false,
  "bCombatPerch": false,
  "bDynamicLightEnvironment": true,
  "bCastShadows": false,
  "bUseBooleanEnvironmentShadowing": false,
  "bDynamic": false,
  "bSynthesizeSHLight": true,
  "bShadowFromEnvironment": true,
  "bAffectedBySmallDynamicLights": false,
  "CanUseExpression": null,
  "LerpTime": 0.2,
  "AdditionalOffsetScale": 0.0,
  "PlayerInRangeCheckFrequency": 5.0,
  "PlayerInRangeRadius": 2500.0,
  "PlayerInRangeCooldown": 10.0,
  "CombatProjectile": null,
  "BodyComposition": {
    "Attachments": null,
    "MaxExpectedComponents": 0,
    "HasHomingTargetComponents": false
  },
  "BehaviorProviderDefinition": null,
  "LightingBoundsScale": 1.0,
  "NumVolumeVisibilitySamples": 1,
  "ModShadowFadeoutExponent": 3.0,
  "ModShadowFadeoutTime": 0.0,
  "AmbientGlow": { "R": 0.0, "G": 0.0, "B": 0.0, "A": 1.0 },
  "AmbientShadowSourceDirection": { "X": 0.0, "Y": 0.0, "Z": 0.0 },
  "AmbientShadowColor": { "R": 0.0, "G": 0.0, "B": 0.0, "A": 1.0 },
  "DominantShadowTransitionStartDistance": 100.0,
  "DominantShadowTransitionEndDistance": 10.0,
  "AnimMap": [
    {
      "Key": "GD_AI_PopulationPoints.BodyTag_Marauder",
      "StartAnim":
        "GD_Bandit.Perches.Perch_Chair_Interlude:SpecialMove_Perch_10",
      "StopAnim":
        "GD_Bandit.Perches.Perch_Chair_Interlude:SpecialMove_Perch_11",
      "IdleAnim":
        "GD_Bandit.Perches.Perch_Chair_Interlude:SpecialMove_PerchLoop_0"
    }
  ],
  "VfTableObject": "",
  "HashNext": "",
  "ObjectFlags": "",
  "HashOuterNext": "",
  "StateFrame": "",
  "Linker": null,
  "LinkerIndex": "",
  "ObjectInternalInteger": 187845,
  "NetIndex": 972,
  "Outer": "GD_Bandit.Perches",
  "Name": "Perch_Chair_Interlude",
  "Class": "WillowGame.PerchDefinition",
  "ObjectArchetype": "WillowGame.Default__PerchDefinition"
}