{
  "bDoNotUseThisSeat": false,
  "AimTowardCameraLookSpot": false,
  "bHideOccupant": false,
  "TransferVehicleDamageToSeat": false,
  "TransferVehicleDamageToSeat_AI": false,
  "DisplayHealthBarForPassenger": false,
  "bHijackSeat": false,
  "bAIOnly": false,
  "IsAttachedRiderSeat": false,
  "ForceOccupantCrouch": false,
  "DeadPawnsDropLootFromThisSeat": false,
  "VirtualSeatKey": null,
  "InteractIcon": "GD_InteractionIcons.Default.Icon_DefaultVehicleGunner",
  "SeatInteractTextDefinition": null,
  "PlayerInteractionLeftMinAngle": 120.0,
  "PlayerInteractionRightMaxAngle": -120.0,
  "SeatAnchor": "Player2",
  "CameraDef": "GD_Orchid_Hovercraft.CameraDefs.Camera_GunnerSeat",
  "OccupantCullDistance": 0.0,
  "ViewLimitLowerLeft": { "Pitch": 0, "Yaw": 0, "Roll": 0 },
  "ViewLimitUpperRight": { "Pitch": 0, "Yaw": 0, "Roll": 0 },
  "WeaponBalanceDefinition":
    "GD_Orchid_Hovercraft.Weapon.ItemGrades.ItemGrade_MachineGun_AIOnly",
  "GunAttachmentSocket": "Turret",
  "MaxFinalAimAdjustment": 0.75,
  "WeaponFireSwitch": "WeaponFireSwitch",
  "TurretVarPrefix": "Turret",
  "WeaponFireSMD": null,
  "NextSeatIndex": 0,
  "Anim_EnterLeft":
    "GD_Orchid_Hovercraft.Animations.CrewAnim_TurretEnterLeft",
  "Anim_EnterRight":
    "GD_Orchid_Hovercraft.Animations.CrewAnim_TurretEnterRight",
  "Anim_EnterFront": null,
  "Anim_EnterBack": null,
  "Anim_Idle": "GD_Orchid_Hovercraft.Animations.CrewAnim_TurretIdle",
  "Anim_Hijack": null,
  "Anim_Exit1": "GD_Orchid_Hovercraft.Animations.CrewAnim_TurretExitRight",
  "Anim_Exit2": "GD_Orchid_Hovercraft.Animations.CrewAnim_TurretExitLeft",
  "LeftHandPlacementName": null,
  "RightHandPlacementName": null,
  "GrenadeThrowHeight": 50.0,
  "SeatAIDef": "GD_Population_Vehicles.AI.AIDef_VehicleGunner",
  "HijackSide": "VSIDE_Left",
  "AISeatPos": "VSEAT_None",
  "DamageRules": "SDRULES_OccupantInvincible",
  "PreferredExitSide": "VSIDE_Left",
  "DontResetWeaponFireSwitchPerShot": 0,
  "HijackAimSocket": null,
  "DamageTransferFactor": 1.0,
  "DamageTransferFactor_AI": 1.0,
  "StatusEffectToApplyOnKillEjection": null,
  "HUD_SeatIndexForWeapon": 1,
  "EjectRandMin": { "X": -500.0, "Y": -500.0, "Z": 250.0 },
  "EjectRandMax": { "X": 500.0, "Y": 500.0, "Z": 750.0 },
  "ControllerRumbleWhenRotating": null,
  "Anim_SeatSwap": [
    "GD_Orchid_Hovercraft.Animations.CrewAnim_SwitchToTurret"
  ],
  "TurretControls": [ "TurretController", "turretPitch" ],
  "GunSocket": [ "MGMuzzle" ],
  "VfTableObject": "",
  "HashNext": "",
  "ObjectFlags": "",
  "HashOuterNext": "",
  "StateFrame": "",
  "Linker": null,
  "LinkerIndex": "",
  "ObjectInternalInteger": 200750,
  "NetIndex": 569,
  "Outer": "GD_Orchid_Hovercraft.SeatDefs",
  "Name": "SeatDef_Gunner_AIOnly",
  "Class": "WillowGame.WillowVehicleSeatDefinition",
  "ObjectArchetype": "WillowGame.Default__WillowVehicleSeatDefinition"
}