{
  "bDoNotUseThisSeat": false,
  "AimTowardCameraLookSpot": false,
  "bHideOccupant": false,
  "TransferVehicleDamageToSeat": false,
  "TransferVehicleDamageToSeat_AI": false,
  "DisplayHealthBarForPassenger": false,
  "bHijackSeat": false,
  "bAIOnly": false,
  "IsAttachedRiderSeat": false,
  "ForceOccupantCrouch": false,
  "DeadPawnsDropLootFromThisSeat": false,
  "VirtualSeatKey": null,
  "InteractIcon": "GD_InteractionIcons.Default.Icon_DefaultVehicleDriver",
  "SeatInteractTextDefinition": null,
  "PlayerInteractionLeftMinAngle": -120.0,
  "PlayerInteractionRightMaxAngle": 120.0,
  "SeatAnchor": "Player1",
  "CameraDef": "GD_Orchid_Hovercraft.CameraDefs.Camera_DriverSeat",
  "OccupantCullDistance": 0.0,
  "ViewLimitLowerLeft": { "Pitch": 0, "Yaw": 0, "Roll": 0 },
  "ViewLimitUpperRight": { "Pitch": 0, "Yaw": 0, "Roll": 0 },
  "WeaponBalanceDefinition": null,
  "GunAttachmentSocket": null,
  "MaxFinalAimAdjustment": 0.75,
  "WeaponFireSwitch": null,
  "TurretVarPrefix": "",
  "WeaponFireSMD": null,
  "NextSeatIndex": 1,
  "Anim_EnterLeft":
    "GD_Orchid_Hovercraft.Animations.CrewAnim_DriverEnterLeft",
  "Anim_EnterRight":
    "GD_Orchid_Hovercraft.Animations.CrewAnim_DriverEnterRight",
  "Anim_EnterFront": null,
  "Anim_EnterBack": null,
  "Anim_Idle": "GD_Orchid_Hovercraft.Animations.CrewAnim_DriverIdle",
  "Anim_Hijack": null,
  "Anim_Exit1": "GD_Orchid_Hovercraft.Animations.CrewAnim_DriverExitRight",
  "Anim_Exit2": "GD_Orchid_Hovercraft.Animations.CrewAnim_DriverExitRight",
  "LeftHandPlacementName": "LeftHand",
  "RightHandPlacementName": "RightHand",
  "GrenadeThrowHeight": 50.0,
  "SeatAIDef": "GD_Population_Vehicles.AI.AIDef_VehicleDriver",
  "HijackSide": "VSIDE_Left",
  "AISeatPos": "VSEAT_None",
  "DamageRules": "SDRULES_OccupantInvincible",
  "PreferredExitSide": "VSIDE_Left",
  "DontResetWeaponFireSwitchPerShot": 0,
  "HijackAimSocket": null,
  "DamageTransferFactor": 1.0,
  "DamageTransferFactor_AI": 1.0,
  "StatusEffectToApplyOnKillEjection": null,
  "HUD_SeatIndexForWeapon": 1,
  "EjectRandMin": { "X": -500.0, "Y": -500.0, "Z": 250.0 },
  "EjectRandMax": { "X": 500.0, "Y": 500.0, "Z": 750.0 },
  "ControllerRumbleWhenRotating": null,
  "Anim_SeatSwap": [
    null, "GD_Orchid_Hovercraft.Animations.CrewAnim_SwitchToDriver"
  ],
  "VfTableObject": "",
  "HashNext": "",
  "ObjectFlags": "",
  "HashOuterNext": "",
  "StateFrame": "",
  "Linker": null,
  "LinkerIndex": "",
  "ObjectInternalInteger": 193947,
  "NetIndex": 1624,
  "Outer": "Package'GD_Orchid_PlotDataMission02'",
  "Name": "SeatDef_Driver_BrokenHovercraft",
  "Class": "WillowGame.WillowVehicleSeatDefinition",
  "ObjectArchetype": "WillowGame.Default__WillowVehicleSeatDefinition"
}