{
  "AfterburnerHandlingCamera": 2.3,
  "DoNotLerpToThisSeat": false,
  "bRotateCameraUnderVehicle": false,
  "bSnapCameraYaw": false,
  "bSnapCameraPitch": false,
  "bScaleDistanceWithSpeed": true,
  "CameraModifierSpeed": 4.0,
  "CameraRollSmoothingSpeed": 0.0,
  "LerpStyle": "VCAMLERP_Cubed",
  "CameraTarget": "PASSENGERCAMTARG_SeatAnchor",
  "CameraBehaviorOnEntry": "CAMROTTHISFRAME_LerpView",
  "BaseCameraPosition": { "X": 0.0, "Y": 0.0, "Z": 200.0 },
  "CameraOffset": -800.0,
  "ForcedCameraRotation": { "Pitch": 0, "Yaw": 0, "Roll": 0 },
  "CameraPitchUpOffset": 0.0,
  "CameraPitchDownOffset": 0.0,
  "ViewPitchMin": -6000.0,
  "ViewPitchMax": 6355.0,
  "ViewYawLimitFromTurretFacing": 0.0,
  "CameraSnapDelay": 2.0,
  "CameraSnapSpeed": 0.1,
  "CameraFastScale": 1.0,
  "RotationRateYaw": 0.5,
  "RotationRatePitch": 0.4,
  "LookForwardDist": 0.0,
  "VfTableObject": "",
  "HashNext": "",
  "ObjectFlags": "",
  "HashOuterNext": "",
  "StateFrame": "",
  "Linker": null,
  "LinkerIndex": "",
  "ObjectInternalInteger": 181689,
  "NetIndex": 282,
  "Outer": "GD_Runner_Streaming.CameraDefs",
  "Name": "Camera_DriverSeat",
  "Class": "WillowGame.PassengerCameraDefinition",
  "ObjectArchetype": "WillowGame.Default__PassengerCameraDefinition"
}