{
  "FlashLabelName": "none",
  "IconX": 1,
  "IconY": 335,
  "StatId": null,
  "Grades": [
    { "DisplayName": "Cash" },
    { "DisplayName": "Cash" },
    { "DisplayName": "Cash" },
    { "DisplayName": "Cash" },
    { "DisplayName": "Cash" },
    { "DisplayName": "Cash" },
    { "DisplayName": "Cash" },
    { "DisplayName": "Cash" },
    { "DisplayName": "Cash" },
    { "DisplayName": "Cash" },
    { "DisplayName": "Cash" },
    { "DisplayName": "Cash" },
    { "DisplayName": "Cash" },
    { "DisplayName": "Cash" },
    { "DisplayName": "Cash" },
    { "DisplayName": "Cash" },
    { "DisplayName": "Cash" }
  ],
  "VfTableObject": "",
  "HashNext": "",
  "ObjectFlags": "",
  "HashOuterNext": "",
  "StateFrame": "",
  "Linker": null,
  "LinkerIndex": "",
  "ObjectInternalInteger": 130346,
  "NetIndex": 43,
  "Outer": "GD_Currency.Manufacturers",
  "Name": "Cash_Manufacturer",
  "Class": "Engine.ManufacturerDefinition",
  "ObjectArchetype": "Engine.Default__ManufacturerDefinition"
}