{
  "FlashLabelName": "s_and_s",
  "IconX": 95,
  "IconY": 149,
  "StatId": "STAT_PLAYER_MANUFACTURER_PREF_BANDIT_MADE",
  "Grades": [ { "DisplayName": "Bandit Made" } ],
  "VfTableObject": "",
  "HashNext": "",
  "ObjectFlags": "",
  "HashOuterNext": "",
  "StateFrame": "",
  "Linker": null,
  "LinkerIndex": "",
  "ObjectInternalInteger": 122455,
  "NetIndex": 7,
  "Outer": "GD_Manufacturers.Manufacturers",
  "Name": "Bandit",
  "Class": "Engine.ManufacturerDefinition",
  "ObjectArchetype": "Engine.Default__ManufacturerDefinition"
}