{
  "bNameIsUnique": false,
  "PartName": "Trespasser",
  "MinExpLevelRequirement": 1,
  "MaxExpLevelRequirement": 100,
  "Priority": 5.0,
  "VfTable_IIBehaviorProvider": "",
  "CustomDamageTypeDefinition": null,
  "CustomFiringModeDefinition": null,
  "PartType": "WP_Body",
  "PartVariation": "WeaponPartVar_Default",
  "NumPhysicalBarrelsToFireFrom": 0,
  "LeftHandIKHoldName": null,
  "bIsSpinningEnabled": false,
  "bFlapsEnabled": false,
  "bOverrideShellCasing": false,
  "bUseWeaponMelee": false,
  "bScoped": false,
  "SpinUpDuration": {
    "BaseValueConstant": 0.0,
    "BaseValueAttribute": null,
    "InitializationDefinition": null,
    "BaseValueScaleConstant": 1.0
  },
  "SpinDownDuration": {
    "BaseValueConstant": 0.0,
    "BaseValueAttribute": null,
    "InitializationDefinition": null,
    "BaseValueScaleConstant": 1.0
  },
  "StartingSpinUpFireIntervalMultiplier": 1.0,
  "FlapsExpandDuration": {
    "BaseValueConstant": 0.0,
    "BaseValueAttribute": null,
    "InitializationDefinition": null,
    "BaseValueScaleConstant": 1.0
  },
  "FlapsCollapseDuration": {
    "BaseValueConstant": 0.0,
    "BaseValueAttribute": null,
    "InitializationDefinition": null,
    "BaseValueScaleConstant": 1.0
  },
  "ShellCasingPSCTemplate": null,
  "ShellCasingSocket": "EjectPort",
  "ScopedShellCasingOffset": { "X": 70.0, "Y": 0.0, "Z": -20.0 },
  "OffHandShellCasingRotOffset": { "Pitch": -11832, "Yaw": 0, "Roll": 0 },
  "MuzzleFlashPSTemplates": null,
  "WeaponImpact": null,
  "FirstPersonParticle": null,
  "FirstPersonParticleSocketName": null,
  "FirstPersonParticleInstanceDataName": null,
  "BehaviorProviderDefinition": null,
  "ManufacturerDefinitionForScopeMovie": null,
  "ZoomedFOVLerpPct": 0.35,
  "SightFXCrosshairMaterial": null,
  "SightFXCrosshairParamName": "Crosshair",
  "SightFXCrosshairRefractionParamName": "RefractionMultiplier",
  "CustomPresentations": [
    "GD_Weap_SniperRifles.Name.Title.Title__Unique_Trespasser:AttributePresentationDefinition_8"
  ],
  "Material": null,
  "bIsGestaltMode": false,
  "GestaltModeSkeletalMeshName": null,
  "NongestaltSkeletalMesh": null,
  "MonetaryValueMod": null,
  "Rarity": {
    "BaseValueConstant": 0.0,
    "BaseValueAttribute": null,
    "InitializationDefinition": null,
    "BaseValueScaleConstant": 1.0
  },
  "AdditionalGestaltModeSkeletalMeshNames": [ null, null ],
  "VfTableObject": "",
  "HashNext": "",
  "ObjectFlags": "",
  "HashOuterNext": "",
  "StateFrame": "",
  "Linker": null,
  "LinkerIndex": "",
  "ObjectInternalInteger": 110593,
  "NetIndex": 1054,
  "Outer": "GD_Weap_SniperRifles.Name.Title",
  "Name": "Title__Unique_Trespasser",
  "Class": "WillowGame.WeaponNamePartDefinition",
  "ObjectArchetype": "WillowGame.Default__WeaponNamePartDefinition"
}