{
  "ReplicationStrategy": "NOUNREP_NoReplication",
  "DefaultValue": {
    "BaseValueConstant": -1.0,
    "BaseValueAttribute": null,
    "InitializationDefinition": null,
    "BaseValueScaleConstant": 1.0
  },
  "VfTableObject": "",
  "HashNext": "",
  "ObjectFlags": "",
  "HashOuterNext": "",
  "StateFrame": "",
  "Linker": null,
  "LinkerIndex": "",
  "ObjectInternalInteger": 107749,
  "NetIndex": 825,
  "Outer": "D_Attributes.Weapon.WeaponMaxFastReloadAnimTime",
  "Name": "NounAttributeValueResolver_0",
  "Class": "GearboxFramework.NounAttributeValueResolver",
  "ObjectArchetype": "GearboxFramework.Default__NounAttributeValueResolver"
}