{
  "ReplicationStrategy": "NOUNREP_NoReplication",
  "DefaultValue": {
    "BaseValueConstant": 1.0,
    "BaseValueAttribute": null,
    "InitializationDefinition": null,
    "BaseValueScaleConstant": 1.0
  },
  "VfTableObject": "",
  "HashNext": "",
  "ObjectFlags": "",
  "HashOuterNext": "",
  "StateFrame": "",
  "Linker": null,
  "LinkerIndex": "",
  "ObjectInternalInteger": 167447,
  "NetIndex": 88,
  "Outer":
    "GD_Balance_HealthAndDamage.AIParameters.Attribute_EnemyNonWeaponDamageMultiplier",
  "Name": "AIParameterValueResolver_1",
  "Class": "GearboxFramework.NounAttributeValueResolver",
  "ObjectArchetype": "GearboxFramework.Default__NounAttributeValueResolver"
}