{
  "HoldName": "Shotgun",
  "EnvironmentTag": null,
  "AimOffsetProfileName": "Default",
  "bUseArmBoneBlend": false,
  "bUseUpperBodyMovementBlend": false,
  "bLeftHandIKEnabled": true,
  "DefaultLeftHandIKHold": {
    "JointLocation": { "X": 0.0, "Y": 0.0, "Z": 0.0 },
    "HandLocation": { "X": -9.148932, "Y": -30.044598, "Z": -4.054959 },
    "HandRotation": { "Pitch": 0, "Yaw": 0, "Roll": 18204 }
  },
  "LeftHandIKJointLocation": { "X": 0.0, "Y": 0.0, "Z": 0.0 },
  "LeftHandIKHandLocation": { "X": 0.0, "Y": 0.0, "Z": 0.0 },
  "LeftHandIKHandRotation": { "Pitch": 0, "Yaw": 0, "Roll": 0 },
  "ParentDefinition": null,
  "AnimSetList": [ "Anim_Bandits.Shotgun_Bandits" ],
  "VfTableObject": "",
  "HashNext": "",
  "ObjectFlags": "",
  "HashOuterNext": "",
  "StateFrame": "",
  "Linker": null,
  "LinkerIndex": "",
  "ObjectInternalInteger": 192360,
  "NetIndex": 487,
  "Outer": "GD_EngineerShared.WeaponHolds",
  "Name": "WeaponHold_Engineer_Shotgun",
  "Class": "WillowGame.BodyWeaponHoldDefinition",
  "ObjectArchetype": "WillowGame.Default__BodyWeaponHoldDefinition"
}