{
  "HoldName": null,
  "EnvironmentTag": null,
  "AimOffsetProfileName": "Default",
  "bUseArmBoneBlend": false,
  "bUseUpperBodyMovementBlend": false,
  "bLeftHandIKEnabled": false,
  "DefaultLeftHandIKHold": {
    "JointLocation": { "X": 0.0, "Y": 0.0, "Z": 0.0 },
    "HandLocation": { "X": 0.0, "Y": 0.0, "Z": 0.0 },
    "HandRotation": { "Pitch": 0, "Yaw": 0, "Roll": 0 }
  },
  "LeftHandIKJointLocation": { "X": 0.0, "Y": 0.0, "Z": 0.0 },
  "LeftHandIKHandLocation": { "X": 0.0, "Y": 0.0, "Z": 0.0 },
  "LeftHandIKHandRotation": { "Pitch": 0, "Yaw": 0, "Roll": 0 },
  "ParentDefinition": null,
  "WeaponActions": [
    {
      "Posture": "BWAP_All",
      "Actions": [
        {
          "Action": "BWA_FireRecoil",
          "Expression": null,
          "Animations": [
            {
              "Expression": null,
              "SpecialMove":
                "GD_EngineerShared.Anims.Anim_EngineerShared_Firing"
            }
          ]
        },
        {
          "Action": "BWA_Reload",
          "Expression": null,
          "Animations": [
            {
              "Expression": null,
              "SpecialMove":
                "GD_EngineerShared.Anims.Anim_EngineerShared_Reload"
            }
          ]
        }
      ]
    }
  ],
  "VfTableObject": "",
  "HashNext": "",
  "ObjectFlags": "",
  "HashOuterNext": "",
  "StateFrame": "",
  "Linker": null,
  "LinkerIndex": "",
  "ObjectInternalInteger": 192362,
  "NetIndex": 483,
  "Outer": "GD_EngineerShared.WeaponHolds",
  "Name": "WeaponHold_Engineer_Default",
  "Class": "WillowGame.BodyWeaponHoldDefinition",
  "ObjectArchetype": "WillowGame.Default__BodyWeaponHoldDefinition"
}