{
  "HoldName": "Rifle",
  "EnvironmentTag": null,
  "AimOffsetProfileName": "Default",
  "bUseArmBoneBlend": false,
  "bUseUpperBodyMovementBlend": false,
  "bLeftHandIKEnabled": true,
  "DefaultLeftHandIKHold": {
    "JointLocation": { "X": -168.38089, "Y": -100.410278, "Z": -10.158575 },
    "HandLocation": { "X": -40.508369, "Y": -28.688948, "Z": -12.256969 },
    "HandRotation": { "Pitch": 32768, "Yaw": 34588, "Roll": 1820 }
  },
  "LeftHandIKJointLocation": { "X": 0.0, "Y": 0.0, "Z": 0.0 },
  "LeftHandIKHandLocation": { "X": 0.0, "Y": 0.0, "Z": 0.0 },
  "LeftHandIKHandRotation": { "Pitch": 0, "Yaw": 0, "Roll": 0 },
  "ParentDefinition": null,
  "VfTableObject": "",
  "HashNext": "",
  "ObjectFlags": "",
  "HashOuterNext": "",
  "StateFrame": "",
  "Linker": null,
  "LinkerIndex": "",
  "ObjectInternalInteger": 199202,
  "NetIndex": 428,
  "Outer": "GD_MrMercy_Digi.WeaponHolds",
  "Name": "WeaponHold_MrMercy_Digi_Rifle",
  "Class": "WillowGame.BodyWeaponHoldDefinition",
  "ObjectArchetype": "WillowGame.Default__BodyWeaponHoldDefinition"
}