{
  "HoldName": "SniperRifle",
  "EnvironmentTag": null,
  "AimOffsetProfileName": null,
  "bUseArmBoneBlend": false,
  "bUseUpperBodyMovementBlend": false,
  "bLeftHandIKEnabled": false,
  "DefaultLeftHandIKHold": {
    "JointLocation": { "X": 0.0, "Y": 0.0, "Z": 0.0 },
    "HandLocation": { "X": 0.0, "Y": 0.0, "Z": 0.0 },
    "HandRotation": { "Pitch": 0, "Yaw": 0, "Roll": 0 }
  },
  "LeftHandIKJointLocation": { "X": 0.0, "Y": 0.0, "Z": 0.0 },
  "LeftHandIKHandLocation": { "X": 0.0, "Y": 0.0, "Z": 0.0 },
  "LeftHandIKHandRotation": { "Pitch": 0, "Yaw": 0, "Roll": 0 },
  "ParentDefinition": null,
  "WeaponActions": [
    {
      "Posture": "BWAP_All",
      "Actions": [
        {
          "Action": "BWA_Fire",
          "Expression":
            "GD_Mercenary_Streaming.WeaponHolds1st.WeaponHold_Merc_SniperRifle:ActionSkillStateExpressionEvaluator_0",
          "Animations": [
            {
              "Expression":
                "GD_Mercenary_Streaming.WeaponHolds1st.WeaponHold_Merc_SniperRifle:AttributeExpressionEvaluator_20",
              "SpecialMove":
                "GD_Mercenary_Streaming.Anims1st.WeaponAnim_OffHand_Fire"
            },
            {
              "Expression": null,
              "SpecialMove": "GD_PlayerShared.Anims1st.WeaponAnim_Fire"
            }
          ]
        }
      ]
    }
  ],
  "VfTableObject": "",
  "HashNext": "",
  "ObjectFlags": "",
  "HashOuterNext": "",
  "StateFrame": "",
  "Linker": null,
  "LinkerIndex": "",
  "ObjectInternalInteger": 208257,
  "NetIndex": 345,
  "Outer": "GD_Mercenary_Streaming.WeaponHolds1st",
  "Name": "WeaponHold_Merc_SniperRifle",
  "Class": "WillowGame.BodyWeaponHoldDefinition",
  "ObjectArchetype": "WillowGame.Default__BodyWeaponHoldDefinition"
}