{
  "HoldName": "Rifle",
  "EnvironmentTag": null,
  "AimOffsetProfileName": "Default",
  "bUseArmBoneBlend": true,
  "bUseUpperBodyMovementBlend": false,
  "bLeftHandIKEnabled": true,
  "DefaultLeftHandIKHold": {
    "JointLocation": { "X": 0.0, "Y": 0.0, "Z": 0.0 },
    "HandLocation": { "X": -7.856865, "Y": -24.014435, "Z": -1.18761 },
    "HandRotation": { "Pitch": 0, "Yaw": 0, "Roll": 18204 }
  },
  "LeftHandIKJointLocation": { "X": 0.0, "Y": 0.0, "Z": 0.0 },
  "LeftHandIKHandLocation": { "X": 0.0, "Y": 0.0, "Z": 0.0 },
  "LeftHandIKHandRotation": { "Pitch": 0, "Yaw": 0, "Roll": 0 },
  "ParentDefinition": null,
  "AnimSetList": [ "Anim_Bandits.Rifle_Bandits" ],
  "VfTableObject": "",
  "HashNext": "",
  "ObjectFlags": "",
  "HashOuterNext": "",
  "StateFrame": "",
  "Linker": null,
  "LinkerIndex": "",
  "ObjectInternalInteger": 160151,
  "NetIndex": 398,
  "Outer": "GD_MarauderShared.WeaponHolds",
  "Name": "WeaponHold_Marauder_Rifle",
  "Class": "WillowGame.BodyWeaponHoldDefinition",
  "ObjectArchetype": "WillowGame.Default__BodyWeaponHoldDefinition"
}