{
  "HoldName": "Pistol",
  "EnvironmentTag": null,
  "AimOffsetProfileName": null,
  "bUseArmBoneBlend": false,
  "bUseUpperBodyMovementBlend": false,
  "bLeftHandIKEnabled": false,
  "DefaultLeftHandIKHold": {
    "JointLocation": { "X": 0.0, "Y": 0.0, "Z": 0.0 },
    "HandLocation": { "X": 0.0, "Y": 0.0, "Z": 0.0 },
    "HandRotation": { "Pitch": 0, "Yaw": 0, "Roll": 0 }
  },
  "LeftHandIKJointLocation": { "X": 0.0, "Y": 0.0, "Z": 0.0 },
  "LeftHandIKHandLocation": { "X": 0.0, "Y": 0.0, "Z": 0.0 },
  "LeftHandIKHandRotation": { "Pitch": 0, "Yaw": 0, "Roll": 0 },
  "ParentDefinition": null,
  "WeaponActions": [
    {
      "Posture": "BWAP_All",
      "Actions": [
        {
          "Action": "BWA_FireRecoil",
          "Expression":
            "GD_Mercenary_Streaming.WeaponHolds1st.WeaponHold_Merc_Pistol:AttributeExpressionEvaluator_21",
          "Animations": [
            {
              "Expression":
                "GD_Mercenary_Streaming.WeaponHolds1st.WeaponHold_Merc_Pistol:ExpressionTree_4",
              "SpecialMove":
                "GD_Mercenary_Streaming.Anims1st.WeaponAnim_OffHand_Fire_FanRevolver_Recoil"
            },
            {
              "Expression":
                "GD_Mercenary_Streaming.WeaponHolds1st.WeaponHold_Merc_Pistol:ExpressionTree_1",
              "SpecialMove":
                "GD_Mercenary_Streaming.Anims1st.WeaponAnim_OffHand_Fire_Revolver_Recoil"
            },
            {
              "Expression": null,
              "SpecialMove":
                "GD_Mercenary_Streaming.Anims1st.WeaponAnim_OffHand_Fire_Recoil"
            }
          ]
        }
      ]
    }
  ],
  "VfTableObject": "",
  "HashNext": "",
  "ObjectFlags": "",
  "HashOuterNext": "",
  "StateFrame": "",
  "Linker": null,
  "LinkerIndex": "",
  "ObjectInternalInteger": 207307,
  "NetIndex": 343,
  "Outer": "GD_Mercenary_Streaming.WeaponHolds1st",
  "Name": "WeaponHold_Merc_Pistol",
  "Class": "WillowGame.BodyWeaponHoldDefinition",
  "ObjectArchetype": "WillowGame.Default__BodyWeaponHoldDefinition"
}