{
  "HoldName": "Pistol",
  "EnvironmentTag": null,
  "AimOffsetProfileName": "Default",
  "bUseArmBoneBlend": true,
  "bUseUpperBodyMovementBlend": false,
  "bLeftHandIKEnabled": false,
  "DefaultLeftHandIKHold": {
    "JointLocation": { "X": 0.0, "Y": 0.0, "Z": 0.0 },
    "HandLocation": { "X": 0.0, "Y": 0.0, "Z": 0.0 },
    "HandRotation": { "Pitch": 0, "Yaw": 0, "Roll": 0 }
  },
  "LeftHandIKJointLocation": { "X": 0.0, "Y": 0.0, "Z": 0.0 },
  "LeftHandIKHandLocation": { "X": 0.0, "Y": 0.0, "Z": 0.0 },
  "LeftHandIKHandRotation": { "Pitch": 0, "Yaw": 0, "Roll": 0 },
  "ParentDefinition": null,
  "AnimSetList": [ "Anim_TunnelRat.Pistol_Rat" ],
  "VfTableObject": "",
  "HashNext": "",
  "ObjectFlags": "",
  "HashOuterNext": "",
  "StateFrame": "",
  "Linker": null,
  "LinkerIndex": "",
  "ObjectInternalInteger": 208332,
  "NetIndex": 551,
  "Outer": "GD_RatShared.WeaponHolds",
  "Name": "WeaponHold_Rat_Pistol",
  "Class": "WillowGame.BodyWeaponHoldDefinition",
  "ObjectArchetype": "WillowGame.Default__BodyWeaponHoldDefinition"
}