{
  "DefaultProjectileDefinition": null,
  "DamageTypeIcon": "DAMAGE_TYPE_Unknown",
  "VfTable_IIBehaviorProvider": "",
  "VfTable_IIConstructObject": "",
  "DroppedImpact": null,
  "UseFailureCharacterMessage": "You must be a %s to use this item.",
  "ItemName": "",
  "bItemNameIsFullName": false,
  "bUseMeshCompositing": false,
  "NonCompositeStaticMesh": null,
  "NonCompositeSkeletalMesh": null,
  "OverrideMaterial": null,
  "GestaltMesh": null,
  "AlphaParts": null,
  "BetaParts": null,
  "GammaParts": null,
  "DeltaParts": null,
  "EpsilonParts": null,
  "ZetaParts": null,
  "EtaParts": null,
  "ThetaParts": null,
  "MaterialParts": null,
  "BehaviorProviderDefinition": null,
  "Behaviors": { "OnUsed": null },
  "RequiredPlayerClass": null,
  "PickupIconOverride": null,
  "InventoryClass": "WillowGame.WillowGrenadeMod",
  "bAutomaticallyPickup": false,
  "bPickupInBulk": false,
  "bDisallowAIFromGrabbingPickup": false,
  "bDuplicatePickupJustAddsQuantity": false,
  "bSuppressPickupCard": false,
  "bTorque": false,
  "bNeverDisplayPickupMessage": false,
  "bShopsHaveInfiniteQuantity": false,
  "bCanCompare": true,
  "bUsesPlayerLevelRequirement": false,
  "bUIMeshRotationNeedsTransformFixup": true,
  "bIsConsumable": false,
  "bAllowInventoryDefToModifyPartWeight": false,
  "PlayerDroppability": "EPD_Droppable",
  "FormOfCurrency": "CURRENCY_Credits",
  "OnUseConstraintsMode": "EXPRMODE_And",
  "AttributeSlotEffectMode": "ATTRSLOTEFFECTMODE_Default",
  "PickupLifeSpan": 0.0,
  "PickupFlagScale": 1.0,
  "PickupFlagIcon": null,
  "PickupFlagOffset": { "X": 0.0, "Y": 0.0, "Z": 0.0 },
  "Torque": { "X": 0.0, "Y": 0.0, "Z": 0.0 },
  "ThirdPersonMeshScale": 1.0,
  "MaterialClass": "Engine.MaterialInstanceConstant",
  "PhysicsAsset": null,
  "PickupMessage": "You got %s",
  "UseFailureLevelMessage": "You must be at least level %d to use this item.",
  "UseFailureConstraintsMessage": "You cannot use this item.",
  "NoManufacturerName": "Generic",
  "BaseRarity": {
    "BaseValueConstant": 0.0,
    "BaseValueAttribute": null,
    "InitializationDefinition": null,
    "BaseValueScaleConstant": 1.0
  },
  "MonetaryValue": {
    "BaseValueConstant": 0.0,
    "BaseValueAttribute": null,
    "InitializationDefinition": null,
    "BaseValueScaleConstant": 1.0
  },
  "BaseMonetaryValueModifier": 0.0,
  "PlayerUseLevelBonus": {
    "BaseValueConstant": 0.0,
    "BaseValueAttribute": null,
    "InitializationDefinition": null,
    "BaseValueScaleConstant": 1.0
  },
  "UIMeshRotation": { "Pitch": 60984, "Yaw": 0, "Roll": 45511 },
  "Presentation": null,
  "CalloutDefinition": null,
  "PickedUpStatID": null,
  "PurchasedStatID": null,
  "FocusRadius": 55.0,
  "FocusOffset": { "X": -0.4, "Y": -0.075, "Z": 0.0 },
  "AttributeSlotEffectSkillDuration": {
    "BaseValueConstant": 0.0,
    "BaseValueAttribute": null,
    "InitializationDefinition": null,
    "BaseValueScaleConstant": 1.0
  },
  "AttributeSlotBaseGrade": {
    "BaseValueConstant": 1.0,
    "BaseValueAttribute": null,
    "InitializationDefinition": null,
    "BaseValueScaleConstant": 1.0
  },
  "AttributeSlotMaxActivated": 19,
  "LootBeamColorOverride": { "B": 0, "G": 0, "R": 0, "A": 0 },
  "VfTableObject": "",
  "HashNext": "",
  "ObjectFlags": "",
  "HashOuterNext": "",
  "StateFrame": "",
  "Linker": null,
  "LinkerIndex": "",
  "ObjectInternalInteger": 4045,
  "NetIndex": 24412,
  "Outer": "Package'WillowGame'",
  "Name": "Default__GrenadeModDefinition",
  "Class": "WillowGame.GrenadeModDefinition",
  "ObjectArchetype": "WillowGame.Default__EquipableItemDefinition"
}