{
  "WillowPawnsAllowed": true,
  "VehiclesAllowed": false,
  "ProjectilesAllowed": false,
  "ItemsAllowed": false,
  "AnyAllegiance": true,
  "EnemiesOnly": false,
  "FriendliesOrNeutralsOnly": false,
  "ShouldBeInstanced": false,
  "VfTableObject": "",
  "HashNext": "",
  "ObjectFlags": "",
  "HashOuterNext": "",
  "StateFrame": "",
  "Linker": null,
  "LinkerIndex": "",
  "ObjectInternalInteger": 198099,
  "NetIndex": 385,
  "Outer":
    "GD_Allium_Balance_Shopping.VendingMachines.IO_VendingMachine_HealthItems_NoSkyLight:BehaviorProviderDefinition_0",
  "Name": "EventFilter_OnTouch_2",
  "Class": "WillowGame.EventFilter_OnTouch",
  "ObjectArchetype": "WillowGame.Default__EventFilter_OnTouch"
}