{
  "WillowPawnsAllowed": true,
  "VehiclesAllowed": true,
  "ProjectilesAllowed": false,
  "ItemsAllowed": false,
  "AnyAllegiance": true,
  "EnemiesOnly": false,
  "FriendliesOrNeutralsOnly": false,
  "ShouldBeInstanced": false,
  "VfTableObject": "",
  "HashNext": "",
  "ObjectFlags": "",
  "HashOuterNext": "",
  "StateFrame": "",
  "Linker": null,
  "LinkerIndex": "",
  "ObjectInternalInteger": 212470,
  "NetIndex": 5158,
  "Outer":
    "GD_Balance_Treasure.InteractiveObjects.InteractiveObj_JunkPile:BehaviorProviderDefinition_13",
  "Name": "EventFilter_OnTouch_464",
  "Class": "WillowGame.EventFilter_OnTouch",
  "ObjectArchetype": "WillowGame.Default__EventFilter_OnTouch"
}