{
  "WillowPawnsAllowed": true,
  "VehiclesAllowed": false,
  "ProjectilesAllowed": false,
  "ItemsAllowed": false,
  "AnyAllegiance": true,
  "EnemiesOnly": false,
  "FriendliesOrNeutralsOnly": false,
  "ShouldBeInstanced": false,
  "VfTableObject": "",
  "HashNext": "",
  "ObjectFlags": "",
  "HashOuterNext": "",
  "StateFrame": "",
  "Linker": null,
  "LinkerIndex": "",
  "ObjectInternalInteger": 202548,
  "NetIndex": 205,
  "Outer":
    "GD_LoaderION.Shield.ShieldObjectDefinition:BehaviorProviderDefinition_2",
  "Name": "EventFilter_OnTouch_0",
  "Class": "WillowGame.EventFilter_OnTouch",
  "ObjectArchetype": "WillowGame.Default__EventFilter_OnTouch"
}