{
  "WillowPawnsAllowed": true,
  "VehiclesAllowed": false,
  "ProjectilesAllowed": false,
  "ItemsAllowed": false,
  "AnyAllegiance": true,
  "EnemiesOnly": false,
  "FriendliesOrNeutralsOnly": false,
  "ShouldBeInstanced": false,
  "VfTableObject": "",
  "HashNext": "",
  "ObjectFlags": "",
  "HashOuterNext": "",
  "StateFrame": "",
  "Linker": null,
  "LinkerIndex": "",
  "ObjectInternalInteger": 215052,
  "NetIndex": 52,
  "Outer":
    "GD_Murderlin.Character.CharClass_Murderlin:BehaviorProviderDefinition_0",
  "Name": "EventFilter_OnTouch_98",
  "Class": "WillowGame.EventFilter_OnTouch",
  "ObjectArchetype": "WillowGame.Default__EventFilter_OnTouch"
}