{
  "WillowPawnsAllowed": true,
  "VehiclesAllowed": false,
  "ProjectilesAllowed": true,
  "ItemsAllowed": false,
  "AnyAllegiance": true,
  "EnemiesOnly": false,
  "FriendliesOrNeutralsOnly": false,
  "ShouldBeInstanced": false,
  "VfTableObject": "",
  "HashNext": "",
  "ObjectFlags": "",
  "HashOuterNext": "",
  "StateFrame": "",
  "Linker": null,
  "LinkerIndex": "",
  "ObjectInternalInteger": 217869,
  "NetIndex": 69,
  "Outer": "GD_OozeBomb.OozeBomb:BehaviorProviderDefinition_0",
  "Name": "EventFilter_OnTouch_0",
  "Class": "WillowGame.EventFilter_OnTouch",
  "ObjectArchetype": "WillowGame.Default__EventFilter_OnTouch"
}