{
  "WillowPawnsAllowed": true,
  "VehiclesAllowed": false,
  "ProjectilesAllowed": false,
  "ItemsAllowed": false,
  "AnyAllegiance": true,
  "EnemiesOnly": false,
  "FriendliesOrNeutralsOnly": false,
  "ShouldBeInstanced": false,
  "VfTableObject": "",
  "HashNext": "",
  "ObjectFlags": "",
  "HashOuterNext": "",
  "StateFrame": "",
  "Linker": null,
  "LinkerIndex": "",
  "ObjectInternalInteger": 209385,
  "NetIndex": 691,
  "Outer":
    "GD_Scorpio.Shield.ShieldObjectDefinition:BehaviorProviderDefinition_2",
  "Name": "EventFilter_OnTouch_5",
  "Class": "WillowGame.EventFilter_OnTouch",
  "ObjectArchetype": "WillowGame.Default__EventFilter_OnTouch"
}