{
  "PathCorrectionInterval": 0.0,
  "TurnSpeed": 0.0,
  "ApproachTurnSpeed": 0.0,
  "MaxSpreadAngle": 0.0,
  "MaxDepartureAngle": 45.0,
  "LastUpdateTime": 0.0,
  "LastDepartureAngle": -1.0,
  "LastRotationOffset": { "Pitch": 0, "Yaw": 0, "Roll": 0 },
  "TargetRotationOffset": { "Pitch": 0, "Yaw": 0, "Roll": 0 },
  "StartApproachDistance": 1500.0,
  "StartDelayTime": 0.0,
  "EaseInTime": 0.0,
  "StartTime": -1.0,
  "bInitialized": false,
  "RandomNumberSeed": 0,
  "LastVelocityRotOffset": { "X": 0.0, "Y": 0.0, "Z": 0.0, "W": 1.0 },
  "LastAccelRotOffset": { "X": 0.0, "Y": 0.0, "Z": 0.0, "W": 1.0 },
  "VfTable_IIWorldBody": "",
  "Scene": "",
  "Owner": null,
  "bAttached": false,
  "bSkipChildComponentUpdate": false,
  "bTickInEditor": false,
  "bTickInGame": true,
  "bTickInStatusMenu": true,
  "bNeedsReattach": false,
  "bNeedsUpdateTransform": false,
  "TickGroup": "TG_DuringAsyncWork",
  "TemplateOwnerClass": null,
  "TemplateName": null,
  "VfTableObject": "",
  "HashNext": "",
  "ObjectFlags": "",
  "HashOuterNext": "",
  "StateFrame": "",
  "Linker": null,
  "LinkerIndex": "",
  "ObjectInternalInteger": 4137,
  "NetIndex": 20581,
  "Outer": "Package'WillowGame'",
  "Name": "Default__DrunkenRandomComponent",
  "Class": "WillowGame.DrunkenRandomComponent",
  "ObjectArchetype": "WillowGame.Default__DrunkenBaseComponent"
}