{
  "bIsSimpleAttribute": false,
  "AttributeDataType": "ADT_Int",
  "ValueResolverChain": [
    "GD_Assassin_Skills.SkillGradeModifiers.AngelofDeath:ObjectPropertyAttributeValueResolver_20"
  ],
  "ContextResolverChain": [
    "GD_Assassin_Skills.SkillGradeModifiers.AngelofDeath:PlayerControllerAttributeContextResolver_0",
    "GD_Assassin_Skills.SkillGradeModifiers.AngelofDeath:SkillAttributeContextResolver_0"
  ],
  "VfTableObject": "",
  "HashNext": "",
  "ObjectFlags": "",
  "HashOuterNext": "",
  "StateFrame": "",
  "Linker": null,
  "LinkerIndex": "",
  "ObjectInternalInteger": 109348,
  "NetIndex": 773,
  "Outer": "GD_Assassin_Skills.SkillGradeModifiers",
  "Name": "AngelofDeath",
  "Class": "WillowGame.InventoryAttributeDefinition",
  "ObjectArchetype": "WillowGame.Default__InventoryAttributeDefinition"
}