{
  "bIsSimpleAttribute": false,
  "AttributeDataType": "ADT_Int",
  "ValueResolverChain": [
    "GD_Ammodrops.AmmoPickup_Amounts.AmmoAmountShop_SMG:ConstantAttributeValueResolver_3"
  ],
  "ContextResolverChain": [
    "GD_Ammodrops.AmmoPickup_Amounts.AmmoAmountShop_SMG:NoContextNeededAttributeContextResolver_20"
  ],
  "VfTableObject": "",
  "HashNext": "",
  "ObjectFlags": "",
  "HashOuterNext": "",
  "StateFrame": "",
  "Linker": null,
  "LinkerIndex": "",
  "ObjectInternalInteger": 233450,
  "NetIndex": 167,
  "Outer": "GD_Ammodrops.AmmoPickup_Amounts",
  "Name": "AmmoAmountShop_SMG",
  "Class": "WillowGame.InventoryAttributeDefinition",
  "ObjectArchetype": "WillowGame.Default__InventoryAttributeDefinition"
}