{
  "bIsSimpleAttribute": false,
  "AttributeDataType": "ADT_Float",
  "ValueResolverChain": [
    "GD_Assassin_Skills.Misc.Att_Deception_GunDamagePerStack:ConstantAttributeValueResolver_0"
  ],
  "ContextResolverChain": [
    "GD_Assassin_Skills.Misc.Att_Deception_GunDamagePerStack:PlayerControllerAttributeContextResolver_0"
  ],
  "VfTableObject": "",
  "HashNext": "",
  "ObjectFlags": "",
  "HashOuterNext": "",
  "StateFrame": "",
  "Linker": null,
  "LinkerIndex": "",
  "ObjectInternalInteger": 210514,
  "NetIndex": 769,
  "Outer": "GD_Assassin_Skills.Misc",
  "Name": "Att_Deception_GunDamagePerStack",
  "Class": "WillowGame.InventoryAttributeDefinition",
  "ObjectArchetype": "WillowGame.Default__InventoryAttributeDefinition"
}