{
  "bIsSimpleAttribute": false,
  "AttributeDataType": "ADT_Float",
  "ValueResolverChain": [
    "GD_Balance_Inventory.Rarity_Item.ItemRarity5_Legendary:ConstantAttributeValueResolver_0"
  ],
  "ContextResolverChain": [
    "GD_Balance_Inventory.Rarity_Item.ItemRarity5_Legendary:NoContextNeededAttributeContextResolver_20"
  ],
  "VfTableObject": "",
  "HashNext": "",
  "ObjectFlags": "",
  "HashOuterNext": "",
  "StateFrame": "",
  "Linker": null,
  "LinkerIndex": "",
  "ObjectInternalInteger": 107209,
  "NetIndex": 75,
  "Outer": "GD_Balance_Inventory.Rarity_Item",
  "Name": "ItemRarity5_Legendary",
  "Class": "WillowGame.InventoryAttributeDefinition",
  "ObjectArchetype": "WillowGame.Default__InventoryAttributeDefinition"
}