{
  "bIsSimpleAttribute": false,
  "AttributeDataType": "ADT_Int",
  "ValueResolverChain": [
    "GD_Lobelia_ClassMods.SkillGradeModifiers.Lobelia_EmptyTheRage:ObjectPropertyAttributeValueResolver_20"
  ],
  "ContextResolverChain": [
    "GD_Lobelia_ClassMods.SkillGradeModifiers.Lobelia_EmptyTheRage:PlayerControllerAttributeContextResolver_0",
    "GD_Lobelia_ClassMods.SkillGradeModifiers.Lobelia_EmptyTheRage:SkillAttributeContextResolver_0"
  ],
  "VfTableObject": "",
  "HashNext": "",
  "ObjectFlags": "",
  "HashOuterNext": "",
  "StateFrame": "",
  "Linker": null,
  "LinkerIndex": "",
  "ObjectInternalInteger": 167589,
  "NetIndex": 145,
  "Outer": "GD_Lobelia_ClassMods.SkillGradeModifiers",
  "Name": "Lobelia_EmptyTheRage",
  "Class": "WillowGame.InventoryAttributeDefinition",
  "ObjectArchetype": "WillowGame.Default__InventoryAttributeDefinition"
}