{
  "bIsSimpleAttribute": false,
  "AttributeDataType": "ADT_Int",
  "ValueResolverChain": [
    "GD_Mercenary_Skills.SkillGradeModifiers.MoneyShot:ObjectPropertyAttributeValueResolver_20"
  ],
  "ContextResolverChain": [
    "GD_Mercenary_Skills.SkillGradeModifiers.MoneyShot:PlayerControllerAttributeContextResolver_0",
    "GD_Mercenary_Skills.SkillGradeModifiers.MoneyShot:SkillAttributeContextResolver_0"
  ],
  "VfTableObject": "",
  "HashNext": "",
  "ObjectFlags": "",
  "HashOuterNext": "",
  "StateFrame": "",
  "Linker": null,
  "LinkerIndex": "",
  "ObjectInternalInteger": 109432,
  "NetIndex": 503,
  "Outer": "GD_Mercenary_Skills.SkillGradeModifiers",
  "Name": "MoneyShot",
  "Class": "WillowGame.InventoryAttributeDefinition",
  "ObjectArchetype": "WillowGame.Default__InventoryAttributeDefinition"
}