{
  "bIsSimpleAttribute": false,
  "AttributeDataType": "ADT_Float",
  "ValueResolverChain": [
    "GD_Sage_RaidWeapons.Rarity_Item.Sage_Item_Rarity6_Seraph:ConstantAttributeValueResolver_0"
  ],
  "ContextResolverChain": [
    "GD_Sage_RaidWeapons.Rarity_Item.Sage_Item_Rarity6_Seraph:NoContextNeededAttributeContextResolver_20"
  ],
  "VfTableObject": "",
  "HashNext": "",
  "ObjectFlags": "",
  "HashOuterNext": "",
  "StateFrame": "",
  "Linker": null,
  "LinkerIndex": "",
  "ObjectInternalInteger": 178553,
  "NetIndex": 27,
  "Outer": "GD_Sage_RaidWeapons.Rarity_Item",
  "Name": "Sage_Item_Rarity6_Seraph",
  "Class": "WillowGame.InventoryAttributeDefinition",
  "ObjectArchetype": "WillowGame.Default__InventoryAttributeDefinition"
}