{
  "bIsSimpleAttribute": false,
  "AttributeDataType": "ADT_Int",
  "ValueResolverChain": [
    "GD_Soldier_Skills.SkillGradeModifiers.Steady:ObjectPropertyAttributeValueResolver_20"
  ],
  "ContextResolverChain": [
    "GD_Soldier_Skills.SkillGradeModifiers.Steady:PlayerControllerAttributeContextResolver_0",
    "GD_Soldier_Skills.SkillGradeModifiers.Steady:SkillAttributeContextResolver_0"
  ],
  "VfTableObject": "",
  "HashNext": "",
  "ObjectFlags": "",
  "HashOuterNext": "",
  "StateFrame": "",
  "Linker": null,
  "LinkerIndex": "",
  "ObjectInternalInteger": 109536,
  "NetIndex": 270,
  "Outer": "GD_Soldier_Skills.SkillGradeModifiers",
  "Name": "Steady",
  "Class": "WillowGame.InventoryAttributeDefinition",
  "ObjectArchetype": "WillowGame.Default__InventoryAttributeDefinition"
}