{
  "bIsSimpleAttribute": false,
  "AttributeDataType": "ADT_Int",
  "ValueResolverChain": [
    "GD_Soldier_Skills.SkillGradeModifiers.DutyCalls:ObjectPropertyAttributeValueResolver_20"
  ],
  "ContextResolverChain": [
    "GD_Soldier_Skills.SkillGradeModifiers.DutyCalls:PlayerControllerAttributeContextResolver_0",
    "GD_Soldier_Skills.SkillGradeModifiers.DutyCalls:SkillAttributeContextResolver_0"
  ],
  "VfTableObject": "",
  "HashNext": "",
  "ObjectFlags": "",
  "HashOuterNext": "",
  "StateFrame": "",
  "Linker": null,
  "LinkerIndex": "",
  "ObjectInternalInteger": 109500,
  "NetIndex": 251,
  "Outer": "GD_Soldier_Skills.SkillGradeModifiers",
  "Name": "DutyCalls",
  "Class": "WillowGame.InventoryAttributeDefinition",
  "ObjectArchetype": "WillowGame.Default__InventoryAttributeDefinition"
}