{
  "bIsSimpleAttribute": false,
  "AttributeDataType": "ADT_Float",
  "VfTableObject": "",
  "HashNext": "",
  "ObjectFlags": "",
  "HashOuterNext": "",
  "StateFrame": "",
  "Linker": null,
  "LinkerIndex": "",
  "ObjectInternalInteger": 75882,
  "NetIndex": 25819,
  "Outer": "Package'WillowGame'",
  "Name": "Default__InventoryAttributeDefinition",
  "Class": "WillowGame.InventoryAttributeDefinition",
  "ObjectArchetype": "Engine.Default__AttributeDefinition"
}