{
  "Arg1Option": "MATHRESOLVEARG1_UsePreviousValue",
  "Operand": "MATHRESOLVEROPERAND_Mul",
  "Arg1Attribute": {
    "BaseValueConstant": 0.0,
    "BaseValueAttribute": null,
    "InitializationDefinition": null,
    "BaseValueScaleConstant": 1.0
  },
  "Argument": {
    "BaseValueConstant": 0.0,
    "BaseValueAttribute":
      "GD_Lilac_Skills_Bloodlust.Attributes.Att_TasteOfBlood_DamageMod_PerGrade",
    "InitializationDefinition": null,
    "BaseValueScaleConstant": 1.0
  },
  "VfTableObject": "",
  "HashNext": "",
  "ObjectFlags": "",
  "HashOuterNext": "",
  "StateFrame": "",
  "Linker": null,
  "LinkerIndex": "",
  "ObjectInternalInteger": 221372,
  "NetIndex": 893,
  "Outer":
    "GD_Lilac_Skills_Bloodlust.Attributes.Att_TasteOfBlood_DamageMod_Reciprocal",
  "Name": "SimpleMathValueResolver_0",
  "Class": "GearboxFramework.SimpleMathValueResolver",
  "ObjectArchetype": "GearboxFramework.Default__SimpleMathValueResolver"
}