{
  "Arg1Option": "MATHRESOLVEARG1_UsePreviousValue",
  "Operand": "MATHRESOLVEROPERAND_Mul",
  "Arg1Attribute": {
    "BaseValueConstant": 0.0,
    "BaseValueAttribute": null,
    "InitializationDefinition": null,
    "BaseValueScaleConstant": 1.0
  },
  "Argument": {
    "BaseValueConstant": 0.0,
    "BaseValueAttribute": null,
    "InitializationDefinition":
      "GD_MissionRewardBalance.XP.Init_MissionXPPlaythroughMultiplier",
    "BaseValueScaleConstant": 1.0
  },
  "VfTableObject": "",
  "HashNext": "",
  "ObjectFlags": "",
  "HashOuterNext": "",
  "StateFrame": "",
  "Linker": null,
  "LinkerIndex": "",
  "ObjectInternalInteger": 108413,
  "NetIndex": 36,
  "Outer": "GD_MissionRewardBalance.XP.XPReward_01_Smallest",
  "Name": "SimpleMathValueResolver_0",
  "Class": "GearboxFramework.SimpleMathValueResolver",
  "ObjectArchetype": "GearboxFramework.Default__SimpleMathValueResolver"
}