{
  "Arg1Option": "MATHRESOLVEARG1_FromAttribute",
  "Operand": "MATHRESOLVEROPERAND_Sub",
  "Arg1Attribute": {
    "BaseValueConstant": 0.0,
    "BaseValueAttribute": "D_Attributes.Balance.GameStage",
    "InitializationDefinition": null,
    "BaseValueScaleConstant": 1.0
  },
  "Argument": {
    "BaseValueConstant": 5.0,
    "BaseValueAttribute": null,
    "InitializationDefinition": null,
    "BaseValueScaleConstant": 1.0
  },
  "VfTableObject": "",
  "HashNext": "",
  "ObjectFlags": "",
  "HashOuterNext": "",
  "StateFrame": "",
  "Linker": null,
  "LinkerIndex": "",
  "ObjectInternalInteger": 244747,
  "NetIndex": -1,
  "Outer": "Package'Transient'",
  "Name": "SimpleMathValueResolver_0",
  "Class": "GearboxFramework.SimpleMathValueResolver",
  "ObjectArchetype": "GearboxFramework.Default__SimpleMathValueResolver"
}