{
  "CustomizationUsageName": "Universal",
  "VfTableObject": "",
  "HashNext": "",
  "ObjectFlags": "",
  "HashOuterNext": "",
  "StateFrame": "",
  "Linker": null,
  "LinkerIndex": "",
  "ObjectInternalInteger": 3809,
  "NetIndex": 19367,
  "Outer": "Package'WillowGame'",
  "Name": "Default__CustomizationUsage",
  "Class": "WillowGame.CustomizationUsage",
  "ObjectArchetype": "Engine.Default__GBXDefinition"
}