{
  "PlayerClassId": "GD_TulipPackageDef.PlayerClassId.Mechromancer",
  "VfTableObject": "",
  "HashNext": "",
  "ObjectFlags": "",
  "HashOuterNext": "",
  "StateFrame": "",
  "Linker": null,
  "LinkerIndex": "",
  "ObjectInternalInteger": 238538,
  "NetIndex": -1,
  "Outer":
    "Transient.AttributeInitializationDefinition_217:AttributeDefinition_427",
  "Name": "PlayerClassAttributeValueResolver_213",
  "Class": "WillowGame.PlayerClassAttributeValueResolver",
  "ObjectArchetype": "WillowGame.Default__PlayerClassAttributeValueResolver"
}