{
  "PlayerClassId": "GD_PlayerClassId.Assassin",
  "VfTableObject": "",
  "HashNext": "",
  "ObjectFlags": "",
  "HashOuterNext": "",
  "StateFrame": "",
  "Linker": null,
  "LinkerIndex": "",
  "ObjectInternalInteger": 238582,
  "NetIndex": -1,
  "Outer":
    "Transient.AttributeInitializationDefinition_170:AttributeDefinition_333",
  "Name": "PlayerClassAttributeValueResolver_166",
  "Class": "WillowGame.PlayerClassAttributeValueResolver",
  "ObjectArchetype": "WillowGame.Default__PlayerClassAttributeValueResolver"
}