{
  "PlayerClassId": "GD_PlayerClassId.Mercenary",
  "VfTableObject": "",
  "HashNext": "",
  "ObjectFlags": "",
  "HashOuterNext": "",
  "StateFrame": "",
  "Linker": null,
  "LinkerIndex": "",
  "ObjectInternalInteger": 238533,
  "NetIndex": -1,
  "Outer":
    "Transient.AttributeInitializationDefinition_107:AttributeDefinition_215",
  "Name": "PlayerClassAttributeValueResolver_107",
  "Class": "WillowGame.PlayerClassAttributeValueResolver",
  "ObjectArchetype": "WillowGame.Default__PlayerClassAttributeValueResolver"
}