{
  "PlayerClassId": "GD_PlayerClassId.Soldier",
  "VfTableObject": "",
  "HashNext": "",
  "ObjectFlags": "",
  "HashOuterNext": "",
  "StateFrame": "",
  "Linker": null,
  "LinkerIndex": "",
  "ObjectInternalInteger": 238521,
  "NetIndex": -1,
  "Outer":
    "Transient.AttributeInitializationDefinition_341:AttributeDefinition_675",
  "Name": "PlayerClassAttributeValueResolver_337",
  "Class": "WillowGame.PlayerClassAttributeValueResolver",
  "ObjectArchetype": "WillowGame.Default__PlayerClassAttributeValueResolver"
}