{
  "PlayerClassId": "GD_PlayerClassId.Siren",
  "VfTableObject": "",
  "HashNext": "",
  "ObjectFlags": "",
  "HashOuterNext": "",
  "StateFrame": "",
  "Linker": null,
  "LinkerIndex": "",
  "ObjectInternalInteger": 236908,
  "NetIndex": -1,
  "Outer":
    "Transient.AttributeInitializationDefinition_78:AttributeDefinition_157",
  "Name": "PlayerClassAttributeValueResolver_78",
  "Class": "WillowGame.PlayerClassAttributeValueResolver",
  "ObjectArchetype": "WillowGame.Default__PlayerClassAttributeValueResolver"
}