{
  "PlayerClassId": "GD_PlayerClassId.Siren",
  "VfTableObject": "",
  "HashNext": "",
  "ObjectFlags": "",
  "HashOuterNext": "",
  "StateFrame": "",
  "Linker": null,
  "LinkerIndex": "",
  "ObjectInternalInteger": 238561,
  "NetIndex": -1,
  "Outer":
    "Transient.AttributeInitializationDefinition_162:AttributeDefinition_325",
  "Name": "PlayerClassAttributeValueResolver_162",
  "Class": "WillowGame.PlayerClassAttributeValueResolver",
  "ObjectArchetype": "WillowGame.Default__PlayerClassAttributeValueResolver"
}