{
  "PlayerClassId": "GD_LilacPackageDef.PlayerClassId.Psycho",
  "VfTableObject": "",
  "HashNext": "",
  "ObjectFlags": "",
  "HashOuterNext": "",
  "StateFrame": "",
  "Linker": null,
  "LinkerIndex": "",
  "ObjectInternalInteger": 225085,
  "NetIndex": -1,
  "Outer":
    "Transient.AttributeInitializationDefinition_50:AttributeDefinition_101",
  "Name": "PlayerClassAttributeValueResolver_50",
  "Class": "WillowGame.PlayerClassAttributeValueResolver",
  "ObjectArchetype": "WillowGame.Default__PlayerClassAttributeValueResolver"
}