{
  "PackageName": "Dungeon_Audio",
  "LoadedLevel": "Dungeon_Audio.TheWorld:PersistentLevel",
  "Offset": { "X": 0.0, "Y": 0.0, "Z": 0.0 },
  "OldOffset": { "X": 0.0, "Y": 0.0, "Z": 0.0 },
  "bIsVisible": true,
  "bHasLoadRequestPending": false,
  "bHasUnloadRequestPending": false,
  "bShouldBeVisibleInEditor": false,
  "bShouldBeVisibleInEditorOnLoad": false,
  "bBoundingBoxVisible": false,
  "bLocked": false,
  "bIsFullyStatic": false,
  "bShouldBeLoaded": true,
  "bShouldBeVisible": true,
  "bShouldBlockOnLoad": false,
  "bDrawOnLevelStatusMap": true,
  "bIsRequestingUnloadAndRemoval": false,
  "DrawColor": { "B": 0, "G": 255, "R": 0, "A": 255 },
  "MinTimeBetweenVolumeUnloadRequests": 2.0,
  "LastVolumeUnloadRequestTime": 0.0,
  "EditorGridVolume": null,
  "GridPosition": [ 0, 0, 0 ],
  "VfTableObject": "",
  "HashNext": "",
  "ObjectFlags": "",
  "HashOuterNext": "",
  "StateFrame": "",
  "Linker": null,
  "LinkerIndex": "",
  "ObjectInternalInteger": 225625,
  "NetIndex": 3907,
  "Outer": "Dungeon_P.TheWorld",
  "Name": "LevelStreamingKismet_5",
  "Class": "Engine.LevelStreamingKismet",
  "ObjectArchetype": "Engine.Default__LevelStreamingKismet"
}