{
  "PackageName": "HyperionCity_Skybox",
  "LoadedLevel": "HyperionCity_Skybox.TheWorld:PersistentLevel",
  "Offset": { "X": 0.0, "Y": 0.0, "Z": 0.0 },
  "OldOffset": { "X": 0.0, "Y": 0.0, "Z": 0.0 },
  "bIsVisible": true,
  "bHasLoadRequestPending": false,
  "bHasUnloadRequestPending": false,
  "bShouldBeVisibleInEditor": false,
  "bShouldBeVisibleInEditorOnLoad": true,
  "bBoundingBoxVisible": false,
  "bLocked": false,
  "bIsFullyStatic": false,
  "bShouldBeLoaded": true,
  "bShouldBeVisible": true,
  "bShouldBlockOnLoad": false,
  "bDrawOnLevelStatusMap": true,
  "bIsRequestingUnloadAndRemoval": false,
  "DrawColor": { "B": 136, "G": 197, "R": 0, "A": 255 },
  "MinTimeBetweenVolumeUnloadRequests": 2.0,
  "LastVolumeUnloadRequestTime": 0.0,
  "EditorGridVolume": null,
  "GridPosition": [ 0, 0, 0 ],
  "VfTableObject": "",
  "HashNext": "",
  "ObjectFlags": "",
  "HashOuterNext": "",
  "StateFrame": "",
  "Linker": null,
  "LinkerIndex": "",
  "ObjectInternalInteger": 214841,
  "NetIndex": 17475,
  "Outer": "HyperionCity_P.TheWorld",
  "Name": "LevelStreamingKismet_0",
  "Class": "Engine.LevelStreamingKismet",
  "ObjectArchetype": "Engine.Default__LevelStreamingKismet"
}