{
  "PackageName": "Sage_Cliffs_Raid",
  "LoadedLevel": "Sage_Cliffs_Raid.TheWorld:PersistentLevel",
  "Offset": { "X": 0.0, "Y": 0.0, "Z": 0.0 },
  "OldOffset": { "X": 0.0, "Y": 0.0, "Z": 0.0 },
  "bIsVisible": true,
  "bHasLoadRequestPending": false,
  "bHasUnloadRequestPending": false,
  "bShouldBeVisibleInEditor": false,
  "bShouldBeVisibleInEditorOnLoad": true,
  "bBoundingBoxVisible": false,
  "bLocked": false,
  "bIsFullyStatic": false,
  "bShouldBeLoaded": true,
  "bShouldBeVisible": true,
  "bShouldBlockOnLoad": false,
  "bDrawOnLevelStatusMap": true,
  "bIsRequestingUnloadAndRemoval": false,
  "DrawColor": { "B": 58, "G": 0, "R": 228, "A": 255 },
  "MinTimeBetweenVolumeUnloadRequests": 2.0,
  "LastVolumeUnloadRequestTime": 0.0,
  "EditorGridVolume": null,
  "GridPosition": [ 0, 0, 0 ],
  "VfTableObject": "",
  "HashNext": "",
  "ObjectFlags": "",
  "HashOuterNext": "",
  "StateFrame": "",
  "Linker": null,
  "LinkerIndex": "",
  "ObjectInternalInteger": 225207,
  "NetIndex": 1473,
  "Outer": "Sage_Cliffs_P.TheWorld",
  "Name": "LevelStreamingKismet_5",
  "Class": "Engine.LevelStreamingKismet",
  "ObjectArchetype": "Engine.Default__LevelStreamingKismet"
}