{
  "VfTable_IIBehaviorProvider": "",
  "PartType": "IP_Alpha",
  "BehaviorProviderDefinition": null,
  "Material": null,
  "bIsGestaltMode": false,
  "GestaltModeSkeletalMeshName": null,
  "NongestaltSkeletalMesh": null,
  "MonetaryValueMod": null,
  "Rarity": {
    "BaseValueConstant": 0.0,
    "BaseValueAttribute": null,
    "InitializationDefinition": null,
    "BaseValueScaleConstant": 1.0
  },
  "AttributeSlotUpgrades": [
    {
      "SlotName": "PrimaryStatBonus",
      "GradeIncrease": 0,
      "bActivateSlot": false
    },
    {
      "SlotName": "PrimaryStatBonus02",
      "GradeIncrease": 0,
      "bActivateSlot": false
    },
    { "SlotName": "StatPenalty", "GradeIncrease": 3, "bActivateSlot": false },
    {
      "SlotName": "StatPenalty_Offhand",
      "GradeIncrease": 3,
      "bActivateSlot": false
    }
  ],
  "AdditionalGestaltModeSkeletalMeshNames": [ null, null ],
  "VfTableObject": "",
  "HashNext": "",
  "ObjectFlags": "",
  "HashOuterNext": "",
  "StateFrame": "",
  "Linker": null,
  "LinkerIndex": "",
  "ObjectInternalInteger": 122794,
  "NetIndex": 398,
  "Outer": "GD_ClassMods.StatPenalty",
  "Name": "StatPenalty_A0_B0_C3",
  "Class": "WillowGame.ClassModPartDefinition",
  "ObjectArchetype": "WillowGame.Default__ClassModPartDefinition"
}