{
  "VfTable_IIBehaviorProvider": "",
  "PartType": "IP_Alpha",
  "BehaviorProviderDefinition": null,
  "Material": null,
  "bIsGestaltMode": false,
  "GestaltModeSkeletalMeshName": null,
  "NongestaltSkeletalMesh": null,
  "MonetaryValueMod":
    "GD_Economy.Rarity.Att_Price_RarityMultiplier_04_VeryRare",
  "Rarity": {
    "BaseValueConstant": 0.0,
    "BaseValueAttribute":
      "GD_Balance_Inventory.Rarity_Item.ItemRarity4_VeryRare",
    "InitializationDefinition": null,
    "BaseValueScaleConstant": 1.0
  },
  "AttributeSlotUpgrades": [
    { "SlotName": "Skill1", "GradeIncrease": 3, "bActivateSlot": true },
    { "SlotName": "Skill2", "GradeIncrease": 0, "bActivateSlot": true },
    { "SlotName": "Skill3", "GradeIncrease": -3, "bActivateSlot": true }
  ],
  "AdditionalGestaltModeSkeletalMeshNames": [ null, null ],
  "VfTableObject": "",
  "HashNext": "",
  "ObjectFlags": "",
  "HashOuterNext": "",
  "StateFrame": "",
  "Linker": null,
  "LinkerIndex": "",
  "ObjectInternalInteger": 122774,
  "NetIndex": 378,
  "Outer": "GD_ClassMods.Specialization",
  "Name": "Spec_AS1_BS2_-CS3",
  "Class": "WillowGame.ClassModPartDefinition",
  "ObjectArchetype": "WillowGame.Default__ClassModPartDefinition"
}