{
  "RandomList": [
    { "Weight": 1.0, "SMD": "Env_CastleKeep.SpecialMoves.SMD_Knight_Dead04" }
  ],
  "NextSpecialMove": null,
  "StopExpression": null,
  "bOwnerAlwaysRelevant": false,
  "bClientHasAuthority": false,
  "VfTableObject": "",
  "HashNext": "",
  "ObjectFlags": "",
  "HashOuterNext": "",
  "StateFrame": "",
  "Linker": null,
  "LinkerIndex": "",
  "ObjectInternalInteger": 198512,
  "NetIndex": 359,
  "Outer": "Env_CastleKeep.SpecialMoves",
  "Name": "SpecialMove_DeadKnight4",
  "Class": "GearboxFramework.SpecialMoveRandom",
  "ObjectArchetype": "GearboxFramework.Default__SpecialMoveRandom"
}