{
  "RandomList": [
    {
      "Weight": 1.0,
      "SMD": "GD_Allium_YetiBaby.Anims.Anim_YetiBaby_ThrowRock_L"
    },
    {
      "Weight": 1.0,
      "SMD": "GD_Allium_YetiBaby.Anims.Anim_YetiBaby_ThrowRock_R"
    }
  ],
  "NextSpecialMove": null,
  "StopExpression": null,
  "bOwnerAlwaysRelevant": false,
  "bClientHasAuthority": false,
  "VfTableObject": "",
  "HashNext": "",
  "ObjectFlags": "",
  "HashOuterNext": "",
  "StateFrame": "",
  "Linker": null,
  "LinkerIndex": "",
  "ObjectInternalInteger": 216066,
  "NetIndex": 261,
  "Outer": "GD_Allium_YetiBaby.Anims",
  "Name": "AnimRandom_YetiBaby_Throw",
  "Class": "GearboxFramework.SpecialMoveRandom",
  "ObjectArchetype": "GearboxFramework.Default__SpecialMoveRandom"
}