{
  "RandomList": [
    { "Weight": 1.0, "SMD": "GD_BullyRot.Anims.Anim_BullyRot_Melee1" },
    { "Weight": 1.0, "SMD": "GD_BullyRot.Anims.Anim_BullyRot_Melee1M" },
    { "Weight": 1.0, "SMD": "GD_BullyRot.Anims.Anim_BullyRot_Melee2" },
    { "Weight": 1.0, "SMD": "GD_BullyRot.Anims.Anim_BullyRot_Melee2M" },
    { "Weight": 1.0, "SMD": "GD_BullyRot.Anims.Anim_BullyRot_Melee4" },
    { "Weight": 1.0, "SMD": "GD_BullyRot.Anims.Anim_BullyRot_Melee4M" }
  ],
  "NextSpecialMove": null,
  "StopExpression": null,
  "bOwnerAlwaysRelevant": false,
  "bClientHasAuthority": false,
  "VfTableObject": "",
  "HashNext": "",
  "ObjectFlags": "",
  "HashOuterNext": "",
  "StateFrame": "",
  "Linker": null,
  "LinkerIndex": "",
  "ObjectInternalInteger": 208257,
  "NetIndex": 379,
  "Outer": "GD_BullyRot.Anims",
  "Name": "AnimRandom_BullyRotMelee",
  "Class": "GearboxFramework.SpecialMoveRandom",
  "ObjectArchetype": "GearboxFramework.Default__SpecialMoveRandom"
}