{
  "RandomList": [
    { "Weight": 0.0, "SMD": "GD_BugMorph_Bee.Anims.Anim_BugMorph_Bee_Melee" },
    {
      "Weight": 1.0,
      "SMD": "GD_BugMorph_Bee.Anims.Anim_BugMorph_Bee_MeleeJukeL"
    },
    {
      "Weight": 1.0,
      "SMD": "GD_BugMorph_Bee.Anims.Anim_BugMorph_Bee_MeleeJukeR"
    }
  ],
  "NextSpecialMove": null,
  "StopExpression": null,
  "bOwnerAlwaysRelevant": false,
  "bClientHasAuthority": false,
  "VfTableObject": "",
  "HashNext": "",
  "ObjectFlags": "",
  "HashOuterNext": "",
  "StateFrame": "",
  "Linker": null,
  "LinkerIndex": "",
  "ObjectInternalInteger": 198240,
  "NetIndex": 395,
  "Outer": "GD_BugMorph_Bee.Anims",
  "Name": "AnimRandom_Bee_FlyingSting",
  "Class": "GearboxFramework.SpecialMoveRandom",
  "ObjectArchetype": "GearboxFramework.Default__SpecialMoveRandom"
}