{
  "RandomList": [
    {
      "Weight": 1.0,
      "SMD": "GD_ConstructorShared.Anims.Anim_Constructor_DeathConstruct1"
    },
    {
      "Weight": 1.0,
      "SMD": "GD_ConstructorShared.Anims.Anim_Constructor_DeathConstruct2"
    },
    {
      "Weight": 1.0,
      "SMD": "GD_ConstructorShared.Anims.Anim_Constructor_DeathConstruct3"
    }
  ],
  "NextSpecialMove": null,
  "StopExpression": null,
  "bOwnerAlwaysRelevant": false,
  "bClientHasAuthority": false,
  "VfTableObject": "",
  "HashNext": "",
  "ObjectFlags": "",
  "HashOuterNext": "",
  "StateFrame": "",
  "Linker": null,
  "LinkerIndex": "",
  "ObjectInternalInteger": 192645,
  "NetIndex": 1967,
  "Outer": "GD_ConstructorShared.Anims",
  "Name": "AnimRandom_Constructor_DeathGround",
  "Class": "GearboxFramework.SpecialMoveRandom",
  "ObjectArchetype": "GearboxFramework.Default__SpecialMoveRandom"
}