{
  "RandomList": [
    {
      "Weight": 1.0,
      "SMD": "GD_EngineerArmsShared.Anims.Anim_EngineerArms_DeathVar1"
    },
    {
      "Weight": 1.0,
      "SMD": "GD_EngineerArmsShared.Anims.Anim_EngineerArms_DeathVar2"
    },
    {
      "Weight": 1.0,
      "SMD": "GD_EngineerArmsShared.Anims.Anim_EngineerArms_Death_Head"
    }
  ],
  "NextSpecialMove": null,
  "StopExpression": null,
  "bOwnerAlwaysRelevant": false,
  "bClientHasAuthority": false,
  "VfTableObject": "",
  "HashNext": "",
  "ObjectFlags": "",
  "HashOuterNext": "",
  "StateFrame": "",
  "Linker": null,
  "LinkerIndex": "",
  "ObjectInternalInteger": 200271,
  "NetIndex": 757,
  "Outer": "GD_EngineerArmsShared.Anims",
  "Name": "AnimRandom_EngineerArmsDeath",
  "Class": "GearboxFramework.SpecialMoveRandom",
  "ObjectArchetype": "GearboxFramework.Default__SpecialMoveRandom"
}