{
  "RandomList": [
    {
      "Weight": 1.0,
      "SMD": "GD_GoliathShared.Anims.Anim_GoliathShared_RageMelee1"
    },
    {
      "Weight": 1.0,
      "SMD": "GD_GoliathShared.Anims.Anim_GoliathShared_RageMelee1M"
    },
    {
      "Weight": 1.0,
      "SMD": "GD_GoliathShared.Anims.Anim_GoliathShared_RageMelee2"
    },
    {
      "Weight": 1.0,
      "SMD": "GD_GoliathShared.Anims.Anim_GoliathShared_RageMelee2M"
    },
    {
      "Weight": 1.0,
      "SMD": "GD_GoliathShared.Anims.Anim_GoliathShared_RageMelee3"
    }
  ],
  "NextSpecialMove": null,
  "StopExpression": null,
  "bOwnerAlwaysRelevant": false,
  "bClientHasAuthority": false,
  "VfTableObject": "",
  "HashNext": "",
  "ObjectFlags": "",
  "HashOuterNext": "",
  "StateFrame": "",
  "Linker": null,
  "LinkerIndex": "",
  "ObjectInternalInteger": 199429,
  "NetIndex": 1338,
  "Outer": "GD_GoliathShared.Anims",
  "Name": "AnimRandom_GoliathShared_RageMelee",
  "Class": "GearboxFramework.SpecialMoveRandom",
  "ObjectArchetype": "GearboxFramework.Default__SpecialMoveRandom"
}