{
  "RandomList": [
    {
      "Weight": 1.0,
      "SMD":
        "GD_Iris_Raid_PyroPete.Anims.Anim_Iris_Raid_PyroPete_Melee_Acid_L"
    },
    {
      "Weight": 1.0,
      "SMD":
        "GD_Iris_Raid_PyroPete.Anims.Anim_Iris_Raid_PyroPete_Melee_Fire_R"
    }
  ],
  "NextSpecialMove": null,
  "StopExpression": null,
  "bOwnerAlwaysRelevant": false,
  "bClientHasAuthority": false,
  "VfTableObject": "",
  "HashNext": "",
  "ObjectFlags": "",
  "HashOuterNext": "",
  "StateFrame": "",
  "Linker": null,
  "LinkerIndex": "",
  "ObjectInternalInteger": 204065,
  "NetIndex": 5243,
  "Outer": "GD_Iris_Raid_PyroPete.Anims",
  "Name": "AnimRandom_Iris_Raid_PyroCaustic_PeteMelee",
  "Class": "GearboxFramework.SpecialMoveRandom",
  "ObjectArchetype": "GearboxFramework.Default__SpecialMoveRandom"
}