{
  "RandomList": [
    {
      "Weight": 1.0,
      "SMD": "GD_Loadershared.Anims.Anim_LoaderShared_DeathLegs1"
    },
    {
      "Weight": 1.0,
      "SMD": "GD_Loadershared.Anims.Anim_LoaderShared_DeathLegs2"
    },
    {
      "Weight": 1.0,
      "SMD": "GD_Loadershared.Anims.Anim_LoaderShared_Death2"
    }
  ],
  "NextSpecialMove": null,
  "StopExpression": null,
  "bOwnerAlwaysRelevant": false,
  "bClientHasAuthority": false,
  "VfTableObject": "",
  "HashNext": "",
  "ObjectFlags": "",
  "HashOuterNext": "",
  "StateFrame": "",
  "Linker": null,
  "LinkerIndex": "",
  "ObjectInternalInteger": 190619,
  "NetIndex": 4336,
  "Outer": "GD_Loadershared.Anims",
  "Name": "AnimRandom_DeathLegs",
  "Class": "GearboxFramework.SpecialMoveRandom",
  "ObjectArchetype": "GearboxFramework.Default__SpecialMoveRandom"
}