{
  "RandomList": [
    {
      "Weight": 1.0,
      "SMD": "GD_MarauderShared.Anims.Anim_MarauderShared_DeathShock1"
    },
    {
      "Weight": 1.0,
      "SMD": "GD_MarauderShared.Anims.Anim_MarauderShared_DeathShock2"
    }
  ],
  "NextSpecialMove": null,
  "StopExpression": null,
  "bOwnerAlwaysRelevant": false,
  "bClientHasAuthority": false,
  "VfTableObject": "",
  "HashNext": "",
  "ObjectFlags": "",
  "HashOuterNext": "",
  "StateFrame": "",
  "Linker": null,
  "LinkerIndex": "",
  "ObjectInternalInteger": 160186,
  "NetIndex": 925,
  "Outer": "GD_MarauderShared.Anims",
  "Name": "AnimRandom_MarauderShared_ShockDeath",
  "Class": "GearboxFramework.SpecialMoveRandom",
  "ObjectArchetype": "GearboxFramework.Default__SpecialMoveRandom"
}