{
  "RandomList": [
    {
      "Weight": 1.0,
      "SMD": "GD_NomadShared.Anims.Anim_NomadShared_DeathIncendiary1"
    },
    {
      "Weight": 1.0,
      "SMD": "GD_NomadShared.Anims.Anim_NomadShared_DeathIncendiary2"
    }
  ],
  "NextSpecialMove": null,
  "StopExpression": null,
  "bOwnerAlwaysRelevant": false,
  "bClientHasAuthority": false,
  "VfTableObject": "",
  "HashNext": "",
  "ObjectFlags": "",
  "HashOuterNext": "",
  "StateFrame": "",
  "Linker": null,
  "LinkerIndex": "",
  "ObjectInternalInteger": 207260,
  "NetIndex": 1027,
  "Outer": "GD_NomadShared.Anims",
  "Name": "AnimRandom_NomadShared_IncendiaryDeath",
  "Class": "GearboxFramework.SpecialMoveRandom",
  "ObjectArchetype": "GearboxFramework.Default__SpecialMoveRandom"
}