{
  "RandomList": [
    {
      "Weight": 1.0,
      "SMD": "GD_Nast_ThresherDrunk.Anims.Anim_ThresherDrunk_Shoot1"
    },
    {
      "Weight": 1.0,
      "SMD": "GD_Nast_ThresherDrunk.Anims.Anim_ThresherDrunk_Shoot1M"
    },
    {
      "Weight": 1.0,
      "SMD": "GD_Nast_ThresherDrunk.Anims.Anim_ThresherDrunk_Shoot2"
    }
  ],
  "NextSpecialMove": null,
  "StopExpression": null,
  "bOwnerAlwaysRelevant": false,
  "bClientHasAuthority": false,
  "VfTableObject": "",
  "HashNext": "",
  "ObjectFlags": "",
  "HashOuterNext": "",
  "StateFrame": "",
  "Linker": null,
  "LinkerIndex": "",
  "ObjectInternalInteger": 190751,
  "NetIndex": 582,
  "Outer": "GD_Nast_ThresherDrunk.Anims",
  "Name": "AnimRandom_ThresherDrunkShoot",
  "Class": "GearboxFramework.SpecialMoveRandom",
  "ObjectArchetype": "GearboxFramework.Default__SpecialMoveRandom"
}