{
  "RandomList": [
    {
      "Weight": 1.0,
      "SMD": "GD_Nast_AnchorManShared.Anims.Anim_AnchorMan_Throw_R3"
    },
    {
      "Weight": 1.0,
      "SMD": "GD_Nast_AnchorManShared.Anims.Anim_AnchorMan_Throw_L3"
    },
    {
      "Weight": 1.0,
      "SMD": "GD_Nast_AnchorManShared.Anims.Anim_AnchorMan_Throw_R4"
    },
    {
      "Weight": 1.0,
      "SMD": "GD_Nast_AnchorManShared.Anims.Anim_AnchorMan_Throw_L4"
    }
  ],
  "NextSpecialMove": null,
  "StopExpression": null,
  "bOwnerAlwaysRelevant": false,
  "bClientHasAuthority": false,
  "VfTableObject": "",
  "HashNext": "",
  "ObjectFlags": "",
  "HashOuterNext": "",
  "StateFrame": "",
  "Linker": null,
  "LinkerIndex": "",
  "ObjectInternalInteger": 203734,
  "NetIndex": 2093,
  "Outer": "GD_Nast_AnchorManShared.Anims",
  "Name": "AnimRandom_AnchorMan_ThrowLong",
  "Class": "GearboxFramework.SpecialMoveRandom",
  "ObjectArchetype": "GearboxFramework.Default__SpecialMoveRandom"
}