{
  "RandomList": [
    {
      "Weight": 1.0,
      "SMD": "GD_Nast_Native_Shared.Anims.AnimMotion_HardFlinch1"
    },
    {
      "Weight": 1.0,
      "SMD": "GD_Nast_Native_Shared.Anims.AnimMotion_HardFlinch2"
    }
  ],
  "NextSpecialMove": null,
  "StopExpression": null,
  "bOwnerAlwaysRelevant": false,
  "bClientHasAuthority": false,
  "VfTableObject": "",
  "HashNext": "",
  "ObjectFlags": "",
  "HashOuterNext": "",
  "StateFrame": "",
  "Linker": null,
  "LinkerIndex": "",
  "ObjectInternalInteger": 212713,
  "NetIndex": 1051,
  "Outer": "GD_Nast_Native_Shared.Anims",
  "Name": "AnimRandom_FlinchArmLeft",
  "Class": "GearboxFramework.SpecialMoveRandom",
  "ObjectArchetype": "GearboxFramework.Default__SpecialMoveRandom"
}