{
  "RandomList": [
    {
      "Weight": 1.0,
      "SMD": "GD_Nast_Native_Warrior.Anims.Anim_Native_Melee1"
    },
    {
      "Weight": 1.0,
      "SMD": "GD_Nast_Native_Warrior.Anims.Anim_Native_Melee2"
    },
    {
      "Weight": 1.0,
      "SMD": "GD_Nast_Native_Warrior.Anims.Anim_Native_Melee3"
    }
  ],
  "NextSpecialMove": null,
  "StopExpression": null,
  "bOwnerAlwaysRelevant": false,
  "bClientHasAuthority": false,
  "VfTableObject": "",
  "HashNext": "",
  "ObjectFlags": "",
  "HashOuterNext": "",
  "StateFrame": "",
  "Linker": null,
  "LinkerIndex": "",
  "ObjectInternalInteger": 217649,
  "NetIndex": 1066,
  "Outer": "GD_Nast_Native_Warrior.Anims",
  "Name": "AnimRandom_DemonMelee",
  "Class": "GearboxFramework.SpecialMoveRandom",
  "ObjectArchetype": "GearboxFramework.Default__SpecialMoveRandom"
}