{
  "RandomList": [
    {
      "Weight": 1.0,
      "SMD": "GD_PrimalBeast_KONG.Anims.Anim_King_ThrowRock1"
    },
    {
      "Weight": 1.0,
      "SMD": "GD_PrimalBeast_KONG.Anims.Anim_King_ThrowRock1M"
    },
    {
      "Weight": 1.0,
      "SMD": "GD_PrimalBeast_KONG.Anims.Anim_King_ThrowRock1B"
    },
    {
      "Weight": 1.0,
      "SMD": "GD_PrimalBeast_KONG.Anims.Anim_King_ThrowRock1MB"
    }
  ],
  "NextSpecialMove": null,
  "StopExpression": null,
  "bOwnerAlwaysRelevant": false,
  "bClientHasAuthority": false,
  "VfTableObject": "",
  "HashNext": "",
  "ObjectFlags": "",
  "HashOuterNext": "",
  "StateFrame": "",
  "Linker": null,
  "LinkerIndex": "",
  "ObjectInternalInteger": 200464,
  "NetIndex": 870,
  "Outer": "GD_PrimalBeast_KONG.Anims",
  "Name": "AnimRandom_King_Throw",
  "Class": "GearboxFramework.SpecialMoveRandom",
  "ObjectArchetype": "GearboxFramework.Default__SpecialMoveRandom"
}