{
  "RandomList": [
    {
      "Weight": 1.0,
      "SMD": "GD_PrimalBeastShared.Anims.Anim_PrimalBeastShared_Melee4_Baby"
    },
    {
      "Weight": 1.0,
      "SMD": "GD_PrimalBeastShared.Anims.Anim_PrimalBeastShared_Melee4M_Baby"
    }
  ],
  "NextSpecialMove": null,
  "StopExpression": null,
  "bOwnerAlwaysRelevant": false,
  "bClientHasAuthority": false,
  "VfTableObject": "",
  "HashNext": "",
  "ObjectFlags": "",
  "HashOuterNext": "",
  "StateFrame": "",
  "Linker": null,
  "LinkerIndex": "",
  "ObjectInternalInteger": 222016,
  "NetIndex": 3795,
  "Outer": "GD_PrimalBeastShared.Anims",
  "Name": "AnimRandom_PrimalBeastMeleeBaby",
  "Class": "GearboxFramework.SpecialMoveRandom",
  "ObjectArchetype": "GearboxFramework.Default__SpecialMoveRandom"
}