{
  "RandomList": [
    {
      "Weight": 1.0,
      "SMD": "GD_SkagBadassShock.Anims.Anim_SkagBadassShock_Bite"
    },
    {
      "Weight": 1.0,
      "SMD": "GD_SkagBadassShock.Anims.Anim_SkagBadassShock_ClawL"
    },
    {
      "Weight": 1.0,
      "SMD": "GD_SkagBadassShock.Anims.Anim_SkagBadassShock_ClawR"
    }
  ],
  "NextSpecialMove": null,
  "StopExpression": null,
  "bOwnerAlwaysRelevant": false,
  "bClientHasAuthority": false,
  "VfTableObject": "",
  "HashNext": "",
  "ObjectFlags": "",
  "HashOuterNext": "",
  "StateFrame": "",
  "Linker": null,
  "LinkerIndex": "",
  "ObjectInternalInteger": 202537,
  "NetIndex": 331,
  "Outer": "GD_SkagBadassShock.Anims",
  "Name": "AnimRandom_SkagBadassShock_Melee",
  "Class": "GearboxFramework.SpecialMoveRandom",
  "ObjectArchetype": "GearboxFramework.Default__SpecialMoveRandom"
}