{
  "RandomList": [
    { "Weight": 1.0, "SMD": "GD_SkagRider.Anim.Anim_SkagRider_Dismount2" }
  ],
  "NextSpecialMove": null,
  "StopExpression": null,
  "bOwnerAlwaysRelevant": false,
  "bClientHasAuthority": false,
  "VfTableObject": "",
  "HashNext": "",
  "ObjectFlags": "",
  "HashOuterNext": "",
  "StateFrame": "",
  "Linker": null,
  "LinkerIndex": "",
  "ObjectInternalInteger": 220175,
  "NetIndex": 328,
  "Outer": "GD_SkagRider.Anim",
  "Name": "AnimRandom_SkagRider_Dismount",
  "Class": "GearboxFramework.SpecialMoveRandom",
  "ObjectArchetype": "GearboxFramework.Default__SpecialMoveRandom"
}