{
  "RandomList": [
    {
      "Weight": 1.0,
      "SMD":
        "GD_Sage_SM_BigFeetData.Creature.Anims.Anim_Sage_BigFeet_Creature_Shoot1"
    },
    {
      "Weight": 0.5,
      "SMD":
        "GD_Sage_SM_BigFeetData.Creature.Anims.Anim_Sage_BigFeet_Creature_Shoot2"
    }
  ],
  "NextSpecialMove": null,
  "StopExpression": null,
  "bOwnerAlwaysRelevant": false,
  "bClientHasAuthority": false,
  "VfTableObject": "",
  "HashNext": "",
  "ObjectFlags": "",
  "HashOuterNext": "",
  "StateFrame": "",
  "Linker": null,
  "LinkerIndex": "",
  "ObjectInternalInteger": 193723,
  "NetIndex": 1915,
  "Outer": "GD_Sage_SM_BigFeetData.Creature.Anims",
  "Name": "AnimRandom_Sage_BigFeet_Creature_Ranged",
  "Class": "GearboxFramework.SpecialMoveRandom",
  "ObjectArchetype": "GearboxFramework.Default__SpecialMoveRandom"
}