{
  "RandomList": [
    {
      "Weight": 1.0,
      "SMD": "GD_ThresherShared.Anims.Anim_ThresherRaid_Melee1"
    },
    {
      "Weight": 1.0,
      "SMD": "GD_ThresherShared.Anims.Anim_ThresherRaid_Melee1M"
    },
    {
      "Weight": 1.0,
      "SMD": "GD_ThresherShared.Anims.Anim_ThresherRaid_Melee2"
    },
    {
      "Weight": 1.0,
      "SMD": "GD_ThresherShared.Anims.Anim_ThresherRaid_Melee3"
    }
  ],
  "NextSpecialMove": null,
  "StopExpression": null,
  "bOwnerAlwaysRelevant": false,
  "bClientHasAuthority": false,
  "VfTableObject": "",
  "HashNext": "",
  "ObjectFlags": "",
  "HashOuterNext": "",
  "StateFrame": "",
  "Linker": null,
  "LinkerIndex": "",
  "ObjectInternalInteger": 228890,
  "NetIndex": 1709,
  "Outer": "GD_ThresherShared.Anims",
  "Name": "AnimRandom_ThresherRaidMelee",
  "Class": "GearboxFramework.SpecialMoveRandom",
  "ObjectArchetype": "GearboxFramework.Default__SpecialMoveRandom"
}