{
  "CustomProjectileDefinition": null,
  "FlashIconPartName": "",
  "FlashIconPartTint": { "R": 1.0, "G": 0.0, "B": 0.0, "A": 1.0 },
  "bAICanUse": true,
  "VfTable_IIBehaviorProvider": "",
  "PartType": "IP_Delta",
  "BehaviorProviderDefinition":
    "GD_GrenadeMods.Accessory.Accessory_Incendiary_Grade3:BehaviorProviderDefinition_0",
  "Material": null,
  "bIsGestaltMode": false,
  "GestaltModeSkeletalMeshName": null,
  "NongestaltSkeletalMesh": null,
  "MonetaryValueMod": null,
  "Rarity": {
    "BaseValueConstant": 0.0,
    "BaseValueAttribute": null,
    "InitializationDefinition": null,
    "BaseValueScaleConstant": 1.0
  },
  "MaterialVectorParameterValues": [
    {
      "ParameterName": "p_EmissiveColor",
      "ParameterValue": { "R": 4.02, "G": 0.27, "B": 0.0, "A": 1.0 },
      "ExpressionGUID": { "A": 0, "B": 0, "C": 0, "D": 0 }
    }
  ],
  "AttributeSlotUpgrades": [
    { "SlotName": "IsIncendiary", "GradeIncrease": 0, "bActivateSlot": true },
    {
      "SlotName": "StatusEffectChanceModifier_Incendiary",
      "GradeIncrease": 3,
      "bActivateSlot": true
    },
    {
      "SlotName": "StatusEffectDamage_Incendiary",
      "GradeIncrease": 0,
      "bActivateSlot": true
    }
  ],
  "AdditionalGestaltModeSkeletalMeshNames": [ null, null ],
  "VfTableObject": "",
  "HashNext": "",
  "ObjectFlags": "",
  "HashOuterNext": "",
  "StateFrame": "",
  "Linker": null,
  "LinkerIndex": "",
  "ObjectInternalInteger": 110975,
  "NetIndex": 2638,
  "Outer": "GD_GrenadeMods.Accessory",
  "Name": "Accessory_Incendiary_Grade3",
  "Class": "WillowGame.GrenadeModPartDefinition",
  "ObjectArchetype": "WillowGame.Default__GrenadeModPartDefinition"
}