{
  "CustomProjectileDefinition": "GD_GrenadeMods.Projectiles.Grenade_Lob",
  "FlashIconPartName": "lob",
  "FlashIconPartTint": { "R": 0.0, "G": 0.0, "B": 0.0, "A": 1.0 },
  "bAICanUse": true,
  "SetProjectileSequenceState": [
    { "Action": "CHANGE_Enable", "SequenceName": "Special_Sticky" }
  ],
  "VfTable_IIBehaviorProvider": "",
  "PartType": "IP_Beta",
  "BehaviorProviderDefinition": null,
  "ItemAttributeEffects": [
    {
      "AttributeToModify": "D_Attributes.GrenadeMod.FuseTime",
      "ModifierType": "MT_Scale",
      "BaseModifierValue": {
        "BaseValueConstant": -0.35,
        "BaseValueAttribute": null,
        "InitializationDefinition": null,
        "BaseValueScaleConstant": 1.0
      }
    }
  ],
  "PrefixList": [
    "GD_GrenadeMods.Prefix.Prefix_Lob_Sticky",
    "GD_GrenadeMods.Prefix.Prefix_Lob_Sticky_Bandit"
  ],
  "Material": null,
  "bIsGestaltMode": false,
  "GestaltModeSkeletalMeshName": null,
  "NongestaltSkeletalMesh": null,
  "MonetaryValueMod": null,
  "Rarity": {
    "BaseValueConstant": 0.0,
    "BaseValueAttribute": null,
    "InitializationDefinition": null,
    "BaseValueScaleConstant": 1.0
  },
  "AttributeSlotUpgrades": [
    { "SlotName": "FuseTime", "GradeIncrease": 2, "bActivateSlot": false }
  ],
  "AdditionalGestaltModeSkeletalMeshNames": [ null, null ],
  "VfTableObject": "",
  "HashNext": "",
  "ObjectFlags": "",
  "HashOuterNext": "",
  "StateFrame": "",
  "Linker": null,
  "LinkerIndex": "",
  "ObjectInternalInteger": 129174,
  "NetIndex": 2673,
  "Outer": "GD_GrenadeMods.Delivery",
  "Name": "Delivery_Lob_Sticky",
  "Class": "WillowGame.GrenadeModPartDefinition",
  "ObjectArchetype": "WillowGame.Default__GrenadeModPartDefinition"
}