{
  "CustomProjectileDefinition": null,
  "FlashIconPartName": "",
  "FlashIconPartTint": { "R": 0.0, "G": 0.0, "B": 0.0, "A": 1.0 },
  "bAICanUse": true,
  "VfTable_IIBehaviorProvider": "",
  "PartType": "IP_Material",
  "BehaviorProviderDefinition": null,
  "Material": "Weap_Grenades.Materials.Mati_GrenadeTorgueCommon",
  "bIsGestaltMode": true,
  "GestaltModeSkeletalMeshName": "Grenade_Torgue",
  "NongestaltSkeletalMesh": null,
  "MonetaryValueMod": null,
  "Rarity": {
    "BaseValueConstant": 0.0,
    "BaseValueAttribute": null,
    "InitializationDefinition": null,
    "BaseValueScaleConstant": 1.0
  },
  "AttributeSlotUpgrades": [
    { "SlotName": "ChildCount", "GradeIncrease": 2, "bActivateSlot": false }
  ],
  "AdditionalGestaltModeSkeletalMeshNames": [ null, null ],
  "VfTableObject": "",
  "HashNext": "",
  "ObjectFlags": "",
  "HashOuterNext": "",
  "StateFrame": "",
  "Linker": null,
  "LinkerIndex": "",
  "ObjectInternalInteger": 129233,
  "NetIndex": 2706,
  "Outer": "GD_GrenadeMods.Material",
  "Name": "Material_Torgue",
  "Class": "WillowGame.GrenadeModPartDefinition",
  "ObjectArchetype": "WillowGame.Default__GrenadeModPartDefinition"
}