{
  "CustomProjectileDefinition": null,
  "FlashIconPartName": "",
  "FlashIconPartTint": { "R": 0.0, "G": 0.0, "B": 0.0, "A": 1.0 },
  "bAICanUse": true,
  "VfTable_IIBehaviorProvider": "",
  "PartType": "IP_Epsilon",
  "BehaviorProviderDefinition": null,
  "Material": null,
  "bIsGestaltMode": false,
  "GestaltModeSkeletalMeshName": "Grenade_Area_Affect",
  "NongestaltSkeletalMesh": null,
  "MonetaryValueMod": "GD_Economy.Rarity.Att_Price_RarityMultiplier_03_Rare",
  "Rarity": {
    "BaseValueConstant": 0.0,
    "BaseValueAttribute": null,
    "InitializationDefinition": null,
    "BaseValueScaleConstant": 1.0
  },
  "AttributeSlotUpgrades": [
    { "SlotName": "Damage", "GradeIncrease": 4, "bActivateSlot": true }
  ],
  "AdditionalGestaltModeSkeletalMeshNames": [ null, null ],
  "VfTableObject": "",
  "HashNext": "",
  "ObjectFlags": "",
  "HashOuterNext": "",
  "StateFrame": "",
  "Linker": null,
  "LinkerIndex": "",
  "ObjectInternalInteger": 170980,
  "NetIndex": 220,
  "Outer": "GD_Iris_SeraphItems.MeteorShower",
  "Name": "Iris_Seraph_GrenadeMod_MeteorShower_Part_Damage4",
  "Class": "WillowGame.GrenadeModPartDefinition",
  "ObjectArchetype": "WillowGame.Default__GrenadeModPartDefinition"
}