{
  "VfTable_IIConstructObject": "",
  "DefaultInteractiveObject":
    "GD_Balance_Treasure.InteractiveObjects.InteractiveObj_PokerTable",
  "DefaultExpLevel": {
    "BaseValueConstant": 0.0,
    "BaseValueAttribute": null,
    "InitializationDefinition": null,
    "BaseValueScaleConstant": 1.0
  },
  "DefaultDisplayName": "",
  "DefaultLootGameStageVarianceFormula": null,
  "Grades": [
    {
      "GradeModifiers": {
        "CustomInteractiveObject": null,
        "DisplayName": null,
        "ExpLevel": {
          "BaseValueConstant": 0.0,
          "BaseValueAttribute": null,
          "InitializationDefinition": null,
          "BaseValueScaleConstant": 0.0
        },
        "IncludedCustomLootLists": null,
        "CustomLoot": null
      },
      "GameStageRequirement": { "MinGameStage": 1, "MaxGameStage": 100 },
      "MinSpawnProbabilityModifier": {
        "BaseValueConstant": 1.0,
        "BaseValueAttribute": null,
        "InitializationDefinition": null,
        "BaseValueScaleConstant": 1.0
      },
      "MaxSpawnProbabilityModifier": {
        "BaseValueConstant": 1.0,
        "BaseValueAttribute": null,
        "InitializationDefinition": null,
        "BaseValueScaleConstant": 1.0
      }
    }
  ],
  "DefaultLoot": [
    {
      "ConfigurationName": "StrongBox_Cash",
      "LootGameStageVarianceFormula": null,
      "Weight": {
        "BaseValueConstant": 1.0,
        "BaseValueAttribute": null,
        "InitializationDefinition": null,
        "BaseValueScaleConstant": 1.0
      },
      "ItemAttachments": [
        {
          "ItemPool": "GD_Itempools.AmmoAndResourcePools.Pool_Money_1",
          "PoolProbability": {
            "BaseValueConstant": 1.0,
            "BaseValueAttribute": null,
            "InitializationDefinition": null,
            "BaseValueScaleConstant": 1.0
          },
          "AttachmentPointName": "Ammo1"
        },
        {
          "ItemPool": "GD_Itempools.AmmoAndResourcePools.Pool_Money_1",
          "PoolProbability": {
            "BaseValueConstant": 1.0,
            "BaseValueAttribute": null,
            "InitializationDefinition": null,
            "BaseValueScaleConstant": 1.0
          },
          "AttachmentPointName": "Ammo2"
        },
        {
          "ItemPool": "GD_Itempools.AmmoAndResourcePools.Pool_Money_1",
          "PoolProbability": {
            "BaseValueConstant": 1.0,
            "BaseValueAttribute": null,
            "InitializationDefinition": null,
            "BaseValueScaleConstant": 1.0
          },
          "AttachmentPointName": "Ammo3"
        },
        {
          "ItemPool": "GD_Itempools.AmmoAndResourcePools.Pool_Money_1",
          "PoolProbability": {
            "BaseValueConstant": 1.0,
            "BaseValueAttribute": null,
            "InitializationDefinition": null,
            "BaseValueScaleConstant": 1.0
          },
          "AttachmentPointName": "Ammo4"
        },
        {
          "ItemPool": "GD_Itempools.AmmoAndResourcePools.Pool_Money_1",
          "PoolProbability": {
            "BaseValueConstant": 1.0,
            "BaseValueAttribute": null,
            "InitializationDefinition": null,
            "BaseValueScaleConstant": 1.0
          },
          "AttachmentPointName": "Ammo5"
        },
        {
          "ItemPool": "GD_Itempools.AmmoAndResourcePools.Pool_Money_1",
          "PoolProbability": {
            "BaseValueConstant": 1.0,
            "BaseValueAttribute": null,
            "InitializationDefinition": null,
            "BaseValueScaleConstant": 1.0
          },
          "AttachmentPointName": "Ammo6"
        },
        {
          "ItemPool": "GD_Itempools.AmmoAndResourcePools.Pool_Money_1",
          "PoolProbability": {
            "BaseValueConstant": 1.0,
            "BaseValueAttribute": null,
            "InitializationDefinition": null,
            "BaseValueScaleConstant": 1.0
          },
          "AttachmentPointName": "Ammo7"
        }
      ]
    }
  ],
  "VfTableObject": "",
  "HashNext": "",
  "ObjectFlags": "",
  "HashOuterNext": "",
  "StateFrame": "",
  "Linker": null,
  "LinkerIndex": "",
  "ObjectInternalInteger": 240333,
  "NetIndex": 5195,
  "Outer": "GD_Balance_Treasure.InteractiveObjects",
  "Name": "ObjectGrade_PokerTable_CashOnly",
  "Class": "WillowGame.InteractiveObjectBalanceDefinition",
  "ObjectArchetype": "WillowGame.Default__InteractiveObjectBalanceDefinition"
}