{
  "VfTable_IIConstructObject": "",
  "DefaultInteractiveObject":
    "GD_Explosives.Barrels.ExplodingBarrelIncendiaryHyperion",
  "DefaultExpLevel": {
    "BaseValueConstant": 0.0,
    "BaseValueAttribute": "GD_Balance.EnemyLevel.EnemyLevel_GameStage_Exact",
    "InitializationDefinition": null,
    "BaseValueScaleConstant": 1.0
  },
  "DefaultDisplayName": "Incendiary Barrel",
  "DefaultLootGameStageVarianceFormula": null,
  "Grades": [
    {
      "GradeModifiers": {
        "CustomInteractiveObject": null,
        "DisplayName": null,
        "ExpLevel": {
          "BaseValueConstant": 0.0,
          "BaseValueAttribute": null,
          "InitializationDefinition": null,
          "BaseValueScaleConstant": 1.0
        },
        "IncludedCustomLootLists": null,
        "CustomLoot": null
      },
      "GameStageRequirement": { "MinGameStage": 0, "MaxGameStage": 100 },
      "MinSpawnProbabilityModifier": {
        "BaseValueConstant": 1.0,
        "BaseValueAttribute": null,
        "InitializationDefinition": null,
        "BaseValueScaleConstant": 1.0
      },
      "MaxSpawnProbabilityModifier": {
        "BaseValueConstant": 1.0,
        "BaseValueAttribute": null,
        "InitializationDefinition": null,
        "BaseValueScaleConstant": 1.0
      }
    }
  ],
  "VfTableObject": "",
  "HashNext": "",
  "ObjectFlags": "",
  "HashOuterNext": "",
  "StateFrame": "",
  "Linker": null,
  "LinkerIndex": "",
  "ObjectInternalInteger": 231191,
  "NetIndex": 1157,
  "Outer": "GD_Explosives.BalanceDefs",
  "Name": "BD_BarrelIncendiaryHyperion",
  "Class": "WillowGame.InteractiveObjectBalanceDefinition",
  "ObjectArchetype": "WillowGame.Default__InteractiveObjectBalanceDefinition"
}