{
  "VfTable_IIConstructObject": "",
  "DefaultInteractiveObject":
    "GD_Balance_Treasure.InteractiveObjects.InteractiveObj_StrongBox",
  "DefaultExpLevel": {
    "BaseValueConstant": 0.0,
    "BaseValueAttribute": null,
    "InitializationDefinition": null,
    "BaseValueScaleConstant": 1.0
  },
  "DefaultDisplayName": "",
  "DefaultLootGameStageVarianceFormula": null,
  "Grades": [
    {
      "GradeModifiers": {
        "CustomInteractiveObject": null,
        "DisplayName": null,
        "ExpLevel": {
          "BaseValueConstant": 0.0,
          "BaseValueAttribute": null,
          "InitializationDefinition": null,
          "BaseValueScaleConstant": 0.0
        },
        "IncludedCustomLootLists": null,
        "CustomLoot": null
      },
      "GameStageRequirement": { "MinGameStage": 0, "MaxGameStage": 100 },
      "MinSpawnProbabilityModifier": {
        "BaseValueConstant": 1.0,
        "BaseValueAttribute": null,
        "InitializationDefinition": null,
        "BaseValueScaleConstant": 1.0
      },
      "MaxSpawnProbabilityModifier": {
        "BaseValueConstant": 1.0,
        "BaseValueAttribute": null,
        "InitializationDefinition": null,
        "BaseValueScaleConstant": 1.0
      }
    }
  ],
  "DefaultLoot": [
    {
      "ConfigurationName": "Eridium",
      "LootGameStageVarianceFormula": null,
      "Weight": {
        "BaseValueConstant": 100.0,
        "BaseValueAttribute": null,
        "InitializationDefinition": null,
        "BaseValueScaleConstant": 1.0
      },
      "ItemAttachments": [
        {
          "ItemPool": "GD_Episode05Data.ItemPool.IP_Ep5_EridiumShard",
          "PoolProbability": {
            "BaseValueConstant": 1.0,
            "BaseValueAttribute": null,
            "InitializationDefinition": null,
            "BaseValueScaleConstant": 1.0
          },
          "AttachmentPointName": "Ammo1"
        }
      ]
    }
  ],
  "VfTableObject": "",
  "HashNext": "",
  "ObjectFlags": "",
  "HashOuterNext": "",
  "StateFrame": "",
  "Linker": null,
  "LinkerIndex": "",
  "ObjectInternalInteger": 205640,
  "NetIndex": 243,
  "Outer": "GD_Episode05Data.BalanceDefs",
  "Name": "BD_Ep5_StrongBox_Eridium",
  "Class": "WillowGame.InteractiveObjectBalanceDefinition",
  "ObjectArchetype": "WillowGame.Default__InteractiveObjectBalanceDefinition"
}