{
  "VfTable_IIConstructObject": "",
  "DefaultInteractiveObject":
    "GD_LevelChallenges.InteractiveObjects.HyperionCity_SecurityCamera",
  "DefaultExpLevel": {
    "BaseValueConstant": 0.0,
    "BaseValueAttribute": null,
    "InitializationDefinition": null,
    "BaseValueScaleConstant": 1.0
  },
  "DefaultDisplayName": "Hyperion Security Camera",
  "DefaultLootGameStageVarianceFormula": null,
  "Grades": [
    {
      "GradeModifiers": {
        "CustomInteractiveObject": null,
        "DisplayName": null,
        "ExpLevel": {
          "BaseValueConstant": 1.0,
          "BaseValueAttribute":
            "GD_Balance.EnemyLevel.EnemyLevel_GameStage_Exact",
          "InitializationDefinition": null,
          "BaseValueScaleConstant": 1.0
        },
        "IncludedCustomLootLists": null,
        "CustomLoot": null
      },
      "GameStageRequirement": { "MinGameStage": 1, "MaxGameStage": 100 },
      "MinSpawnProbabilityModifier": {
        "BaseValueConstant": 1.0,
        "BaseValueAttribute": null,
        "InitializationDefinition": null,
        "BaseValueScaleConstant": 1.0
      },
      "MaxSpawnProbabilityModifier": {
        "BaseValueConstant": 1.0,
        "BaseValueAttribute": null,
        "InitializationDefinition": null,
        "BaseValueScaleConstant": 1.0
      }
    }
  ],
  "VfTableObject": "",
  "HashNext": "",
  "ObjectFlags": "",
  "HashOuterNext": "",
  "StateFrame": "",
  "Linker": null,
  "LinkerIndex": "",
  "ObjectInternalInteger": 216668,
  "NetIndex": 347,
  "Outer": "GD_LevelChallenges.BalanceDef",
  "Name": "HyperionCity_SecurityCamera",
  "Class": "WillowGame.InteractiveObjectBalanceDefinition",
  "ObjectArchetype": "WillowGame.Default__InteractiveObjectBalanceDefinition"
}