{
  "VfTable_IIConstructObject": "",
  "DefaultInteractiveObject":
    "GD_Orchid_TreasureChests.InteractiveObjects.InteractiveObj_PirateChest_Epic",
  "DefaultExpLevel": {
    "BaseValueConstant": 0.0,
    "BaseValueAttribute": null,
    "InitializationDefinition": null,
    "BaseValueScaleConstant": 1.0
  },
  "DefaultDisplayName": "",
  "DefaultLootGameStageVarianceFormula": null,
  "Grades": [
    {
      "GradeModifiers": {
        "CustomInteractiveObject": null,
        "DisplayName": null,
        "ExpLevel": {
          "BaseValueConstant": 0.0,
          "BaseValueAttribute": null,
          "InitializationDefinition": null,
          "BaseValueScaleConstant": 1.0
        },
        "IncludedCustomLootLists": null,
        "CustomLoot": null
      },
      "GameStageRequirement": { "MinGameStage": 1, "MaxGameStage": 100 },
      "MinSpawnProbabilityModifier": {
        "BaseValueConstant": 1.0,
        "BaseValueAttribute": null,
        "InitializationDefinition": null,
        "BaseValueScaleConstant": 1.0
      },
      "MaxSpawnProbabilityModifier": {
        "BaseValueConstant": 1.0,
        "BaseValueAttribute": null,
        "InitializationDefinition": null,
        "BaseValueScaleConstant": 1.0
      }
    }
  ],
  "DefaultIncludedLootLists": [
    "GD_Orchid_ItemPools.ListDefs.PirateChestEpicLoot"
  ],
  "VfTableObject": "",
  "HashNext": "",
  "ObjectFlags": "",
  "HashOuterNext": "",
  "StateFrame": "",
  "Linker": null,
  "LinkerIndex": "",
  "ObjectInternalInteger": 238131,
  "NetIndex": 432,
  "Outer": "GD_Orchid_TreasureChests.InteractiveObjects",
  "Name": "ObjectGrade_PirateChest_Epic",
  "Class": "WillowGame.InteractiveObjectBalanceDefinition",
  "ObjectArchetype": "WillowGame.Default__InteractiveObjectBalanceDefinition"
}