{
  "VfTable_IIConstructObject": "",
  "DefaultInteractiveObject":
    "GD_Z2_PoeticLicenseData.ItemDefs.LocationCamera_Flower",
  "DefaultExpLevel": {
    "BaseValueConstant": 0.0,
    "BaseValueAttribute": null,
    "InitializationDefinition": null,
    "BaseValueScaleConstant": 1.0
  },
  "DefaultDisplayName": "Inspiration Location",
  "DefaultLootGameStageVarianceFormula": null,
  "Grades": [
    {
      "GradeModifiers": {
        "CustomInteractiveObject": null,
        "DisplayName": "Inspiration Location",
        "ExpLevel": {
          "BaseValueConstant": 0.0,
          "BaseValueAttribute": null,
          "InitializationDefinition": null,
          "BaseValueScaleConstant": 1.0
        },
        "IncludedCustomLootLists": null,
        "CustomLoot": null
      },
      "GameStageRequirement": { "MinGameStage": 1, "MaxGameStage": 100 },
      "MinSpawnProbabilityModifier": {
        "BaseValueConstant": 1.0,
        "BaseValueAttribute": null,
        "InitializationDefinition": null,
        "BaseValueScaleConstant": 1.0
      },
      "MaxSpawnProbabilityModifier": {
        "BaseValueConstant": 1.0,
        "BaseValueAttribute": null,
        "InitializationDefinition": null,
        "BaseValueScaleConstant": 1.0
      }
    }
  ],
  "VfTableObject": "",
  "HashNext": "",
  "ObjectFlags": "",
  "HashOuterNext": "",
  "StateFrame": "",
  "Linker": null,
  "LinkerIndex": "",
  "ObjectInternalInteger": 198461,
  "NetIndex": 93,
  "Outer": "GD_Z2_PoeticLicenseData.BalanceDefs",
  "Name": "BD_PoeticLicense_LocationCamera_Flower",
  "Class": "WillowGame.InteractiveObjectBalanceDefinition",
  "ObjectArchetype": "WillowGame.Default__InteractiveObjectBalanceDefinition"
}