{
  "VfTable_IIDlcLicenseObject": "",
  "PackageDef": null,
  "ContentId": 0,
  "LicenseMask": 0,
  "ContentDisplayName": "",
  "VfTableObject": "",
  "HashNext": "",
  "ObjectFlags": "",
  "HashOuterNext": "",
  "StateFrame": "",
  "Linker": null,
  "LinkerIndex": "",
  "ObjectInternalInteger": 3843,
  "NetIndex": 20553,
  "Outer": "Package'WillowGame'",
  "Name": "Default__DownloadableVehicleDefinition",
  "Class": "WillowGame.DownloadableVehicleDefinition",
  "ObjectArchetype": "WillowGame.Default__DownloadableContentDefinition"
}