{
  "bDisableDuringTrade": true,
  "bDisableDuringVehicleUse": true,
  "VfTable_IIUsable": "",
  "Definition": "GD_PlayerShared.Trade.PlayerTradeInteractionDefinition",
  "bPassEventsToKismet": false,
  "bCostsToUse": false,
  "bCostsToSecondaryUse": false,
  "bSecondaryUsable": false,
  "CostsToUseType": "CURRENCY_Credits",
  "CostsToSecondaryUseType": "CURRENCY_Credits",
  "CostsToUseAmount": 0,
  "CostsToSecondaryUseAmount": 0,
  "CylinderComponent":
    "Loader.TheWorld:PersistentLevel.PawnInteractionProxy_33.CylinderComponent_2222",
  "bRecentlyTriggered": false,
  "AITriggerDelay": 2.0,
  "VfTable_IIWorldBody": "",
  "VfTable_IISpawnActor": "",
  "VfTable_IIDamageCauser": "",
  "Location": { "X": -580.049988, "Y": 7089.938477, "Z": 3640.387451 },
  "Rotation": { "Pitch": 0, "Yaw": 8288, "Roll": 0 },
  "DrawScale": 1.0,
  "DrawScale3D": { "X": 1.0, "Y": 1.0, "Z": 1.0 },
  "PrePivot": { "X": 0.0, "Y": 0.0, "Z": 0.0 },
  "DetachFence": "",
  "CustomTimeDilation": 1.0,
  "Physics": "PHYS_None",
  "RemoteRole": "ROLE_None",
  "Role": "ROLE_Authority",
  "CollisionType": "COLLIDE_TouchAll",
  "ReplicatedCollisionType": [ "INVALID" ],
  "TickGroup": "TG_PreAsyncWork",
  "Owner": "Loader.TheWorld:PersistentLevel.WillowPlayerPawn_33",
  "Base": "Loader.TheWorld:PersistentLevel.WillowPlayerPawn_33",
  "bUseOrthonormalizedLighting": false,
  "bStatic": false,
  "bHidden": true,
  "bNoDelete": false,
  "bDeleteMe": false,
  "bTicked": true,
  "bOnlyOwnerSee": false,
  "bTickIsDisabled": false,
  "bWorldGeometry": false,
  "bIgnoreRigidBodyPawns": false,
  "bOrientOnSlope": false,
  "bIgnoreEncroachers": false,
  "bPushedByEncroachers": true,
  "bRouteBeginPlayEvenIfStatic": true,
  "bIsMoving": false,
  "bAlwaysEncroachCheck": false,
  "bCanStepUpOn": false,
  "bNetTemporary": false,
  "bOnlyRelevantToOwner": false,
  "bNetDirty": true,
  "bAlwaysRelevant": false,
  "bReplicateInstigator": false,
  "bReplicateMovement": true,
  "bSkipRotationReplication": false,
  "bForceRotationReplication": false,
  "bSkipActorPropertyReplication": false,
  "bUpdateSimulatedPosition": false,
  "bTearOff": false,
  "bOnlyDirtyReplication": false,
  "bSkipHiddenReplication": false,
  "bAllowFluidSurfaceInteraction": true,
  "bDemoRecording": false,
  "bDemoOwner": false,
  "bForceDemoRelevant": false,
  "bNetInitialRotation": false,
  "bReplicateRigidBodyLocation": false,
  "bKillDuringLevelTransition": false,
  "bExchangedRoles": false,
  "bConsiderAllStaticMeshComponentsForStreaming": false,
  "bPostRenderIfNotVisible": false,
  "bForceNetUpdate": false,
  "bPendingNetUpdate": false,
  "bHardAttach": true,
  "bIgnoreBaseRotation": false,
  "bSkipAttachedMoves": true,
  "bHurtEntry": false,
  "bGameRelevant": false,
  "bMovable": true,
  "bDestroyInPainVolume": false,
  "bCanBeDamaged": false,
  "bShouldBaseAtStartup": false,
  "bPendingDelete": false,
  "bCanTeleport": false,
  "bAlwaysTick": false,
  "bBlocksNavigation": false,
  "bCanTarget": false,
  "bCanTargetCheat": false,
  "BlockRigidBody": false,
  "bCollideWhenPlacing": false,
  "bCollideActors": true,
  "bCollideWorld": false,
  "bCollideComplex": false,
  "bBlockActors": false,
  "bProjTarget": false,
  "bBlocksTeleport": false,
  "bProjectileMoveSingleBlocking": false,
  "bTraceListeners": false,
  "bIsBlockingMesh": false,
  "bIsWillowInteractiveObject": false,
  "bIgnoreRadiusDamageCheck": false,
  "bNoEncroachCheck": false,
  "bCollideAsEncroacher": false,
  "bPhysRigidBodyOutOfWorldCheck": false,
  "bComponentOutsideWorld": false,
  "bForceOctreeSNFilter": false,
  "bRigidBodyWasAwake": false,
  "bCallRigidBodyWakeEvents": false,
  "bBounce": false,
  "bJustTeleported": true,
  "bNetInitial": false,
  "bNetOwner": false,
  "bHiddenEd": false,
  "bEditable": true,
  "bHiddenEdLayer": false,
  "bHiddenEdTemporary": false,
  "bHiddenEdLevel": false,
  "bEdShouldSnap": false,
  "bTempEditor": false,
  "bPathColliding": false,
  "bPathTemp": false,
  "bScriptInitialized": true,
  "bLockLocation": false,
  "bForceAllowKismetModification": false,
  "bTraceIgnoreRigidBodyForPawns": false,
  "bAutoMovePlayerOnInterpActor": false,
  "bMoveActorDoZeroExtentTrace": false,
  "bDebugEffectIsRelevant": false,
  "bLoadIfPhysXLevel0": true,
  "bLoadIfPhysXLevel1": true,
  "bLoadIfPhysXLevel2": true,
  "NetTag": 0,
  "NetUpdateTime": 0.0,
  "NetUpdateFrequency": 100.0,
  "NetPriority": 1.0,
  "LastNetUpdateTime": 0.0,
  "Instigator": "Loader.TheWorld:PersistentLevel.WillowPlayerPawn_33",
  "WorldInfo": "Loader.TheWorld:PersistentLevel.WorldInfo_1",
  "LifeSpan": 0.0,
  "CreationTime": 0.4,
  "LastRenderTime": 0.0,
  "LatentFloat": 0.0,
  "PhysicsVolume": "Loader.TheWorld:PersistentLevel.DefaultPhysicsVolume_35",
  "Velocity": { "X": 0.0, "Y": 0.0, "Z": 0.0 },
  "Acceleration": { "X": 0.0, "Y": 0.0, "Z": 0.0 },
  "AngularVelocity": { "X": 0.0, "Y": 0.0, "Z": 0.0 },
  "BaseSkelComponent": null,
  "BaseBoneName": null,
  "RelativeLocation": { "X": 0.0, "Y": 0.0, "Z": 0.0 },
  "RelativeRotation": { "Pitch": 0, "Yaw": 0, "Roll": 0 },
  "CollisionComponent":
    "Loader.TheWorld:PersistentLevel.PawnInteractionProxy_33.CylinderComponent_2222",
  "OverlapTag": 537216539,
  "RotationRate": { "Pitch": 0, "Yaw": 0, "Roll": 0 },
  "MostRecentDamageTaken": 0.0,
  "Touching": [
    "TempleSlaughter_Combat.TheWorld:PersistentLevel.WillowTrigger_2",
    "TempleSlaughter_Combat.TheWorld:PersistentLevel.WillowWaypoint_1",
    "TempleSlaughter_P.TheWorld:PersistentLevel.ResurrectTravelStation_0",
    "TempleSlaughter_Combat.TheWorld:PersistentLevel.TriggerVolume_1"
  ],
  "AllComponents": [
    "Loader.TheWorld:PersistentLevel.PawnInteractionProxy_33.CylinderComponent_2222"
  ],
  "Components": [
    "Loader.TheWorld:PersistentLevel.PawnInteractionProxy_33.CylinderComponent_2222"
  ],
  "VfTableObject": "",
  "HashNext": "",
  "ObjectFlags": "",
  "HashOuterNext": "",
  "StateFrame": "",
  "Linker": null,
  "LinkerIndex": "",
  "ObjectInternalInteger": 233492,
  "NetIndex": -1,
  "Outer": "Loader.TheWorld:PersistentLevel",
  "Name": "PawnInteractionProxy_33",
  "Class": "WillowGame.PawnInteractionProxy",
  "ObjectArchetype": "WillowGame.Default__PawnInteractionProxy"
}