{
  "FallbackEffect": {
    "bCensorThisEffect": false,
    "CensoredEffectAlternative": null,
    "DamageModifierPercent": 1.0,
    "ImpactEvent": null,
    "AINoiseLevel": 0.0,
    "ParticleTemplate": null,
    "bAttachParticleToHitActor": false,
    "bHideEffectFromHitActor": false,
    "MaxEffectDistance": 0.0,
    "DecalMaterials": [
      "FX_CREA_SpiderAnt.Decals.MatiTV_SpiderAnt_Web_Fiery_Decal",
      "FX_CREA_SpiderAnt.Decals.MatiTV_SpiderAnt_Web_Fiery_Decal"
    ],
    "DecalWidth": 512.0,
    "DecalHeight": 512.0,
    "DecalMinScale": 1.0,
    "DecalMaxScale": 1.4,
    "DecalDepth": 10.0,
    "DecalRandomRotation": true,
    "DecalCreateNewMaterialInstanceConstant": false,
    "ImpactFlashLightClass": null,
    "EffectParameters": {
      "ParticleParameters": null,
      "FontParameterValues": null,
      "ScalarParameterValues": [
        {
          "ParameterName": "FadeOut",
          "ParameterValue": 1.0,
          "ExpressionGUID": { "A": 0, "B": 0, "C": 0, "D": 0 }
        }
      ],
      "TextureParameterValues": null,
      "VectorParameterValues": null,
      "RtpcParameterValues": null,
      "bNoSound": false
    }
  },
  "Usage": "IU_None",
  "Parent": null,
  "AlternateImpactDefinition": null,
  "UnconditionalResponse": {
    "bCensorThisEffect": false,
    "CensoredEffectAlternative": null,
    "DamageModifierPercent": 1.0,
    "ImpactEvent": null,
    "AINoiseLevel": 0.0,
    "ParticleTemplate": null,
    "bAttachParticleToHitActor": false,
    "bHideEffectFromHitActor": false,
    "MaxEffectDistance": 0.0,
    "DecalMaterials": null,
    "DecalWidth": 16.0,
    "DecalHeight": 16.0,
    "DecalMinScale": 1.0,
    "DecalMaxScale": 1.0,
    "DecalDepth": 10.0,
    "DecalRandomRotation": false,
    "DecalCreateNewMaterialInstanceConstant": false,
    "ImpactFlashLightClass": null,
    "EffectParameters": {
      "ParticleParameters": null,
      "FontParameterValues": null,
      "ScalarParameterValues": null,
      "TextureParameterValues": null,
      "VectorParameterValues": null,
      "RtpcParameterValues": null,
      "bNoSound": false
    }
  },
  "ImpactAkEvent": null,
  "VfTableObject": "",
  "HashNext": "",
  "ObjectFlags": "",
  "HashOuterNext": "",
  "StateFrame": "",
  "Linker": null,
  "LinkerIndex": "",
  "ObjectInternalInteger": 216102,
  "NetIndex": 2395,
  "Outer": "GD_SpiderantShared.Impact",
  "Name": "Impact_Web_Fiery_Med",
  "Class": "WillowGame.WillowImpactDefinition",
  "ObjectArchetype": "WillowGame.Default__WillowImpactDefinition"
}