{
  "WorldDiscoveryStatID": "STAT_PLAYER_AREAS_DISCOVERED",
  "NumWorldDiscoveryAreas": 0,
  "VfTableObject": "",
  "HashNext": "",
  "ObjectFlags": "",
  "HashOuterNext": "",
  "StateFrame": "",
  "Linker": null,
  "LinkerIndex": "",
  "ObjectInternalInteger": 125013,
  "NetIndex": 0,
  "Outer": "Package'GD_GameRelease'",
  "Name": "MainGameReleaseInformation",
  "Class": "WillowGame.GameReleaseDefinition",
  "ObjectArchetype": "WillowGame.Default__GameReleaseDefinition"
}