{
  "WorldDiscoveryStatID": null,
  "NumWorldDiscoveryAreas": 0,
  "VfTableObject": "",
  "HashNext": "",
  "ObjectFlags": "",
  "HashOuterNext": "",
  "StateFrame": "",
  "Linker": null,
  "LinkerIndex": "",
  "ObjectInternalInteger": 176030,
  "NetIndex": 11,
  "Outer": "Package'GD_OrchidPackageDef'",
  "Name": "GameRelease_Orchid",
  "Class": "WillowGame.GameReleaseDefinition",
  "ObjectArchetype": "WillowGame.Default__GameReleaseDefinition"
}