{
  "bIsSpecial": true,
  "bIsUnique": false,
  "bIsPartiallyUnique": false,
  "bIsConsoleMessage": true,
  "bBeep": false,
  "bCountInstances": false,
  "Lifetime": 3.0,
  "DrawColor": { "B": 255, "G": 255, "R": 255, "A": 255 },
  "MsgType": "LMT_System",
  "VfTableObject": "",
  "HashNext": "",
  "ObjectFlags": "",
  "HashOuterNext": "",
  "StateFrame": "",
  "Linker": null,
  "LinkerIndex": "",
  "ObjectInternalInteger": 77379,
  "NetIndex": 27233,
  "Outer": "Package'WillowGame'",
  "Name": "Default__LocalWeaponMessage",
  "Class": "WillowGame.LocalWeaponMessage",
  "ObjectArchetype": "WillowGame.Default__WillowLocalMessage"
}