{
  "Type": "MT_PreAdd",
  "Value": 2.4,
  "VfTableObject": "",
  "HashNext": "",
  "ObjectFlags": "",
  "HashOuterNext": "",
  "StateFrame": "",
  "Linker": null,
  "LinkerIndex": "",
  "ObjectInternalInteger": 191052,
  "NetIndex": -1,
  "Outer": "Package'Transient'",
  "Name": "AttributeModifier_1230",
  "Class": "Core.AttributeModifier",
  "ObjectArchetype": "Core.Default__AttributeModifier"
}