{
  "Type": "MT_Scale",
  "Value": 0.52,
  "VfTableObject": "",
  "HashNext": "",
  "ObjectFlags": "",
  "HashOuterNext": "",
  "StateFrame": "",
  "Linker": null,
  "LinkerIndex": "",
  "ObjectInternalInteger": 237007,
  "NetIndex": -1,
  "Outer": "Package'Transient'",
  "Name": "AttributeModifier_150622",
  "Class": "Core.AttributeModifier",
  "ObjectArchetype": "Core.Default__AttributeModifier"
}