{
  "Type": "MT_PreAdd",
  "Value": 0.0,
  "VfTableObject": "",
  "HashNext": "",
  "ObjectFlags": "",
  "HashOuterNext": "",
  "StateFrame": "",
  "Linker": null,
  "LinkerIndex": "",
  "ObjectInternalInteger": 230827,
  "NetIndex": -1,
  "Outer": "Package'Transient'",
  "Name": "AttributeModifier_137452",
  "Class": "Core.AttributeModifier",
  "ObjectArchetype": "Core.Default__AttributeModifier"
}