{
  "Type": "MT_Scale",
  "Value": -0.2,
  "VfTableObject": "",
  "HashNext": "",
  "ObjectFlags": "",
  "HashOuterNext": "",
  "StateFrame": "",
  "Linker": null,
  "LinkerIndex": "",
  "ObjectInternalInteger": 210324,
  "NetIndex": -1,
  "Outer": "Package'Transient'",
  "Name": "AttributeModifier_147394",
  "Class": "Core.AttributeModifier",
  "ObjectArchetype": "Core.Default__AttributeModifier"
}