{
  "Type": "MT_PostAdd",
  "Value": 1.0,
  "VfTableObject": "",
  "HashNext": "",
  "ObjectFlags": "",
  "HashOuterNext": "",
  "StateFrame": "",
  "Linker": null,
  "LinkerIndex": "",
  "ObjectInternalInteger": 232272,
  "NetIndex": -1,
  "Outer": "Package'Transient'",
  "Name": "AttributeModifier_142355",
  "Class": "Core.AttributeModifier",
  "ObjectArchetype": "Core.Default__AttributeModifier"
}