{
  "Type": "MT_PreAdd",
  "Value": 109071.226563,
  "VfTableObject": "",
  "HashNext": "",
  "ObjectFlags": "",
  "HashOuterNext": "",
  "StateFrame": "",
  "Linker": null,
  "LinkerIndex": "",
  "ObjectInternalInteger": 231370,
  "NetIndex": -1,
  "Outer": "Package'Transient'",
  "Name": "AttributeModifier_79048",
  "Class": "Core.AttributeModifier",
  "ObjectArchetype": "Core.Default__AttributeModifier"
}