{
  "bDirectDamage": true,
  "bSeversHead": false,
  "bCauseConvulsions": false,
  "bUseTearOffMomentum": false,
  "bThrowRagdoll": false,
  "bLeaveBodyEffect": false,
  "bBulletHit": false,
  "bVehicleHit": false,
  "bCausesBlood": true,
  "GibPerterbation": 0.06,
  "DamageWeaponClass": null,
  "DamageWeaponFireMode": 0,
  "UBMKilledByMessageString": "",
  "bArmorStops": false,
  "bCausedByWorld": false,
  "bExtraMomentumZ": true,
  "bCausesFracture": false,
  "bRadialDamageVelChange": false,
  "KDamageImpulse": 800.0,
  "KDeathVel": 0.0,
  "KDeathUpKick": 0.0,
  "RadialDamageImpulse": 0.0,
  "VehicleDamageScaling": 1.0,
  "VehicleMomentumScaling": 1.0,
  "DamagedFFWaveform": null,
  "KilledFFWaveform": null,
  "FracturedMeshDamage": 1.0,
  "VfTableObject": "",
  "HashNext": "",
  "ObjectFlags": "",
  "HashOuterNext": "",
  "StateFrame": "",
  "Linker": null,
  "LinkerIndex": "",
  "ObjectInternalInteger": 87206,
  "NetIndex": 38634,
  "Outer": "Package'WillowGame'",
  "Name": "Default__WillowDmgType_VehicleCollision",
  "Class": "WillowGame.WillowDmgType_VehicleCollision",
  "ObjectArchetype": "WillowGame.Default__WillowDamageType"
}