{
  "Resource": "D_Resources.Health",
  "bIsSimpleAttribute": false,
  "AttributeDataType": "ADT_Float",
  "ValueResolverChain": [
    "D_Attributes.HealthResourcePool.HealthActiveRegenerationRate:ObjectPropertyAttributeValueResolver_713"
  ],
  "ContextResolverChain": [
    "D_Attributes.HealthResourcePool.HealthActiveRegenerationRate:ResourcePoolAttributeContextResolver_15"
  ],
  "VfTableObject": "",
  "HashNext": "",
  "ObjectFlags": "",
  "HashOuterNext": "",
  "StateFrame": "",
  "Linker": null,
  "LinkerIndex": "",
  "ObjectInternalInteger": 109284,
  "NetIndex": 1812,
  "Outer": "D_Attributes.HealthResourcePool",
  "Name": "HealthActiveRegenerationRate",
  "Class": "WillowGame.ResourcePoolAttributeDefinition",
  "ObjectArchetype":
    "D_Attributes.ResourcePoolAttributeTemplate.TemplateActiveRegenerationRate"
}