{
  "Resource": "D_Resources.AmmoResources.Ammo_Grenade_Protean",
  "bIsSimpleAttribute": true,
  "AttributeDataType": "ADT_Float",
  "ValueResolverChain": [
    "D_Attributes.Ammo_Grenade_Protean.Ammo_Grenade_ProteanCurrentValue:ObjectPropertyAttributeValueResolver_659"
  ],
  "ContextResolverChain": [
    "D_Attributes.Ammo_Grenade_Protean.Ammo_Grenade_ProteanCurrentValue:ResourcePoolAttributeContextResolver_12"
  ],
  "VfTableObject": "",
  "HashNext": "",
  "ObjectFlags": "",
  "HashOuterNext": "",
  "StateFrame": "",
  "Linker": null,
  "LinkerIndex": "",
  "ObjectInternalInteger": 109101,
  "NetIndex": 1762,
  "Outer": "D_Attributes.Ammo_Grenade_Protean",
  "Name": "Ammo_Grenade_ProteanCurrentValue",
  "Class": "WillowGame.ResourcePoolAttributeDefinition",
  "ObjectArchetype": "WillowGame.Default__ResourcePoolAttributeDefinition"
}