{
  "Resource": "D_Resources.Afterburner",
  "bIsSimpleAttribute": false,
  "AttributeDataType": "ADT_Float",
  "ValueResolverChain": [
    "D_Attributes.AfterburnerResource.AfterburnerOnIdleRegenerationRate:ObjectPropertyAttributeValueResolver_645"
  ],
  "ContextResolverChain": [
    "D_Attributes.AfterburnerResource.AfterburnerOnIdleRegenerationRate:ResourcePoolAttributeContextResolver_65"
  ],
  "VfTableObject": "",
  "HashNext": "",
  "ObjectFlags": "",
  "HashOuterNext": "",
  "StateFrame": "",
  "Linker": null,
  "LinkerIndex": "",
  "ObjectInternalInteger": 107154,
  "NetIndex": 1758,
  "Outer": "D_Attributes.AfterburnerResource",
  "Name": "AfterburnerOnIdleRegenerationRate",
  "Class": "WillowGame.ResourcePoolAttributeDefinition",
  "ObjectArchetype": "WillowGame.Default__ResourcePoolAttributeDefinition"
}