{
  "Resource": "D_Resources.AmmoResources.Ammo_Patrol_SMG",
  "bIsSimpleAttribute": false,
  "AttributeDataType": "ADT_Float",
  "ValueResolverChain": [
    "D_Attributes.AmmoResource_Patrol_SMG.Ammo_Patrol_SMG_MaxValue:ObjectPropertyAttributeValueResolver_674"
  ],
  "ContextResolverChain": [
    "D_Attributes.AmmoResource_Patrol_SMG.Ammo_Patrol_SMG_MaxValue:ResourcePoolAttributeContextResolver_32"
  ],
  "VfTableObject": "",
  "HashNext": "",
  "ObjectFlags": "",
  "HashOuterNext": "",
  "StateFrame": "",
  "Linker": null,
  "LinkerIndex": "",
  "ObjectInternalInteger": 107125,
  "NetIndex": 1783,
  "Outer": "D_Attributes.AmmoResource_Patrol_SMG",
  "Name": "Ammo_Patrol_SMG_MaxValue",
  "Class": "WillowGame.ResourcePoolAttributeDefinition",
  "ObjectArchetype": "WillowGame.Default__ResourcePoolAttributeDefinition"
}