{
  "VfTable_IIConstructObject": "",
  "VfTable_IIBehaviorProvider": "",
  "bAutoUpdateContexts": true,
  "bCanBeToggledOff": false,
  "bDoNotShiftPastCurrentTime": true,
  "bSubjectToGradeRules": false,
  "SkillEffectUpdateIterval": 0.5,
  "SkillName": "Antagonist Shield Skill",
  "SkillDescription": "",
  "ScaleformFrameName": "",
  "SkillType": "SKILL_TYPE_Passive",
  "DurationType": "DURATION_Infinite",
  "TrackedSkillType": "TRACKEDSKILL_Untracked",
  "TrackedSkillHUDSlot": 0,
  "InitialDuration": 0.0,
  "BaseRange": 0.0,
  "EffectSourceInstanceDataName": null,
  "ActionSkillArchetype": null,
  "DefaultStartingGrade": 0,
  "MaxGrade": 12,
  "PlayerLevelRequirement": 0,
  "SkillIcon": null,
  "CustomStackCount": null,
  "TrackedActiveSkill": null,
  "SkillClass": "WillowGame.Skill",
  "LockedSkillDetailStr": "<Locked>",
  "BehaviorProviderDefinition":
    "GD_Aster_Shields.Skills.Antagonist_Shield_Skill:BehaviorProviderDefinition_0",
  "DamageEvents": [
    {
      "EventType": "SDE_DamagedByEnemy",
      "EventConstraints": null,
      "EventName": "Damaged By Enemy"
    }
  ],
  "VfTableObject": "",
  "HashNext": "",
  "ObjectFlags": "",
  "HashOuterNext": "",
  "StateFrame": "",
  "Linker": null,
  "LinkerIndex": "",
  "ObjectInternalInteger": 163301,
  "NetIndex": 143,
  "Outer": "GD_Aster_Shields.Skills",
  "Name": "Antagonist_Shield_Skill",
  "Class": "WillowGame.SkillDefinition",
  "ObjectArchetype": "WillowGame.Default__SkillDefinition"
}