{
  "VfTable_IIConstructObject": "",
  "VfTable_IIBehaviorProvider": "",
  "bAutoUpdateContexts": true,
  "bCanBeToggledOff": false,
  "bDoNotShiftPastCurrentTime": true,
  "bSubjectToGradeRules": true,
  "SkillEffectUpdateIterval": 0.5,
  "SkillName": "Resurgence",
  "SkillDescription":
    "Killing an enemy with a [skill]melee attack[-skill] restores [skill]health[-skill].  The lower your health, the more health you receive.",
  "ScaleformFrameName": "",
  "SkillType": "SKILL_TYPE_Passive",
  "DurationType": "DURATION_Infinite",
  "TrackedSkillType": "TRACKEDSKILL_Untracked",
  "TrackedSkillHUDSlot": 7,
  "InitialDuration": 0.0,
  "BaseRange": 0.0,
  "EffectSourceInstanceDataName": null,
  "ActionSkillArchetype": null,
  "DefaultStartingGrade": 0,
  "MaxGrade": 5,
  "PlayerLevelRequirement": 0,
  "SkillIcon": "SharedSkillIcons_Assassin.SkillIcon-Resurgence",
  "CustomStackCount": null,
  "TrackedActiveSkill": null,
  "SkillClass": "WillowGame.Skill",
  "LockedSkillDetailStr": "<Locked>",
  "BehaviorProviderDefinition":
    "GD_Assassin_Skills.Bloodshed.Resurgence:BehaviorProviderDefinition_0",
  "KillEvents": [
    {
      "EventType": "SKE_KilledEnemy",
      "EventConstraints": [
        {
          "DamageTypeConstraint": null,
          "DamageSourceConstraint": "WillowGame.WillowDmgSource_Melee",
          "bMustBeCriticalDamage": false,
          "bMustBeOneShotKill": false
        }
      ],
      "EventName": "KilledEnemyWithMelee"
    }
  ],
  "TrackedActiveSkills": [ "GD_Assassin_Skills.Bloodshed.Resurgence_Active" ],
  "SkillEffectPresentations": [
    "GD_Assassin_Skills.Bloodshed.Resurgence:AttributePresentationDefinition_0"
  ],
  "SkillConstraints": [
    {
      "bApplyConstraintOnActivatation": true,
      "bApplyConstraintWhileActive": true,
      "bApplyConstraintWhilePaused": true,
      "OnFailure": "SKILL_Paused",
      "Evaluator": null,
      "EvaluatorDefinitions": [
        "GD_PlayerShared.SkillConstraints.SkillConstraint_OnFootOrRidingInBack"
      ]
    }
  ],
  "SkillEffectDefinitions": [
    {
      "AttributeToModify":
        "D_Attributes.HealthResourcePool.HealthPassiveRegenerationRate",
      "bIncludeDuelingTargets": false,
      "bIncludeSelfAsTarget": false,
      "bOnlyEffectTargetsInRange": false,
      "bExcludeNonPlayerCharacters": false,
      "EffectTarget": "TARGET_None",
      "TargetInstanceDataName": null,
      "TargetCriteria": "CRITERIA_None",
      "ModifierType": "MT_Scale",
      "BaseModifierValue": {
        "BaseValueConstant": 0.05,
        "BaseValueAttribute":
          "GD_Assassin_Skills.Misc.Att_Resurgence_HealthRestorePerLevel",
        "InitializationDefinition": null,
        "BaseValueScaleConstant": 1.0
      },
      "GradeToStartApplyingEffect": 1,
      "PerGradeUpgradeInterval": 1,
      "PerGradeUpgrade": {
        "BaseValueConstant": 0.05,
        "BaseValueAttribute":
          "GD_Assassin_Skills.Misc.Att_Resurgence_HealthRestorePerLevel",
        "InitializationDefinition": null,
        "BaseValueScaleConstant": 1.0
      },
      "BonusUpgradeList": null
    }
  ],
  "VfTableObject": "",
  "HashNext": "",
  "ObjectFlags": "",
  "HashOuterNext": "",
  "StateFrame": "",
  "Linker": null,
  "LinkerIndex": "",
  "ObjectInternalInteger": 211091,
  "NetIndex": 1500,
  "Outer": "GD_Assassin_Skills.Bloodshed",
  "Name": "Resurgence",
  "Class": "WillowGame.SkillDefinition",
  "ObjectArchetype": "WillowGame.Default__SkillDefinition"
}