{
  "VfTable_IIConstructObject": "",
  "VfTable_IIBehaviorProvider": "",
  "bAutoUpdateContexts": true,
  "bCanBeToggledOff": false,
  "bDoNotShiftPastCurrentTime": true,
  "bSubjectToGradeRules": false,
  "SkillEffectUpdateIterval": 0.5,
  "SkillName": "PeteFakeCorrosive",
  "SkillDescription": "",
  "ScaleformFrameName": "",
  "SkillType": "SKILL_TYPE_Passive",
  "DurationType": "DURATION_Timed",
  "TrackedSkillType": "TRACKEDSKILL_Untracked",
  "TrackedSkillHUDSlot": 0,
  "InitialDuration": 180.0,
  "BaseRange": 0.0,
  "EffectSourceInstanceDataName": null,
  "ActionSkillArchetype": null,
  "DefaultStartingGrade": 0,
  "MaxGrade": 12,
  "PlayerLevelRequirement": 0,
  "SkillIcon": null,
  "CustomStackCount": null,
  "TrackedActiveSkill": null,
  "SkillClass": "WillowGame.Skill",
  "LockedSkillDetailStr": "<Locked>",
  "BehaviorProviderDefinition":
    "GD_Iris_Raid_PyroPete.Skills.Skill_FakeCorrosiveStatusEffect:BehaviorProviderDefinition_0",
  "VfTableObject": "",
  "HashNext": "",
  "ObjectFlags": "",
  "HashOuterNext": "",
  "StateFrame": "",
  "Linker": null,
  "LinkerIndex": "",
  "ObjectInternalInteger": 217105,
  "NetIndex": 5216,
  "Outer": "GD_Iris_Raid_PyroPete.Skills",
  "Name": "Skill_FakeCorrosiveStatusEffect",
  "Class": "WillowGame.SkillDefinition",
  "ObjectArchetype": "WillowGame.Default__SkillDefinition"
}