{
  "VfTable_IIConstructObject": "",
  "VfTable_IIBehaviorProvider": "",
  "bAutoUpdateContexts": false,
  "bCanBeToggledOff": false,
  "bDoNotShiftPastCurrentTime": true,
  "bSubjectToGradeRules": true,
  "SkillEffectUpdateIterval": 0.5,
  "SkillName": "Fuel the Frenzy",
  "SkillDescription":
    "Killing an enemy with a melee attack increases your [skill]Melee Damage[-skill] and adds a number of [skill]Bloodlust[-skill] stacks.",
  "ScaleformFrameName": "",
  "SkillType": "SKILL_TYPE_Passive",
  "DurationType": "DURATION_Timed",
  "TrackedSkillType": "TRACKEDSKILL_Kill",
  "TrackedSkillHUDSlot": 4,
  "InitialDuration": 0.0,
  "BaseRange": 0.0,
  "EffectSourceInstanceDataName": null,
  "ActionSkillArchetype": null,
  "DefaultStartingGrade": 0,
  "MaxGrade": 5,
  "PlayerLevelRequirement": 0,
  "SkillIcon": "UI_Lilac_SharedSkillIcons_Psyc.SkillIcon-Psycho03",
  "CustomStackCount": null,
  "TrackedActiveSkill": null,
  "SkillClass": "WillowGame.Skill",
  "LockedSkillDetailStr": "<Locked>",
  "BehaviorProviderDefinition":
    "GD_Lilac_Skills_Bloodlust.Skills.FuelTheBloodChild:BehaviorProviderDefinition_8",
  "KillEvents": [
    {
      "EventType": "SKE_KilledEnemy",
      "EventConstraints": [
        {
          "DamageTypeConstraint": null,
          "DamageSourceConstraint": "WillowGame.WillowDmgSource_Melee",
          "bMustBeCriticalDamage": false,
          "bMustBeOneShotKill": false
        },
        {
          "DamageTypeConstraint": null,
          "DamageSourceConstraint":
            "WillowGame.WillowDmgSource_MeleeWithBlade",
          "bMustBeCriticalDamage": false,
          "bMustBeOneShotKill": false
        }
      ],
      "EventName": "KilledEnemyWithMelee"
    }
  ],
  "TrackedActiveSkills": [ "GD_Lilac_Skills_Bloodlust.Skills.FuelTheBlood" ],
  "SkillConstraints": [
    {
      "bApplyConstraintOnActivatation": true,
      "bApplyConstraintWhileActive": true,
      "bApplyConstraintWhilePaused": true,
      "OnFailure": "SKILL_Paused",
      "Evaluator": null,
      "EvaluatorDefinitions": [
        "GD_PlayerShared.SkillConstraints.SkillConstraint_OnFootOrRidingInBack"
      ]
    }
  ],
  "SkillEffectDefinitions": [
    {
      "AttributeToModify":
        "D_Attributes.DamageSourceModifiers.InstigatedGrenadeDamageModifier",
      "bIncludeDuelingTargets": false,
      "bIncludeSelfAsTarget": true,
      "bOnlyEffectTargetsInRange": false,
      "bExcludeNonPlayerCharacters": false,
      "EffectTarget": "TARGET_Self",
      "TargetInstanceDataName": null,
      "TargetCriteria": "CRITERIA_None",
      "ModifierType": "MT_Scale",
      "BaseModifierValue": {
        "BaseValueConstant": 0.06,
        "BaseValueAttribute":
          "GD_Lilac_Skills_Bloodlust.Attributes.Att_Bloodlust_StackCount",
        "InitializationDefinition":
          "GD_Lilac_Skills_Bloodlust.Attributes.Init_FuelTheFrenzy_GrenadeDamageModifier",
        "BaseValueScaleConstant": 1.0
      },
      "GradeToStartApplyingEffect": 1,
      "PerGradeUpgradeInterval": 1,
      "PerGradeUpgrade": {
        "BaseValueConstant": 0.06,
        "BaseValueAttribute": null,
        "InitializationDefinition": null,
        "BaseValueScaleConstant": 1.0
      },
      "BonusUpgradeList": null
    }
  ],
  "VfTableObject": "",
  "HashNext": "",
  "ObjectFlags": "",
  "HashOuterNext": "",
  "StateFrame": "",
  "Linker": null,
  "LinkerIndex": "",
  "ObjectInternalInteger": 192736,
  "NetIndex": 925,
  "Outer": "GD_Lilac_Skills_Bloodlust.Skills",
  "Name": "FuelTheBloodChild",
  "Class": "WillowGame.SkillDefinition",
  "ObjectArchetype": "WillowGame.Default__SkillDefinition"
}