{
  "VfTable_IIConstructObject": "",
  "VfTable_IIBehaviorProvider": "",
  "bAutoUpdateContexts": true,
  "bCanBeToggledOff": false,
  "bDoNotShiftPastCurrentTime": true,
  "bSubjectToGradeRules": true,
  "SkillEffectUpdateIterval": 0.5,
  "SkillName": "Ain't Got Time to Bleed",
  "SkillDescription":
    "While [skill]Gunzerking[-skill] you [skill]regenerate health[-skill].  The lower your current health, the more powerful the regeneration.",
  "ScaleformFrameName": "",
  "SkillType": "SKILL_TYPE_ActionAugment",
  "DurationType": "DURATION_Infinite",
  "TrackedSkillType": "TRACKEDSKILL_Untracked",
  "TrackedSkillHUDSlot": 0,
  "InitialDuration": 0.0,
  "BaseRange": 0.0,
  "EffectSourceInstanceDataName": null,
  "ActionSkillArchetype": null,
  "DefaultStartingGrade": 0,
  "MaxGrade": 5,
  "PlayerLevelRequirement": 0,
  "SkillIcon": "SharedSkillIcons_Mercenary.SkillIcon-NoTimeToBleed",
  "CustomStackCount": null,
  "TrackedActiveSkill": null,
  "SkillClass": "WillowGame.Skill",
  "LockedSkillDetailStr": "<Locked>",
  "BehaviorProviderDefinition": null,
  "SkillEffectPresentations": [
    "GD_Mercenary_Skills.Brawn.AintGotTimeToBleed:AttributePresentationDefinition_0"
  ],
  "SkillConstraints": [
    {
      "bApplyConstraintOnActivatation": true,
      "bApplyConstraintWhileActive": true,
      "bApplyConstraintWhilePaused": true,
      "OnFailure": "SKILL_Paused",
      "Evaluator": null,
      "EvaluatorDefinitions": [
        "GD_PlayerShared.SkillConstraints.SkillConstraint_OnFootOrRidingInBack"
      ]
    }
  ],
  "SkillEffectDefinitions": [
    {
      "AttributeToModify":
        "D_Attributes.HealthResourcePool.HealthPassiveRegenerationRate",
      "bIncludeDuelingTargets": false,
      "bIncludeSelfAsTarget": false,
      "bOnlyEffectTargetsInRange": false,
      "bExcludeNonPlayerCharacters": false,
      "EffectTarget": "TARGET_Self",
      "TargetInstanceDataName": null,
      "TargetCriteria": "CRITERIA_None",
      "ModifierType": "MT_PostAdd",
      "BaseModifierValue": {
        "BaseValueConstant": 0.0,
        "BaseValueAttribute": null,
        "InitializationDefinition":
          "GD_Mercenary_Skills.Misc.Init_AintGotTimeToBleed_RegenFormula_P1",
        "BaseValueScaleConstant": 1.0
      },
      "GradeToStartApplyingEffect": 1,
      "PerGradeUpgradeInterval": 1,
      "PerGradeUpgrade": {
        "BaseValueConstant": 0.0,
        "BaseValueAttribute": null,
        "InitializationDefinition":
          "GD_Mercenary_Skills.Misc.Init_AintGotTimeToBleed_RegenFormula_P1",
        "BaseValueScaleConstant": 1.0
      },
      "BonusUpgradeList": null
    },
    {
      "AttributeToModify": null,
      "bIncludeDuelingTargets": false,
      "bIncludeSelfAsTarget": false,
      "bOnlyEffectTargetsInRange": false,
      "bExcludeNonPlayerCharacters": false,
      "EffectTarget": "TARGET_None",
      "TargetInstanceDataName": null,
      "TargetCriteria": "CRITERIA_None",
      "ModifierType": "MT_Scale",
      "BaseModifierValue": {
        "BaseValueConstant": 1.0,
        "BaseValueAttribute":
          "GD_Mercenary_Skills.Misc.Att_AintGotTimeToBleed_HealthRegenPerLvl",
        "InitializationDefinition": null,
        "BaseValueScaleConstant": 1.0
      },
      "GradeToStartApplyingEffect": 1,
      "PerGradeUpgradeInterval": 1,
      "PerGradeUpgrade": {
        "BaseValueConstant": 1.0,
        "BaseValueAttribute":
          "GD_Mercenary_Skills.Misc.Att_AintGotTimeToBleed_HealthRegenPerLvl",
        "InitializationDefinition": null,
        "BaseValueScaleConstant": 1.0
      },
      "BonusUpgradeList": null
    }
  ],
  "VfTableObject": "",
  "HashNext": "",
  "ObjectFlags": "",
  "HashOuterNext": "",
  "StateFrame": "",
  "Linker": null,
  "LinkerIndex": "",
  "ObjectInternalInteger": 197649,
  "NetIndex": 826,
  "Outer": "GD_Mercenary_Skills.Brawn",
  "Name": "AintGotTimeToBleed",
  "Class": "WillowGame.SkillDefinition",
  "ObjectArchetype": "WillowGame.Default__SkillDefinition"
}