{
  "VfTable_IIConstructObject": "",
  "VfTable_IIBehaviorProvider": "",
  "bAutoUpdateContexts": true,
  "bCanBeToggledOff": false,
  "bDoNotShiftPastCurrentTime": true,
  "bSubjectToGradeRules": false,
  "SkillEffectUpdateIterval": 0.5,
  "SkillName": "Legendary Impact Shield Skill",
  "SkillDescription": "",
  "ScaleformFrameName": "",
  "SkillType": "SKILL_TYPE_Passive",
  "DurationType": "DURATION_Infinite",
  "TrackedSkillType": "TRACKEDSKILL_Untracked",
  "TrackedSkillHUDSlot": 0,
  "InitialDuration": 0.0,
  "BaseRange": 0.0,
  "EffectSourceInstanceDataName": null,
  "ActionSkillArchetype": null,
  "DefaultStartingGrade": 0,
  "MaxGrade": 12,
  "PlayerLevelRequirement": 0,
  "SkillIcon": null,
  "CustomStackCount": null,
  "TrackedActiveSkill": null,
  "SkillClass": "WillowGame.Skill",
  "LockedSkillDetailStr": "<Locked>",
  "BehaviorProviderDefinition":
    "GD_Shields.Skills.Impact_Shield_Skill_Legendary:BehaviorProviderDefinition_0",
  "DamageEvents": [
    {
      "EventType": "SDE_DamagedEnemy",
      "EventConstraints": [
        {
          "DamageTypeConstraint": null,
          "DamageSourceConstraint": "WillowGame.WillowDmgSource_Bullet",
          "bMustBeCriticalDamage": false,
          "bMustBeOneShotKill": false
        },
        {
          "DamageTypeConstraint": null,
          "DamageSourceConstraint": "WillowGame.WillowDmgSource_Rocket",
          "bMustBeCriticalDamage": false,
          "bMustBeOneShotKill": false
        }
      ],
      "EventName": "HitEnemy"
    }
  ],
  "SkillConstraints": [
    {
      "bApplyConstraintOnActivatation": true,
      "bApplyConstraintWhileActive": true,
      "bApplyConstraintWhilePaused": true,
      "OnFailure": "SKILL_Paused",
      "Evaluator":
        "GD_Shields.Skills.Impact_Shield_Skill_Legendary:AttributeExpressionEvaluator_20",
      "EvaluatorDefinitions": null
    }
  ],
  "SkillEffectDefinitions": [
    {
      "AttributeToModify": "D_Attributes.Weapon.WeaponDamage",
      "bIncludeDuelingTargets": false,
      "bIncludeSelfAsTarget": false,
      "bOnlyEffectTargetsInRange": false,
      "bExcludeNonPlayerCharacters": false,
      "EffectTarget": "TARGET_Self",
      "TargetInstanceDataName": null,
      "TargetCriteria": "CRITERIA_None",
      "ModifierType": "MT_PostAdd",
      "BaseModifierValue": {
        "BaseValueConstant": 0.0,
        "BaseValueAttribute": "D_Attributes.Shield.ImpactShield_DamageBonus",
        "InitializationDefinition": null,
        "BaseValueScaleConstant": 1.0
      },
      "GradeToStartApplyingEffect": 0,
      "PerGradeUpgradeInterval": 1,
      "PerGradeUpgrade": {
        "BaseValueConstant": 0.0,
        "BaseValueAttribute": null,
        "InitializationDefinition": null,
        "BaseValueScaleConstant": 1.0
      },
      "BonusUpgradeList": null
    },
    {
      "AttributeToModify": "D_Attributes.Weapon.EnableWeaponFireSkillEvent",
      "bIncludeDuelingTargets": false,
      "bIncludeSelfAsTarget": false,
      "bOnlyEffectTargetsInRange": false,
      "bExcludeNonPlayerCharacters": false,
      "EffectTarget": "TARGET_Self",
      "TargetInstanceDataName": null,
      "TargetCriteria": "CRITERIA_None",
      "ModifierType": "MT_PostAdd",
      "BaseModifierValue": {
        "BaseValueConstant": 1.0,
        "BaseValueAttribute": null,
        "InitializationDefinition": null,
        "BaseValueScaleConstant": 1.0
      },
      "GradeToStartApplyingEffect": 0,
      "PerGradeUpgradeInterval": 1,
      "PerGradeUpgrade": {
        "BaseValueConstant": 0.0,
        "BaseValueAttribute": null,
        "InitializationDefinition": null,
        "BaseValueScaleConstant": 1.0
      },
      "BonusUpgradeList": null
    },
    {
      "AttributeToModify": "D_Attributes.Weapon.Overcharged",
      "bIncludeDuelingTargets": false,
      "bIncludeSelfAsTarget": false,
      "bOnlyEffectTargetsInRange": false,
      "bExcludeNonPlayerCharacters": false,
      "EffectTarget": "TARGET_Self",
      "TargetInstanceDataName": null,
      "TargetCriteria": "CRITERIA_None",
      "ModifierType": "MT_PostAdd",
      "BaseModifierValue": {
        "BaseValueConstant": 1.0,
        "BaseValueAttribute": null,
        "InitializationDefinition": null,
        "BaseValueScaleConstant": 1.0
      },
      "GradeToStartApplyingEffect": 0,
      "PerGradeUpgradeInterval": 1,
      "PerGradeUpgrade": {
        "BaseValueConstant": 0.0,
        "BaseValueAttribute": null,
        "InitializationDefinition": null,
        "BaseValueScaleConstant": 1.0
      },
      "BonusUpgradeList": null
    },
    {
      "AttributeToModify":
        "D_Attributes.Weapon.WeaponWantsMissedShotNotifications",
      "bIncludeDuelingTargets": false,
      "bIncludeSelfAsTarget": false,
      "bOnlyEffectTargetsInRange": false,
      "bExcludeNonPlayerCharacters": false,
      "EffectTarget": "TARGET_Self",
      "TargetInstanceDataName": null,
      "TargetCriteria": "CRITERIA_None",
      "ModifierType": "MT_PostAdd",
      "BaseModifierValue": {
        "BaseValueConstant": 1.0,
        "BaseValueAttribute": null,
        "InitializationDefinition": null,
        "BaseValueScaleConstant": 1.0
      },
      "GradeToStartApplyingEffect": 0,
      "PerGradeUpgradeInterval": 1,
      "PerGradeUpgrade": {
        "BaseValueConstant": 0.0,
        "BaseValueAttribute": null,
        "InitializationDefinition": null,
        "BaseValueScaleConstant": 1.0
      },
      "BonusUpgradeList": null
    }
  ],
  "VfTableObject": "",
  "HashNext": "",
  "ObjectFlags": "",
  "HashOuterNext": "",
  "StateFrame": "",
  "Linker": null,
  "LinkerIndex": "",
  "ObjectInternalInteger": 108525,
  "NetIndex": 3848,
  "Outer": "GD_Shields.Skills",
  "Name": "Impact_Shield_Skill_Legendary",
  "Class": "WillowGame.SkillDefinition",
  "ObjectArchetype": "WillowGame.Default__SkillDefinition"
}