{
  "VfTable_IIConstructObject": "",
  "VfTable_IIBehaviorProvider": "",
  "bAutoUpdateContexts": true,
  "bCanBeToggledOff": false,
  "bDoNotShiftPastCurrentTime": true,
  "bSubjectToGradeRules": false,
  "SkillEffectUpdateIterval": 0.5,
  "SkillName": "Buff - Fire Resistance",
  "SkillDescription": "",
  "ScaleformFrameName": "",
  "SkillType": "SKILL_TYPE_Passive",
  "DurationType": "DURATION_Timed",
  "TrackedSkillType": "TRACKEDSKILL_ConsumableBuff",
  "TrackedSkillHUDSlot": 0,
  "InitialDuration": 300.0,
  "BaseRange": 0.0,
  "EffectSourceInstanceDataName": null,
  "ActionSkillArchetype": null,
  "DefaultStartingGrade": 0,
  "MaxGrade": 12,
  "PlayerLevelRequirement": 0,
  "SkillIcon": "Sage_UI_BuffDrink.SkillIcon_BuffDrink",
  "CustomStackCount": null,
  "TrackedActiveSkill": null,
  "SkillClass": "WillowGame.Skill",
  "LockedSkillDetailStr": "<Locked>",
  "BehaviorProviderDefinition":
    "GD_Sage_BuffDrinks.FireResist.Skills.Skill_Sage_Buff_FireResist02:BehaviorProviderDefinition_0",
  "SkillEffectDefinitions": [
    {
      "AttributeToModify":
        "D_Attributes.DamageTypeModifers.IncendiaryImpactDamageModifier",
      "bIncludeDuelingTargets": false,
      "bIncludeSelfAsTarget": false,
      "bOnlyEffectTargetsInRange": false,
      "bExcludeNonPlayerCharacters": false,
      "EffectTarget": "TARGET_Self",
      "TargetInstanceDataName": null,
      "TargetCriteria": "CRITERIA_None",
      "ModifierType": "MT_PreAdd",
      "BaseModifierValue": {
        "BaseValueConstant": -0.5,
        "BaseValueAttribute": null,
        "InitializationDefinition": null,
        "BaseValueScaleConstant": 1.0
      },
      "GradeToStartApplyingEffect": 1,
      "PerGradeUpgradeInterval": 1,
      "PerGradeUpgrade": {
        "BaseValueConstant": 0.0,
        "BaseValueAttribute": null,
        "InitializationDefinition": null,
        "BaseValueScaleConstant": 1.0
      },
      "BonusUpgradeList": null
    },
    {
      "AttributeToModify":
        "D_Attributes.DamageTypeModifers.IncendiaryStatusEffectDamageModifier",
      "bIncludeDuelingTargets": false,
      "bIncludeSelfAsTarget": false,
      "bOnlyEffectTargetsInRange": false,
      "bExcludeNonPlayerCharacters": false,
      "EffectTarget": "TARGET_Self",
      "TargetInstanceDataName": null,
      "TargetCriteria": "CRITERIA_None",
      "ModifierType": "MT_PreAdd",
      "BaseModifierValue": {
        "BaseValueConstant": -0.5,
        "BaseValueAttribute": null,
        "InitializationDefinition": null,
        "BaseValueScaleConstant": 1.0
      },
      "GradeToStartApplyingEffect": 1,
      "PerGradeUpgradeInterval": 1,
      "PerGradeUpgrade": {
        "BaseValueConstant": 0.0,
        "BaseValueAttribute": null,
        "InitializationDefinition": null,
        "BaseValueScaleConstant": 1.0
      },
      "BonusUpgradeList": null
    }
  ],
  "VfTableObject": "",
  "HashNext": "",
  "ObjectFlags": "",
  "HashOuterNext": "",
  "StateFrame": "",
  "Linker": null,
  "LinkerIndex": "",
  "ObjectInternalInteger": 206819,
  "NetIndex": 2450,
  "Outer": "GD_Sage_BuffDrinks.FireResist.Skills",
  "Name": "Skill_Sage_Buff_FireResist02",
  "Class": "WillowGame.SkillDefinition",
  "ObjectArchetype": "WillowGame.Default__SkillDefinition"
}