{
  "VfTable_IIConstructObject": "",
  "VfTable_IIBehaviorProvider": "",
  "bAutoUpdateContexts": true,
  "bCanBeToggledOff": false,
  "bDoNotShiftPastCurrentTime": true,
  "bSubjectToGradeRules": true,
  "SkillEffectUpdateIterval": 0.5,
  "SkillName": "Cloud Kill",
  "SkillDescription":
    "Shooting an enemy creates a lingering [skill]Acid Cloud[-skill], dealing constant [skill]Corrosive Damage[-skill] to enemies who touch it.  Only one [skill]Acid Cloud[-skill] can be active at a time.",
  "ScaleformFrameName": "",
  "SkillType": "SKILL_TYPE_Passive",
  "DurationType": "DURATION_Infinite",
  "TrackedSkillType": "TRACKEDSKILL_Untracked",
  "TrackedSkillHUDSlot": 3,
  "InitialDuration": 0.0,
  "BaseRange": 0.0,
  "EffectSourceInstanceDataName": null,
  "ActionSkillArchetype": null,
  "DefaultStartingGrade": 0,
  "MaxGrade": 1,
  "PlayerLevelRequirement": 0,
  "SkillIcon": "SharedSkillIcons_Siren.SkillIcon-CloudKill",
  "CustomStackCount": null,
  "TrackedActiveSkill": null,
  "SkillClass": "WillowGame.Skill",
  "LockedSkillDetailStr": "<Locked>",
  "BehaviorProviderDefinition":
    "GD_Siren_Skills.Cataclysm.CloudKill:BehaviorProviderDefinition_0",
  "KillEvents": [
    {
      "EventType": "SKE_KilledEnemy",
      "EventConstraints": [
        {
          "DamageTypeConstraint": null,
          "DamageSourceConstraint": "WillowGame.WillowDmgSource_Bullet",
          "bMustBeCriticalDamage": false,
          "bMustBeOneShotKill": false
        },
        {
          "DamageTypeConstraint": null,
          "DamageSourceConstraint": "WillowGame.WillowDmgSource_Rocket",
          "bMustBeCriticalDamage": false,
          "bMustBeOneShotKill": false
        }
      ],
      "EventName": "Kill Enemy Proc Cloud Kill"
    }
  ],
  "DamageEvents": [
    {
      "EventType": "SDE_DamagedEnemy",
      "EventConstraints": [
        {
          "DamageTypeConstraint": null,
          "DamageSourceConstraint": "WillowGame.WillowDmgSource_Bullet",
          "bMustBeCriticalDamage": false,
          "bMustBeOneShotKill": false
        },
        {
          "DamageTypeConstraint": null,
          "DamageSourceConstraint": "WillowGame.WillowDmgSource_Rocket",
          "bMustBeCriticalDamage": false,
          "bMustBeOneShotKill": false
        }
      ],
      "EventName": "Proc Cloud Kill"
    }
  ],
  "TrackedActiveSkills": [ "GD_Siren_Skills.Cataclysm.CloudKill_Feedback" ],
  "SkillEffectPresentations": [
    "GD_Siren_Skills.Cataclysm.CloudKill:AttributePresentationDefinition_0"
  ],
  "SkillEffectDefinitions": [
    {
      "AttributeToModify": "D_Attributes.Weapon.WeaponPerShotAccuracyImpulse",
      "bIncludeDuelingTargets": false,
      "bIncludeSelfAsTarget": false,
      "bOnlyEffectTargetsInRange": false,
      "bExcludeNonPlayerCharacters": false,
      "EffectTarget": "TARGET_None",
      "TargetInstanceDataName": null,
      "TargetCriteria": "CRITERIA_None",
      "ModifierType": "MT_PostAdd",
      "BaseModifierValue": {
        "BaseValueConstant": 5.0,
        "BaseValueAttribute": null,
        "InitializationDefinition": null,
        "BaseValueScaleConstant": 1.0
      },
      "GradeToStartApplyingEffect": 1,
      "PerGradeUpgradeInterval": 1,
      "PerGradeUpgrade": {
        "BaseValueConstant": 0.0,
        "BaseValueAttribute": null,
        "InitializationDefinition": null,
        "BaseValueScaleConstant": 1.0
      },
      "BonusUpgradeList": null
    }
  ],
  "VfTableObject": "",
  "HashNext": "",
  "ObjectFlags": "",
  "HashOuterNext": "",
  "StateFrame": "",
  "Linker": null,
  "LinkerIndex": "",
  "ObjectInternalInteger": 181936,
  "NetIndex": 1603,
  "Outer": "GD_Siren_Skills.Cataclysm",
  "Name": "CloudKill",
  "Class": "WillowGame.SkillDefinition",
  "ObjectArchetype": "WillowGame.Default__SkillDefinition"
}