{
  "VfTable_IIConstructObject": "",
  "VfTable_IIBehaviorProvider": "",
  "bAutoUpdateContexts": true,
  "bCanBeToggledOff": false,
  "bDoNotShiftPastCurrentTime": true,
  "bSubjectToGradeRules": true,
  "SkillEffectUpdateIterval": 0.5,
  "SkillName": "Annoyed Android",
  "SkillDescription":
    "Increases the [skill]Movement Speed[-skill] of [skill]Deathtrap[-skill].  ",
  "ScaleformFrameName": "",
  "SkillType": "SKILL_TYPE_Passive",
  "DurationType": "DURATION_Infinite",
  "TrackedSkillType": "TRACKEDSKILL_Untracked",
  "TrackedSkillHUDSlot": 0,
  "InitialDuration": 0.0,
  "BaseRange": 0.0,
  "EffectSourceInstanceDataName": null,
  "ActionSkillArchetype": null,
  "DefaultStartingGrade": 0,
  "MaxGrade": 5,
  "PlayerLevelRequirement": 0,
  "SkillIcon": "UI_Tulip_SharedSkillIcons_Mech.SkillIcon-Mechro28",
  "CustomStackCount": null,
  "TrackedActiveSkill": null,
  "SkillClass": "WillowGame.Skill",
  "LockedSkillDetailStr": "<Locked>",
  "BehaviorProviderDefinition": null,
  "SkillEffectPresentations": [
    "GD_Tulip_Mechromancer_Skills.EmbraceChaos.AnnoyedAndroid:AttributePresentationDefinition_0"
  ],
  "SkillConstraints": [
    {
      "bApplyConstraintOnActivatation": true,
      "bApplyConstraintWhileActive": true,
      "bApplyConstraintWhilePaused": true,
      "OnFailure": "SKILL_Paused",
      "Evaluator": null,
      "EvaluatorDefinitions": [
        "GD_PlayerShared.SkillConstraints.SkillConstraint_OnFootOrRidingInBack"
      ]
    }
  ],
  "SkillEffectDefinitions": [
    {
      "AttributeToModify": "D_Attributes.Movement.AirSpeed",
      "bIncludeDuelingTargets": false,
      "bIncludeSelfAsTarget": false,
      "bOnlyEffectTargetsInRange": false,
      "bExcludeNonPlayerCharacters": false,
      "EffectTarget": "TARGET_Pets",
      "TargetInstanceDataName": null,
      "TargetCriteria": "CRITERIA_None",
      "ModifierType": "MT_Scale",
      "BaseModifierValue": {
        "BaseValueConstant": 0.07000000000000001,
        "BaseValueAttribute": null,
        "InitializationDefinition": null,
        "BaseValueScaleConstant": 1.0
      },
      "GradeToStartApplyingEffect": 1,
      "PerGradeUpgradeInterval": 1,
      "PerGradeUpgrade": {
        "BaseValueConstant": 0.07000000000000001,
        "BaseValueAttribute": null,
        "InitializationDefinition": null,
        "BaseValueScaleConstant": 1.0
      },
      "BonusUpgradeList": null
    }
  ],
  "VfTableObject": "",
  "HashNext": "",
  "ObjectFlags": "",
  "HashOuterNext": "",
  "StateFrame": "",
  "Linker": null,
  "LinkerIndex": "",
  "ObjectInternalInteger": 183534,
  "NetIndex": 1840,
  "Outer": "GD_Tulip_Mechromancer_Skills.EmbraceChaos",
  "Name": "AnnoyedAndroid",
  "Class": "WillowGame.SkillDefinition",
  "ObjectArchetype": "WillowGame.Default__SkillDefinition"
}