{
  "VfTable_IIConstructObject": "",
  "VfTable_IIBehaviorProvider": "",
  "bAutoUpdateContexts": true,
  "bCanBeToggledOff": false,
  "bDoNotShiftPastCurrentTime": true,
  "bSubjectToGradeRules": true,
  "SkillEffectUpdateIterval": 0.5,
  "SkillName": "Discord",
  "SkillDescription":
    "Prematurely reloading activates [skill]Discord[-skill], increasing [skill]Accuracy[-skill], [skill]Fire Rate[-skill], and [skill]Health Regeneration[-skill].  You constantly lose [skill]Anarchy[-skill] stacks while [skill]Discord[-skill] is active.  [skill]Discord[-skill] can be deactivated by prematurely reloading again.",
  "ScaleformFrameName": "",
  "SkillType": "SKILL_TYPE_Passive",
  "DurationType": "DURATION_Infinite",
  "TrackedSkillType": "TRACKEDSKILL_Untracked",
  "TrackedSkillHUDSlot": 2,
  "InitialDuration": 0.0,
  "BaseRange": 0.0,
  "EffectSourceInstanceDataName": null,
  "ActionSkillArchetype": null,
  "DefaultStartingGrade": 0,
  "MaxGrade": 1,
  "PlayerLevelRequirement": 0,
  "SkillIcon": "UI_Tulip_SharedSkillIcons_Mech.SkillIcon-Mechro35",
  "CustomStackCount": null,
  "TrackedActiveSkill": null,
  "SkillClass": "WillowGame.Skill",
  "LockedSkillDetailStr": "<Locked>",
  "BehaviorProviderDefinition": null,
  "TrackedActiveSkills": [
    "GD_Tulip_Mechromancer_Skills.EmbraceChaos.Discord_Active"
  ],
  "SkillEffectPresentations": [
    "GD_Tulip_Mechromancer_Skills.EmbraceChaos.Discord:AttributePresentationDefinition_0",
    "GD_Tulip_Mechromancer_Skills.EmbraceChaos.Discord:AttributePresentationDefinition_3",
    "GD_Tulip_Mechromancer_Skills.EmbraceChaos.Discord:AttributePresentationDefinition_5",
    "GD_Tulip_Mechromancer_Skills.EmbraceChaos.Discord:AttributePresentationDefinition_6"
  ],
  "SkillConstraints": [
    {
      "bApplyConstraintOnActivatation": true,
      "bApplyConstraintWhileActive": true,
      "bApplyConstraintWhilePaused": true,
      "OnFailure": "SKILL_Paused",
      "Evaluator": null,
      "EvaluatorDefinitions": [
        "GD_PlayerShared.SkillConstraints.SkillConstraint_OnFootOrRidingInBack"
      ]
    }
  ],
  "SkillEffectDefinitions": [
    {
      "AttributeToModify": "D_Attributes.Weapon.WeaponFireInterval",
      "bIncludeDuelingTargets": false,
      "bIncludeSelfAsTarget": false,
      "bOnlyEffectTargetsInRange": false,
      "bExcludeNonPlayerCharacters": false,
      "EffectTarget": "TARGET_None",
      "TargetInstanceDataName": null,
      "TargetCriteria": "CRITERIA_None",
      "ModifierType": "MT_Scale",
      "BaseModifierValue": {
        "BaseValueConstant": 0.0,
        "BaseValueAttribute":
          "GD_Tulip_Mechromancer_Skills.Misc.Att_Discord_FireRate",
        "InitializationDefinition": null,
        "BaseValueScaleConstant": 1.0
      },
      "GradeToStartApplyingEffect": 1,
      "PerGradeUpgradeInterval": 1,
      "PerGradeUpgrade": {
        "BaseValueConstant": 0.0,
        "BaseValueAttribute":
          "GD_Tulip_Mechromancer_Skills.Misc.Att_Discord_FireRate",
        "InitializationDefinition": null,
        "BaseValueScaleConstant": 1.0
      },
      "BonusUpgradeList": null
    },
    {
      "AttributeToModify":
        "D_Attributes.AccuracyResourcePool.AccuracyMinValue",
      "bIncludeDuelingTargets": false,
      "bIncludeSelfAsTarget": false,
      "bOnlyEffectTargetsInRange": false,
      "bExcludeNonPlayerCharacters": false,
      "EffectTarget": "TARGET_None",
      "TargetInstanceDataName": null,
      "TargetCriteria": "CRITERIA_None",
      "ModifierType": "MT_Scale",
      "BaseModifierValue": {
        "BaseValueConstant": 0.0,
        "BaseValueAttribute":
          "GD_Tulip_Mechromancer_Skills.Misc.Att_Discord_Accuracy",
        "InitializationDefinition": null,
        "BaseValueScaleConstant": 1.0
      },
      "GradeToStartApplyingEffect": 1,
      "PerGradeUpgradeInterval": 1,
      "PerGradeUpgrade": {
        "BaseValueConstant": 0.0,
        "BaseValueAttribute":
          "GD_Tulip_Mechromancer_Skills.Misc.Att_Discord_Accuracy",
        "InitializationDefinition": null,
        "BaseValueScaleConstant": 1.0
      },
      "BonusUpgradeList": null
    },
    {
      "AttributeToModify": "D_Attributes.Weapon.WeaponSpread",
      "bIncludeDuelingTargets": false,
      "bIncludeSelfAsTarget": false,
      "bOnlyEffectTargetsInRange": false,
      "bExcludeNonPlayerCharacters": false,
      "EffectTarget": "TARGET_None",
      "TargetInstanceDataName": null,
      "TargetCriteria": "CRITERIA_None",
      "ModifierType": "MT_Scale",
      "BaseModifierValue": {
        "BaseValueConstant": 0.0,
        "BaseValueAttribute":
          "GD_Tulip_Mechromancer_Skills.Misc.Att_Discord_Bonuses",
        "InitializationDefinition": null,
        "BaseValueScaleConstant": 1.0
      },
      "GradeToStartApplyingEffect": 1,
      "PerGradeUpgradeInterval": 1,
      "PerGradeUpgrade": {
        "BaseValueConstant": 0.0,
        "BaseValueAttribute":
          "GD_Tulip_Mechromancer_Skills.Misc.Att_Discord_Bonuses",
        "InitializationDefinition": null,
        "BaseValueScaleConstant": 1.0
      },
      "BonusUpgradeList": null
    },
    {
      "AttributeToModify":
        "D_Attributes.HealthResourcePool.HealthPassiveRegenerationRate",
      "bIncludeDuelingTargets": false,
      "bIncludeSelfAsTarget": false,
      "bOnlyEffectTargetsInRange": false,
      "bExcludeNonPlayerCharacters": false,
      "EffectTarget": "TARGET_None",
      "TargetInstanceDataName": null,
      "TargetCriteria": "CRITERIA_None",
      "ModifierType": "MT_PostAdd",
      "BaseModifierValue": {
        "BaseValueConstant": 0.03,
        "BaseValueAttribute": null,
        "InitializationDefinition": null,
        "BaseValueScaleConstant": 1.0
      },
      "GradeToStartApplyingEffect": 1,
      "PerGradeUpgradeInterval": 1,
      "PerGradeUpgrade": {
        "BaseValueConstant": 0.03,
        "BaseValueAttribute": null,
        "InitializationDefinition": null,
        "BaseValueScaleConstant": 1.0
      },
      "BonusUpgradeList": null
    }
  ],
  "VfTableObject": "",
  "HashNext": "",
  "ObjectFlags": "",
  "HashOuterNext": "",
  "StateFrame": "",
  "Linker": null,
  "LinkerIndex": "",
  "ObjectInternalInteger": 183526,
  "NetIndex": 1845,
  "Outer": "GD_Tulip_Mechromancer_Skills.EmbraceChaos",
  "Name": "Discord",
  "Class": "WillowGame.SkillDefinition",
  "ObjectArchetype": "WillowGame.Default__SkillDefinition"
}