{
  "VfTable_IIConstructObject": "",
  "VfTable_IIBehaviorProvider": "",
  "bAutoUpdateContexts": true,
  "bCanBeToggledOff": false,
  "bDoNotShiftPastCurrentTime": true,
  "bSubjectToGradeRules": true,
  "SkillEffectUpdateIterval": 0.5,
  "SkillName": "Electrical Burn",
  "SkillDescription":
    "When your [skill]Electrocute Status Effects[-skill] deal damage to enemies, there is a chance they will [skill]burst into flames[-skill] and take [skill]Burn Damage[-skill].  The amount of [skill]Burn Damage[-skill] is based on the [skill]Electrocute[-skill] damage dealt.",
  "ScaleformFrameName": "",
  "SkillType": "SKILL_TYPE_Passive",
  "DurationType": "DURATION_Infinite",
  "TrackedSkillType": "TRACKEDSKILL_Untracked",
  "TrackedSkillHUDSlot": 6,
  "InitialDuration": 0.0,
  "BaseRange": 0.0,
  "EffectSourceInstanceDataName": null,
  "ActionSkillArchetype": null,
  "DefaultStartingGrade": 0,
  "MaxGrade": 5,
  "PlayerLevelRequirement": 0,
  "SkillIcon": "UI_Tulip_SharedSkillIcons_Mech.SkillIcon-Mechro09",
  "CustomStackCount": null,
  "TrackedActiveSkill": null,
  "SkillClass": "WillowGame.Skill",
  "LockedSkillDetailStr": "<Locked>",
  "BehaviorProviderDefinition":
    "GD_Tulip_Mechromancer_Skills.LittleBigTrouble.ElectricalBurn:BehaviorProviderDefinition_0",
  "DamageEvents": [
    {
      "EventType": "SDE_DamagedEnemy",
      "EventConstraints": [
        {
          "DamageTypeConstraint": "GD_Shock.DamageType.DmgType_Shock_Status",
          "DamageSourceConstraint": null,
          "bMustBeCriticalDamage": false,
          "bMustBeOneShotKill": false
        }
      ],
      "EventName": "Electrocuted an Enemy"
    }
  ],
  "TrackedActiveSkills": [
    "GD_Tulip_Mechromancer_Skills.LittleBigTrouble.ElectricalBurn_Feedback"
  ],
  "SkillEffectPresentations": [
    "GD_Tulip_Mechromancer_Skills.LittleBigTrouble.ElectricalBurn:AttributePresentationDefinition_0"
  ],
  "SkillConstraints": [
    {
      "bApplyConstraintOnActivatation": true,
      "bApplyConstraintWhileActive": true,
      "bApplyConstraintWhilePaused": true,
      "OnFailure": "SKILL_Paused",
      "Evaluator": null,
      "EvaluatorDefinitions": [
        "GD_PlayerShared.SkillConstraints.SkillConstraint_OnFootOrRidingInBack"
      ]
    }
  ],
  "SkillEffectDefinitions": [
    {
      "AttributeToModify": null,
      "bIncludeDuelingTargets": false,
      "bIncludeSelfAsTarget": false,
      "bOnlyEffectTargetsInRange": false,
      "bExcludeNonPlayerCharacters": false,
      "EffectTarget": "TARGET_None",
      "TargetInstanceDataName": null,
      "TargetCriteria": "CRITERIA_None",
      "ModifierType": "MT_Scale",
      "BaseModifierValue": {
        "BaseValueConstant": 0.04,
        "BaseValueAttribute":
          "GD_Tulip_Mechromancer_Skills.Misc.Att_ElectricalBurn_ProcChance",
        "InitializationDefinition": null,
        "BaseValueScaleConstant": 1.0
      },
      "GradeToStartApplyingEffect": 1,
      "PerGradeUpgradeInterval": 1,
      "PerGradeUpgrade": {
        "BaseValueConstant": 0.04,
        "BaseValueAttribute":
          "GD_Tulip_Mechromancer_Skills.Misc.Att_ElectricalBurn_ProcChance",
        "InitializationDefinition": null,
        "BaseValueScaleConstant": 1.0
      },
      "BonusUpgradeList": null
    }
  ],
  "VfTableObject": "",
  "HashNext": "",
  "ObjectFlags": "",
  "HashOuterNext": "",
  "StateFrame": "",
  "Linker": null,
  "LinkerIndex": "",
  "ObjectInternalInteger": 183505,
  "NetIndex": 1865,
  "Outer": "GD_Tulip_Mechromancer_Skills.LittleBigTrouble",
  "Name": "ElectricalBurn",
  "Class": "WillowGame.SkillDefinition",
  "ObjectArchetype": "WillowGame.Default__SkillDefinition"
}