{
  "ItemPools": [
    {
      "ItemPool": "GD_IrisEpisode05_BattleData.ItemPool.IP_Iris_GyroBanjo",
      "PoolProbability": {
        "BaseValueConstant": 1.0,
        "BaseValueAttribute": null,
        "InitializationDefinition": null,
        "BaseValueScaleConstant": 1.0
      }
    },
    {
      "ItemPool": "GD_IrisEpisode05_BattleData.ItemPool.IP_Iris_GyroBanjo2",
      "PoolProbability": {
        "BaseValueConstant": 1.0,
        "BaseValueAttribute": null,
        "InitializationDefinition": null,
        "BaseValueScaleConstant": 1.0
      }
    },
    {
      "ItemPool": "GD_IrisEpisode05_BattleData.ItemPool.IP_Iris_GyroBanjo3",
      "PoolProbability": {
        "BaseValueConstant": 1.0,
        "BaseValueAttribute": null,
        "InitializationDefinition": null,
        "BaseValueScaleConstant": 1.0
      }
    },
    {
      "ItemPool": "GD_IrisEpisode05_BattleData.ItemPool.IP_Iris_GyroBanjoR3",
      "PoolProbability": {
        "BaseValueConstant": 1.0,
        "BaseValueAttribute": null,
        "InitializationDefinition": null,
        "BaseValueScaleConstant": 1.0
      }
    },
    {
      "ItemPool": "GD_Itempools.GeneralItemPools.Pool_GunsAndGear",
      "PoolProbability": {
        "BaseValueConstant": 0.0,
        "BaseValueAttribute": "GD_Itempools.DropWeights.DropODDS_GunsAndGear",
        "InitializationDefinition": null,
        "BaseValueScaleConstant": 1.0
      }
    },
    {
      "ItemPool": "GD_Itempools.AmmoAndResourcePools.Pool_Money_1or2",
      "PoolProbability": {
        "BaseValueConstant": 0.0,
        "BaseValueAttribute": "GD_Itempools.DropWeights.DropODDS_Money",
        "InitializationDefinition": null,
        "BaseValueScaleConstant": 1.0
      }
    },
    {
      "ItemPool": "GD_Itempools.AmmoAndResourcePools.Pool_Health_All",
      "PoolProbability": {
        "BaseValueConstant": 0.0,
        "BaseValueAttribute": "GD_Itempools.DropWeights.DropODDS_Health",
        "InitializationDefinition": null,
        "BaseValueScaleConstant": 0.5
      }
    },
    {
      "ItemPool": "GD_Itempools.AmmoAndResourcePools.Pool_Ammo_All_NeedOnly",
      "PoolProbability": {
        "BaseValueConstant": 1.0,
        "BaseValueAttribute": null,
        "InitializationDefinition":
          "GD_Balance.WeightingPlayerCount.AmmoDrops_PerPlayer",
        "BaseValueScaleConstant": 0.2
      }
    },
    {
      "ItemPool": "GD_Itempools.AmmoAndResourcePools.Pool_Ammo_All_Emergency",
      "PoolProbability": {
        "BaseValueConstant": 0.2,
        "BaseValueAttribute": null,
        "InitializationDefinition": null,
        "BaseValueScaleConstant": 1.0
      }
    }
  ],
  "VfTableObject": "",
  "HashNext": "",
  "ObjectFlags": "",
  "HashOuterNext": "",
  "StateFrame": "",
  "Linker": null,
  "LinkerIndex": "",
  "ObjectInternalInteger": 171207,
  "NetIndex": 124,
  "Outer": "GD_Iris_ItemPools.ListDefs",
  "Name": "FlyboysBlingItem",
  "Class": "WillowGame.ItemPoolListDefinition",
  "ObjectArchetype": "WillowGame.Default__ItemPoolListDefinition"
}