{
  "ItemPools": [
    {
      "ItemPool": "GD_Iris_ItemPools.SeraphCrystal.Pool_Iris_SeraphCrystals",
      "PoolProbability": {
        "BaseValueConstant": 1.0,
        "BaseValueAttribute": null,
        "InitializationDefinition": null,
        "BaseValueScaleConstant": 1.0
      }
    },
    {
      "ItemPool": "GD_Itempools.WeaponPools.Pool_Weapons_All_06_Legendary",
      "PoolProbability": {
        "BaseValueConstant": 0.02,
        "BaseValueAttribute": null,
        "InitializationDefinition": null,
        "BaseValueScaleConstant": 1.0
      }
    },
    {
      "ItemPool": "GD_Itempools.WeaponPools.Pool_Weapons_All_05_VeryRare",
      "PoolProbability": {
        "BaseValueConstant": 0.1,
        "BaseValueAttribute": null,
        "InitializationDefinition": null,
        "BaseValueScaleConstant": 1.0
      }
    },
    {
      "ItemPool": "GD_Itempools.WeaponPools.Pool_Weapons_All_04_Rare",
      "PoolProbability": {
        "BaseValueConstant": 0.7,
        "BaseValueAttribute": null,
        "InitializationDefinition": null,
        "BaseValueScaleConstant": 1.0
      }
    },
    {
      "ItemPool": "GD_Itempools.WeaponPools.Pool_Weapons_All_04_Rare",
      "PoolProbability": {
        "BaseValueConstant": 0.35,
        "BaseValueAttribute": null,
        "InitializationDefinition": null,
        "BaseValueScaleConstant": 1.0
      }
    },
    {
      "ItemPool": "GD_Itempools.WeaponPools.Pool_Weapons_All_02_Uncommon",
      "PoolProbability": {
        "BaseValueConstant": 1.0,
        "BaseValueAttribute": null,
        "InitializationDefinition": null,
        "BaseValueScaleConstant": 1.0
      }
    },
    {
      "ItemPool": "GD_Itempools.WeaponPools.Pool_Weapons_All_02_Uncommon",
      "PoolProbability": {
        "BaseValueConstant": 1.0,
        "BaseValueAttribute": null,
        "InitializationDefinition": null,
        "BaseValueScaleConstant": 1.0
      }
    },
    {
      "ItemPool": "GD_Itempools.WeaponPools.Pool_Weapons_All_02_Uncommon",
      "PoolProbability": {
        "BaseValueConstant": 0.9,
        "BaseValueAttribute": null,
        "InitializationDefinition": null,
        "BaseValueScaleConstant": 1.0
      }
    },
    {
      "ItemPool":
        "GD_Itempools.GrenadeModPools.Pool_GrenadeMods_06_Legendary",
      "PoolProbability": {
        "BaseValueConstant": 0.02,
        "BaseValueAttribute": null,
        "InitializationDefinition": null,
        "BaseValueScaleConstant": 1.0
      }
    },
    {
      "ItemPool": "GD_Itempools.GrenadeModPools.Pool_GrenadeMods_05_VeryRare",
      "PoolProbability": {
        "BaseValueConstant": 0.1,
        "BaseValueAttribute": null,
        "InitializationDefinition": null,
        "BaseValueScaleConstant": 1.0
      }
    },
    {
      "ItemPool": "GD_Itempools.GrenadeModPools.Pool_GrenadeMods_04_Rare",
      "PoolProbability": {
        "BaseValueConstant": 0.7,
        "BaseValueAttribute": null,
        "InitializationDefinition": null,
        "BaseValueScaleConstant": 1.0
      }
    },
    {
      "ItemPool": "GD_Itempools.GrenadeModPools.Pool_GrenadeMods_04_Rare",
      "PoolProbability": {
        "BaseValueConstant": 0.35,
        "BaseValueAttribute": null,
        "InitializationDefinition": null,
        "BaseValueScaleConstant": 1.0
      }
    },
    {
      "ItemPool": "GD_Itempools.GrenadeModPools.Pool_GrenadeMods_02_Uncommon",
      "PoolProbability": {
        "BaseValueConstant": 1.0,
        "BaseValueAttribute": null,
        "InitializationDefinition": null,
        "BaseValueScaleConstant": 1.0
      }
    },
    {
      "ItemPool": "GD_Itempools.GrenadeModPools.Pool_GrenadeMods_02_Uncommon",
      "PoolProbability": {
        "BaseValueConstant": 0.9,
        "BaseValueAttribute": null,
        "InitializationDefinition": null,
        "BaseValueScaleConstant": 1.0
      }
    },
    {
      "ItemPool": "GD_Itempools.ClassModPools.Pool_ClassMod_06_Legendary",
      "PoolProbability": {
        "BaseValueConstant": 0.02,
        "BaseValueAttribute": null,
        "InitializationDefinition": null,
        "BaseValueScaleConstant": 1.0
      }
    },
    {
      "ItemPool": "GD_Itempools.ClassModPools.Pool_ClassMod_05_VeryRare",
      "PoolProbability": {
        "BaseValueConstant": 0.1,
        "BaseValueAttribute": null,
        "InitializationDefinition": null,
        "BaseValueScaleConstant": 1.0
      }
    },
    {
      "ItemPool": "GD_Itempools.ClassModPools.Pool_ClassMod_04_Rare",
      "PoolProbability": {
        "BaseValueConstant": 0.5,
        "BaseValueAttribute": null,
        "InitializationDefinition": null,
        "BaseValueScaleConstant": 1.0
      }
    },
    {
      "ItemPool": "GD_Itempools.ClassModPools.Pool_ClassMod_02_Uncommon",
      "PoolProbability": {
        "BaseValueConstant": 1.0,
        "BaseValueAttribute": null,
        "InitializationDefinition": null,
        "BaseValueScaleConstant": 1.0
      }
    },
    {
      "ItemPool": "GD_Itempools.ClassModPools.Pool_ClassMod_02_Uncommon",
      "PoolProbability": {
        "BaseValueConstant": 1.0,
        "BaseValueAttribute": null,
        "InitializationDefinition": null,
        "BaseValueScaleConstant": 1.0
      }
    },
    {
      "ItemPool": "GD_Itempools.ClassModPools.Pool_ClassMod_02_Uncommon",
      "PoolProbability": {
        "BaseValueConstant": 0.9,
        "BaseValueAttribute": null,
        "InitializationDefinition": null,
        "BaseValueScaleConstant": 1.0
      }
    },
    {
      "ItemPool": "GD_Itempools.AmmoAndResourcePools.Pool_Money_1_BIG",
      "PoolProbability": {
        "BaseValueConstant": 1.0,
        "BaseValueAttribute": null,
        "InitializationDefinition": null,
        "BaseValueScaleConstant": 1.0
      }
    },
    {
      "ItemPool": "GD_Itempools.AmmoAndResourcePools.Pool_Money_1_BIG",
      "PoolProbability": {
        "BaseValueConstant": 1.0,
        "BaseValueAttribute": null,
        "InitializationDefinition": null,
        "BaseValueScaleConstant": 1.0
      }
    },
    {
      "ItemPool": "GD_Itempools.AmmoAndResourcePools.Pool_Money_1_BIG",
      "PoolProbability": {
        "BaseValueConstant": 1.0,
        "BaseValueAttribute": null,
        "InitializationDefinition": null,
        "BaseValueScaleConstant": 1.0
      }
    },
    {
      "ItemPool": "GD_Itempools.AmmoAndResourcePools.Pool_Money_1_BIG",
      "PoolProbability": {
        "BaseValueConstant": 1.0,
        "BaseValueAttribute": null,
        "InitializationDefinition": null,
        "BaseValueScaleConstant": 1.0
      }
    },
    {
      "ItemPool": "GD_Itempools.AmmoAndResourcePools.Pool_Money_1_BIG",
      "PoolProbability": {
        "BaseValueConstant": 1.0,
        "BaseValueAttribute": null,
        "InitializationDefinition": null,
        "BaseValueScaleConstant": 1.0
      }
    },
    {
      "ItemPool": "GD_Itempools.AmmoAndResourcePools.Pool_Money_1_BIG",
      "PoolProbability": {
        "BaseValueConstant": 1.0,
        "BaseValueAttribute": null,
        "InitializationDefinition": null,
        "BaseValueScaleConstant": 1.0
      }
    }
  ],
  "VfTableObject": "",
  "HashNext": "",
  "ObjectFlags": "",
  "HashOuterNext": "",
  "StateFrame": "",
  "Linker": null,
  "LinkerIndex": "",
  "ObjectInternalInteger": 171215,
  "NetIndex": 131,
  "Outer": "GD_Iris_ItemPools.Raid",
  "Name": "PoolList_Iris_Raid3_Items",
  "Class": "WillowGame.ItemPoolListDefinition",
  "ObjectArchetype": "WillowGame.Default__ItemPoolListDefinition"
}