{
  "ItemPools": [
    {
      "ItemPool": "GD_Sage_ItemPools.Raid.Pool_Sage_Raid_PinkWeapons",
      "PoolProbability": {
        "BaseValueConstant": 0.02,
        "BaseValueAttribute": null,
        "InitializationDefinition": null,
        "BaseValueScaleConstant": 1.0
      }
    },
    {
      "ItemPool": "GD_Sage_ItemPools.Raid.Pool_Sage_Raid_Legendary",
      "PoolProbability": {
        "BaseValueConstant": 0.0,
        "BaseValueAttribute": "GD_Itempools.DropWeights.DropODDS_BossUniques",
        "InitializationDefinition": null,
        "BaseValueScaleConstant": 1.0
      }
    },
    {
      "ItemPool": "GD_Itempools.EnemyDropPools.Pool_GunsAndGear_05_VeryRare",
      "PoolProbability": {
        "BaseValueConstant": 1.0,
        "BaseValueAttribute": null,
        "InitializationDefinition": null,
        "BaseValueScaleConstant": 1.0
      }
    },
    {
      "ItemPool": "GD_Itempools.EnemyDropPools.Pool_GunsAndGear_05_VeryRare",
      "PoolProbability": {
        "BaseValueConstant": 1.0,
        "BaseValueAttribute": null,
        "InitializationDefinition": null,
        "BaseValueScaleConstant": 1.0
      }
    },
    {
      "ItemPool": "GD_Itempools.EnemyDropPools.Pool_GunsAndGear_05_VeryRare",
      "PoolProbability": {
        "BaseValueConstant": 1.0,
        "BaseValueAttribute": null,
        "InitializationDefinition": null,
        "BaseValueScaleConstant": 1.0
      }
    },
    {
      "ItemPool": "GD_Itempools.EnemyDropPools.Pool_GunsAndGear_04_Rare",
      "PoolProbability": {
        "BaseValueConstant": 1.0,
        "BaseValueAttribute": null,
        "InitializationDefinition": null,
        "BaseValueScaleConstant": 1.0
      }
    },
    {
      "ItemPool": "GD_Itempools.EnemyDropPools.Pool_GunsAndGear_04_Rare",
      "PoolProbability": {
        "BaseValueConstant": 1.0,
        "BaseValueAttribute": null,
        "InitializationDefinition": null,
        "BaseValueScaleConstant": 1.0
      }
    },
    {
      "ItemPool": "GD_Itempools.EnemyDropPools.Pool_GunsAndGear_04_Rare",
      "PoolProbability": {
        "BaseValueConstant": 1.0,
        "BaseValueAttribute": null,
        "InitializationDefinition": null,
        "BaseValueScaleConstant": 1.0
      }
    },
    {
      "ItemPool":
        "GD_Itempools.EnemyDropPools.Pool_GunsAndGear_02_UncommonsRaid",
      "PoolProbability": {
        "BaseValueConstant": 1.0,
        "BaseValueAttribute": null,
        "InitializationDefinition": null,
        "BaseValueScaleConstant": 1.0
      }
    },
    {
      "ItemPool":
        "GD_Itempools.EnemyDropPools.Pool_GunsAndGear_02_UncommonsRaid",
      "PoolProbability": {
        "BaseValueConstant": 1.0,
        "BaseValueAttribute": null,
        "InitializationDefinition": null,
        "BaseValueScaleConstant": 1.0
      }
    },
    {
      "ItemPool":
        "GD_Itempools.GeneralItemPools.Pool_GunsAndGearDropNumPlayersPlusOne",
      "PoolProbability": {
        "BaseValueConstant": 1.0,
        "BaseValueAttribute": null,
        "InitializationDefinition": null,
        "BaseValueScaleConstant": 1.0
      }
    },
    {
      "ItemPool": "GD_Itempools.GeneralItemPools.Pool_GunsAndGear",
      "PoolProbability": {
        "BaseValueConstant": 1.0,
        "BaseValueAttribute": null,
        "InitializationDefinition":
          "GD_Balance.WeightingPlayerCount.GearDrops_PerPlayer",
        "BaseValueScaleConstant": 1.0
      }
    },
    {
      "ItemPool": "GD_Itempools.EnemyDropPools.Pool_GunsAndGear_02_Uncommon",
      "PoolProbability": {
        "BaseValueConstant": 1.0,
        "BaseValueAttribute": null,
        "InitializationDefinition":
          "GD_Balance.WeightingPlayerCount.GearDrops_PerPlayer",
        "BaseValueScaleConstant": 1.0
      }
    },
    {
      "ItemPool": "GD_Itempools.EnemyDropPools.Pool_GunsAndGear_02_Uncommon",
      "PoolProbability": {
        "BaseValueConstant": 1.0,
        "BaseValueAttribute": null,
        "InitializationDefinition":
          "GD_Balance.WeightingPlayerCount.GearDrops_PerPlayer",
        "BaseValueScaleConstant": 1.0
      }
    },
    {
      "ItemPool": "GD_Itempools.EnemyDropPools.Pool_GunsAndGear_04_Rare",
      "PoolProbability": {
        "BaseValueConstant": 1.0,
        "BaseValueAttribute": null,
        "InitializationDefinition":
          "GD_Balance.WeightingPlayerCount.GearDrops_PerPlayer",
        "BaseValueScaleConstant": 1.0
      }
    },
    {
      "ItemPool": "GD_Itempools.EnemyDropPools.Pool_GunsAndGear_04_Rare",
      "PoolProbability": {
        "BaseValueConstant": 1.0,
        "BaseValueAttribute": null,
        "InitializationDefinition":
          "GD_Balance.WeightingPlayerCount.GearDrops_PerPlayer",
        "BaseValueScaleConstant": 1.0
      }
    },
    {
      "ItemPool": "GD_Itempools.EnemyDropPools.Pool_GunsAndGear_04_Rare",
      "PoolProbability": {
        "BaseValueConstant": 1.0,
        "BaseValueAttribute": null,
        "InitializationDefinition":
          "GD_Balance.WeightingPlayerCount.GearDrops_PerPlayer",
        "BaseValueScaleConstant": 1.0
      }
    },
    {
      "ItemPool": "GD_Itempools.EnemyDropPools.Pool_GunsAndGear_05_VeryRare",
      "PoolProbability": {
        "BaseValueConstant": 1.0,
        "BaseValueAttribute": null,
        "InitializationDefinition":
          "GD_Balance.WeightingPlayerCount.GearDrops_PerPlayer",
        "BaseValueScaleConstant": 1.0
      }
    },
    {
      "ItemPool": "GD_Itempools.EnemyDropPools.Pool_GunsAndGear_05_VeryRare",
      "PoolProbability": {
        "BaseValueConstant": 1.0,
        "BaseValueAttribute": null,
        "InitializationDefinition":
          "GD_Balance.WeightingPlayerCount.GearDrops_PerPlayer",
        "BaseValueScaleConstant": 1.0
      }
    },
    {
      "ItemPool": "GD_Itempools.EnemyDropPools.Pool_GunsAndGear_05_VeryRare",
      "PoolProbability": {
        "BaseValueConstant": 1.0,
        "BaseValueAttribute": null,
        "InitializationDefinition":
          "GD_Balance.WeightingPlayerCount.GearDrops_PerPlayer",
        "BaseValueScaleConstant": 1.0
      }
    },
    {
      "ItemPool": "GD_Itempools.AmmoAndResourcePools.Pool_Money_1or2",
      "PoolProbability": {
        "BaseValueConstant": 1.0,
        "BaseValueAttribute": null,
        "InitializationDefinition": null,
        "BaseValueScaleConstant": 1.0
      }
    },
    {
      "ItemPool": "GD_Itempools.AmmoAndResourcePools.Pool_Money_1or2",
      "PoolProbability": {
        "BaseValueConstant": 1.0,
        "BaseValueAttribute": null,
        "InitializationDefinition": null,
        "BaseValueScaleConstant": 1.0
      }
    },
    {
      "ItemPool": "GD_Itempools.AmmoAndResourcePools.Pool_Money_1or2",
      "PoolProbability": {
        "BaseValueConstant": 1.0,
        "BaseValueAttribute": null,
        "InitializationDefinition": null,
        "BaseValueScaleConstant": 1.0
      }
    },
    {
      "ItemPool": "GD_Itempools.AmmoAndResourcePools.Pool_Money_1or2",
      "PoolProbability": {
        "BaseValueConstant": 1.0,
        "BaseValueAttribute": null,
        "InitializationDefinition": null,
        "BaseValueScaleConstant": 1.0
      }
    },
    {
      "ItemPool": "GD_Itempools.AmmoAndResourcePools.Pool_Money_1or2",
      "PoolProbability": {
        "BaseValueConstant": 1.0,
        "BaseValueAttribute": null,
        "InitializationDefinition": null,
        "BaseValueScaleConstant": 1.0
      }
    },
    {
      "ItemPool": "GD_Itempools.AmmoAndResourcePools.Pool_Money_1or2",
      "PoolProbability": {
        "BaseValueConstant": 1.0,
        "BaseValueAttribute": null,
        "InitializationDefinition": null,
        "BaseValueScaleConstant": 1.0
      }
    },
    {
      "ItemPool": "GD_Itempools.AmmoAndResourcePools.Pool_Eridium_Bar",
      "PoolProbability": {
        "BaseValueConstant": 1.0,
        "BaseValueAttribute": "GD_Itempools.DropWeights.DropODDS_EridiumBar",
        "InitializationDefinition": null,
        "BaseValueScaleConstant": 100.0
      }
    },
    {
      "ItemPool": "GD_Itempools.AmmoAndResourcePools.Pool_Eridium_Stick",
      "PoolProbability": {
        "BaseValueConstant": 1.0,
        "BaseValueAttribute":
          "GD_Itempools.DropWeights.DropODDS_EridiumStick",
        "InitializationDefinition": null,
        "BaseValueScaleConstant": 200.0
      }
    },
    {
      "ItemPool": "GD_Itempools.AmmoAndResourcePools.Pool_Eridium_Stick",
      "PoolProbability": {
        "BaseValueConstant": 1.0,
        "BaseValueAttribute":
          "GD_Itempools.DropWeights.DropODDS_EridiumStick",
        "InitializationDefinition": null,
        "BaseValueScaleConstant": 200.0
      }
    },
    {
      "ItemPool": "GD_Itempools.AmmoAndResourcePools.Pool_Health_All",
      "PoolProbability": {
        "BaseValueConstant": 0.0,
        "BaseValueAttribute": "GD_Itempools.DropWeights.DropODDS_Health",
        "InitializationDefinition": null,
        "BaseValueScaleConstant": 1.0
      }
    },
    {
      "ItemPool": "GD_Itempools.AmmoAndResourcePools.Pool_Health_All",
      "PoolProbability": {
        "BaseValueConstant": 0.0,
        "BaseValueAttribute": "GD_Itempools.DropWeights.DropODDS_Health",
        "InitializationDefinition": null,
        "BaseValueScaleConstant": 1.0
      }
    },
    {
      "ItemPool":
        "GD_Itempools.AmmoAndResourcePools.Pool_Ammo_All_DropAlways",
      "PoolProbability": {
        "BaseValueConstant": 0.0,
        "BaseValueAttribute": null,
        "InitializationDefinition":
          "GD_Balance.WeightingPlayerCount.AmmoDrops_PerPlayer",
        "BaseValueScaleConstant": 1.0
      }
    },
    {
      "ItemPool":
        "GD_Itempools.AmmoAndResourcePools.Pool_Ammo_All_DropAlways",
      "PoolProbability": {
        "BaseValueConstant": 0.0,
        "BaseValueAttribute": null,
        "InitializationDefinition":
          "GD_Balance.WeightingPlayerCount.AmmoDrops_PerPlayer",
        "BaseValueScaleConstant": 1.0
      }
    },
    {
      "ItemPool":
        "GD_Itempools.AmmoAndResourcePools.Pool_Ammo_All_DropAlways",
      "PoolProbability": {
        "BaseValueConstant": 0.0,
        "BaseValueAttribute": null,
        "InitializationDefinition":
          "GD_Balance.WeightingPlayerCount.AmmoDrops_PerPlayer",
        "BaseValueScaleConstant": 1.0
      }
    },
    {
      "ItemPool":
        "GD_Itempools.AmmoAndResourcePools.Pool_Ammo_All_DropAlways",
      "PoolProbability": {
        "BaseValueConstant": 0.0,
        "BaseValueAttribute": null,
        "InitializationDefinition":
          "GD_Balance.WeightingPlayerCount.AmmoDrops_PerPlayer",
        "BaseValueScaleConstant": 1.0
      }
    },
    {
      "ItemPool": "GD_Itempools.AmmoAndResourcePools.Pool_Ammo_All_NeedOnly",
      "PoolProbability": {
        "BaseValueConstant": 0.0,
        "BaseValueAttribute": null,
        "InitializationDefinition":
          "GD_Balance.WeightingPlayerCount.AmmoDrops_PerPlayer",
        "BaseValueScaleConstant": 0.25
      }
    },
    {
      "ItemPool": "GD_Itempools.AmmoAndResourcePools.Pool_Ammo_All_Emergency",
      "PoolProbability": {
        "BaseValueConstant": 1.0,
        "BaseValueAttribute": null,
        "InitializationDefinition": null,
        "BaseValueScaleConstant": 1.0
      }
    }
  ],
  "VfTableObject": "",
  "HashNext": "",
  "ObjectFlags": "",
  "HashOuterNext": "",
  "StateFrame": "",
  "Linker": null,
  "LinkerIndex": "",
  "ObjectInternalInteger": 179268,
  "NetIndex": 32,
  "Outer": "GD_Sage_ItemPools.Raid",
  "Name": "PoolList_Sage_Raid_Items",
  "Class": "WillowGame.ItemPoolListDefinition",
  "ObjectArchetype": "WillowGame.Default__ItemPoolListDefinition"
}