{
  "ExecuteDurationFormula": {
    "BaseValueConstant": 0.0,
    "BaseValueAttribute": null,
    "InitializationDefinition": null,
    "BaseValueScaleConstant": 1.0
  },
  "RestoreControlAfterMeleeSwingDelay": 0.01,
  "AutoSwingAngleInDegrees": 90.0,
  "ForceSwingOnWallCollision": true,
  "ForceSwingOnExecuteDashTimeout": true,
  "bEnableExecuteAimAssistance": false,
  "bDisableExecuteAbility": false,
  "bTargetRequiredForExecute": false,
  "bEnemyTargetRequiredForExecute": true,
  "bMustBeOnGroundToExecute": false,
  "StopExecuteDashIfTouchFriendly": false,
  "ClearVelocityOnDashEndInAir": false,
  "bLockMovementAndRotation": true,
  "ExecuteDOFEffectActive": false,
  "bAttemptedExecute": false,
  "bEnableAnalogMovementBackup": false,
  "bExecuteIsAvailable": false,
  "bMovementHasBeenRestored": false,
  "bCleaningUpExecute": false,
  "bFindMeleeTarget": false,
  "bAttachedMeleeWeapon": false,
  "ExecuteCaption": "EXECUTE ATTACK",
  "ExecuteMeleeSkill": null,
  "ExecuteAnimDelay": 0.25,
  "ExecuteMeleeDef": null,
  "CheckForTargetDistance": 0.0,
  "InitiateMeleeDistance": 0.0,
  "ExecuteVelocity": 0.0,
  "AirSpeed": 0.0,
  "AccelRateMultiplier": 0.0,
  "MinHitWallOverrideFormula": {
    "BaseValueConstant": 0.0,
    "BaseValueAttribute": null,
    "InitializationDefinition": null,
    "BaseValueScaleConstant": 1.0
  },
  "DashEndInAirVelocityScale": { "X": 1.0, "Y": 1.0, "Z": 1.0 },
  "BeginExecuteSMD": null,
  "IdleExecuteSMD": null,
  "ExecuteAttackSMD": null,
  "ExecuteDOFEffectData": {
    "FalloffExponent": 2.0,
    "BlurKernelSize": 2.0,
    "MaxNearBlurAmount": 1.0,
    "MaxFarBlurAmount": 1.0,
    "ModulateBlurColor": { "B": 255, "G": 255, "R": 255, "A": 255 },
    "FocusType": "FOCUS_Distance",
    "FocusInnerRadius": 400.0,
    "FocusDistance": 800.0,
    "FocusPosition": { "X": 0.0, "Y": 0.0, "Z": 0.0 }
  },
  "ExecuteDOFModiferData": {
    "AutoRelcalculateFocusDistance": false,
    "RecalculateFocusDistanceRate": 0.0,
    "FocusDistanceLerpRate": 1.0
  },
  "ExecuteDOFEffectName": null,
  "CancelDashAngleInDegrees": 8.0,
  "VisionModeMaterial": null,
  "VisionModePostProcessChain": null,
  "VisionModePostProcessChainOptions": {
    "MaterialEffectModifiers": null,
    "DOFEffectModifier": {
      "AutoRelcalculateFocusDistance": false,
      "RecalculateFocusDistanceRate": 0.0,
      "FocusDistanceLerpRate": 1.0
    }
  },
  "VisionModeCoordinatedEffect": null,
  "VisionModeCurrentTargetCoordinatedEffect": null,
  "CritLocationsSkill": null,
  "VisionModeMaterialInstance": null,
  "PrevVisionModePPCModifierData": {
    "AutoRelcalculateFocusDistance": false,
    "RecalculateFocusDistanceRate": 0.0,
    "FocusDistanceLerpRate": 1.0
  },
  "PrevVisionModeDOFEffectData": {
    "FalloffExponent": 2.0,
    "BlurKernelSize": 2.0,
    "MaxNearBlurAmount": 1.0,
    "MaxFarBlurAmount": 1.0,
    "ModulateBlurColor": { "B": 255, "G": 255, "R": 255, "A": 255 },
    "FocusType": "FOCUS_Distance",
    "FocusInnerRadius": 400.0,
    "FocusDistance": 800.0,
    "FocusPosition": { "X": 0.0, "Y": 0.0, "Z": 0.0 }
  },
  "PreExecuteVelocity": { "X": 0.0, "Y": 0.0, "Z": 0.0 },
  "PrevFrameExecuteVelocity": { "X": 0.0, "Y": 0.0, "Z": 0.0 },
  "CachedAccelRate": 0.0,
  "CachedMinHitWall": 0.0,
  "MyTarget": null,
  "InitiateMeleeDistanceSquared": 0.0,
  "ActionSkill": null,
  "MeleeAttackAnimDuration": 0.0,
  "ExecuteDuration": 0.0,
  "MinHitWallOverride": -0.707,
  "AutoSwingAngleCos": 0.0,
  "CancelDashAngleCos": 0.0,
  "SkillDuration": 0.0,
  "VfTable_IIInstanceData": "",
  "VfTable_IITimerBehavior": "",
  "VfTable_IICustomEvent": "",
  "VfTable_IIBehaviorConsumer": "",
  "VfTable_IIBehaviorProvider": "",
  "VfTable_IIConstructObject": "",
  "TickRate": 0.01,
  "NextTick": 0.0,
  "MyController": null,
  "MyWillowPawn": null,
  "MyWillowPlayerPawn": null,
  "MyWillowPC": null,
  "MyWillowMind": null,
  "TargetPawn": null,
  "InstanceState": { "Data": null },
  "ConsumerHandle": { "PID": -1 },
  "ReplicatedBehaviorConsumerState": {
    "bIsProcessSuspended": false,
    "BehaviorSequenceEnabledFlags": 0,
    "bNeedToApplyThisState": false
  },
  "ReplicatedBehaviorEvent": {
    "SequenceIndex": 0,
    "EventCounter": 0,
    "EventIndex": 0,
    "EventOutput": 0
  },
  "BehaviorProviderDefinition": null,
  "ActionSkillTimers":
    "(Timers[0]=(bIsRunning=False,Delay=0.000000,EventTime=0.000000),Timers[1]=(bIsRunning=False,Delay=0.000000,EventTime=0.000000),Timers[2]=(bIsRunning=False,Delay=0.000000,EventTime=0.000000))",
  "CustomEventReplication": {
    "EventCountForReplication": 0,
    "EventName": null
  },
  "bInitialized": false,
  "bDebugEnabled": false,
  "bBlockDeactivate": false,
  "bWantsDeactivate": false,
  "bWantsDestroy": false,
  "bActionSkillNearingCompletionEventFired": false,
  "bAllowAutomaticActiveAbilityActivation": false,
  "bRestrictActiveAbilityByCount": false,
  "bRestrictActiveAbilityByTimeFrequency": false,
  "bAllowAutomaticCooldownAbilityActivation": false,
  "bRestrictCooldownAbilityByCount": false,
  "bRestrictCooldownAbilityByTimeFrequency": false,
  "ActionSkillNearingCompletionTime": 2.0,
  "MaxActivationCountPerActiveCycle": 0,
  "ActiveAbilityActivationTimeFrequency": 0.0,
  "MaxActivationCountPerCooldownCycle": 0,
  "CooldownAbilityActivationTimeFrequency": 0.0,
  "MeleeOverrideSkill": null,
  "TimeStarted": 0,
  "VfTable_IIWorldBody": "",
  "VfTable_IISpawnActor": "",
  "VfTable_IIDamageCauser": "",
  "Location": { "X": 0.0, "Y": 0.0, "Z": 0.0 },
  "Rotation": { "Pitch": 0, "Yaw": 0, "Roll": 0 },
  "DrawScale": 1.0,
  "DrawScale3D": { "X": 1.0, "Y": 1.0, "Z": 1.0 },
  "PrePivot": { "X": 0.0, "Y": 0.0, "Z": 0.0 },
  "DetachFence": "",
  "CustomTimeDilation": 1.0,
  "Physics": "PHYS_None",
  "RemoteRole": "ROLE_SimulatedProxy",
  "Role": "ROLE_Authority",
  "CollisionType": "COLLIDE_NoCollision",
  "ReplicatedCollisionType": [ "INVALID" ],
  "TickGroup": "TG_PreAsyncWork",
  "Owner": null,
  "Base": null,
  "bUseOrthonormalizedLighting": false,
  "bStatic": false,
  "bHidden": false,
  "bNoDelete": false,
  "bDeleteMe": false,
  "bTicked": false,
  "bOnlyOwnerSee": false,
  "bTickIsDisabled": false,
  "bWorldGeometry": false,
  "bIgnoreRigidBodyPawns": false,
  "bOrientOnSlope": false,
  "bIgnoreEncroachers": false,
  "bPushedByEncroachers": false,
  "bRouteBeginPlayEvenIfStatic": true,
  "bIsMoving": false,
  "bAlwaysEncroachCheck": false,
  "bCanStepUpOn": false,
  "bNetTemporary": false,
  "bOnlyRelevantToOwner": false,
  "bNetDirty": false,
  "bAlwaysRelevant": true,
  "bReplicateInstigator": false,
  "bReplicateMovement": false,
  "bSkipRotationReplication": false,
  "bForceRotationReplication": false,
  "bSkipActorPropertyReplication": false,
  "bUpdateSimulatedPosition": false,
  "bTearOff": false,
  "bOnlyDirtyReplication": false,
  "bSkipHiddenReplication": false,
  "bAllowFluidSurfaceInteraction": true,
  "bDemoRecording": false,
  "bDemoOwner": false,
  "bForceDemoRelevant": false,
  "bNetInitialRotation": false,
  "bReplicateRigidBodyLocation": false,
  "bKillDuringLevelTransition": false,
  "bExchangedRoles": false,
  "bConsiderAllStaticMeshComponentsForStreaming": false,
  "bPostRenderIfNotVisible": false,
  "bForceNetUpdate": false,
  "bPendingNetUpdate": false,
  "bHardAttach": false,
  "bIgnoreBaseRotation": false,
  "bSkipAttachedMoves": true,
  "bHurtEntry": false,
  "bGameRelevant": false,
  "bMovable": false,
  "bDestroyInPainVolume": false,
  "bCanBeDamaged": false,
  "bShouldBaseAtStartup": false,
  "bPendingDelete": false,
  "bCanTeleport": false,
  "bAlwaysTick": false,
  "bBlocksNavigation": false,
  "bCanTarget": false,
  "bCanTargetCheat": false,
  "BlockRigidBody": false,
  "bCollideWhenPlacing": false,
  "bCollideActors": false,
  "bCollideWorld": false,
  "bCollideComplex": false,
  "bBlockActors": false,
  "bProjTarget": false,
  "bBlocksTeleport": false,
  "bProjectileMoveSingleBlocking": false,
  "bTraceListeners": false,
  "bIsBlockingMesh": false,
  "bIsWillowInteractiveObject": false,
  "bIgnoreRadiusDamageCheck": false,
  "bNoEncroachCheck": false,
  "bCollideAsEncroacher": false,
  "bPhysRigidBodyOutOfWorldCheck": false,
  "bComponentOutsideWorld": false,
  "bForceOctreeSNFilter": false,
  "bRigidBodyWasAwake": false,
  "bCallRigidBodyWakeEvents": false,
  "bBounce": false,
  "bJustTeleported": true,
  "bNetInitial": false,
  "bNetOwner": false,
  "bHiddenEd": false,
  "bEditable": true,
  "bHiddenEdLayer": false,
  "bHiddenEdTemporary": false,
  "bHiddenEdLevel": false,
  "bEdShouldSnap": false,
  "bTempEditor": false,
  "bPathColliding": false,
  "bPathTemp": false,
  "bScriptInitialized": false,
  "bLockLocation": false,
  "bForceAllowKismetModification": false,
  "bTraceIgnoreRigidBodyForPawns": false,
  "bAutoMovePlayerOnInterpActor": false,
  "bMoveActorDoZeroExtentTrace": false,
  "bDebugEffectIsRelevant": false,
  "bLoadIfPhysXLevel0": true,
  "bLoadIfPhysXLevel1": true,
  "bLoadIfPhysXLevel2": true,
  "NetTag": 0,
  "NetUpdateTime": 0.0,
  "NetUpdateFrequency": 100.0,
  "NetPriority": 2.0,
  "LastNetUpdateTime": 0.0,
  "Instigator": null,
  "WorldInfo": null,
  "LifeSpan": 0.0,
  "CreationTime": 0.0,
  "LastRenderTime": 0.0,
  "LatentFloat": 0.0,
  "PhysicsVolume": null,
  "Velocity": { "X": 0.0, "Y": 0.0, "Z": 0.0 },
  "Acceleration": { "X": 0.0, "Y": 0.0, "Z": 0.0 },
  "AngularVelocity": { "X": 0.0, "Y": 0.0, "Z": 0.0 },
  "BaseSkelComponent": null,
  "BaseBoneName": null,
  "RelativeLocation": { "X": 0.0, "Y": 0.0, "Z": 0.0 },
  "RelativeRotation": { "Pitch": 0, "Yaw": 0, "Roll": 0 },
  "CollisionComponent": null,
  "OverlapTag": 0,
  "RotationRate": { "Pitch": 0, "Yaw": 0, "Roll": 0 },
  "MostRecentDamageTaken": 0.0,
  "VfTableObject": "",
  "HashNext": "",
  "ObjectFlags": "",
  "HashOuterNext": "",
  "StateFrame": "",
  "Linker": null,
  "LinkerIndex": "",
  "ObjectInternalInteger": 71198,
  "NetIndex": 20991,
  "Outer": "Package'WillowGame'",
  "Name": "Default__ExecuteActionSkill",
  "Class": "WillowGame.ExecuteActionSkill",
  "ObjectArchetype": "WillowGame.Default__ActionSkill"
}