{
  "StrictGiveUpDistance": 400.0,
  "LooseGiveUpDistance": 400.0,
  "StrictTolerance": 5.0,
  "LooseTolerance": 30.0,
  "InitialLeftCell": "cel31",
  "InitialRightCell": "cel26",
  "ItemOfTheDayCell": "cel25",
  "Card1Tex": "cel23tex",
  "Card2Tex": "cel24tex",
  "TotalNumberOfCells": 43,
  "WeaponsLeftSideDef": null,
  "WeaponsRightSideDef": null,
  "GrenadesLeftSideDef": null,
  "GrenadesRightSideDef": null,
  "HealthLeftSideDef": null,
  "HealthRightSideDef": null,
  "ItemOfTheDay_Texture_Width": 256,
  "ItemOfTheDay_Texture_Height": 256,
  "ItemOfTheDay_Cell_Width": 136,
  "ItemOfTheDay_Cell_Height": 52,
  "Card_Texture_Width": 256,
  "Card_Texture_Height": 256,
  "Card_Cell_Width": 228,
  "Card_Cell_Height": 77,
  "ItemOfTheDayTextureLinkage": "weaptex1",
  "Card1TextureLinkage": "weaptex23",
  "Card2TextureLinkage": "weaptex24",
  "RefreshInterval": 1,
  "EquippedCellNames": [
    "cel1", "cel2", "cel3", "cel4", "cel5", "cel6", "cel7"
  ],
  "BackpackCellNames": [
    "cel31", "cel36", "cel41", "cel32", "cel37", "cel42", "cel33", "cel38",
    "cel43", "cel34", "cel39", "cel44", "cel35", "cel40", "cel45"
  ],
  "RightSideCellOrderNames": [
    "cel26", "cel8", "cel9", "cel10", "cel27", "cel11", "cel12", "cel13",
    "cel28", "cel14", "cel15", "cel16", "cel29", "cel17", "cel18", "cel19",
    "cel30", "cel20", "cel21", "cel22"
  ],
  "View3DFOV": -1.0,
  "View3DScale": 1.0,
  "View3DTrans": { "X": 0.0, "Y": 0.0, "Z": 0.0 },
  "View3DRot": { "Pitch": 0, "Yaw": 0, "Roll": 0 },
  "bSetMatricesEveryTick": false,
  "SplitscreenFOVScalar": 1.0,
  "SplitscreenSizeScalar": 0.9,
  "VerticalSplitscreenPanning": 0.0,
  "VerticalSplitscreenPanning_Spread": 40.0,
  "SwfMovie": null,
  "SwfMovieClass": null,
  "Movie": null,
  "ExternalInterfaceClass": null,
  "bTakeFocus": false,
  "bCaptureInput": false,
  "bStartPaused": false,
  "bIsModalGameMenu": false,
  "bOverrideWorldLighting": false,
  "bInputOwnerOnly": false,
  "bInputAllKeys": false,
  "FadeInSeconds": 0.1,
  "FadeOutSeconds": 0.1,
  "WorldLightingDirectionOffset": { "Pitch": 0, "Yaw": 0, "Roll": 0 },
  "DrawStyle": null,
  "DepthPriority": 0,
  "PoolType": "GMP_Pooled",
  "ScaleMode": "SM_NoScale",
  "AlignMode": "Align_Center",
  "TimingMode": "TM_Game",
  "RenderTextureMode": "RTM_Opaque",
  "Pool": null,
  "RenderTexture": null,
  "VfTableObject": "",
  "HashNext": "",
  "ObjectFlags": "",
  "HashOuterNext": "",
  "StateFrame": "",
  "Linker": null,
  "LinkerIndex": "",
  "ObjectInternalInteger": 5351,
  "NetIndex": 35571,
  "Outer": "Package'WillowGame'",
  "Name": "Default__VendingMachineGFxDefinition",
  "Class": "WillowGame.VendingMachineGFxDefinition",
  "ObjectArchetype": "WillowGame.Default__WillowGFxMovie3DDefinition"
}