{
  "PresetTag": "Default",
  "PresetCaption": "Default",
  "bShowInPresetMenu": true,
  "RemappedButtons": [
    {
      "DefaultKeyName": "XboxTypeS_LeftShoulder",
      "RemappedKeyName": "XboxTypeS_LeftTrigger",
      "RemappedPressActions": null,
      "RemappedTapActions": null,
      "RemappedHoldActions": null,
      "Caption": null
    },
    {
      "DefaultKeyName": "XboxTypeS_RightShoulder",
      "RemappedKeyName": "XboxTypeS_RightTrigger",
      "RemappedPressActions": null,
      "RemappedTapActions": null,
      "RemappedHoldActions": null,
      "Caption": null
    },
    {
      "DefaultKeyName": "XboxTypeS_LeftTrigger",
      "RemappedKeyName": "XboxTypeS_LeftShoulder",
      "RemappedPressActions": null,
      "RemappedTapActions": null,
      "RemappedHoldActions": null,
      "Caption": null
    },
    {
      "DefaultKeyName": "XboxTypeS_RightTrigger",
      "RemappedKeyName": "XboxTypeS_RightShoulder",
      "RemappedPressActions": null,
      "RemappedTapActions": null,
      "RemappedHoldActions": null,
      "Caption": null
    }
  ],
  "VfTableObject": "",
  "HashNext": "",
  "ObjectFlags": "",
  "HashOuterNext": "",
  "StateFrame": "",
  "Linker": null,
  "LinkerIndex": "",
  "ObjectInternalInteger": 129054,
  "NetIndex": 111,
  "Outer": "GD_Input.Remapping",
  "Name": "InputRemapping_PS3_Default",
  "Class": "WillowGame.InputRemappingDefinition",
  "ObjectArchetype": "WillowGame.Default__InputRemappingDefinition"
}