{
  "PresetTag": "SouthPawSticks",
  "PresetCaption": "Southpaw Alternate",
  "bShowInPresetMenu": true,
  "RemappedButtons": [
    {
      "DefaultKeyName": "XboxTypeS_LeftShoulder",
      "RemappedKeyName": "XboxTypeS_LeftTrigger",
      "RemappedPressActions": null,
      "RemappedTapActions": null,
      "RemappedHoldActions": null,
      "Caption": null
    },
    {
      "DefaultKeyName": "XboxTypeS_RightShoulder",
      "RemappedKeyName": "XboxTypeS_RightTrigger",
      "RemappedPressActions": null,
      "RemappedTapActions": null,
      "RemappedHoldActions": null,
      "Caption": null
    },
    {
      "DefaultKeyName": "XboxTypeS_LeftTrigger",
      "RemappedKeyName": "XboxTypeS_LeftShoulder",
      "RemappedPressActions": null,
      "RemappedTapActions": null,
      "RemappedHoldActions": null,
      "Caption": null
    },
    {
      "DefaultKeyName": "XboxTypeS_RightTrigger",
      "RemappedKeyName": "XboxTypeS_RightShoulder",
      "RemappedPressActions": null,
      "RemappedTapActions": null,
      "RemappedHoldActions": null,
      "Caption": null
    },
    {
      "DefaultKeyName": "XboxTypeS_LeftThumbStick",
      "RemappedKeyName": "XboxTypeS_RightThumbStick",
      "RemappedPressActions": null,
      "RemappedTapActions": null,
      "RemappedHoldActions": null,
      "Caption": null
    },
    {
      "DefaultKeyName": "XboxTypeS_RightThumbStick",
      "RemappedKeyName": "XboxTypeS_LeftThumbStick",
      "RemappedPressActions": null,
      "RemappedTapActions": null,
      "RemappedHoldActions": null,
      "Caption": null
    }
  ],
  "RemappedAxes": [
    {
      "DefaultAxisName": "XboxTypeS_RightX",
      "RemappedAxisName": "XboxTypeS_LeftX",
      "RemappedAxisParameter": "AXIS_PARAM_aTurn",
      "bInvertInput": false,
      "Caption": null
    },
    {
      "DefaultAxisName": "XboxTypeS_RightY",
      "RemappedAxisName": "XboxTypeS_LeftY",
      "RemappedAxisParameter": "AXIS_PARAM_aLookUp",
      "bInvertInput": true,
      "Caption": null
    },
    {
      "DefaultAxisName": "XboxTypeS_LeftX",
      "RemappedAxisName": "XboxTypeS_RightX",
      "RemappedAxisParameter": "AXIS_PARAM_aStrafe",
      "bInvertInput": false,
      "Caption": null
    },
    {
      "DefaultAxisName": "XboxTypeS_LeftY",
      "RemappedAxisName": "XboxTypeS_RightY",
      "RemappedAxisParameter": "AXIS_PARAM_aBaseY",
      "bInvertInput": true,
      "Caption": null
    }
  ],
  "VfTableObject": "",
  "HashNext": "",
  "ObjectFlags": "",
  "HashOuterNext": "",
  "StateFrame": "",
  "Linker": null,
  "LinkerIndex": "",
  "ObjectInternalInteger": 129059,
  "NetIndex": 117,
  "Outer": "GD_Input.Remapping",
  "Name": "InputRemapping_PS3_SouthpawSticks",
  "Class": "WillowGame.InputRemappingDefinition",
  "ObjectArchetype": "WillowGame.Default__InputRemappingDefinition"
}