{
  "Definition": null,
  "PoolGUID": 2,
  "MinValue": 0.0,
  "MinValueBaseValue": 0.0,
  "MaxValue": 0.0,
  "MaxValueBaseValue": 0.0,
  "CurrentValue": 0.0,
  "ConsumptionRate": 0.0,
  "ConsumptionRateBaseValue": 0.0,
  "ActiveRegenerationRate": 0.0,
  "ActiveRegenerationRateBaseValue": 0.0,
  "OnIdleRegenerationRate": 0.0,
  "OnIdleRegenerationRateBaseValue": 0.0,
  "OnIdleRegenerationDelay": 0.0,
  "OnIdleRegenerationDelayBaseValue": 0.0,
  "PassiveRegenerationRate": 0.0,
  "PassiveRegenerationRateBaseValue": 0.0,
  "LastMinValue": 0.0,
  "LastMaxValue": 280.0,
  "LastCurrentValue": 0.0,
  "PoolIdleDelayStartTime": 4.218849,
  "RateRemainder": 0.0,
  "RecentImpulseCount": 0,
  "RegenerationDisabled": 0,
  "RegenerationDisabledBaseValue": 0,
  "ResetRecentImpulseCountTime": 0.0,
  "bIsAuthoritative": true,
  "bIsBeingInitialized": false,
  "bHasPoolBeenFullSinceLastBeingDepleted": false,
  "bDisallowReinitialization": false,
  "bHideHUDDisplay": false,
  "bCreatedAndNotModified": true,
  "WasRegenerating": false,
  "AssociatedProvider": null,
  "HUDMaterialInstance": null,
  "RegenerationPool": null,
  "IsRegenerating": 0,
  "VfTableObject": "",
  "HashNext": "",
  "ObjectFlags": "",
  "HashOuterNext": "",
  "StateFrame": "",
  "Linker": null,
  "LinkerIndex": "",
  "ObjectInternalInteger": 233029,
  "NetIndex": -1,
  "Outer":
    "Iris_DL2_Interior_P.TheWorld:PersistentLevel.ResourcePoolManager_219",
  "Name": "AmmoResourcePool_254",
  "Class": "WillowGame.AmmoResourcePool",
  "ObjectArchetype": "WillowGame.Default__AmmoResourcePool"
}