{
  "Definition": "D_Resourcepools.AmmoPools.Ammo_Repeater_Pistol_Pool",
  "PoolGUID": 4,
  "MinValue": 0.0,
  "MinValueBaseValue": 0.0,
  "MaxValue": 900.0,
  "MaxValueBaseValue": 900.0,
  "CurrentValue": 900.0,
  "ConsumptionRate": 0.0,
  "ConsumptionRateBaseValue": 0.0,
  "ActiveRegenerationRate": 0.0,
  "ActiveRegenerationRateBaseValue": 0.0,
  "OnIdleRegenerationRate": 0.0,
  "OnIdleRegenerationRateBaseValue": 0.0,
  "OnIdleRegenerationDelay": 0.0,
  "OnIdleRegenerationDelayBaseValue": 0.0,
  "PassiveRegenerationRate": 0.0,
  "PassiveRegenerationRateBaseValue": 0.0,
  "LastMinValue": 0.0,
  "LastMaxValue": 900.0,
  "LastCurrentValue": 900.0,
  "PoolIdleDelayStartTime": 0.4,
  "RateRemainder": 0.0,
  "RecentImpulseCount": 0,
  "RegenerationDisabled": 0,
  "RegenerationDisabledBaseValue": 0,
  "ResetRecentImpulseCountTime": 0.0,
  "bIsAuthoritative": true,
  "bIsBeingInitialized": false,
  "bHasPoolBeenFullSinceLastBeingDepleted": true,
  "bDisallowReinitialization": false,
  "bHideHUDDisplay": false,
  "bCreatedAndNotModified": false,
  "WasRegenerating": false,
  "AssociatedProvider":
    "Loader.TheWorld:PersistentLevel.WillowPlayerController_6",
  "HUDMaterialInstance": null,
  "RegenerationPool": null,
  "IsRegenerating": 0,
  "VfTableObject": "",
  "HashNext": "",
  "ObjectFlags": "",
  "HashOuterNext": "",
  "StateFrame": "",
  "Linker": null,
  "LinkerIndex": "",
  "ObjectInternalInteger": 234498,
  "NetIndex": -1,
  "Outer": "Loader.TheWorld:PersistentLevel.ResourcePoolManager_17",
  "Name": "AmmoResourcePool_29",
  "Class": "WillowGame.AmmoResourcePool",
  "ObjectArchetype": "WillowGame.Default__AmmoResourcePool"
}