{
  "Description": "Kill 25 knights",
  "StatId": "STAT_ASTER_PLAYER_KILLS_KNIGHT",
  "TargetValue": 25,
  "VfTableObject": "",
  "HashNext": "",
  "ObjectFlags": "",
  "HashOuterNext": "",
  "StateFrame": "",
  "Linker": null,
  "LinkerIndex": "",
  "ObjectInternalInteger": 164917,
  "NetIndex": 50,
  "Outer": "GD_Aster_Challenges.Challenges.Challenge_Aster_KillKnights",
  "Name": "ChallengeConditionDefinition_2",
  "Class": "WillowGame.ChallengeConditionDefinition",
  "ObjectArchetype": "WillowGame.Default__ChallengeConditionDefinition"
}