{
  "Description": "Kill 250 orcs",
  "StatId": "STAT_ASTER_PLAYER_KILLS_ORC",
  "TargetValue": 250,
  "VfTableObject": "",
  "HashNext": "",
  "ObjectFlags": "",
  "HashOuterNext": "",
  "StateFrame": "",
  "Linker": null,
  "LinkerIndex": "",
  "ObjectInternalInteger": 164928,
  "NetIndex": 59,
  "Outer": "GD_Aster_Challenges.Challenges.Challenge_Aster_KillOrcs",
  "Name": "ChallengeConditionDefinition_12",
  "Class": "WillowGame.ChallengeConditionDefinition",
  "ObjectArchetype": "WillowGame.Default__ChallengeConditionDefinition"
}