{
  "Description": "Kill 75 surveyors",
  "StatId": "STAT_PLAYER_KILLS_SURVEYOR",
  "TargetValue": 75,
  "VfTableObject": "",
  "HashNext": "",
  "ObjectFlags": "",
  "HashOuterNext": "",
  "StateFrame": "",
  "Linker": null,
  "LinkerIndex": "",
  "ObjectInternalInteger": 121822,
  "NetIndex": 577,
  "Outer": "GD_Challenges.enemies.Enemies_KillSurveyors",
  "Name": "ChallengeConditionDefinition_6",
  "Class": "WillowGame.ChallengeConditionDefinition",
  "ObjectArchetype": "WillowGame.Default__ChallengeConditionDefinition"
}