{
  "Description": "Score 1,000 critical hits with an assault rifle",
  "StatId": "STAT_PLAYER_CRITICAL_HIT_WITH_ASSAULT_RIFLE",
  "TargetValue": 1000,
  "VfTableObject": "",
  "HashNext": "",
  "ObjectFlags": "",
  "HashOuterNext": "",
  "StateFrame": "",
  "Linker": null,
  "LinkerIndex": "",
  "ObjectInternalInteger": 122133,
  "NetIndex": 868,
  "Outer": "GD_Challenges.Weapons.AssaultRifle_CriticalHits",
  "Name": "ChallengeConditionDefinition_3",
  "Class": "WillowGame.ChallengeConditionDefinition",
  "ObjectArchetype": "WillowGame.Default__ChallengeConditionDefinition"
}