{
  "Description": "Loot or purchase 12 blue-rarity items",
  "StatId": "STAT_PLAYER_NUM_RARE_ITEMS_FOUND",
  "TargetValue": 12,
  "VfTableObject": "",
  "HashNext": "",
  "ObjectFlags": "",
  "HashOuterNext": "",
  "StateFrame": "",
  "Linker": null,
  "LinkerIndex": "",
  "ObjectInternalInteger": 121998,
  "NetIndex": 736,
  "Outer": "GD_Challenges.Pickups.Inventory_PickupBlueItems",
  "Name": "ChallengeConditionDefinition_5",
  "Class": "WillowGame.ChallengeConditionDefinition",
  "ObjectArchetype": "WillowGame.Default__ChallengeConditionDefinition"
}