{
  "Description": "Kill 400 enemies with melee attacks",
  "StatId": "STAT_PLAYER_KILLS_WITH_MELEE_ATTACK",
  "TargetValue": 400,
  "VfTableObject": "",
  "HashNext": "",
  "ObjectFlags": "",
  "HashOuterNext": "",
  "StateFrame": "",
  "Linker": null,
  "LinkerIndex": "",
  "ObjectInternalInteger": 121962,
  "NetIndex": 707,
  "Outer": "GD_Challenges.Melee.Melee_Kills",
  "Name": "ChallengeConditionDefinition_2",
  "Class": "WillowGame.ChallengeConditionDefinition",
  "ObjectArchetype": "WillowGame.Default__ChallengeConditionDefinition"
}