{
  "Description": "Kill 50 constructors",
  "StatId": "STAT_PLAYER_KILLS_CONSTRUCTOR",
  "TargetValue": 50,
  "VfTableObject": "",
  "HashNext": "",
  "ObjectFlags": "",
  "HashOuterNext": "",
  "StateFrame": "",
  "Linker": null,
  "LinkerIndex": "",
  "ObjectInternalInteger": 121740,
  "NetIndex": 509,
  "Outer": "GD_Challenges.enemies.Enemies_KillConstructors",
  "Name": "ChallengeConditionDefinition_8",
  "Class": "WillowGame.ChallengeConditionDefinition",
  "ObjectArchetype": "WillowGame.Default__ChallengeConditionDefinition"
}