{
  "Description": "Get 1,000 kills with SMGs",
  "StatId": "STAT_PLAYER_KILLS_WITH_SMG",
  "TargetValue": 1000,
  "VfTableObject": "",
  "HashNext": "",
  "ObjectFlags": "",
  "HashOuterNext": "",
  "StateFrame": "",
  "Linker": null,
  "LinkerIndex": "",
  "ObjectInternalInteger": 122253,
  "NetIndex": 998,
  "Outer": "GD_Challenges.Weapons.SMG_Kills",
  "Name": "ChallengeConditionDefinition_3",
  "Class": "WillowGame.ChallengeConditionDefinition",
  "ObjectArchetype": "WillowGame.Default__ChallengeConditionDefinition"
}