{
  "Description": "Complete 100 challenges",
  "StatId": "STAT_PLAYER_CHALLENGES_COMPLETED",
  "TargetValue": 100,
  "VfTableObject": "",
  "HashNext": "",
  "ObjectFlags": "",
  "HashOuterNext": "",
  "StateFrame": "",
  "Linker": null,
  "LinkerIndex": "",
  "ObjectInternalInteger": 121975,
  "NetIndex": 718,
  "Outer": "GD_Challenges.Miscellaneous.Misc_CompleteChallenges",
  "Name": "ChallengeConditionDefinition_7",
  "Class": "WillowGame.ChallengeConditionDefinition",
  "ObjectArchetype": "WillowGame.Default__ChallengeConditionDefinition"
}