{
  "Description": "Get 150 crit-kills with SMGs",
  "StatId": "STAT_PLAYER_CRITICAL_KILLS_WITH_SMG",
  "TargetValue": 150,
  "VfTableObject": "",
  "HashNext": "",
  "ObjectFlags": "",
  "HashOuterNext": "",
  "StateFrame": "",
  "Linker": null,
  "LinkerIndex": "",
  "ObjectInternalInteger": 122242,
  "NetIndex": 988,
  "Outer": "GD_Challenges.Weapons.SMG_CriticalHitKills",
  "Name": "ChallengeConditionDefinition_3",
  "Class": "WillowGame.ChallengeConditionDefinition",
  "ObjectArchetype": "WillowGame.Default__ChallengeConditionDefinition"
}