{
  "Description": "Loot or purchase 20 green-rarity items",
  "StatId": "STAT_PLAYER_NUM_UNCOMMON_ITEMS_FOUND",
  "TargetValue": 20,
  "VfTableObject": "",
  "HashNext": "",
  "ObjectFlags": "",
  "HashOuterNext": "",
  "StateFrame": "",
  "Linker": null,
  "LinkerIndex": "",
  "ObjectInternalInteger": 122003,
  "NetIndex": 740,
  "Outer": "GD_Challenges.Pickups.Inventory_PickupGreenItems",
  "Name": "ChallengeConditionDefinition_0",
  "Class": "WillowGame.ChallengeConditionDefinition",
  "ObjectArchetype": "WillowGame.Default__ChallengeConditionDefinition"
}