{
  "Description": "Kill 25 rats",
  "StatId": "STAT_PLAYER_KILLS_RAT",
  "TargetValue": 25,
  "VfTableObject": "",
  "HashNext": "",
  "ObjectFlags": "",
  "HashOuterNext": "",
  "StateFrame": "",
  "Linker": null,
  "LinkerIndex": "",
  "ObjectInternalInteger": 121797,
  "NetIndex": 556,
  "Outer": "GD_Challenges.enemies.Enemies_KillRats",
  "Name": "ChallengeConditionDefinition_5",
  "Class": "WillowGame.ChallengeConditionDefinition",
  "ObjectArchetype": "WillowGame.Default__ChallengeConditionDefinition"
}