{
  "Description": "Purchase 30 Items of the Day from vending machines",
  "StatId": "STAT_PLAYER_NUM_ITEMS_OF_THE_DAY_PURCHASED",
  "TargetValue": 30,
  "VfTableObject": "",
  "HashNext": "",
  "ObjectFlags": "",
  "HashOuterNext": "",
  "StateFrame": "",
  "Linker": null,
  "LinkerIndex": "",
  "ObjectInternalInteger": 121663,
  "NetIndex": 438,
  "Outer": "GD_Challenges.Economy.Economy_PurchaseItemsOfTheDay",
  "Name": "ChallengeConditionDefinition_3",
  "Class": "WillowGame.ChallengeConditionDefinition",
  "ObjectArchetype": "WillowGame.Default__ChallengeConditionDefinition"
}