{
  "Description": "Kill 20 enemies while using your Action Skill",
  "StatId": "STAT_PLAYER_KILLS_ACTION_SKILL",
  "TargetValue": 20,
  "VfTableObject": "",
  "HashNext": "",
  "ObjectFlags": "",
  "HashOuterNext": "",
  "StateFrame": "",
  "Linker": null,
  "LinkerIndex": "",
  "ObjectInternalInteger": 121887,
  "NetIndex": 640,
  "Outer": "GD_Challenges.GeneralCombat.Player_KillsWithActionSkill",
  "Name": "ChallengeConditionDefinition_0",
  "Class": "WillowGame.ChallengeConditionDefinition",
  "ObjectArchetype": "WillowGame.Default__ChallengeConditionDefinition"
}