{
  "Description": "Kill 25 threshers",
  "StatId": "STAT_PLAYER_KILLS_THRESHER",
  "TargetValue": 25,
  "VfTableObject": "",
  "HashNext": "",
  "ObjectFlags": "",
  "HashOuterNext": "",
  "StateFrame": "",
  "Linker": null,
  "LinkerIndex": "",
  "ObjectInternalInteger": 121827,
  "NetIndex": 581,
  "Outer": "GD_Challenges.enemies.Enemies_KillThreshers",
  "Name": "ChallengeConditionDefinition_5",
  "Class": "WillowGame.ChallengeConditionDefinition",
  "ObjectArchetype": "WillowGame.Default__ChallengeConditionDefinition"
}