{
  "Description": "Kill 600 enemies with explosive damage",
  "StatId": "STAT_PLAYER_KILLS_WITH_EXPLOSIVE_ATTACK",
  "TargetValue": 600,
  "VfTableObject": "",
  "HashNext": "",
  "ObjectFlags": "",
  "HashOuterNext": "",
  "StateFrame": "",
  "Linker": null,
  "LinkerIndex": "",
  "ObjectInternalInteger": 121715,
  "NetIndex": 483,
  "Outer": "GD_Challenges.elemental.Elemental_KillEnemiesExplosive",
  "Name": "ChallengeConditionDefinition_3",
  "Class": "WillowGame.ChallengeConditionDefinition",
  "ObjectArchetype": "WillowGame.Default__ChallengeConditionDefinition"
}