{
  "Description": "Kill Jimmy J3NKN5",
  "StatId": "STAT_PLAYER_KILLS_JIMMY_JENKINS",
  "TargetValue": 1,
  "VfTableObject": "",
  "HashNext": "",
  "ObjectFlags": "",
  "HashOuterNext": "",
  "StateFrame": "",
  "Linker": null,
  "LinkerIndex": "",
  "ObjectInternalInteger": 121978,
  "NetIndex": 720,
  "Outer": "GD_Challenges.Miscellaneous.Misc_JimmyJenkins",
  "Name": "ChallengeConditionDefinition_0",
  "Class": "WillowGame.ChallengeConditionDefinition",
  "ObjectArchetype": "WillowGame.Default__ChallengeConditionDefinition"
}