{
  "Description":
    "Kill 10 enemies with a pistol just after aiming down sights",
  "StatId": "STAT_PLAYER_KILLS_PISTOL_QUICKSHOT",
  "TargetValue": 10,
  "VfTableObject": "",
  "HashNext": "",
  "ObjectFlags": "",
  "HashOuterNext": "",
  "StateFrame": "",
  "Linker": null,
  "LinkerIndex": "",
  "ObjectInternalInteger": 122197,
  "NetIndex": 940,
  "Outer": "GD_Challenges.Weapons.Pistol_KillsQuickshot",
  "Name": "ChallengeConditionDefinition_0",
  "Class": "WillowGame.ChallengeConditionDefinition",
  "ObjectArchetype": "WillowGame.Default__ChallengeConditionDefinition"
}