{
  "Description": "Kill 75 enemies with Singularity grenades",
  "StatId": "STAT_PLAYER_NUM_GRENADE_KILLS_SINGULARITY",
  "TargetValue": 75,
  "VfTableObject": "",
  "HashNext": "",
  "ObjectFlags": "",
  "HashOuterNext": "",
  "StateFrame": "",
  "Linker": null,
  "LinkerIndex": "",
  "ObjectInternalInteger": 121932,
  "NetIndex": 677,
  "Outer": "GD_Challenges.Grenades.Grenade_KillsSingularityType",
  "Name": "ChallengeConditionDefinition_6",
  "Class": "WillowGame.ChallengeConditionDefinition",
  "ObjectArchetype": "WillowGame.Default__ChallengeConditionDefinition"
}