{
  "Description": "Get 30 Second Winds with pistols",
  "StatId": "STAT_PLAYER_SECOND_WIND_WITH_PISTOL",
  "TargetValue": 30,
  "VfTableObject": "",
  "HashNext": "",
  "ObjectFlags": "",
  "HashOuterNext": "",
  "StateFrame": "",
  "Linker": null,
  "LinkerIndex": "",
  "ObjectInternalInteger": 122206,
  "NetIndex": 948,
  "Outer": "GD_Challenges.Weapons.Pistol_SecondWinds",
  "Name": "ChallengeConditionDefinition_3",
  "Class": "WillowGame.ChallengeConditionDefinition",
  "ObjectArchetype": "WillowGame.Default__ChallengeConditionDefinition"
}