{
  "Description": "Kill 10 enemies with a Nova shield burst",
  "StatId": "STAT_PLAYER_KILLS_WITH_SHIELD_NOVA",
  "TargetValue": 10,
  "VfTableObject": "",
  "HashNext": "",
  "ObjectFlags": "",
  "HashOuterNext": "",
  "StateFrame": "",
  "Linker": null,
  "LinkerIndex": "",
  "ObjectInternalInteger": 122080,
  "NetIndex": 816,
  "Outer": "GD_Challenges.Shields.Shields_KillsNova",
  "Name": "ChallengeConditionDefinition_1",
  "Class": "WillowGame.ChallengeConditionDefinition",
  "ObjectArchetype": "WillowGame.Default__ChallengeConditionDefinition"
}