{
  "Description": "Kill 400 enemies with an assault rifle",
  "StatId": "STAT_PLAYER_KILLS_WITH_ASSAULT_RIFLE",
  "TargetValue": 400,
  "VfTableObject": "",
  "HashNext": "",
  "ObjectFlags": "",
  "HashOuterNext": "",
  "StateFrame": "",
  "Linker": null,
  "LinkerIndex": "",
  "ObjectInternalInteger": 122137,
  "NetIndex": 872,
  "Outer": "GD_Challenges.Weapons.AssaultRifle_Kills",
  "Name": "ChallengeConditionDefinition_2",
  "Class": "WillowGame.ChallengeConditionDefinition",
  "ObjectArchetype": "WillowGame.Default__ChallengeConditionDefinition"
}