{
  "Description": "Kill 250 enemies with explosive damage",
  "StatId": "STAT_PLAYER_KILLS_WITH_EXPLOSIVE_ATTACK",
  "TargetValue": 250,
  "VfTableObject": "",
  "HashNext": "",
  "ObjectFlags": "",
  "HashOuterNext": "",
  "StateFrame": "",
  "Linker": null,
  "LinkerIndex": "",
  "ObjectInternalInteger": 121714,
  "NetIndex": 482,
  "Outer": "GD_Challenges.elemental.Elemental_KillEnemiesExplosive",
  "Name": "ChallengeConditionDefinition_2",
  "Class": "WillowGame.ChallengeConditionDefinition",
  "ObjectArchetype": "WillowGame.Default__ChallengeConditionDefinition"
}