{
  "Description": "Kill 50 vehicles while in a vehicle",
  "StatId": "STAT_PLAYER_KILLS_WITH_VEHICLE_VS_ENEMY_VEHICLES",
  "TargetValue": 50,
  "VfTableObject": "",
  "HashNext": "",
  "ObjectFlags": "",
  "HashOuterNext": "",
  "StateFrame": "",
  "Linker": null,
  "LinkerIndex": "",
  "ObjectInternalInteger": 122122,
  "NetIndex": 857,
  "Outer": "GD_Challenges.Vehicles.Vehicles_VehicleKillsVehicle",
  "Name": "ChallengeConditionDefinition_6",
  "Class": "WillowGame.ChallengeConditionDefinition",
  "ObjectArchetype": "WillowGame.Default__ChallengeConditionDefinition"
}