{
  "Description": "Shoot 10 bullymong-tossed projectiles",
  "StatId": "STAT_NUM_BULLYMONG_PROJECTILES_SHOT_DOWN",
  "TargetValue": 10,
  "VfTableObject": "",
  "HashNext": "",
  "ObjectFlags": "",
  "HashOuterNext": "",
  "StateFrame": "",
  "Linker": null,
  "LinkerIndex": "",
  "ObjectInternalInteger": 121850,
  "NetIndex": 600,
  "Outer": "GD_Challenges.enemies.Enemies_ShootBullymongProjectiles",
  "Name": "ChallengeConditionDefinition_0",
  "Class": "WillowGame.ChallengeConditionDefinition",
  "ObjectArchetype": "WillowGame.Default__ChallengeConditionDefinition"
}