{
  "Description": "Deal 500,000 damage with Tediore reloads",
  "StatId": "STAT_PLAYER_DAMAGE_WITH_TEDIORE_RELOADS",
  "TargetValue": 500000,
  "VfTableObject": "",
  "HashNext": "",
  "ObjectFlags": "",
  "HashOuterNext": "",
  "StateFrame": "",
  "Linker": null,
  "LinkerIndex": "",
  "ObjectInternalInteger": 121896,
  "NetIndex": 648,
  "Outer": "GD_Challenges.GeneralCombat.Tediore_DamageFromReloads",
  "Name": "ChallengeConditionDefinition_7",
  "Class": "WillowGame.ChallengeConditionDefinition",
  "ObjectArchetype": "WillowGame.Default__ChallengeConditionDefinition"
}