{
  "Description": "Kill 150 enemies with Transfusion grenades",
  "StatId": "STAT_PLAYER_NUM_GRENADE_KILLS_TRANSFUSION",
  "TargetValue": 150,
  "VfTableObject": "",
  "HashNext": "",
  "ObjectFlags": "",
  "HashOuterNext": "",
  "StateFrame": "",
  "Linker": null,
  "LinkerIndex": "",
  "ObjectInternalInteger": 121939,
  "NetIndex": 683,
  "Outer": "GD_Challenges.Grenades.Grenade_KillsTransfusionType",
  "Name": "ChallengeConditionDefinition_7",
  "Class": "WillowGame.ChallengeConditionDefinition",
  "ObjectArchetype": "WillowGame.Default__ChallengeConditionDefinition"
}