{
  "Description": "Win 15 duels",
  "StatId": "STAT_PLAYER_DUELS_WINS",
  "TargetValue": 15,
  "VfTableObject": "",
  "HashNext": "",
  "ObjectFlags": "",
  "HashOuterNext": "",
  "StateFrame": "",
  "Linker": null,
  "LinkerIndex": "",
  "ObjectInternalInteger": 121643,
  "NetIndex": 417,
  "Outer": "GD_Challenges.Dueling.DuelsWon_HatersGonnaHate",
  "Name": "ChallengeConditionDefinition_21",
  "Class": "WillowGame.ChallengeConditionDefinition",
  "ObjectArchetype": "WillowGame.Default__ChallengeConditionDefinition"
}