{
  "Description": "Revive co-op partners 50 times",
  "StatId": "STAT_PLAYER_NUM_REVIVES_ON_OTHER_PLAYER",
  "TargetValue": 50,
  "VfTableObject": "",
  "HashNext": "",
  "ObjectFlags": "",
  "HashOuterNext": "",
  "StateFrame": "",
  "Linker": null,
  "LinkerIndex": "",
  "ObjectInternalInteger": 122029,
  "NetIndex": 767,
  "Outer": "GD_Challenges.Player.Player_CoopRevivesOfFriends",
  "Name": "ChallengeConditionDefinition_6",
  "Class": "WillowGame.ChallengeConditionDefinition",
  "ObjectArchetype": "WillowGame.Default__ChallengeConditionDefinition"
}