{
  "Description": "Kill 5 enemies using rocket launcher splash damage",
  "StatId": "STAT_PLAYER_NUM_ROCKET_LAUNCHER_SPLASH_DAMAGE_KILLS",
  "TargetValue": 5,
  "VfTableObject": "",
  "HashNext": "",
  "ObjectFlags": "",
  "HashOuterNext": "",
  "StateFrame": "",
  "Linker": null,
  "LinkerIndex": "",
  "ObjectInternalInteger": 122171,
  "NetIndex": 915,
  "Outer": "GD_Challenges.Weapons.Launcher_KillsSplashDamage",
  "Name": "ChallengeConditionDefinition_0",
  "Class": "WillowGame.ChallengeConditionDefinition",
  "ObjectArchetype": "WillowGame.Default__ChallengeConditionDefinition"
}