{
  "Description": "Kill 300 enemies at night",
  "StatId": "STAT_PLAYER_KILLS_NIGHTTIME",
  "TargetValue": 300,
  "VfTableObject": "",
  "HashNext": "",
  "ObjectFlags": "",
  "HashOuterNext": "",
  "StateFrame": "",
  "Linker": null,
  "LinkerIndex": "",
  "ObjectInternalInteger": 121878,
  "NetIndex": 623,
  "Outer": "GD_Challenges.GeneralCombat.Kills_AtNight",
  "Name": "ChallengeConditionDefinition_3",
  "Class": "WillowGame.ChallengeConditionDefinition",
  "ObjectArchetype": "WillowGame.Default__ChallengeConditionDefinition"
}