{
  "Description": "Get 75 crit-kills with pistols",
  "StatId": "STAT_PLAYER_CRITICAL_KILLS_WITH_PISTOL",
  "TargetValue": 75,
  "VfTableObject": "",
  "HashNext": "",
  "ObjectFlags": "",
  "HashOuterNext": "",
  "StateFrame": "",
  "Linker": null,
  "LinkerIndex": "",
  "ObjectInternalInteger": 122184,
  "NetIndex": 927,
  "Outer": "GD_Challenges.Weapons.Pistol_CriticalHitKills",
  "Name": "ChallengeConditionDefinition_2",
  "Class": "WillowGame.ChallengeConditionDefinition",
  "ObjectArchetype": "WillowGame.Default__ChallengeConditionDefinition"
}