{
  "Description": "Kill 25 bruisers",
  "StatId": "STAT_PLAYER_KILLS_BRUISER",
  "TargetValue": 25,
  "VfTableObject": "",
  "HashNext": "",
  "ObjectFlags": "",
  "HashOuterNext": "",
  "StateFrame": "",
  "Linker": null,
  "LinkerIndex": "",
  "ObjectInternalInteger": 121725,
  "NetIndex": 496,
  "Outer": "GD_Challenges.enemies.Enemies_KillBruisers",
  "Name": "ChallengeConditionDefinition_5",
  "Class": "WillowGame.ChallengeConditionDefinition",
  "ObjectArchetype": "WillowGame.Default__ChallengeConditionDefinition"
}