{
  "Description": "Kill 10 enemies with Singularity grenades",
  "StatId": "STAT_PLAYER_NUM_GRENADE_KILLS_SINGULARITY",
  "TargetValue": 10,
  "VfTableObject": "",
  "HashNext": "",
  "ObjectFlags": "",
  "HashOuterNext": "",
  "StateFrame": "",
  "Linker": null,
  "LinkerIndex": "",
  "ObjectInternalInteger": 121930,
  "NetIndex": 675,
  "Outer": "GD_Challenges.Grenades.Grenade_KillsSingularityType",
  "Name": "ChallengeConditionDefinition_0",
  "Class": "WillowGame.ChallengeConditionDefinition",
  "ObjectArchetype": "WillowGame.Default__ChallengeConditionDefinition"
}