{
  "Description":
    "Get a Second Wind 50 times by killing an enemy with Electrocute damage",
  "StatId": "STAT_PLAYER_SECOND_WIND_WITH_SHOCK_ATTACK",
  "TargetValue": 50,
  "VfTableObject": "",
  "HashNext": "",
  "ObjectFlags": "",
  "HashOuterNext": "",
  "StateFrame": "",
  "Linker": null,
  "LinkerIndex": "",
  "ObjectInternalInteger": 122064,
  "NetIndex": 799,
  "Outer": "GD_Challenges.Player.Player_SecondWindFromShock",
  "Name": "ChallengeConditionDefinition_8",
  "Class": "WillowGame.ChallengeConditionDefinition",
  "ObjectArchetype": "WillowGame.Default__ChallengeConditionDefinition"
}