{
  "Description": "Purchase 20 items with Eridium",
  "StatId": "STAT_PLAYER_INVENTORY_PURCHASED_WITH_ERIDIUM",
  "TargetValue": 20,
  "VfTableObject": "",
  "HashNext": "",
  "ObjectFlags": "",
  "HashOuterNext": "",
  "StateFrame": "",
  "Linker": null,
  "LinkerIndex": "",
  "ObjectInternalInteger": 121652,
  "NetIndex": 424,
  "Outer": "GD_Challenges.Economy.Economy_BuyItemsWithEridium",
  "Name": "ChallengeConditionDefinition_8",
  "Class": "WillowGame.ChallengeConditionDefinition",
  "ObjectArchetype": "WillowGame.Default__ChallengeConditionDefinition"
}