{
  "Description": "Purchase 15 Torgue items",
  "StatId": "STAT_IRIS_PLAYER_TORGUE_ITEM_PURCHASED",
  "TargetValue": 15,
  "VfTableObject": "",
  "HashNext": "",
  "ObjectFlags": "",
  "HashOuterNext": "",
  "StateFrame": "",
  "Linker": null,
  "LinkerIndex": "",
  "ObjectInternalInteger": 170678,
  "NetIndex": 28,
  "Outer": "GD_Iris_Challenges.Challenges.Challenge_Iris_BuyTorgueItems",
  "Name": "ChallengeConditionDefinition_14",
  "Class": "WillowGame.ChallengeConditionDefinition",
  "ObjectArchetype": "WillowGame.Default__ChallengeConditionDefinition"
}