{
  "Description": "Complete 1 battle",
  "StatId": "STAT_IRIS_PLAYER_BATTLES_COMPLETED",
  "TargetValue": 1,
  "VfTableObject": "",
  "HashNext": "",
  "ObjectFlags": "",
  "HashOuterNext": "",
  "StateFrame": "",
  "Linker": null,
  "LinkerIndex": "",
  "ObjectInternalInteger": 170680,
  "NetIndex": 29,
  "Outer": "GD_Iris_Challenges.Challenges.Challenge_Iris_CompleteBattles",
  "Name": "ChallengeConditionDefinition_15",
  "Class": "WillowGame.ChallengeConditionDefinition",
  "ObjectArchetype": "WillowGame.Default__ChallengeConditionDefinition"
}