{
  "Description": "Purchase 2 Torgue items",
  "StatId": "STAT_IRIS_PLAYER_TORGUE_ITEM_PURCHASED",
  "TargetValue": 2,
  "VfTableObject": "",
  "HashNext": "",
  "ObjectFlags": "",
  "HashOuterNext": "",
  "StateFrame": "",
  "Linker": null,
  "LinkerIndex": "",
  "ObjectInternalInteger": 170674,
  "NetIndex": 24,
  "Outer": "GD_Iris_Challenges.Challenges.Challenge_Iris_BuyTorgueItems",
  "Name": "ChallengeConditionDefinition_10",
  "Class": "WillowGame.ChallengeConditionDefinition",
  "ObjectArchetype": "WillowGame.Default__ChallengeConditionDefinition"
}