{
  "Description": "Defeat Master Gee the Invincible 15 times",
  "StatId": "STAT_ORCHID_PLAYER_KILLS_RAIDBOSS_C",
  "TargetValue": 15,
  "VfTableObject": "",
  "HashNext": "",
  "ObjectFlags": "",
  "HashOuterNext": "",
  "StateFrame": "",
  "Linker": null,
  "LinkerIndex": "",
  "ObjectInternalInteger": 175800,
  "NetIndex": 71,
  "Outer": "GD_Orchid_Challenges.Challenges.Challenge_Orchid_Raid3",
  "Name": "ChallengeConditionDefinition_4",
  "Class": "WillowGame.ChallengeConditionDefinition",
  "ObjectArchetype": "WillowGame.Default__ChallengeConditionDefinition"
}