{
  "Description": "Defeat Hyperius the Invincible 10 times",
  "StatId": "STAT_ORCHID_PLAYER_KILLS_RAIDBOSS_A",
  "TargetValue": 10,
  "VfTableObject": "",
  "HashNext": "",
  "ObjectFlags": "",
  "HashOuterNext": "",
  "StateFrame": "",
  "Linker": null,
  "LinkerIndex": "",
  "ObjectInternalInteger": 175794,
  "NetIndex": 66,
  "Outer": "GD_Orchid_Challenges.Challenges.Challenge_Orchid_Raid1",
  "Name": "ChallengeConditionDefinition_3",
  "Class": "WillowGame.ChallengeConditionDefinition",
  "ObjectArchetype": "WillowGame.Default__ChallengeConditionDefinition"
}