{
  "Description": "Purchase 3 items with Seraph Crystals",
  "StatId": "STAT_ORCHID_PLAYER_NUM_SERAPH_ITEMS_PURCHASED",
  "TargetValue": 3,
  "VfTableObject": "",
  "HashNext": "",
  "ObjectFlags": "",
  "HashOuterNext": "",
  "StateFrame": "",
  "Linker": null,
  "LinkerIndex": "",
  "ObjectInternalInteger": 175785,
  "NetIndex": 58,
  "Outer": "GD_Orchid_Challenges.Challenges.Challenge_Orchid_Purchase",
  "Name": "ChallengeConditionDefinition_0",
  "Class": "WillowGame.ChallengeConditionDefinition",
  "ObjectArchetype": "WillowGame.Default__ChallengeConditionDefinition"
}