{
  "Description": "Defeat Master Gee the Invincible 5 times",
  "StatId": "STAT_ORCHID_PLAYER_KILLS_RAIDBOSS_C",
  "TargetValue": 5,
  "VfTableObject": "",
  "HashNext": "",
  "ObjectFlags": "",
  "HashOuterNext": "",
  "StateFrame": "",
  "Linker": null,
  "LinkerIndex": "",
  "ObjectInternalInteger": 175798,
  "NetIndex": 69,
  "Outer": "GD_Orchid_Challenges.Challenges.Challenge_Orchid_Raid3",
  "Name": "ChallengeConditionDefinition_2",
  "Class": "WillowGame.ChallengeConditionDefinition",
  "ObjectArchetype": "WillowGame.Default__ChallengeConditionDefinition"
}