{
  "Description": "Kill 5 fan boats",
  "StatId": "STAT_SAGE_PLAYER_KILLS_FANBOATS",
  "TargetValue": 5,
  "VfTableObject": "",
  "HashNext": "",
  "ObjectFlags": "",
  "HashOuterNext": "",
  "StateFrame": "",
  "Linker": null,
  "LinkerIndex": "",
  "ObjectInternalInteger": 178510,
  "NetIndex": 33,
  "Outer": "GD_Sage_Challenges.Challenges.Challenge_Sage_KillFanBoats",
  "Name": "ChallengeConditionDefinition_0",
  "Class": "WillowGame.ChallengeConditionDefinition",
  "ObjectArchetype": "WillowGame.Default__ChallengeConditionDefinition"
}