{
  "Identifier": null,
  "Id": 0,
  "Consumable": false,
  "ConsumableAmount": 0,
  "Consumed": 0,
  "Payload": "",
  "LocallyConsumed": 0,
  "VfTableObject": "",
  "HashNext": "",
  "ObjectFlags": "",
  "HashOuterNext": "",
  "StateFrame": "",
  "Linker": null,
  "LinkerIndex": "",
  "ObjectInternalInteger": 41552,
  "NetIndex": 2825,
  "Outer": "Package'GearboxFramework'",
  "Name": "Default__GearboxAccountEntitlement",
  "Class": "GearboxFramework.GearboxAccountEntitlement",
  "ObjectArchetype": "Core.Default__Object"
}