{
  "VfTable_IIConstructObject": "",
  "VfTable_IIBodyInfoProvider": "",
  "VfTable_IIBehaviorProvider": "",
  "Mesh": null,
  "AmbientAkEvent": null,
  "InFlightEffects": null,
  "InFlightEffectsOverrideContext": {
    "InstancedDataContextName": "Owner",
    "ContextObject": null,
    "BehaviorContext": "BCONTEXT_Self",
    "bSupportsDefaultOutputLink": 0
  },
  "InFlightEffectsOverrideName": "InFlightEffectsOverride",
  "InFlightEffectsScale": 1.0,
  "OverchargedPSCTemplate": null,
  "TemporalField": null,
  "DamageTypeOverrideContext": {
    "InstancedDataContextName": "Owner",
    "ContextObject": null,
    "BehaviorContext": "BCONTEXT_Self",
    "bSupportsDefaultOutputLink": 0
  },
  "DamageTypeOverrideName": "DamageTypeOverride",
  "DefaultDamageTypeDefinition":
    "GD_Explosive.DamageType.DmgType_Explosive_Impact",
  "BounceImpact": "GD_Impacts.Objects.Impact_Grenade_Roll",
  "BounceImpactAkRtpc": null,
  "ExplosionOverrideContext": {
    "InstancedDataContextName": "Owner",
    "ContextObject": null,
    "BehaviorContext": "BCONTEXT_Self",
    "bSupportsDefaultOutputLink": 0
  },
  "ExplosionOverrideName": "ExplosionOverride",
  "DefaultExplosionDefinition":
    "GD_Explosions.explosive.Explosion_ExplosiveMaster",
  "DamageTypeParameterName": "ElementalGlowColor",
  "bAllowRigidBodyImpactEffect": false,
  "bUseCustomAimDirection": false,
  "bAlwaysOrientInDirectionOfMovement": false,
  "bReplicateMovement": false,
  "bInheritVehicleVelocity": true,
  "bIgnoreRigidBodyPawns": true,
  "bTreatVehicleHitsAsTouch": false,
  "bCanTouchInstigator": false,
  "bCollideActors": true,
  "bStickyProjectilesDontChangeCollisionSize": false,
  "bSpawnNoCollisionFail": false,
  "bClientIgnoreHitAndTouch": false,
  "bAlsoUseZeroExtentTrace": true,
  "bCanTakeDirectDamage": false,
  "bCanTakeRadiusDamage": false,
  "CanTarget": false,
  "bWaitForEffects": false,
  "bTreatProjectileAsEnemy": false,
  "SmoothHomingReplication": true,
  "bHomingRoll": true,
  "bHomingCollisionAvoidance": false,
  "bStopIfPastTarget": false,
  "bAdjustHomingZVelocity": true,
  "bRetryIfTargetInvalid": false,
  "bCanHomePhaselockedTargets": true,
  "bAutoAimTarget": false,
  "bDynamicLightEnvironment": false,
  "bCastShadows": false,
  "bUseBooleanEnvironmentShadowing": true,
  "bDynamic": true,
  "bSynthesizeSHLight": false,
  "bShadowFromEnvironment": true,
  "bAffectedBySmallDynamicLights": false,
  "bDontDestroyIfVisible": false,
  "bAICanAvoid": true,
  "bIsPossibleHomingTarget": false,
  "bIsWeaponFire": false,
  "bReceiveWeaponFire": false,
  "RigidBodyImpactEffectThreshold": 250.0,
  "RigidBodyImpactEffectDelay": 0.5,
  "CustomAimDirection": { "X": 0.0, "Y": 0.0, "Z": 0.0 },
  "UpwardVelocityBonus": 300.0,
  "SpeedFormula": {
    "BaseValueConstant": 700.0,
    "BaseValueAttribute": null,
    "InitializationDefinition": null,
    "BaseValueScaleConstant": 1.0
  },
  "Speed": 0.0,
  "PhysicsMode": "PHYS_Falling",
  "AutoAimProfile": "AAP_Medium",
  "ProjectileType": "PROJECTILE_TYPE_Protean_Grenade",
  "AtRestSpeedThreshold": 20.0,
  "GravityScaling": 1.0,
  "WaveAmp": { "X": 0.0, "Y": 0.0, "Z": 0.0 },
  "WaveFreq": { "X": 0.0, "Y": 0.0, "Z": 0.0 },
  "WavePhase": { "X": 0.0, "Y": 0.0, "Z": 0.0 },
  "BulletListenerComponent": null,
  "StickyChildSpawnCollisionIgnoreTime": 0.0,
  "Damage": {
    "BaseValueConstant": 0.0,
    "BaseValueAttribute": null,
    "InitializationDefinition": null,
    "BaseValueScaleConstant": 1.0
  },
  "DamageRadius": {
    "BaseValueConstant": 0.0,
    "BaseValueAttribute": null,
    "InitializationDefinition": null,
    "BaseValueScaleConstant": 1.0
  },
  "MomentumTransfer": {
    "BaseValueConstant": 0.0,
    "BaseValueAttribute": null,
    "InitializationDefinition": null,
    "BaseValueScaleConstant": 1.0
  },
  "FuseTime": {
    "BaseValueConstant": 0.0,
    "BaseValueAttribute": null,
    "InitializationDefinition": null,
    "BaseValueScaleConstant": 1.0
  },
  "NumberOfChildProjectiles": {
    "BaseValueConstant": 0.0,
    "BaseValueAttribute": null,
    "InitializationDefinition": null,
    "BaseValueScaleConstant": 1.0
  },
  "MaxLifespan": 14.0,
  "Allegiance": null,
  "ViewGuideDistance": 16384.0,
  "ViewGuideLockOnAngle": 5.0,
  "SearchRadius": 6000.0,
  "TurningRadius": 500.0,
  "TurnThresholdTight": 0.0,
  "TurnThresholdWide": 0.0,
  "HomingRollAmt": 16384.0,
  "HomingRollSpeed": 1.0,
  "HomingRotationRate": { "Pitch": 10922, "Yaw": 32768, "Roll": 10922 },
  "ProjectileClass": "WillowGame.WillowServerSideProjectile",
  "Resource": "D_Resources.AmmoResources.Ammo_Grenade_Protean",
  "ResourceCost": {
    "BaseValueConstant": 1.0,
    "BaseValueAttribute": null,
    "InitializationDefinition": null,
    "BaseValueScaleConstant": 1.0
  },
  "ExpPoints": 0.0,
  "LightingBoundsScale": 1.0,
  "ModShadowFadeoutExponent": 3.0,
  "ModShadowFadeoutTime": 0.0,
  "AmbientGlow": { "R": 0.0, "G": 0.0, "B": 0.0, "A": 1.0 },
  "AmbientShadowSourceDirection": { "X": 0.0, "Y": 0.0, "Z": 0.0 },
  "AmbientShadowColor": { "R": 0.0, "G": 0.0, "B": 0.0, "A": 1.0 },
  "DominantShadowTransitionStartDistance": 100.0,
  "DominantShadowTransitionEndDistance": 10.0,
  "AIAvoidRadius": 500.0,
  "FlashIconName": "frag",
  "BodyComposition": {
    "Attachments": [
      {
        "Data": {
          "Name": null,
          "Type": "IDT_ActorComponent",
          "Replication": "IDR_Server",
          "MaxSwitchValue": 0,
          "BitsRequiredForMaxSwitchValue": 0,
          "Bool": false,
          "DeleteByOwner": false,
          "Int": 0,
          "Float": 0.0,
          "Vector": { "X": 0.0, "Y": 0.0, "Z": 0.0 },
          "Object": null,
          "ComponentData": {
            "Component":
              "GD_GrenadeMods.Projectiles.Grenade_Homing:GearLikenessMeshComponent_0",
            "CollisionType": "COLLIDE_CustomDefault",
            "bAttachToMesh": false,
            "bIsUsable": false,
            "bIsSecondaryUsable": false,
            "MeshSocketName": null,
            "HitRegionDefinition": null,
            "InteractIcon": null,
            "SecondaryInteractIcon": null
          },
          "String": null,
          "BodyCompositionIndex": 1
        },
        "ParentAttachmentIdentifier": "MyMeshClone",
        "AttachmentBaseInstanceDataIndex": -1,
        "SwitchIdentifier": 0
      },
      {
        "Data": {
          "Name": null,
          "Type": "IDT_ActorComponent",
          "Replication": "IDR_Server",
          "MaxSwitchValue": 0,
          "BitsRequiredForMaxSwitchValue": 0,
          "Bool": false,
          "DeleteByOwner": false,
          "Int": 0,
          "Float": 0.0,
          "Vector": { "X": 0.0, "Y": 0.0, "Z": 0.0 },
          "Object": null,
          "ComponentData": {
            "Component":
              "GD_GrenadeMods.Projectiles.Grenade_Homing:CylinderComponent_12",
            "CollisionType": "COLLIDE_CustomDefault",
            "bAttachToMesh": false,
            "bIsUsable": false,
            "bIsSecondaryUsable": false,
            "MeshSocketName": null,
            "HitRegionDefinition": null,
            "InteractIcon": null,
            "SecondaryInteractIcon": null
          },
          "String": null,
          "BodyCompositionIndex": 2
        },
        "ParentAttachmentIdentifier": "CylinderComponent",
        "AttachmentBaseInstanceDataIndex": -1,
        "SwitchIdentifier": 0
      },
      {
        "Data": {
          "Name": "HomingEffectsSwitch",
          "Type": "IDT_Switch",
          "Replication": "IDR_Server",
          "MaxSwitchValue": 6,
          "BitsRequiredForMaxSwitchValue": 3,
          "Bool": false,
          "DeleteByOwner": false,
          "Int": 0,
          "Float": 0.0,
          "Vector": { "X": 0.0, "Y": 0.0, "Z": 0.0 },
          "Object": null,
          "ComponentData": {
            "Component": null,
            "CollisionType": "COLLIDE_CustomDefault",
            "bAttachToMesh": false,
            "bIsUsable": false,
            "bIsSecondaryUsable": false,
            "MeshSocketName": null,
            "HitRegionDefinition": null,
            "InteractIcon": null,
            "SecondaryInteractIcon": null
          },
          "String": null,
          "BodyCompositionIndex": 3
        },
        "ParentAttachmentIdentifier": null,
        "AttachmentBaseInstanceDataIndex": -1,
        "SwitchIdentifier": 0
      },
      {
        "Data": {
          "Name": null,
          "Type": "IDT_ActorComponent",
          "Replication": "IDR_Server",
          "MaxSwitchValue": 0,
          "BitsRequiredForMaxSwitchValue": 0,
          "Bool": false,
          "DeleteByOwner": false,
          "Int": 0,
          "Float": 0.0,
          "Vector": { "X": 0.0, "Y": 0.0, "Z": 0.0 },
          "Object": null,
          "ComponentData": {
            "Component":
              "GD_GrenadeMods.Projectiles.Grenade_Homing:ParticleSystemComponent_16",
            "CollisionType": "COLLIDE_CustomDefault",
            "bAttachToMesh": false,
            "bIsUsable": false,
            "bIsSecondaryUsable": false,
            "MeshSocketName": null,
            "HitRegionDefinition": null,
            "InteractIcon": null,
            "SecondaryInteractIcon": null
          },
          "String": null,
          "BodyCompositionIndex": 4
        },
        "ParentAttachmentIdentifier": null,
        "AttachmentBaseInstanceDataIndex": 2,
        "SwitchIdentifier": 1
      },
      {
        "Data": {
          "Name": null,
          "Type": "IDT_ActorComponent",
          "Replication": "IDR_Server",
          "MaxSwitchValue": 0,
          "BitsRequiredForMaxSwitchValue": 0,
          "Bool": false,
          "DeleteByOwner": false,
          "Int": 0,
          "Float": 0.0,
          "Vector": { "X": 0.0, "Y": 0.0, "Z": 0.0 },
          "Object": null,
          "ComponentData": {
            "Component":
              "GD_GrenadeMods.Projectiles.Grenade_Homing:ParticleSystemComponent_17",
            "CollisionType": "COLLIDE_CustomDefault",
            "bAttachToMesh": false,
            "bIsUsable": false,
            "bIsSecondaryUsable": false,
            "MeshSocketName": null,
            "HitRegionDefinition": null,
            "InteractIcon": null,
            "SecondaryInteractIcon": null
          },
          "String": null,
          "BodyCompositionIndex": 5
        },
        "ParentAttachmentIdentifier": null,
        "AttachmentBaseInstanceDataIndex": 2,
        "SwitchIdentifier": 2
      },
      {
        "Data": {
          "Name": null,
          "Type": "IDT_ActorComponent",
          "Replication": "IDR_Server",
          "MaxSwitchValue": 0,
          "BitsRequiredForMaxSwitchValue": 0,
          "Bool": false,
          "DeleteByOwner": false,
          "Int": 0,
          "Float": 0.0,
          "Vector": { "X": 0.0, "Y": 0.0, "Z": 0.0 },
          "Object": null,
          "ComponentData": {
            "Component":
              "GD_GrenadeMods.Projectiles.Grenade_Homing:ParticleSystemComponent_18",
            "CollisionType": "COLLIDE_CustomDefault",
            "bAttachToMesh": false,
            "bIsUsable": false,
            "bIsSecondaryUsable": false,
            "MeshSocketName": null,
            "HitRegionDefinition": null,
            "InteractIcon": null,
            "SecondaryInteractIcon": null
          },
          "String": null,
          "BodyCompositionIndex": 6
        },
        "ParentAttachmentIdentifier": null,
        "AttachmentBaseInstanceDataIndex": 2,
        "SwitchIdentifier": 3
      },
      {
        "Data": {
          "Name": null,
          "Type": "IDT_ActorComponent",
          "Replication": "IDR_Server",
          "MaxSwitchValue": 0,
          "BitsRequiredForMaxSwitchValue": 0,
          "Bool": false,
          "DeleteByOwner": false,
          "Int": 0,
          "Float": 0.0,
          "Vector": { "X": 0.0, "Y": 0.0, "Z": 0.0 },
          "Object": null,
          "ComponentData": {
            "Component":
              "GD_GrenadeMods.Projectiles.Grenade_Homing:ParticleSystemComponent_19",
            "CollisionType": "COLLIDE_CustomDefault",
            "bAttachToMesh": false,
            "bIsUsable": false,
            "bIsSecondaryUsable": false,
            "MeshSocketName": null,
            "HitRegionDefinition": null,
            "InteractIcon": null,
            "SecondaryInteractIcon": null
          },
          "String": null,
          "BodyCompositionIndex": 7
        },
        "ParentAttachmentIdentifier": null,
        "AttachmentBaseInstanceDataIndex": 2,
        "SwitchIdentifier": 4
      },
      {
        "Data": {
          "Name": null,
          "Type": "IDT_ActorComponent",
          "Replication": "IDR_Server",
          "MaxSwitchValue": 0,
          "BitsRequiredForMaxSwitchValue": 0,
          "Bool": false,
          "DeleteByOwner": false,
          "Int": 0,
          "Float": 0.0,
          "Vector": { "X": 0.0, "Y": 0.0, "Z": 0.0 },
          "Object": null,
          "ComponentData": {
            "Component":
              "GD_GrenadeMods.Projectiles.Grenade_Homing:ParticleSystemComponent_20",
            "CollisionType": "COLLIDE_CustomDefault",
            "bAttachToMesh": false,
            "bIsUsable": false,
            "bIsSecondaryUsable": false,
            "MeshSocketName": null,
            "HitRegionDefinition": null,
            "InteractIcon": null,
            "SecondaryInteractIcon": null
          },
          "String": null,
          "BodyCompositionIndex": 8
        },
        "ParentAttachmentIdentifier": null,
        "AttachmentBaseInstanceDataIndex": 2,
        "SwitchIdentifier": 5
      },
      {
        "Data": {
          "Name": null,
          "Type": "IDT_ActorComponent",
          "Replication": "IDR_Server",
          "MaxSwitchValue": 0,
          "BitsRequiredForMaxSwitchValue": 0,
          "Bool": false,
          "DeleteByOwner": false,
          "Int": 0,
          "Float": 0.0,
          "Vector": { "X": 0.0, "Y": 0.0, "Z": 0.0 },
          "Object": null,
          "ComponentData": {
            "Component":
              "GD_GrenadeMods.Projectiles.Grenade_Homing:ParticleSystemComponent_21",
            "CollisionType": "COLLIDE_CustomDefault",
            "bAttachToMesh": false,
            "bIsUsable": false,
            "bIsSecondaryUsable": false,
            "MeshSocketName": null,
            "HitRegionDefinition": null,
            "InteractIcon": null,
            "SecondaryInteractIcon": null
          },
          "String": null,
          "BodyCompositionIndex": 9
        },
        "ParentAttachmentIdentifier": null,
        "AttachmentBaseInstanceDataIndex": 2,
        "SwitchIdentifier": 6
      },
      {
        "Data": {
          "Name": "KissOfDeathSwitch",
          "Type": "IDT_Switch",
          "Replication": "IDR_Server",
          "MaxSwitchValue": 1,
          "BitsRequiredForMaxSwitchValue": 1,
          "Bool": false,
          "DeleteByOwner": false,
          "Int": 0,
          "Float": 0.0,
          "Vector": { "X": 0.0, "Y": 0.0, "Z": 0.0 },
          "Object": null,
          "ComponentData": {
            "Component": null,
            "CollisionType": "COLLIDE_CustomDefault",
            "bAttachToMesh": false,
            "bIsUsable": false,
            "bIsSecondaryUsable": false,
            "MeshSocketName": null,
            "HitRegionDefinition": null,
            "InteractIcon": null,
            "SecondaryInteractIcon": null
          },
          "String": null,
          "BodyCompositionIndex": 10
        },
        "ParentAttachmentIdentifier": null,
        "AttachmentBaseInstanceDataIndex": -1,
        "SwitchIdentifier": 0
      },
      {
        "Data": {
          "Name": null,
          "Type": "IDT_ActorComponent",
          "Replication": "IDR_Server",
          "MaxSwitchValue": 0,
          "BitsRequiredForMaxSwitchValue": 0,
          "Bool": false,
          "DeleteByOwner": false,
          "Int": 0,
          "Float": 0.0,
          "Vector": { "X": 0.0, "Y": 0.0, "Z": 0.0 },
          "Object": null,
          "ComponentData": {
            "Component":
              "GD_GrenadeMods.Projectiles.Grenade_Homing:ParticleSystemComponent_22",
            "CollisionType": "COLLIDE_CustomDefault",
            "bAttachToMesh": false,
            "bIsUsable": false,
            "bIsSecondaryUsable": false,
            "MeshSocketName": null,
            "HitRegionDefinition": null,
            "InteractIcon": null,
            "SecondaryInteractIcon": null
          },
          "String": null,
          "BodyCompositionIndex": 11
        },
        "ParentAttachmentIdentifier": null,
        "AttachmentBaseInstanceDataIndex": 9,
        "SwitchIdentifier": 1
      }
    ],
    "MaxExpectedComponents": 0,
    "HasHomingTargetComponents": false
  },
  "BehaviorProviderDefinition":
    "GD_GrenadeMods.Projectiles.Grenade_Homing:BehaviorProviderDefinition_1",
  "VfTableObject": "",
  "HashNext": "",
  "ObjectFlags": "",
  "HashOuterNext": "",
  "StateFrame": "",
  "Linker": null,
  "LinkerIndex": "",
  "ObjectInternalInteger": 108494,
  "NetIndex": 3416,
  "Outer": "GD_GrenadeMods.Projectiles",
  "Name": "Grenade_Homing",
  "Class": "WillowGame.ProjectileDefinition",
  "ObjectArchetype": "WillowGame.Default__ProjectileDefinition"
}