{
  "VfTable_IIConstructObject": "",
  "VfTable_IIBodyInfoProvider": "",
  "VfTable_IIBehaviorProvider": "",
  "Mesh": null,
  "AmbientAkEvent": "Ake_Mon_Engineer.Ak_Play_Mon_Engineer_RocketFist_Fire",
  "InFlightEffects": "FX_WEP_Trails.Particles.Part_Boom_Boom_Tracer",
  "InFlightEffectsOverrideContext": {
    "InstancedDataContextName": null,
    "ContextObject": null,
    "BehaviorContext": "BCONTEXT_Self",
    "bSupportsDefaultOutputLink": 0
  },
  "InFlightEffectsOverrideName": null,
  "InFlightEffectsScale": 1.0,
  "OverchargedPSCTemplate": null,
  "TemporalField": null,
  "DamageTypeOverrideContext": {
    "InstancedDataContextName": null,
    "ContextObject": null,
    "BehaviorContext": "BCONTEXT_Self",
    "bSupportsDefaultOutputLink": 0
  },
  "DamageTypeOverrideName":
    "GD_CannonTurret.DamageType.DmgType_Explosive_BanditTurret",
  "DefaultDamageTypeDefinition":
    "GD_CannonTurret.DamageType.DmgType_Explosive_BanditTurret",
  "BounceImpact": null,
  "BounceImpactAkRtpc": null,
  "ExplosionOverrideContext": {
    "InstancedDataContextName": null,
    "ContextObject": null,
    "BehaviorContext": "BCONTEXT_Self",
    "bSupportsDefaultOutputLink": 0
  },
  "ExplosionOverrideName": null,
  "DefaultExplosionDefinition": null,
  "DamageTypeParameterName": "ElementalGlowColor",
  "bAllowRigidBodyImpactEffect": false,
  "bUseCustomAimDirection": false,
  "bAlwaysOrientInDirectionOfMovement": false,
  "bReplicateMovement": false,
  "bInheritVehicleVelocity": true,
  "bIgnoreRigidBodyPawns": false,
  "bTreatVehicleHitsAsTouch": false,
  "bCanTouchInstigator": false,
  "bCollideActors": true,
  "bStickyProjectilesDontChangeCollisionSize": false,
  "bSpawnNoCollisionFail": false,
  "bClientIgnoreHitAndTouch": false,
  "bAlsoUseZeroExtentTrace": false,
  "bCanTakeDirectDamage": false,
  "bCanTakeRadiusDamage": false,
  "CanTarget": false,
  "bWaitForEffects": false,
  "bTreatProjectileAsEnemy": false,
  "SmoothHomingReplication": false,
  "bHomingRoll": true,
  "bHomingCollisionAvoidance": true,
  "bStopIfPastTarget": false,
  "bAdjustHomingZVelocity": false,
  "bRetryIfTargetInvalid": false,
  "bCanHomePhaselockedTargets": true,
  "bAutoAimTarget": false,
  "bDynamicLightEnvironment": false,
  "bCastShadows": false,
  "bUseBooleanEnvironmentShadowing": true,
  "bDynamic": true,
  "bSynthesizeSHLight": false,
  "bShadowFromEnvironment": true,
  "bAffectedBySmallDynamicLights": false,
  "bDontDestroyIfVisible": false,
  "bAICanAvoid": false,
  "bIsPossibleHomingTarget": false,
  "bIsWeaponFire": false,
  "bReceiveWeaponFire": false,
  "RigidBodyImpactEffectThreshold": 250.0,
  "RigidBodyImpactEffectDelay": 0.5,
  "CustomAimDirection": { "X": 0.0, "Y": 0.0, "Z": 0.0 },
  "UpwardVelocityBonus": 0.0,
  "SpeedFormula": {
    "BaseValueConstant": 9000.0,
    "BaseValueAttribute": null,
    "InitializationDefinition": null,
    "BaseValueScaleConstant": 1.0
  },
  "Speed": 0.0,
  "PhysicsMode": "PHYS_Projectile",
  "AutoAimProfile": "AAP_Medium",
  "ProjectileType": "PROJECTILE_TYPE_Unknown",
  "AtRestSpeedThreshold": 20.0,
  "GravityScaling": 1.0,
  "WaveAmp": { "X": 0.0, "Y": 0.0, "Z": 0.0 },
  "WaveFreq": { "X": 0.0, "Y": 0.0, "Z": 0.0 },
  "WavePhase": { "X": 0.0, "Y": 0.0, "Z": 0.0 },
  "BulletListenerComponent": null,
  "StickyChildSpawnCollisionIgnoreTime": 0.1,
  "Damage": {
    "BaseValueConstant": 0.0,
    "BaseValueAttribute": null,
    "InitializationDefinition": null,
    "BaseValueScaleConstant": 1.0
  },
  "DamageRadius": {
    "BaseValueConstant": 0.0,
    "BaseValueAttribute": null,
    "InitializationDefinition": null,
    "BaseValueScaleConstant": 1.0
  },
  "MomentumTransfer": {
    "BaseValueConstant": 0.0,
    "BaseValueAttribute": null,
    "InitializationDefinition": null,
    "BaseValueScaleConstant": 1.0
  },
  "FuseTime": {
    "BaseValueConstant": 0.0,
    "BaseValueAttribute": null,
    "InitializationDefinition": null,
    "BaseValueScaleConstant": 1.0
  },
  "NumberOfChildProjectiles": {
    "BaseValueConstant": 0.0,
    "BaseValueAttribute": null,
    "InitializationDefinition": null,
    "BaseValueScaleConstant": 1.0
  },
  "MaxLifespan": 14.0,
  "Allegiance": null,
  "ViewGuideDistance": 16384.0,
  "ViewGuideLockOnAngle": 5.0,
  "SearchRadius": 4096.0,
  "TurningRadius": 500.0,
  "TurnThresholdTight": 0.0,
  "TurnThresholdWide": 0.0,
  "HomingRollAmt": 16384.0,
  "HomingRollSpeed": 1.0,
  "HomingRotationRate": { "Pitch": 0, "Yaw": 0, "Roll": 0 },
  "ProjectileClass": "WillowGame.WillowProjectile",
  "Resource": null,
  "ResourceCost": {
    "BaseValueConstant": 0.0,
    "BaseValueAttribute": null,
    "InitializationDefinition": null,
    "BaseValueScaleConstant": 1.0
  },
  "ExpPoints": 0.0,
  "LightingBoundsScale": 1.0,
  "ModShadowFadeoutExponent": 3.0,
  "ModShadowFadeoutTime": 0.0,
  "AmbientGlow": { "R": 0.0, "G": 0.0, "B": 0.0, "A": 1.0 },
  "AmbientShadowSourceDirection": { "X": 0.0, "Y": 0.0, "Z": 0.0 },
  "AmbientShadowColor": { "R": 0.0, "G": 0.0, "B": 0.0, "A": 1.0 },
  "DominantShadowTransitionStartDistance": 100.0,
  "DominantShadowTransitionEndDistance": 10.0,
  "AIAvoidRadius": 256.0,
  "FlashIconName": "",
  "BodyComposition": {
    "Attachments": [
      {
        "Data": {
          "Name": null,
          "Type": "IDT_ActorComponent",
          "Replication": "IDR_Server",
          "MaxSwitchValue": 0,
          "BitsRequiredForMaxSwitchValue": 0,
          "Bool": false,
          "DeleteByOwner": false,
          "Int": 0,
          "Float": 0.0,
          "Vector": { "X": 0.0, "Y": 0.0, "Z": 0.0 },
          "Object": null,
          "ComponentData": {
            "Component":
              "GD_SpiderTank_Boss.Weapon.Projectiles.Projectile_CannonShell:CylinderComponent_5",
            "CollisionType": "COLLIDE_BlockAll",
            "bAttachToMesh": false,
            "bIsUsable": false,
            "bIsSecondaryUsable": false,
            "MeshSocketName": null,
            "HitRegionDefinition": null,
            "InteractIcon": null,
            "SecondaryInteractIcon": null
          },
          "String": null,
          "BodyCompositionIndex": 1
        },
        "ParentAttachmentIdentifier": "CylinderComponent",
        "AttachmentBaseInstanceDataIndex": -1,
        "SwitchIdentifier": 0
      }
    ],
    "MaxExpectedComponents": 0,
    "HasHomingTargetComponents": false
  },
  "BehaviorProviderDefinition":
    "GD_SpiderTank_Boss.Weapon.Projectiles.Projectile_CannonShell:BehaviorProviderDefinition_0",
  "VfTableObject": "",
  "HashNext": "",
  "ObjectFlags": "",
  "HashOuterNext": "",
  "StateFrame": "",
  "Linker": null,
  "LinkerIndex": "",
  "ObjectInternalInteger": 218668,
  "NetIndex": 517,
  "Outer": "GD_SpiderTank_Boss.Weapon.Projectiles",
  "Name": "Projectile_CannonShell",
  "Class": "WillowGame.ProjectileDefinition",
  "ObjectArchetype": "WillowGame.Default__ProjectileDefinition"
}