{
  "CategoryName": "",
  "SortWeight": 0,
  "VfTableObject": "",
  "HashNext": "",
  "ObjectFlags": "",
  "HashOuterNext": "",
  "StateFrame": "",
  "Linker": null,
  "LinkerIndex": "",
  "ObjectInternalInteger": 3769,
  "NetIndex": 17957,
  "Outer": "Package'WillowGame'",
  "Name": "Default__ChallengeCategoryDefinition",
  "Class": "WillowGame.ChallengeCategoryDefinition",
  "ObjectArchetype": "Engine.Default__GBXDefinition"
}