{
  "VfTable_IIHitRegionInfoProvider": "",
  "HeadLookAtName": "HeadLookAt",
  "bLeftHandIKDisabled": false,
  "bUseMeshForCollision": false,
  "IgnoreMomentumTransfer": true,
  "UseRootMotion": false,
  "UseRootRotation": false,
  "bAllowProjectilesToCollideWithSkeletalMesh": false,
  "bUpdateMeshTranslationWhenCylinderChanges": false,
  "bCanUpdateMeshTranslation": true,
  "bUseDamageLocationParent": true,
  "bShowDamageLocations": false,
  "bStaggerWhenLandingOnUnwalkableTerrain": false,
  "bUseTurns": true,
  "bUseTurnParent": true,
  "bPawnIsAlwaysRelevant": true,
  "bVehicleBlockingActor": false,
  "bUseKnockbackParent": true,
  "bUseCringe": true,
  "bUseCringeParent": true,
  "bUseDodges": false,
  "bDodgeUseParent": true,
  "bCanAvoidGrenades": false,
  "bProvocationUseParent": false,
  "bNPCDialog": false,
  "bCanBeInjured": true,
  "bInjuredUseParent": true,
  "bOnlyHardFlinchWhenInjured": false,
  "bCloaks": false,
  "bCloakUseParentData": false,
  "bCloakUseParentOptions": false,
  "bCloakingRequiresShields": true,
  "bCanShootWhileCloaked": false,
  "bCloakHideInfo": false,
  "bHideBodyOnCloak": false,
  "bHasCloakingCapability": false,
  "bUseCoverParent": true,
  "bUseParentStances": true,
  "bDamageParent": false,
  "bDisplayParentInfo": false,
  "bOnlyDisplayParentInfoWhileAttached": false,
  "bKillWhenParentDies": false,
  "HideInfoOnHUD": false,
  "bFullyArmored": false,
  "bHideEmptyShieldBar": false,
  "bIsPossibleHomingTarget": true,
  "bUseRotationModifierBySpeed": false,
  "bUseSimulatedRotation": false,
  "bCrawlerFloorAdjust": false,
  "bUseParentPhaselockDef": true,
  "BodyTag": "GD_AI_PopulationPoints.BodyTag_Human",
  "PhysicsJumpSMD": null,
  "Mass": 100.0,
  "CrouchHeight": 50.0,
  "DefaultHitRegion": null,
  "DamageLocationTime": 1.0,
  "DamageLocationFadeTime": 0.25,
  "DamageLocationSize": 128.0,
  "DeathDef": null,
  "InjuredDeathAnim": null,
  "RagDollGravity": 2.0,
  "MinimumRecognizedImpact": 10.0,
  "DirectImpactEffectThreshold": 100.0,
  "SlidingImpactEffectThreshold": 500.0,
  "ImpactEffectProbability": 0.1,
  "RagdollImpact": null,
  "RD_EffectsThreshold": 0.0,
  "RD_SlideThreshold": 0.0,
  "RD_ImpactThreshold": 0.0,
  "RD_SlideMinRepeatTime": 0.0,
  "RD_ImpactMinRepeatTime": 0.0,
  "RD_SlideExplosion": null,
  "RD_SlideExplosionDamageRadius": 64.0,
  "RD_ImpactExplosion": null,
  "RD_ImpactExplosionDamageRadius": 64.0,
  "RD_ImpactAkEventThreshold": 0.0,
  "RD_ImpactAkEventMinRepeatTime": 0.0,
  "RD_ImpactAkEvent": null,
  "FootstepImpact": null,
  "HeavyFootStepImpact": null,
  "JumpedImpact": null,
  "LandedImpact": null,
  "UnwalkableTerrainStaggerVelocityZ": -0.8,
  "LandedMinVel": 300.0,
  "SkidImpact": null,
  "SkidCameraLurchMagnitude": 6.0,
  "SkidCameraLurchSpeed": 8.0,
  "BehaviorAliasLookup": null,
  "ArmsMaterialIndex": 0,
  "ShieldEnabledParameterName": "ShieldEnabled",
  "ShieldColorParameterName": "ShieldColor",
  "TouchImpactDefinition": null,
  "UntouchImpactDefinition": null,
  "NumFootstepsToStop": 7,
  "StoppedAkEvent": null,
  "HitByVehicleImpactDefinition": null,
  "RunOverByVehicleImpactDefinition": null,
  "PlayerReRezCoordinatedEffect": null,
  "PlayerReRezAnim": null,
  "PlayerEventDef": null,
  "DefaultTurns": "GD_NPCShared.SpecialMoves.TurnDef_NPCShared",
  "DefaultCrouchTurns": null,
  "AnimationParentBody": null,
  "FirstPersonHands":
    "GD_EnnisGutter.Character.BodyClass_EnnisGutter:FirstPersonHandsMeshComponent",
  "PrimaryStandInOffset": { "X": 0.0, "Y": 0.0, "Z": 0.0 },
  "WeaponActionParentClass": null,
  "AimOffsetNodeName": null,
  "DefaultWeaponHoldDef": null,
  "CanShootWeaponIf": null,
  "DefaultFirstPersonWeaponHoldDef": null,
  "ThrowGrenadeAkEvent": null,
  "MeleeAkEvent": null,
  "ExpectedInstanceDataSize": 0,
  "CloakStyle": "CLOAKSTYLE_None",
  "DefaultStance": "STANCE_Patrol",
  "DefaultParticleSystemTemplate": null,
  "MeleeWeaponMesh": null,
  "MeleeSocketName": null,
  "MeleeCameraAnim": null,
  "PrimaryColorParameterName": "PrimaryColor",
  "SecondaryColorParameterName": "SecondaryColor",
  "TertiaryColorParameterName": "ThirdColor",
  "PhysVehicleExtentScalars": { "X": 1.0, "Y": 1.0, "Z": 1.0 },
  "StaggerSettings": null,
  "MinKnockbackMomentum": 100000.0,
  "KnockbackSMD": null,
  "KnockbackLandSMD": null,
  "BodyComposition": {
    "Attachments": [
      {
        "Data": {
          "Name": null,
          "Type": "IDT_ActorComponent",
          "Replication": "IDR_Server",
          "MaxSwitchValue": 0,
          "BitsRequiredForMaxSwitchValue": 0,
          "Bool": false,
          "DeleteByOwner": false,
          "Int": 0,
          "Float": 0.0,
          "Vector": { "X": 0.0, "Y": 0.0, "Z": 0.0 },
          "Object": null,
          "ComponentData": {
            "Component":
              "GD_EnnisGutter.Character.Pawn_EnnisGutter:SkeletalMeshComponent_546",
            "CollisionType": "COLLIDE_CustomDefault",
            "bAttachToMesh": false,
            "bIsUsable": false,
            "bIsSecondaryUsable": false,
            "MeshSocketName": null,
            "HitRegionDefinition": null,
            "InteractIcon": null,
            "SecondaryInteractIcon": null
          },
          "String": null,
          "BodyCompositionIndex": 1
        },
        "ParentAttachmentIdentifier": "Mesh",
        "AttachmentBaseInstanceDataIndex": -1,
        "SwitchIdentifier": 0
      },
      {
        "Data": {
          "Name": null,
          "Type": "IDT_ActorComponent",
          "Replication": "IDR_Server",
          "MaxSwitchValue": 0,
          "BitsRequiredForMaxSwitchValue": 0,
          "Bool": false,
          "DeleteByOwner": false,
          "Int": 0,
          "Float": 0.0,
          "Vector": { "X": 0.0, "Y": 0.0, "Z": 0.0 },
          "Object": null,
          "ComponentData": {
            "Component":
              "GD_EnnisGutter.Character.Pawn_EnnisGutter:StaticMeshComponent_925",
            "CollisionType": "COLLIDE_CustomDefault",
            "bAttachToMesh": false,
            "bIsUsable": false,
            "bIsSecondaryUsable": false,
            "MeshSocketName": "Hips",
            "HitRegionDefinition": null,
            "InteractIcon": null,
            "SecondaryInteractIcon": null
          },
          "String": null,
          "BodyCompositionIndex": 2
        },
        "ParentAttachmentIdentifier": null,
        "AttachmentBaseInstanceDataIndex": 0,
        "SwitchIdentifier": 0
      },
      {
        "Data": {
          "Name": null,
          "Type": "IDT_ActorComponent",
          "Replication": "IDR_Server",
          "MaxSwitchValue": 0,
          "BitsRequiredForMaxSwitchValue": 0,
          "Bool": false,
          "DeleteByOwner": false,
          "Int": 0,
          "Float": 0.0,
          "Vector": { "X": 0.0, "Y": 0.0, "Z": 0.0 },
          "Object": null,
          "ComponentData": {
            "Component":
              "GD_EnnisGutter.Character.Pawn_EnnisGutter:StaticMeshComponent_926",
            "CollisionType": "COLLIDE_CustomDefault",
            "bAttachToMesh": false,
            "bIsUsable": false,
            "bIsSecondaryUsable": false,
            "MeshSocketName": "R_Forearm_Twist",
            "HitRegionDefinition": null,
            "InteractIcon": null,
            "SecondaryInteractIcon": null
          },
          "String": null,
          "BodyCompositionIndex": 3
        },
        "ParentAttachmentIdentifier": null,
        "AttachmentBaseInstanceDataIndex": 0,
        "SwitchIdentifier": 0
      },
      {
        "Data": {
          "Name": null,
          "Type": "IDT_ActorComponent",
          "Replication": "IDR_Server",
          "MaxSwitchValue": 0,
          "BitsRequiredForMaxSwitchValue": 0,
          "Bool": false,
          "DeleteByOwner": false,
          "Int": 0,
          "Float": 0.0,
          "Vector": { "X": 0.0, "Y": 0.0, "Z": 0.0 },
          "Object": null,
          "ComponentData": {
            "Component":
              "GD_EnnisGutter.Character.Pawn_EnnisGutter:StaticMeshComponent_927",
            "CollisionType": "COLLIDE_CustomDefault",
            "bAttachToMesh": false,
            "bIsUsable": false,
            "bIsSecondaryUsable": false,
            "MeshSocketName": "L_Upperarm",
            "HitRegionDefinition": null,
            "InteractIcon": null,
            "SecondaryInteractIcon": null
          },
          "String": null,
          "BodyCompositionIndex": 4
        },
        "ParentAttachmentIdentifier": null,
        "AttachmentBaseInstanceDataIndex": 0,
        "SwitchIdentifier": 0
      },
      {
        "Data": {
          "Name": null,
          "Type": "IDT_ActorComponent",
          "Replication": "IDR_Server",
          "MaxSwitchValue": 0,
          "BitsRequiredForMaxSwitchValue": 0,
          "Bool": false,
          "DeleteByOwner": false,
          "Int": 0,
          "Float": 0.0,
          "Vector": { "X": 0.0, "Y": 0.0, "Z": 0.0 },
          "Object": null,
          "ComponentData": {
            "Component":
              "GD_EnnisGutter.Character.Pawn_EnnisGutter:StaticMeshComponent_928",
            "CollisionType": "COLLIDE_CustomDefault",
            "bAttachToMesh": false,
            "bIsUsable": false,
            "bIsSecondaryUsable": false,
            "MeshSocketName": "R_Thigh",
            "HitRegionDefinition": null,
            "InteractIcon": null,
            "SecondaryInteractIcon": null
          },
          "String": null,
          "BodyCompositionIndex": 5
        },
        "ParentAttachmentIdentifier": null,
        "AttachmentBaseInstanceDataIndex": 0,
        "SwitchIdentifier": 0
      },
      {
        "Data": {
          "Name": "GearSwitch",
          "Type": "IDT_Switch",
          "Replication": "IDR_Server",
          "MaxSwitchValue": 1,
          "BitsRequiredForMaxSwitchValue": 1,
          "Bool": false,
          "DeleteByOwner": false,
          "Int": 0,
          "Float": 0.0,
          "Vector": { "X": 0.0, "Y": 0.0, "Z": 0.0 },
          "Object": null,
          "ComponentData": {
            "Component": null,
            "CollisionType": "COLLIDE_CustomDefault",
            "bAttachToMesh": false,
            "bIsUsable": false,
            "bIsSecondaryUsable": false,
            "MeshSocketName": "Spine2",
            "HitRegionDefinition": null,
            "InteractIcon": null,
            "SecondaryInteractIcon": null
          },
          "String": null,
          "BodyCompositionIndex": 6
        },
        "ParentAttachmentIdentifier": null,
        "AttachmentBaseInstanceDataIndex": 0,
        "SwitchIdentifier": 0
      },
      {
        "Data": {
          "Name": null,
          "Type": "IDT_ActorComponent",
          "Replication": "IDR_Server",
          "MaxSwitchValue": 0,
          "BitsRequiredForMaxSwitchValue": 0,
          "Bool": false,
          "DeleteByOwner": false,
          "Int": 0,
          "Float": 0.0,
          "Vector": { "X": 0.0, "Y": 0.0, "Z": 0.0 },
          "Object": null,
          "ComponentData": {
            "Component":
              "GD_EnnisGutter.Character.Pawn_EnnisGutter:GearLikenessMeshComponent_92",
            "CollisionType": "COLLIDE_CustomDefault",
            "bAttachToMesh": false,
            "bIsUsable": false,
            "bIsSecondaryUsable": false,
            "MeshSocketName": "Spine2",
            "HitRegionDefinition": null,
            "InteractIcon": null,
            "SecondaryInteractIcon": null
          },
          "String": null,
          "BodyCompositionIndex": 7
        },
        "ParentAttachmentIdentifier": null,
        "AttachmentBaseInstanceDataIndex": 5,
        "SwitchIdentifier": 1
      },
      {
        "Data": {
          "Name": null,
          "Type": "IDT_ActorComponent",
          "Replication": "IDR_Server",
          "MaxSwitchValue": 0,
          "BitsRequiredForMaxSwitchValue": 0,
          "Bool": false,
          "DeleteByOwner": false,
          "Int": 0,
          "Float": 0.0,
          "Vector": { "X": 0.0, "Y": 0.0, "Z": 0.0 },
          "Object": null,
          "ComponentData": {
            "Component":
              "GD_EnnisGutter.Character.Pawn_EnnisGutter:GearLikenessMeshComponent_93",
            "CollisionType": "COLLIDE_CustomDefault",
            "bAttachToMesh": false,
            "bIsUsable": false,
            "bIsSecondaryUsable": false,
            "MeshSocketName": "Spine2",
            "HitRegionDefinition": null,
            "InteractIcon": null,
            "SecondaryInteractIcon": null
          },
          "String": null,
          "BodyCompositionIndex": 8
        },
        "ParentAttachmentIdentifier": null,
        "AttachmentBaseInstanceDataIndex": 5,
        "SwitchIdentifier": 1
      },
      {
        "Data": {
          "Name": "Rope",
          "Type": "IDT_Switch",
          "Replication": "IDR_Server",
          "MaxSwitchValue": 1,
          "BitsRequiredForMaxSwitchValue": 1,
          "Bool": false,
          "DeleteByOwner": false,
          "Int": 1,
          "Float": 0.0,
          "Vector": { "X": 0.0, "Y": 0.0, "Z": 0.0 },
          "Object": null,
          "ComponentData": {
            "Component": null,
            "CollisionType": "COLLIDE_CustomDefault",
            "bAttachToMesh": false,
            "bIsUsable": false,
            "bIsSecondaryUsable": false,
            "MeshSocketName": "R_Hand",
            "HitRegionDefinition": null,
            "InteractIcon": null,
            "SecondaryInteractIcon": null
          },
          "String": null,
          "BodyCompositionIndex": 9
        },
        "ParentAttachmentIdentifier": null,
        "AttachmentBaseInstanceDataIndex": 0,
        "SwitchIdentifier": 0
      },
      {
        "Data": {
          "Name": null,
          "Type": "IDT_ActorComponent",
          "Replication": "IDR_Server",
          "MaxSwitchValue": 0,
          "BitsRequiredForMaxSwitchValue": 0,
          "Bool": false,
          "DeleteByOwner": false,
          "Int": 0,
          "Float": 0.0,
          "Vector": { "X": 0.0, "Y": 0.0, "Z": 0.0 },
          "Object": null,
          "ComponentData": {
            "Component":
              "GD_EnnisGutter.Character.Pawn_EnnisGutter:StaticMeshComponent_929",
            "CollisionType": "COLLIDE_CustomDefault",
            "bAttachToMesh": false,
            "bIsUsable": false,
            "bIsSecondaryUsable": false,
            "MeshSocketName": "R_Hand",
            "HitRegionDefinition": null,
            "InteractIcon": null,
            "SecondaryInteractIcon": null
          },
          "String": null,
          "BodyCompositionIndex": 10
        },
        "ParentAttachmentIdentifier": null,
        "AttachmentBaseInstanceDataIndex": 8,
        "SwitchIdentifier": 1
      },
      {
        "Data": {
          "Name": null,
          "Type": "IDT_ActorComponent",
          "Replication": "IDR_Server",
          "MaxSwitchValue": 0,
          "BitsRequiredForMaxSwitchValue": 0,
          "Bool": false,
          "DeleteByOwner": false,
          "Int": 0,
          "Float": 0.0,
          "Vector": { "X": 0.0, "Y": 0.0, "Z": 0.0 },
          "Object": null,
          "ComponentData": {
            "Component":
              "GD_EnnisGutter.Character.Pawn_EnnisGutter:CylinderComponent_356",
            "CollisionType": "COLLIDE_CustomDefault",
            "bAttachToMesh": false,
            "bIsUsable": false,
            "bIsSecondaryUsable": false,
            "MeshSocketName": null,
            "HitRegionDefinition": null,
            "InteractIcon": null,
            "SecondaryInteractIcon": null
          },
          "String": null,
          "BodyCompositionIndex": 11
        },
        "ParentAttachmentIdentifier": "CylinderComponent",
        "AttachmentBaseInstanceDataIndex": -1,
        "SwitchIdentifier": 0
      },
      {
        "Data": {
          "Name": null,
          "Type": "IDT_ActorComponent",
          "Replication": "IDR_Server",
          "MaxSwitchValue": 0,
          "BitsRequiredForMaxSwitchValue": 0,
          "Bool": false,
          "DeleteByOwner": false,
          "Int": 0,
          "Float": 0.0,
          "Vector": { "X": 0.0, "Y": 0.0, "Z": 0.0 },
          "Object": null,
          "ComponentData": {
            "Component":
              "GD_EnnisGutter.Character.Pawn_EnnisGutter:CylinderComponent_357",
            "CollisionType": "COLLIDE_TouchAll",
            "bAttachToMesh": false,
            "bIsUsable": false,
            "bIsSecondaryUsable": false,
            "MeshSocketName": null,
            "HitRegionDefinition": null,
            "InteractIcon": null,
            "SecondaryInteractIcon": null
          },
          "String": null,
          "BodyCompositionIndex": 12
        },
        "ParentAttachmentIdentifier": null,
        "AttachmentBaseInstanceDataIndex": -1,
        "SwitchIdentifier": 0
      }
    ],
    "MaxExpectedComponents": 0,
    "HasHomingTargetComponents": false
  },
  "CringeMinRepeatTime": 0.5,
  "CringeMaxRepeatTime": 1.0,
  "DodgeAngle": 0.9,
  "DodgeChance": 0.1,
  "DodgeTargetDistMin": 1024.0,
  "DodgeRepeatTimeMin": 4.0,
  "DodgeRepeatTimeMax": 8.0,
  "DodgeDelayTime": { "MinVal": 0.1, "MaxVal": 0.3 },
  "DodgeAnimLeft": null,
  "DodgeAnimRight": null,
  "DodgeGrenadeChance": 1.0,
  "MovementDodgeTime": { "MinVal": 0.0, "MaxVal": 0.0 },
  "PlayProvokedAnimChance": 1.0,
  "PlayUnprovokedAnimChance": 1.0,
  "DialogGroup": null,
  "DialogName": "GD_Dialog_NPC.Names.DialogName_EnnisGutter",
  "InitialTauntWait": { "MinVal": 3.0, "MaxVal": 7.0 },
  "SubsequentTauntWait": { "MinVal": 3.0, "MaxVal": 12.0 },
  "TauntCustomEvent": null,
  "StartHeavyBreathingAkEvent": null,
  "StopHeavyBreathingAkEvent": null,
  "TimeBetweenHeavyBreathLoop": 5.0,
  "InjuredHealthPct": 0.25,
  "LostShieldAnim": null,
  "StartInjuredAkEvent": null,
  "StopInjuredAkEvent": null,
  "CloakEffect": null,
  "UnCloakEffect": null,
  "CloakEnter": null,
  "CloakExit": null,
  "CoverOffset": 64.0,
  "CoverMantleOffset": 32.0,
  "CoverIdleTime": { "MinVal": 3.0, "MaxVal": 7.0 },
  "CoverFireTime": { "MinVal": 3.0, "MaxVal": 7.0 },
  "CoverMantleLerpStartTime": 1.0,
  "CoverMantleLerpStopTime": 1.25,
  "MantleAnim": null,
  "CoverStance_HighLeft": null,
  "CoverStance_HighRight": null,
  "CoverStance_LowCenter": null,
  "RunStance": "GD_EnnisGutter.Character.BodyClass_EnnisGutter:RunStance0",
  "PatrolStance":
    "GD_EnnisGutter.Character.BodyClass_EnnisGutter:PatrolStance0",
  "SprintStance":
    "GD_EnnisGutter.Character.BodyClass_EnnisGutter:SprintStance0",
  "InjuredStance":
    "GD_EnnisGutter.Character.BodyClass_EnnisGutter:InjuredStance0",
  "CrouchStance":
    "GD_EnnisGutter.Character.BodyClass_EnnisGutter:CrouchStance0",
  "ParentDamageLimit": 0.0,
  "DamageParentScale": 1.0,
  "AudioDistanceRTPC": null,
  "DeltaRotationModifierBySpeed": 0.0,
  "SimulatedRotationLerpTime": 1.0,
  "CrawlerFloorAdjustRadius": 0.0,
  "CrawlerFloorAdjustTraceUp": 0.0,
  "CrawlerFloorAdjustTraceDown": 0.0,
  "CrawlerFloorAdjustOffset": 0.0,
  "CrawlerFloorAdjustRate": 0.2,
  "PhaseLockDef": null,
  "LostShieldDamageTriggers": [ "DAMAGE_TYPE_Shock" ],
  "DialogGroups": [
    "GD_VOSQ_WontGetFooled.Groups.DialogGroups_Side_WontGetFooled"
  ],
  "ScrapedStances": [
    "GD_NPCShared.Anims.Stance_Panic",
    "GD_EnnisGutter.Character.BodyClass_EnnisGutter:RunStance0",
    "GD_EnnisGutter.Character.BodyClass_EnnisGutter:PatrolStance0",
    "GD_EnnisGutter.Character.BodyClass_EnnisGutter:SprintStance0",
    "GD_EnnisGutter.Character.BodyClass_EnnisGutter:InjuredStance0",
    "GD_EnnisGutter.Character.BodyClass_EnnisGutter:CrouchStance0"
  ],
  "VfTableObject": "",
  "HashNext": "",
  "ObjectFlags": "",
  "HashOuterNext": "",
  "StateFrame": "",
  "Linker": null,
  "LinkerIndex": "",
  "ObjectInternalInteger": 196858,
  "NetIndex": 60,
  "Outer": "GD_EnnisGutter.Character",
  "Name": "BodyClass_EnnisGutter",
  "Class": "WillowGame.BodyClassDefinition",
  "ObjectArchetype": "WillowGame.Default__BodyClassDefinition"
}