{
  "VfTable_IIHitRegionInfoProvider": "",
  "HeadLookAtName": "HeadLookAt",
  "bLeftHandIKDisabled": false,
  "bUseMeshForCollision": false,
  "IgnoreMomentumTransfer": false,
  "UseRootMotion": false,
  "UseRootRotation": false,
  "bAllowProjectilesToCollideWithSkeletalMesh": false,
  "bUpdateMeshTranslationWhenCylinderChanges": false,
  "bCanUpdateMeshTranslation": true,
  "bUseDamageLocationParent": true,
  "bShowDamageLocations": false,
  "bStaggerWhenLandingOnUnwalkableTerrain": false,
  "bUseTurns": true,
  "bUseTurnParent": true,
  "bPawnIsAlwaysRelevant": false,
  "bVehicleBlockingActor": false,
  "bUseKnockbackParent": true,
  "bUseCringe": true,
  "bUseCringeParent": true,
  "bUseDodges": false,
  "bDodgeUseParent": true,
  "bCanAvoidGrenades": false,
  "bProvocationUseParent": true,
  "bNPCDialog": false,
  "bCanBeInjured": true,
  "bInjuredUseParent": false,
  "bOnlyHardFlinchWhenInjured": false,
  "bCloaks": false,
  "bCloakUseParentData": false,
  "bCloakUseParentOptions": false,
  "bCloakingRequiresShields": true,
  "bCanShootWhileCloaked": false,
  "bCloakHideInfo": false,
  "bHideBodyOnCloak": false,
  "bHasCloakingCapability": false,
  "bUseCoverParent": true,
  "bUseParentStances": true,
  "bDamageParent": false,
  "bDisplayParentInfo": false,
  "bOnlyDisplayParentInfoWhileAttached": false,
  "bKillWhenParentDies": false,
  "HideInfoOnHUD": false,
  "bFullyArmored": false,
  "bHideEmptyShieldBar": false,
  "bIsPossibleHomingTarget": true,
  "bUseRotationModifierBySpeed": false,
  "bUseSimulatedRotation": false,
  "bCrawlerFloorAdjust": false,
  "bUseParentPhaselockDef": true,
  "BodyTag": "GD_AI_PopulationPoints.BodyTag_Engineer",
  "PhysicsJumpSMD": "GD_EngineerShared.Anims.PhysicsJump_EngineerShared_Leap",
  "Mass": 150.0,
  "CrouchHeight": 50.0,
  "DefaultHitRegion": "GD_EngineerArmsShared.HitRegions.HitRegion_Body",
  "DamageLocationTime": 1.0,
  "DamageLocationFadeTime": 0.25,
  "DamageLocationSize": 128.0,
  "DeathDef": "GD_EngineerArmsShared.Death.BodyDeath_EngineerArmsShared",
  "InjuredDeathAnim": null,
  "RagDollGravity": 2.0,
  "MinimumRecognizedImpact": 10.0,
  "DirectImpactEffectThreshold": 100.0,
  "SlidingImpactEffectThreshold": 500.0,
  "ImpactEffectProbability": 0.1,
  "RagdollImpact": null,
  "RD_EffectsThreshold": 0.0,
  "RD_SlideThreshold": 0.0,
  "RD_ImpactThreshold": 0.0,
  "RD_SlideMinRepeatTime": 0.0,
  "RD_ImpactMinRepeatTime": 0.0,
  "RD_SlideExplosion": null,
  "RD_SlideExplosionDamageRadius": 64.0,
  "RD_ImpactExplosion": null,
  "RD_ImpactExplosionDamageRadius": 64.0,
  "RD_ImpactAkEventThreshold": 0.0,
  "RD_ImpactAkEventMinRepeatTime": 0.0,
  "RD_ImpactAkEvent": null,
  "FootstepImpact": "GD_Impacts.Footsteps.Footstep_Robot",
  "HeavyFootStepImpact": null,
  "JumpedImpact": null,
  "LandedImpact": null,
  "UnwalkableTerrainStaggerVelocityZ": -0.8,
  "LandedMinVel": 300.0,
  "SkidImpact": null,
  "SkidCameraLurchMagnitude": 6.0,
  "SkidCameraLurchSpeed": 8.0,
  "BehaviorAliasLookup": null,
  "ArmsMaterialIndex": 0,
  "ShieldEnabledParameterName": "ShieldEnabled",
  "ShieldColorParameterName": "ShieldColor",
  "TouchImpactDefinition": null,
  "UntouchImpactDefinition": null,
  "NumFootstepsToStop": 7,
  "StoppedAkEvent": null,
  "HitByVehicleImpactDefinition": null,
  "RunOverByVehicleImpactDefinition": null,
  "PlayerReRezCoordinatedEffect": null,
  "PlayerReRezAnim": null,
  "PlayerEventDef": null,
  "DefaultTurns": null,
  "DefaultCrouchTurns": null,
  "AnimationParentBody":
    "GD_EngineerArmsShared.Character.BodyClass_EngineerArmsShared",
  "FirstPersonHands": null,
  "PrimaryStandInOffset": { "X": 0.0, "Y": 0.0, "Z": 0.0 },
  "WeaponActionParentClass": null,
  "AimOffsetNodeName": null,
  "DefaultWeaponHoldDef": null,
  "CanShootWeaponIf": null,
  "DefaultFirstPersonWeaponHoldDef": null,
  "ThrowGrenadeAkEvent": null,
  "MeleeAkEvent": null,
  "ExpectedInstanceDataSize": 0,
  "CloakStyle": "CLOAKSTYLE_None",
  "DefaultStance": "STANCE_Run",
  "DefaultParticleSystemTemplate": null,
  "MeleeWeaponMesh": null,
  "MeleeSocketName": null,
  "MeleeCameraAnim": null,
  "PrimaryColorParameterName": "PrimaryColor",
  "SecondaryColorParameterName": "SecondaryColor",
  "TertiaryColorParameterName": "ThirdColor",
  "PhysVehicleExtentScalars": { "X": 1.0, "Y": 1.0, "Z": 1.0 },
  "StaggerSettings": "GD_EngineerShared.Stagger.StaggerDef_EngineerShared",
  "MinKnockbackMomentum": 100000.0,
  "KnockbackSMD": null,
  "KnockbackLandSMD": null,
  "BodyComposition": {
    "Attachments": [
      {
        "Data": {
          "Name": null,
          "Type": "IDT_ActorComponent",
          "Replication": "IDR_Server",
          "MaxSwitchValue": 0,
          "BitsRequiredForMaxSwitchValue": 0,
          "Bool": false,
          "DeleteByOwner": false,
          "Int": 0,
          "Float": 0.0,
          "Vector": { "X": 0.0, "Y": 0.0, "Z": 0.0 },
          "Object": null,
          "ComponentData": {
            "Component":
              "GD_EngineerArms.Character.Pawn_EngineerArms:SkeletalMeshComponent_1238",
            "CollisionType": "COLLIDE_CustomDefault",
            "bAttachToMesh": false,
            "bIsUsable": false,
            "bIsSecondaryUsable": false,
            "MeshSocketName": null,
            "HitRegionDefinition": null,
            "InteractIcon": null,
            "SecondaryInteractIcon": null
          },
          "String": null,
          "BodyCompositionIndex": 1
        },
        "ParentAttachmentIdentifier": "Mesh",
        "AttachmentBaseInstanceDataIndex": -1,
        "SwitchIdentifier": 0
      },
      {
        "Data": {
          "Name": "Switch_ThrowObject",
          "Type": "IDT_Switch",
          "Replication": "IDR_Server",
          "MaxSwitchValue": 1,
          "BitsRequiredForMaxSwitchValue": 1,
          "Bool": false,
          "DeleteByOwner": false,
          "Int": 0,
          "Float": 0.0,
          "Vector": { "X": 0.0, "Y": 0.0, "Z": 0.0 },
          "Object": null,
          "ComponentData": {
            "Component": null,
            "CollisionType": "COLLIDE_CustomDefault",
            "bAttachToMesh": false,
            "bIsUsable": false,
            "bIsSecondaryUsable": false,
            "MeshSocketName": "R_Robot_Hand",
            "HitRegionDefinition": null,
            "InteractIcon": null,
            "SecondaryInteractIcon": null
          },
          "String": null,
          "BodyCompositionIndex": 2
        },
        "ParentAttachmentIdentifier": null,
        "AttachmentBaseInstanceDataIndex": 0,
        "SwitchIdentifier": 0
      },
      {
        "Data": {
          "Name": null,
          "Type": "IDT_ActorComponent",
          "Replication": "IDR_Server",
          "MaxSwitchValue": 0,
          "BitsRequiredForMaxSwitchValue": 0,
          "Bool": false,
          "DeleteByOwner": false,
          "Int": 0,
          "Float": 0.0,
          "Vector": { "X": 0.0, "Y": 0.0, "Z": 0.0 },
          "Object": null,
          "ComponentData": {
            "Component":
              "GD_EngineerArms.Character.Pawn_EngineerArms:StaticMeshComponent_3096",
            "CollisionType": "COLLIDE_CustomDefault",
            "bAttachToMesh": false,
            "bIsUsable": false,
            "bIsSecondaryUsable": false,
            "MeshSocketName": "R_Robot_Hand",
            "HitRegionDefinition": null,
            "InteractIcon": null,
            "SecondaryInteractIcon": null
          },
          "String": null,
          "BodyCompositionIndex": 3
        },
        "ParentAttachmentIdentifier": null,
        "AttachmentBaseInstanceDataIndex": 1,
        "SwitchIdentifier": 1
      },
      {
        "Data": {
          "Name": null,
          "Type": "IDT_Object",
          "Replication": "IDR_Server",
          "MaxSwitchValue": 0,
          "BitsRequiredForMaxSwitchValue": 0,
          "Bool": false,
          "DeleteByOwner": false,
          "Int": 0,
          "Float": 0.0,
          "Vector": { "X": 0.0, "Y": 0.0, "Z": 0.0 },
          "Object":
            "GD_EngineerArms.Character.Pawn_EngineerArms:SkelControlSingleBone_3398",
          "ComponentData": {
            "Component": null,
            "CollisionType": "COLLIDE_CustomDefault",
            "bAttachToMesh": false,
            "bIsUsable": false,
            "bIsSecondaryUsable": false,
            "MeshSocketName": "Head",
            "HitRegionDefinition": null,
            "InteractIcon": null,
            "SecondaryInteractIcon": null
          },
          "String": null,
          "BodyCompositionIndex": 4
        },
        "ParentAttachmentIdentifier": null,
        "AttachmentBaseInstanceDataIndex": 0,
        "SwitchIdentifier": 0
      },
      {
        "Data": {
          "Name": "Switch_Mask",
          "Type": "IDT_Switch",
          "Replication": "IDR_Server",
          "MaxSwitchValue": 1,
          "BitsRequiredForMaxSwitchValue": 1,
          "Bool": false,
          "DeleteByOwner": false,
          "Int": 0,
          "Float": 0.0,
          "Vector": { "X": 0.0, "Y": 0.0, "Z": 0.0 },
          "Object": null,
          "ComponentData": {
            "Component": null,
            "CollisionType": "COLLIDE_CustomDefault",
            "bAttachToMesh": false,
            "bIsUsable": false,
            "bIsSecondaryUsable": false,
            "MeshSocketName": "Head",
            "HitRegionDefinition": null,
            "InteractIcon": null,
            "SecondaryInteractIcon": null
          },
          "String": null,
          "BodyCompositionIndex": 5
        },
        "ParentAttachmentIdentifier": null,
        "AttachmentBaseInstanceDataIndex": 0,
        "SwitchIdentifier": 0
      },
      {
        "Data": {
          "Name": "Helmet",
          "Type": "IDT_ActorComponent",
          "Replication": "IDR_Server",
          "MaxSwitchValue": 0,
          "BitsRequiredForMaxSwitchValue": 0,
          "Bool": false,
          "DeleteByOwner": false,
          "Int": 0,
          "Float": 0.0,
          "Vector": { "X": 0.0, "Y": 0.0, "Z": 0.0 },
          "Object": null,
          "ComponentData": {
            "Component":
              "GD_EngineerArms.Character.Pawn_EngineerArms:StaticMeshComponent_3097",
            "CollisionType": "COLLIDE_BlockWeapons",
            "bAttachToMesh": false,
            "bIsUsable": false,
            "bIsSecondaryUsable": false,
            "MeshSocketName": "Head",
            "HitRegionDefinition":
              "GD_EngineerArmsShared.HitRegions.HitRegion_HeadArmor",
            "InteractIcon": null,
            "SecondaryInteractIcon": null
          },
          "String": null,
          "BodyCompositionIndex": 6
        },
        "ParentAttachmentIdentifier": null,
        "AttachmentBaseInstanceDataIndex": 4,
        "SwitchIdentifier": 0
      },
      {
        "Data": {
          "Name": "Switch_ArcWeld",
          "Type": "IDT_Switch",
          "Replication": "IDR_Server",
          "MaxSwitchValue": 2,
          "BitsRequiredForMaxSwitchValue": 2,
          "Bool": false,
          "DeleteByOwner": false,
          "Int": 0,
          "Float": 0.0,
          "Vector": { "X": 0.0, "Y": 0.0, "Z": 0.0 },
          "Object": null,
          "ComponentData": {
            "Component": null,
            "CollisionType": "COLLIDE_CustomDefault",
            "bAttachToMesh": false,
            "bIsUsable": false,
            "bIsSecondaryUsable": false,
            "MeshSocketName": "BackTurret_Barrel",
            "HitRegionDefinition": null,
            "InteractIcon": null,
            "SecondaryInteractIcon": null
          },
          "String": null,
          "BodyCompositionIndex": 7
        },
        "ParentAttachmentIdentifier": null,
        "AttachmentBaseInstanceDataIndex": 0,
        "SwitchIdentifier": 0
      },
      {
        "Data": {
          "Name": null,
          "Type": "IDT_ActorComponent",
          "Replication": "IDR_Server",
          "MaxSwitchValue": 0,
          "BitsRequiredForMaxSwitchValue": 0,
          "Bool": false,
          "DeleteByOwner": false,
          "Int": 0,
          "Float": 0.0,
          "Vector": { "X": 0.0, "Y": 0.0, "Z": 0.0 },
          "Object": null,
          "ComponentData": {
            "Component":
              "GD_EngineerArms.Character.Pawn_EngineerArms:ParticleSystemComponent_513",
            "CollisionType": "COLLIDE_CustomDefault",
            "bAttachToMesh": false,
            "bIsUsable": false,
            "bIsSecondaryUsable": false,
            "MeshSocketName": "BackTurret_Barrel",
            "HitRegionDefinition": null,
            "InteractIcon": null,
            "SecondaryInteractIcon": null
          },
          "String": null,
          "BodyCompositionIndex": 8
        },
        "ParentAttachmentIdentifier": null,
        "AttachmentBaseInstanceDataIndex": 6,
        "SwitchIdentifier": 1
      },
      {
        "Data": {
          "Name": null,
          "Type": "IDT_ActorComponent",
          "Replication": "IDR_Server",
          "MaxSwitchValue": 0,
          "BitsRequiredForMaxSwitchValue": 0,
          "Bool": false,
          "DeleteByOwner": false,
          "Int": 0,
          "Float": 0.0,
          "Vector": { "X": 0.0, "Y": 0.0, "Z": 0.0 },
          "Object": null,
          "ComponentData": {
            "Component":
              "GD_EngineerArms.Character.Pawn_EngineerArms:ParticleSystemComponent_514",
            "CollisionType": "COLLIDE_CustomDefault",
            "bAttachToMesh": false,
            "bIsUsable": false,
            "bIsSecondaryUsable": false,
            "MeshSocketName": "BackTurret_Barrel",
            "HitRegionDefinition": null,
            "InteractIcon": null,
            "SecondaryInteractIcon": null
          },
          "String": null,
          "BodyCompositionIndex": 9
        },
        "ParentAttachmentIdentifier": null,
        "AttachmentBaseInstanceDataIndex": 6,
        "SwitchIdentifier": 2
      },
      {
        "Data": {
          "Name": null,
          "Type": "IDT_ActorComponent",
          "Replication": "IDR_Server",
          "MaxSwitchValue": 0,
          "BitsRequiredForMaxSwitchValue": 0,
          "Bool": false,
          "DeleteByOwner": false,
          "Int": 0,
          "Float": 0.0,
          "Vector": { "X": 0.0, "Y": 0.0, "Z": 0.0 },
          "Object": null,
          "ComponentData": {
            "Component":
              "GD_EngineerArms.Character.Pawn_EngineerArms:ParticleSystemComponent_515",
            "CollisionType": "COLLIDE_CustomDefault",
            "bAttachToMesh": false,
            "bIsUsable": false,
            "bIsSecondaryUsable": false,
            "MeshSocketName": "BackTurret_Barrel",
            "HitRegionDefinition": null,
            "InteractIcon": null,
            "SecondaryInteractIcon": null
          },
          "String": null,
          "BodyCompositionIndex": 10
        },
        "ParentAttachmentIdentifier": null,
        "AttachmentBaseInstanceDataIndex": 6,
        "SwitchIdentifier": 2
      },
      {
        "Data": {
          "Name": null,
          "Type": "IDT_ActorComponent",
          "Replication": "IDR_Server",
          "MaxSwitchValue": 0,
          "BitsRequiredForMaxSwitchValue": 0,
          "Bool": false,
          "DeleteByOwner": false,
          "Int": 0,
          "Float": 0.0,
          "Vector": { "X": 0.0, "Y": 0.0, "Z": 0.0 },
          "Object": null,
          "ComponentData": {
            "Component":
              "GD_EngineerArms.Character.Pawn_EngineerArms:StaticMeshComponent_3098",
            "CollisionType": "COLLIDE_BlockWeapons",
            "bAttachToMesh": false,
            "bIsUsable": false,
            "bIsSecondaryUsable": false,
            "MeshSocketName": "BackTurret_Barrel",
            "HitRegionDefinition": null,
            "InteractIcon": null,
            "SecondaryInteractIcon": null
          },
          "String": null,
          "BodyCompositionIndex": 11
        },
        "ParentAttachmentIdentifier": null,
        "AttachmentBaseInstanceDataIndex": 0,
        "SwitchIdentifier": 0
      },
      {
        "Data": {
          "Name": null,
          "Type": "IDT_ActorComponent",
          "Replication": "IDR_Server",
          "MaxSwitchValue": 0,
          "BitsRequiredForMaxSwitchValue": 0,
          "Bool": false,
          "DeleteByOwner": false,
          "Int": 0,
          "Float": 0.0,
          "Vector": { "X": 0.0, "Y": 0.0, "Z": 0.0 },
          "Object": null,
          "ComponentData": {
            "Component":
              "GD_EngineerArms.Character.Pawn_EngineerArms:StaticMeshComponent_3099",
            "CollisionType": "COLLIDE_BlockWeapons",
            "bAttachToMesh": false,
            "bIsUsable": false,
            "bIsSecondaryUsable": false,
            "MeshSocketName": "BackTurret_Barrel",
            "HitRegionDefinition": null,
            "InteractIcon": null,
            "SecondaryInteractIcon": null
          },
          "String": null,
          "BodyCompositionIndex": 12
        },
        "ParentAttachmentIdentifier": null,
        "AttachmentBaseInstanceDataIndex": 0,
        "SwitchIdentifier": 0
      },
      {
        "Data": {
          "Name": null,
          "Type": "IDT_ActorComponent",
          "Replication": "IDR_Server",
          "MaxSwitchValue": 0,
          "BitsRequiredForMaxSwitchValue": 0,
          "Bool": false,
          "DeleteByOwner": false,
          "Int": 0,
          "Float": 0.0,
          "Vector": { "X": 0.0, "Y": 0.0, "Z": 0.0 },
          "Object": null,
          "ComponentData": {
            "Component":
              "GD_EngineerArms.Character.Pawn_EngineerArms:SocketComponent_1232",
            "CollisionType": "COLLIDE_CustomDefault",
            "bAttachToMesh": false,
            "bIsUsable": false,
            "bIsSecondaryUsable": false,
            "MeshSocketName": "BackTurret_Barrel",
            "HitRegionDefinition": null,
            "InteractIcon": null,
            "SecondaryInteractIcon": null
          },
          "String": null,
          "BodyCompositionIndex": 13
        },
        "ParentAttachmentIdentifier": null,
        "AttachmentBaseInstanceDataIndex": 0,
        "SwitchIdentifier": 0
      },
      {
        "Data": {
          "Name": "Switch_GroundFx",
          "Type": "IDT_Switch",
          "Replication": "IDR_Server",
          "MaxSwitchValue": 2,
          "BitsRequiredForMaxSwitchValue": 2,
          "Bool": false,
          "DeleteByOwner": false,
          "Int": 0,
          "Float": 0.0,
          "Vector": { "X": 0.0, "Y": 0.0, "Z": 0.0 },
          "Object": null,
          "ComponentData": {
            "Component": null,
            "CollisionType": "COLLIDE_CustomDefault",
            "bAttachToMesh": false,
            "bIsUsable": false,
            "bIsSecondaryUsable": false,
            "MeshSocketName": "Root",
            "HitRegionDefinition": null,
            "InteractIcon": null,
            "SecondaryInteractIcon": null
          },
          "String": null,
          "BodyCompositionIndex": 14
        },
        "ParentAttachmentIdentifier": null,
        "AttachmentBaseInstanceDataIndex": 0,
        "SwitchIdentifier": 0
      },
      {
        "Data": {
          "Name": null,
          "Type": "IDT_ActorComponent",
          "Replication": "IDR_Server",
          "MaxSwitchValue": 0,
          "BitsRequiredForMaxSwitchValue": 0,
          "Bool": false,
          "DeleteByOwner": false,
          "Int": 0,
          "Float": 0.0,
          "Vector": { "X": 0.0, "Y": 0.0, "Z": 0.0 },
          "Object": null,
          "ComponentData": {
            "Component":
              "GD_EngineerArms.Character.Pawn_EngineerArms:ParticleSystemComponent_516",
            "CollisionType": "COLLIDE_CustomDefault",
            "bAttachToMesh": false,
            "bIsUsable": false,
            "bIsSecondaryUsable": false,
            "MeshSocketName": "Root",
            "HitRegionDefinition": null,
            "InteractIcon": null,
            "SecondaryInteractIcon": null
          },
          "String": null,
          "BodyCompositionIndex": 15
        },
        "ParentAttachmentIdentifier": null,
        "AttachmentBaseInstanceDataIndex": 13,
        "SwitchIdentifier": 1
      },
      {
        "Data": {
          "Name": null,
          "Type": "IDT_ActorComponent",
          "Replication": "IDR_Server",
          "MaxSwitchValue": 0,
          "BitsRequiredForMaxSwitchValue": 0,
          "Bool": false,
          "DeleteByOwner": false,
          "Int": 0,
          "Float": 0.0,
          "Vector": { "X": 0.0, "Y": 0.0, "Z": 0.0 },
          "Object": null,
          "ComponentData": {
            "Component":
              "GD_EngineerArms.Character.Pawn_EngineerArms:ParticleSystemComponent_517",
            "CollisionType": "COLLIDE_CustomDefault",
            "bAttachToMesh": false,
            "bIsUsable": false,
            "bIsSecondaryUsable": false,
            "MeshSocketName": "Root",
            "HitRegionDefinition": null,
            "InteractIcon": null,
            "SecondaryInteractIcon": null
          },
          "String": null,
          "BodyCompositionIndex": 16
        },
        "ParentAttachmentIdentifier": null,
        "AttachmentBaseInstanceDataIndex": 13,
        "SwitchIdentifier": 2
      },
      {
        "Data": {
          "Name": null,
          "Type": "IDT_Object",
          "Replication": "IDR_Server",
          "MaxSwitchValue": 0,
          "BitsRequiredForMaxSwitchValue": 0,
          "Bool": false,
          "DeleteByOwner": false,
          "Int": 0,
          "Float": 0.0,
          "Vector": { "X": 0.0, "Y": 0.0, "Z": 0.0 },
          "Object":
            "GD_EngineerArms.Character.Pawn_EngineerArms:SkelControlSingleBone_3399",
          "ComponentData": {
            "Component": null,
            "CollisionType": "COLLIDE_CustomDefault",
            "bAttachToMesh": false,
            "bIsUsable": false,
            "bIsSecondaryUsable": false,
            "MeshSocketName": "BackTurret01",
            "HitRegionDefinition": null,
            "InteractIcon": null,
            "SecondaryInteractIcon": null
          },
          "String": null,
          "BodyCompositionIndex": 17
        },
        "ParentAttachmentIdentifier": null,
        "AttachmentBaseInstanceDataIndex": 0,
        "SwitchIdentifier": 0
      },
      {
        "Data": {
          "Name": null,
          "Type": "IDT_Object",
          "Replication": "IDR_Server",
          "MaxSwitchValue": 0,
          "BitsRequiredForMaxSwitchValue": 0,
          "Bool": false,
          "DeleteByOwner": false,
          "Int": 0,
          "Float": 0.0,
          "Vector": { "X": 0.0, "Y": 0.0, "Z": 0.0 },
          "Object":
            "GD_EngineerArms.Character.Pawn_EngineerArms:SkelControlSingleBone_3400",
          "ComponentData": {
            "Component": null,
            "CollisionType": "COLLIDE_CustomDefault",
            "bAttachToMesh": false,
            "bIsUsable": false,
            "bIsSecondaryUsable": false,
            "MeshSocketName": "L_Robot_Clav",
            "HitRegionDefinition": null,
            "InteractIcon": null,
            "SecondaryInteractIcon": null
          },
          "String": null,
          "BodyCompositionIndex": 18
        },
        "ParentAttachmentIdentifier": null,
        "AttachmentBaseInstanceDataIndex": 0,
        "SwitchIdentifier": 0
      },
      {
        "Data": {
          "Name": null,
          "Type": "IDT_Object",
          "Replication": "IDR_Server",
          "MaxSwitchValue": 0,
          "BitsRequiredForMaxSwitchValue": 0,
          "Bool": false,
          "DeleteByOwner": false,
          "Int": 0,
          "Float": 0.0,
          "Vector": { "X": 0.0, "Y": 0.0, "Z": 0.0 },
          "Object":
            "GD_EngineerArms.Character.Pawn_EngineerArms:SkelControlSingleBone_3401",
          "ComponentData": {
            "Component": null,
            "CollisionType": "COLLIDE_CustomDefault",
            "bAttachToMesh": false,
            "bIsUsable": false,
            "bIsSecondaryUsable": false,
            "MeshSocketName": "R_Robot_Clav",
            "HitRegionDefinition": null,
            "InteractIcon": null,
            "SecondaryInteractIcon": null
          },
          "String": null,
          "BodyCompositionIndex": 19
        },
        "ParentAttachmentIdentifier": null,
        "AttachmentBaseInstanceDataIndex": 0,
        "SwitchIdentifier": 0
      },
      {
        "Data": {
          "Name": "Switch_BloodDrip",
          "Type": "IDT_Switch",
          "Replication": "IDR_Server",
          "MaxSwitchValue": 1,
          "BitsRequiredForMaxSwitchValue": 1,
          "Bool": false,
          "DeleteByOwner": false,
          "Int": 0,
          "Float": 0.0,
          "Vector": { "X": 0.0, "Y": 0.0, "Z": 0.0 },
          "Object": null,
          "ComponentData": {
            "Component": null,
            "CollisionType": "COLLIDE_CustomDefault",
            "bAttachToMesh": false,
            "bIsUsable": false,
            "bIsSecondaryUsable": false,
            "MeshSocketName": "Spine3",
            "HitRegionDefinition": null,
            "InteractIcon": null,
            "SecondaryInteractIcon": null
          },
          "String": null,
          "BodyCompositionIndex": 20
        },
        "ParentAttachmentIdentifier": null,
        "AttachmentBaseInstanceDataIndex": 0,
        "SwitchIdentifier": 0
      },
      {
        "Data": {
          "Name": null,
          "Type": "IDT_ActorComponent",
          "Replication": "IDR_Server",
          "MaxSwitchValue": 0,
          "BitsRequiredForMaxSwitchValue": 0,
          "Bool": false,
          "DeleteByOwner": false,
          "Int": 0,
          "Float": 0.0,
          "Vector": { "X": 0.0, "Y": 0.0, "Z": 0.0 },
          "Object": null,
          "ComponentData": {
            "Component":
              "GD_EngineerArms.Character.Pawn_EngineerArms:ParticleSystemComponent_518",
            "CollisionType": "COLLIDE_CustomDefault",
            "bAttachToMesh": false,
            "bIsUsable": false,
            "bIsSecondaryUsable": false,
            "MeshSocketName": "Spine3",
            "HitRegionDefinition": null,
            "InteractIcon": null,
            "SecondaryInteractIcon": null
          },
          "String": null,
          "BodyCompositionIndex": 21
        },
        "ParentAttachmentIdentifier": null,
        "AttachmentBaseInstanceDataIndex": 19,
        "SwitchIdentifier": 1
      },
      {
        "Data": {
          "Name": null,
          "Type": "IDT_ActorComponent",
          "Replication": "IDR_Server",
          "MaxSwitchValue": 0,
          "BitsRequiredForMaxSwitchValue": 0,
          "Bool": false,
          "DeleteByOwner": false,
          "Int": 0,
          "Float": 0.0,
          "Vector": { "X": 0.0, "Y": 0.0, "Z": 0.0 },
          "Object": null,
          "ComponentData": {
            "Component":
              "GD_EngineerArms.Character.Pawn_EngineerArms:CylinderComponent_1328",
            "CollisionType": "COLLIDE_CustomDefault",
            "bAttachToMesh": false,
            "bIsUsable": false,
            "bIsSecondaryUsable": false,
            "MeshSocketName": null,
            "HitRegionDefinition": null,
            "InteractIcon": null,
            "SecondaryInteractIcon": null
          },
          "String": null,
          "BodyCompositionIndex": 22
        },
        "ParentAttachmentIdentifier": "CylinderComponent",
        "AttachmentBaseInstanceDataIndex": -1,
        "SwitchIdentifier": 0
      },
      {
        "Data": {
          "Name": null,
          "Type": "IDT_ActorComponent",
          "Replication": "IDR_Server",
          "MaxSwitchValue": 0,
          "BitsRequiredForMaxSwitchValue": 0,
          "Bool": false,
          "DeleteByOwner": false,
          "Int": 0,
          "Float": 0.0,
          "Vector": { "X": 0.0, "Y": 0.0, "Z": 0.0 },
          "Object": null,
          "ComponentData": {
            "Component":
              "GD_EngineerArms.Character.Pawn_EngineerArms:BulletListenerComponent_468",
            "CollisionType": "COLLIDE_CustomDefault",
            "bAttachToMesh": false,
            "bIsUsable": false,
            "bIsSecondaryUsable": false,
            "MeshSocketName": null,
            "HitRegionDefinition": null,
            "InteractIcon": null,
            "SecondaryInteractIcon": null
          },
          "String": null,
          "BodyCompositionIndex": 23
        },
        "ParentAttachmentIdentifier": null,
        "AttachmentBaseInstanceDataIndex": -1,
        "SwitchIdentifier": 0
      }
    ],
    "MaxExpectedComponents": 0,
    "HasHomingTargetComponents": false
  },
  "CringeMinRepeatTime": 0.5,
  "CringeMaxRepeatTime": 1.0,
  "DodgeAngle": 0.9,
  "DodgeChance": 0.1,
  "DodgeTargetDistMin": 1024.0,
  "DodgeRepeatTimeMin": 4.0,
  "DodgeRepeatTimeMax": 8.0,
  "DodgeDelayTime": { "MinVal": 0.1, "MaxVal": 0.3 },
  "DodgeAnimLeft": null,
  "DodgeAnimRight": null,
  "DodgeGrenadeChance": 1.0,
  "MovementDodgeTime": { "MinVal": 0.0, "MaxVal": 0.0 },
  "PlayProvokedAnimChance": 1.0,
  "PlayUnprovokedAnimChance": 1.0,
  "DialogGroup": null,
  "DialogName":
    "GD_Dialog_Enemy_Hyperion.VOBD_HYP_Engineer.DialogName_HYP_Engineer_NoGrenade",
  "InitialTauntWait": { "MinVal": 3.0, "MaxVal": 7.0 },
  "SubsequentTauntWait": { "MinVal": 3.0, "MaxVal": 12.0 },
  "TauntCustomEvent": null,
  "StartHeavyBreathingAkEvent": null,
  "StopHeavyBreathingAkEvent": null,
  "TimeBetweenHeavyBreathLoop": 5.0,
  "InjuredHealthPct": 0.25,
  "LostShieldAnim": null,
  "StartInjuredAkEvent": null,
  "StopInjuredAkEvent": null,
  "CloakEffect": null,
  "UnCloakEffect": null,
  "CloakEnter": null,
  "CloakExit": null,
  "CoverOffset": 64.0,
  "CoverMantleOffset": 32.0,
  "CoverIdleTime": { "MinVal": 3.0, "MaxVal": 7.0 },
  "CoverFireTime": { "MinVal": 3.0, "MaxVal": 7.0 },
  "CoverMantleLerpStartTime": 1.0,
  "CoverMantleLerpStopTime": 1.25,
  "MantleAnim": null,
  "CoverStance_HighLeft": null,
  "CoverStance_HighRight": null,
  "CoverStance_LowCenter": null,
  "RunStance": "GD_EngineerArms.Character.BodyClass_EngineerArms:RunStance0",
  "PatrolStance":
    "GD_EngineerArms.Character.BodyClass_EngineerArms:PatrolStance0",
  "SprintStance":
    "GD_EngineerArms.Character.BodyClass_EngineerArms:SprintStance0",
  "InjuredStance":
    "GD_EngineerArms.Character.BodyClass_EngineerArms:InjuredStance0",
  "CrouchStance":
    "GD_EngineerArms.Character.BodyClass_EngineerArms:CrouchStance0",
  "ParentDamageLimit": 0.0,
  "DamageParentScale": 1.0,
  "AudioDistanceRTPC": null,
  "DeltaRotationModifierBySpeed": 0.0,
  "SimulatedRotationLerpTime": 1.0,
  "CrawlerFloorAdjustRadius": 0.0,
  "CrawlerFloorAdjustTraceUp": 0.0,
  "CrawlerFloorAdjustTraceDown": 0.0,
  "CrawlerFloorAdjustOffset": 0.0,
  "CrawlerFloorAdjustRate": 0.2,
  "PhaseLockDef": null,
  "LostShieldDamageTriggers": [ "DAMAGE_TYPE_Shock" ],
  "OnUninjured": [
    "GD_EngineerArms.Character.BodyClass_EngineerArms:Behavior_ChangeRemoteBehaviorSequenceState_2"
  ],
  "OnInjured": [
    "GD_EngineerArms.Character.BodyClass_EngineerArms:Behavior_ChangeRemoteBehaviorSequenceState_0",
    "GD_EngineerArms.Character.BodyClass_EngineerArms:Behavior_ChangeInstanceDataSwitch_126"
  ],
  "InjuredAnimsCritical": [
    "GD_EngineerArms.Character.BodyClass_EngineerArms:SpecialMove_Motion_9"
  ],
  "InjuredAnimsRight": [
    "GD_EngineerArms.Character.BodyClass_EngineerArms:SpecialMove_Motion_5"
  ],
  "InjuredAnimsLeft": [
    "GD_EngineerArms.Character.BodyClass_EngineerArms:SpecialMove_Motion_7"
  ],
  "BreathingLoops": [
    {
      "Condition":
        "GD_EngineerArms.Character.BodyClass_EngineerArms:AttributeExpressionEvaluator_24",
      "StartAkEvent":
        "Ake_VOBD.VOBD_HYP_Engineer.Ak_Play_VOBD_Engineer_HUM_React_Injured",
      "StopAkEvent": null
    }
  ],
  "DialogGroups": [
    "GD_Dialog_Enemy_Hyperion.VOBD_HYP_Engineer.DialogGroup_HYP_Engineer"
  ],
  "FootstepBones": [ "FX_LeftFoot", "FX_RightFoot" ],
  "HitRegionList": [
    "GD_EngineerArmsShared.HitRegions.HitRegion_Body",
    "GD_EngineerArmsShared.HitRegions.HitRegion_Head",
    "GD_EngineerArmsShared.HitRegions.HitRegion_Back",
    "GD_EngineerArmsShared.HitRegions.HitRegion_ArmLeft",
    "GD_EngineerArmsShared.HitRegions.HitRegion_ArmRight",
    "GD_EngineerArmsShared.HitRegions.HitRegion_LegLeft",
    "GD_EngineerArmsShared.HitRegions.HitRegion_LegRight",
    "GD_EngineerArmsShared.HitRegions.HitRegion_RobotArmLeft",
    "GD_EngineerArmsShared.HitRegions.HitRegion_RobotArmRight"
  ],
  "ScrapedStances": [
    "GD_EngineerArmsShared.Character.BodyClass_EngineerArmsShared:RunStance0",
    "GD_EngineerArmsShared.Character.BodyClass_EngineerArmsShared:PatrolStance0",
    "GD_EngineerArmsShared.Character.BodyClass_EngineerArmsShared:SprintStance0",
    "GD_EngineerArmsShared.Character.BodyClass_EngineerArmsShared:InjuredStance0",
    "GD_EngineerArmsShared.Character.BodyClass_EngineerArmsShared:CrouchStance0"
  ],
  "VfTableObject": "",
  "HashNext": "",
  "ObjectFlags": "",
  "HashOuterNext": "",
  "StateFrame": "",
  "Linker": null,
  "LinkerIndex": "",
  "ObjectInternalInteger": 206631,
  "NetIndex": 170,
  "Outer": "GD_EngineerArms.Character",
  "Name": "BodyClass_EngineerArms",
  "Class": "WillowGame.BodyClassDefinition",
  "ObjectArchetype": "WillowGame.Default__BodyClassDefinition"
}