{
  "VfTable_IIHitRegionInfoProvider": "",
  "HeadLookAtName": "HeadLookAt",
  "bLeftHandIKDisabled": false,
  "bUseMeshForCollision": false,
  "IgnoreMomentumTransfer": false,
  "UseRootMotion": false,
  "UseRootRotation": false,
  "bAllowProjectilesToCollideWithSkeletalMesh": true,
  "bUpdateMeshTranslationWhenCylinderChanges": false,
  "bCanUpdateMeshTranslation": true,
  "bUseDamageLocationParent": true,
  "bShowDamageLocations": false,
  "bStaggerWhenLandingOnUnwalkableTerrain": false,
  "bUseTurns": true,
  "bUseTurnParent": true,
  "bPawnIsAlwaysRelevant": false,
  "bVehicleBlockingActor": false,
  "bUseKnockbackParent": true,
  "bUseCringe": true,
  "bUseCringeParent": true,
  "bUseDodges": false,
  "bDodgeUseParent": true,
  "bCanAvoidGrenades": false,
  "bProvocationUseParent": false,
  "bNPCDialog": false,
  "bCanBeInjured": true,
  "bInjuredUseParent": true,
  "bOnlyHardFlinchWhenInjured": false,
  "bCloaks": false,
  "bCloakUseParentData": true,
  "bCloakUseParentOptions": true,
  "bCloakingRequiresShields": true,
  "bCanShootWhileCloaked": false,
  "bCloakHideInfo": false,
  "bHideBodyOnCloak": false,
  "bHasCloakingCapability": false,
  "bUseCoverParent": true,
  "bUseParentStances": true,
  "bDamageParent": false,
  "bDisplayParentInfo": false,
  "bOnlyDisplayParentInfoWhileAttached": false,
  "bKillWhenParentDies": false,
  "HideInfoOnHUD": false,
  "bFullyArmored": false,
  "bHideEmptyShieldBar": false,
  "bIsPossibleHomingTarget": true,
  "bUseRotationModifierBySpeed": false,
  "bUseSimulatedRotation": false,
  "bCrawlerFloorAdjust": false,
  "bUseParentPhaselockDef": true,
  "BodyTag": "GD_AI_PopulationPoints.BodyTag_Nomad",
  "PhysicsJumpSMD": "GD_NomadShared.Anims.PhysicsJump_NomadShared",
  "Mass": 100.0,
  "CrouchHeight": 70.0,
  "DefaultHitRegion": "GD_NomadShared.HitRegions.HitRegion_Body",
  "DamageLocationTime": 1.0,
  "DamageLocationFadeTime": 0.25,
  "DamageLocationSize": 128.0,
  "DeathDef": "GD_NomadShared.Death.BodyDeath_NomadShared",
  "InjuredDeathAnim": null,
  "RagDollGravity": 2.0,
  "MinimumRecognizedImpact": 10.0,
  "DirectImpactEffectThreshold": 100.0,
  "SlidingImpactEffectThreshold": 500.0,
  "ImpactEffectProbability": 0.1,
  "RagdollImpact": null,
  "RD_EffectsThreshold": 0.0,
  "RD_SlideThreshold": 0.0,
  "RD_ImpactThreshold": 0.0,
  "RD_SlideMinRepeatTime": 0.0,
  "RD_ImpactMinRepeatTime": 0.0,
  "RD_SlideExplosion": null,
  "RD_SlideExplosionDamageRadius": 64.0,
  "RD_ImpactExplosion": null,
  "RD_ImpactExplosionDamageRadius": 64.0,
  "RD_ImpactAkEventThreshold": 0.0,
  "RD_ImpactAkEventMinRepeatTime": 0.0,
  "RD_ImpactAkEvent": null,
  "FootstepImpact": "GD_Impacts.Footsteps.Footstep_Common",
  "HeavyFootStepImpact": null,
  "JumpedImpact": null,
  "LandedImpact": null,
  "UnwalkableTerrainStaggerVelocityZ": -0.8,
  "LandedMinVel": 300.0,
  "SkidImpact": null,
  "SkidCameraLurchMagnitude": 6.0,
  "SkidCameraLurchSpeed": 8.0,
  "BehaviorAliasLookup": "GD_NomadShared.Behavior.AliasLookup_NomadShared",
  "ArmsMaterialIndex": 0,
  "ShieldEnabledParameterName": "ShieldEnabled",
  "ShieldColorParameterName": "ShieldColor",
  "TouchImpactDefinition": null,
  "UntouchImpactDefinition": null,
  "NumFootstepsToStop": 7,
  "StoppedAkEvent": null,
  "HitByVehicleImpactDefinition": null,
  "RunOverByVehicleImpactDefinition": null,
  "PlayerReRezCoordinatedEffect": null,
  "PlayerReRezAnim": null,
  "PlayerEventDef": null,
  "DefaultTurns": null,
  "DefaultCrouchTurns": null,
  "AnimationParentBody": "GD_NomadShared.Character.BodyClass_NomadShared",
  "FirstPersonHands": null,
  "PrimaryStandInOffset": { "X": 0.0, "Y": 0.0, "Z": 0.0 },
  "WeaponActionParentClass": "GD_NomadShared.Character.BodyClass_NomadShared",
  "AimOffsetNodeName": "AimOffset",
  "DefaultWeaponHoldDef": null,
  "CanShootWeaponIf": null,
  "DefaultFirstPersonWeaponHoldDef": null,
  "ThrowGrenadeAkEvent": null,
  "MeleeAkEvent": null,
  "ExpectedInstanceDataSize": 0,
  "CloakStyle": "CLOAKSTYLE_None",
  "DefaultStance": "STANCE_Run",
  "DefaultParticleSystemTemplate": null,
  "MeleeWeaponMesh": null,
  "MeleeSocketName": null,
  "MeleeCameraAnim": null,
  "PrimaryColorParameterName": "PrimaryColor",
  "SecondaryColorParameterName": "SecondaryColor",
  "TertiaryColorParameterName": "ThirdColor",
  "PhysVehicleExtentScalars": { "X": 1.0, "Y": 1.0, "Z": 1.0 },
  "StaggerSettings": "GD_NomadShared.Stagger.StaggerDef_NomadShared",
  "MinKnockbackMomentum": 100000.0,
  "KnockbackSMD": "GD_NomadShared.Anims.Anim_NomadShared_Knockback",
  "KnockbackLandSMD": null,
  "BodyComposition": {
    "Attachments": [
      {
        "Data": {
          "Name": null,
          "Type": "IDT_ActorComponent",
          "Replication": "IDR_Server",
          "MaxSwitchValue": 0,
          "BitsRequiredForMaxSwitchValue": 0,
          "Bool": false,
          "DeleteByOwner": false,
          "Int": 0,
          "Float": 0.0,
          "Vector": { "X": 0.0, "Y": 0.0, "Z": 0.0 },
          "Object": null,
          "ComponentData": {
            "Component":
              "GD_Prospector.Character.Pawn_Prospector:SkeletalMeshComponent_31",
            "CollisionType": "COLLIDE_CustomDefault",
            "bAttachToMesh": false,
            "bIsUsable": false,
            "bIsSecondaryUsable": false,
            "MeshSocketName": null,
            "HitRegionDefinition": null,
            "InteractIcon": null,
            "SecondaryInteractIcon": null
          },
          "String": null,
          "BodyCompositionIndex": 1
        },
        "ParentAttachmentIdentifier": "Mesh",
        "AttachmentBaseInstanceDataIndex": -1,
        "SwitchIdentifier": 0
      },
      {
        "Data": {
          "Name": null,
          "Type": "IDT_ActorComponent",
          "Replication": "IDR_Server",
          "MaxSwitchValue": 0,
          "BitsRequiredForMaxSwitchValue": 0,
          "Bool": false,
          "DeleteByOwner": false,
          "Int": 0,
          "Float": 0.0,
          "Vector": { "X": 0.0, "Y": 0.0, "Z": 0.0 },
          "Object": null,
          "ComponentData": {
            "Component":
              "GD_Prospector.Character.Pawn_Prospector:StaticMeshComponent_261",
            "CollisionType": "COLLIDE_BlockWeapons",
            "bAttachToMesh": false,
            "bIsUsable": false,
            "bIsSecondaryUsable": false,
            "MeshSocketName": "L_Clav",
            "HitRegionDefinition":
              "GD_NomadShield.HitRegions.HitRegion_Shield",
            "InteractIcon": null,
            "SecondaryInteractIcon": null
          },
          "String": null,
          "BodyCompositionIndex": 2
        },
        "ParentAttachmentIdentifier": null,
        "AttachmentBaseInstanceDataIndex": 0,
        "SwitchIdentifier": 0
      },
      {
        "Data": {
          "Name": null,
          "Type": "IDT_ActorComponent",
          "Replication": "IDR_Server",
          "MaxSwitchValue": 0,
          "BitsRequiredForMaxSwitchValue": 0,
          "Bool": false,
          "DeleteByOwner": false,
          "Int": 0,
          "Float": 0.0,
          "Vector": { "X": 0.0, "Y": 0.0, "Z": 0.0 },
          "Object": null,
          "ComponentData": {
            "Component":
              "GD_Prospector.Character.Pawn_Prospector:StaticMeshComponent_262",
            "CollisionType": "COLLIDE_BlockWeapons",
            "bAttachToMesh": false,
            "bIsUsable": false,
            "bIsSecondaryUsable": false,
            "MeshSocketName": "R_Clav",
            "HitRegionDefinition":
              "GD_NomadShield.HitRegions.HitRegion_Shield",
            "InteractIcon": null,
            "SecondaryInteractIcon": null
          },
          "String": null,
          "BodyCompositionIndex": 3
        },
        "ParentAttachmentIdentifier": null,
        "AttachmentBaseInstanceDataIndex": 0,
        "SwitchIdentifier": 0
      },
      {
        "Data": {
          "Name": "InjuredSwitch",
          "Type": "IDT_Switch",
          "Replication": "IDR_Server",
          "MaxSwitchValue": 1,
          "BitsRequiredForMaxSwitchValue": 1,
          "Bool": false,
          "DeleteByOwner": false,
          "Int": 0,
          "Float": 0.0,
          "Vector": { "X": 0.0, "Y": 0.0, "Z": 0.0 },
          "Object": null,
          "ComponentData": {
            "Component": null,
            "CollisionType": "COLLIDE_CustomDefault",
            "bAttachToMesh": false,
            "bIsUsable": false,
            "bIsSecondaryUsable": false,
            "MeshSocketName": "Spine3",
            "HitRegionDefinition": null,
            "InteractIcon": null,
            "SecondaryInteractIcon": null
          },
          "String": null,
          "BodyCompositionIndex": 4
        },
        "ParentAttachmentIdentifier": null,
        "AttachmentBaseInstanceDataIndex": 0,
        "SwitchIdentifier": 0
      },
      {
        "Data": {
          "Name": null,
          "Type": "IDT_ActorComponent",
          "Replication": "IDR_Server",
          "MaxSwitchValue": 0,
          "BitsRequiredForMaxSwitchValue": 0,
          "Bool": false,
          "DeleteByOwner": false,
          "Int": 0,
          "Float": 0.0,
          "Vector": { "X": 0.0, "Y": 0.0, "Z": 0.0 },
          "Object": null,
          "ComponentData": {
            "Component":
              "GD_Prospector.Character.Pawn_Prospector:ParticleSystemComponent_61",
            "CollisionType": "COLLIDE_CustomDefault",
            "bAttachToMesh": false,
            "bIsUsable": false,
            "bIsSecondaryUsable": false,
            "MeshSocketName": "Spine3",
            "HitRegionDefinition": null,
            "InteractIcon": null,
            "SecondaryInteractIcon": null
          },
          "String": null,
          "BodyCompositionIndex": 5
        },
        "ParentAttachmentIdentifier": null,
        "AttachmentBaseInstanceDataIndex": 3,
        "SwitchIdentifier": 1
      },
      {
        "Data": {
          "Name": "Switch_CleanUp",
          "Type": "IDT_Switch",
          "Replication": "IDR_Server",
          "MaxSwitchValue": 1,
          "BitsRequiredForMaxSwitchValue": 1,
          "Bool": false,
          "DeleteByOwner": false,
          "Int": 0,
          "Float": 0.0,
          "Vector": { "X": 0.0, "Y": 0.0, "Z": 0.0 },
          "Object": null,
          "ComponentData": {
            "Component": null,
            "CollisionType": "COLLIDE_CustomDefault",
            "bAttachToMesh": false,
            "bIsUsable": false,
            "bIsSecondaryUsable": false,
            "MeshSocketName": "Spine3",
            "HitRegionDefinition": null,
            "InteractIcon": null,
            "SecondaryInteractIcon": null
          },
          "String": null,
          "BodyCompositionIndex": 6
        },
        "ParentAttachmentIdentifier": null,
        "AttachmentBaseInstanceDataIndex": 0,
        "SwitchIdentifier": 0
      },
      {
        "Data": {
          "Name": null,
          "Type": "IDT_ActorComponent",
          "Replication": "IDR_Server",
          "MaxSwitchValue": 0,
          "BitsRequiredForMaxSwitchValue": 0,
          "Bool": false,
          "DeleteByOwner": false,
          "Int": 0,
          "Float": 0.0,
          "Vector": { "X": 0.0, "Y": 0.0, "Z": 0.0 },
          "Object": null,
          "ComponentData": {
            "Component":
              "GD_Prospector.Character.Pawn_Prospector:StaticMeshComponent_263",
            "CollisionType": "COLLIDE_NoCollision",
            "bAttachToMesh": false,
            "bIsUsable": false,
            "bIsSecondaryUsable": false,
            "MeshSocketName": "Spine3",
            "HitRegionDefinition": null,
            "InteractIcon": null,
            "SecondaryInteractIcon": null
          },
          "String": null,
          "BodyCompositionIndex": 7
        },
        "ParentAttachmentIdentifier": null,
        "AttachmentBaseInstanceDataIndex": 5,
        "SwitchIdentifier": 0
      },
      {
        "Data": {
          "Name": null,
          "Type": "IDT_ActorComponent",
          "Replication": "IDR_Server",
          "MaxSwitchValue": 0,
          "BitsRequiredForMaxSwitchValue": 0,
          "Bool": false,
          "DeleteByOwner": false,
          "Int": 0,
          "Float": 0.0,
          "Vector": { "X": 0.0, "Y": 0.0, "Z": 0.0 },
          "Object": null,
          "ComponentData": {
            "Component":
              "GD_Prospector.Character.Pawn_Prospector:StaticMeshComponent_264",
            "CollisionType": "COLLIDE_NoCollision",
            "bAttachToMesh": false,
            "bIsUsable": false,
            "bIsSecondaryUsable": false,
            "MeshSocketName": "Spine3",
            "HitRegionDefinition": null,
            "InteractIcon": null,
            "SecondaryInteractIcon": null
          },
          "String": null,
          "BodyCompositionIndex": 8
        },
        "ParentAttachmentIdentifier": null,
        "AttachmentBaseInstanceDataIndex": 5,
        "SwitchIdentifier": 0
      },
      {
        "Data": {
          "Name": null,
          "Type": "IDT_ActorComponent",
          "Replication": "IDR_Server",
          "MaxSwitchValue": 0,
          "BitsRequiredForMaxSwitchValue": 0,
          "Bool": false,
          "DeleteByOwner": false,
          "Int": 0,
          "Float": 0.0,
          "Vector": { "X": 0.0, "Y": 0.0, "Z": 0.0 },
          "Object": null,
          "ComponentData": {
            "Component":
              "GD_Prospector.Character.Pawn_Prospector:StaticMeshComponent_265",
            "CollisionType": "COLLIDE_NoCollision",
            "bAttachToMesh": false,
            "bIsUsable": false,
            "bIsSecondaryUsable": false,
            "MeshSocketName": "Spine3",
            "HitRegionDefinition": null,
            "InteractIcon": null,
            "SecondaryInteractIcon": null
          },
          "String": null,
          "BodyCompositionIndex": 9
        },
        "ParentAttachmentIdentifier": null,
        "AttachmentBaseInstanceDataIndex": 5,
        "SwitchIdentifier": 0
      },
      {
        "Data": {
          "Name": null,
          "Type": "IDT_ActorComponent",
          "Replication": "IDR_Server",
          "MaxSwitchValue": 0,
          "BitsRequiredForMaxSwitchValue": 0,
          "Bool": false,
          "DeleteByOwner": false,
          "Int": 0,
          "Float": 0.0,
          "Vector": { "X": 0.0, "Y": 0.0, "Z": 0.0 },
          "Object": null,
          "ComponentData": {
            "Component":
              "GD_Prospector.Character.Pawn_Prospector:StaticMeshComponent_266",
            "CollisionType": "COLLIDE_NoCollision",
            "bAttachToMesh": false,
            "bIsUsable": false,
            "bIsSecondaryUsable": false,
            "MeshSocketName": "Spine3",
            "HitRegionDefinition": null,
            "InteractIcon": null,
            "SecondaryInteractIcon": null
          },
          "String": null,
          "BodyCompositionIndex": 10
        },
        "ParentAttachmentIdentifier": null,
        "AttachmentBaseInstanceDataIndex": 5,
        "SwitchIdentifier": 0
      },
      {
        "Data": {
          "Name": null,
          "Type": "IDT_ActorComponent",
          "Replication": "IDR_Server",
          "MaxSwitchValue": 0,
          "BitsRequiredForMaxSwitchValue": 0,
          "Bool": false,
          "DeleteByOwner": false,
          "Int": 0,
          "Float": 0.0,
          "Vector": { "X": 0.0, "Y": 0.0, "Z": 0.0 },
          "Object": null,
          "ComponentData": {
            "Component":
              "GD_Prospector.Character.Pawn_Prospector:StaticMeshComponent_267",
            "CollisionType": "COLLIDE_NoCollision",
            "bAttachToMesh": false,
            "bIsUsable": false,
            "bIsSecondaryUsable": false,
            "MeshSocketName": "Spine3",
            "HitRegionDefinition": null,
            "InteractIcon": null,
            "SecondaryInteractIcon": null
          },
          "String": null,
          "BodyCompositionIndex": 11
        },
        "ParentAttachmentIdentifier": null,
        "AttachmentBaseInstanceDataIndex": 5,
        "SwitchIdentifier": 0
      },
      {
        "Data": {
          "Name": "Switch_CleanUp",
          "Type": "IDT_Switch",
          "Replication": "IDR_Server",
          "MaxSwitchValue": 1,
          "BitsRequiredForMaxSwitchValue": 1,
          "Bool": false,
          "DeleteByOwner": false,
          "Int": 0,
          "Float": 0.0,
          "Vector": { "X": 0.0, "Y": 0.0, "Z": 0.0 },
          "Object": null,
          "ComponentData": {
            "Component": null,
            "CollisionType": "COLLIDE_CustomDefault",
            "bAttachToMesh": false,
            "bIsUsable": false,
            "bIsSecondaryUsable": false,
            "MeshSocketName": "Head",
            "HitRegionDefinition": null,
            "InteractIcon": null,
            "SecondaryInteractIcon": null
          },
          "String": null,
          "BodyCompositionIndex": 12
        },
        "ParentAttachmentIdentifier": null,
        "AttachmentBaseInstanceDataIndex": 0,
        "SwitchIdentifier": 0
      },
      {
        "Data": {
          "Name": null,
          "Type": "IDT_ActorComponent",
          "Replication": "IDR_Server",
          "MaxSwitchValue": 0,
          "BitsRequiredForMaxSwitchValue": 0,
          "Bool": false,
          "DeleteByOwner": false,
          "Int": 0,
          "Float": 0.0,
          "Vector": { "X": 0.0, "Y": 0.0, "Z": 0.0 },
          "Object": null,
          "ComponentData": {
            "Component":
              "GD_Prospector.Character.Pawn_Prospector:StaticMeshComponent_268",
            "CollisionType": "COLLIDE_NoCollision",
            "bAttachToMesh": false,
            "bIsUsable": false,
            "bIsSecondaryUsable": false,
            "MeshSocketName": "Head",
            "HitRegionDefinition": null,
            "InteractIcon": null,
            "SecondaryInteractIcon": null
          },
          "String": null,
          "BodyCompositionIndex": 13
        },
        "ParentAttachmentIdentifier": null,
        "AttachmentBaseInstanceDataIndex": 11,
        "SwitchIdentifier": 0
      },
      {
        "Data": {
          "Name": null,
          "Type": "IDT_ActorComponent",
          "Replication": "IDR_Server",
          "MaxSwitchValue": 0,
          "BitsRequiredForMaxSwitchValue": 0,
          "Bool": false,
          "DeleteByOwner": false,
          "Int": 0,
          "Float": 0.0,
          "Vector": { "X": 0.0, "Y": 0.0, "Z": 0.0 },
          "Object": null,
          "ComponentData": {
            "Component":
              "GD_Prospector.Character.Pawn_Prospector:StaticMeshComponent_269",
            "CollisionType": "COLLIDE_BlockWeapons",
            "bAttachToMesh": false,
            "bIsUsable": false,
            "bIsSecondaryUsable": false,
            "MeshSocketName": "Head",
            "HitRegionDefinition":
              "GD_NomadShield.HitRegions.HitRegion_Shield",
            "InteractIcon": null,
            "SecondaryInteractIcon": null
          },
          "String": null,
          "BodyCompositionIndex": 14
        },
        "ParentAttachmentIdentifier": null,
        "AttachmentBaseInstanceDataIndex": 11,
        "SwitchIdentifier": 0
      },
      {
        "Data": {
          "Name": null,
          "Type": "IDT_ActorComponent",
          "Replication": "IDR_Server",
          "MaxSwitchValue": 0,
          "BitsRequiredForMaxSwitchValue": 0,
          "Bool": false,
          "DeleteByOwner": false,
          "Int": 0,
          "Float": 0.0,
          "Vector": { "X": 0.0, "Y": 0.0, "Z": 0.0 },
          "Object": null,
          "ComponentData": {
            "Component":
              "GD_Prospector.Character.Pawn_Prospector:StaticMeshComponent_270",
            "CollisionType": "COLLIDE_NoCollision",
            "bAttachToMesh": false,
            "bIsUsable": false,
            "bIsSecondaryUsable": false,
            "MeshSocketName": "Head",
            "HitRegionDefinition": null,
            "InteractIcon": null,
            "SecondaryInteractIcon": null
          },
          "String": null,
          "BodyCompositionIndex": 15
        },
        "ParentAttachmentIdentifier": null,
        "AttachmentBaseInstanceDataIndex": 11,
        "SwitchIdentifier": 0
      },
      {
        "Data": {
          "Name": null,
          "Type": "IDT_ActorComponent",
          "Replication": "IDR_Server",
          "MaxSwitchValue": 0,
          "BitsRequiredForMaxSwitchValue": 0,
          "Bool": false,
          "DeleteByOwner": false,
          "Int": 0,
          "Float": 0.0,
          "Vector": { "X": 0.0, "Y": 0.0, "Z": 0.0 },
          "Object": null,
          "ComponentData": {
            "Component":
              "GD_Prospector.Character.Pawn_Prospector:ParticleSystemComponent_62",
            "CollisionType": "COLLIDE_NoCollision",
            "bAttachToMesh": false,
            "bIsUsable": false,
            "bIsSecondaryUsable": false,
            "MeshSocketName": "Head",
            "HitRegionDefinition": null,
            "InteractIcon": null,
            "SecondaryInteractIcon": null
          },
          "String": null,
          "BodyCompositionIndex": 16
        },
        "ParentAttachmentIdentifier": null,
        "AttachmentBaseInstanceDataIndex": 11,
        "SwitchIdentifier": 0
      },
      {
        "Data": {
          "Name": "Switch_Axe",
          "Type": "IDT_Switch",
          "Replication": "IDR_Server",
          "MaxSwitchValue": 1,
          "BitsRequiredForMaxSwitchValue": 1,
          "Bool": false,
          "DeleteByOwner": false,
          "Int": 0,
          "Float": 0.0,
          "Vector": { "X": 0.0, "Y": 0.0, "Z": 0.0 },
          "Object": null,
          "ComponentData": {
            "Component": null,
            "CollisionType": "COLLIDE_CustomDefault",
            "bAttachToMesh": false,
            "bIsUsable": false,
            "bIsSecondaryUsable": false,
            "MeshSocketName": "Hips",
            "HitRegionDefinition": null,
            "InteractIcon": null,
            "SecondaryInteractIcon": null
          },
          "String": null,
          "BodyCompositionIndex": 17
        },
        "ParentAttachmentIdentifier": null,
        "AttachmentBaseInstanceDataIndex": 0,
        "SwitchIdentifier": 0
      },
      {
        "Data": {
          "Name": "Switch_CleanUp",
          "Type": "IDT_Switch",
          "Replication": "IDR_Server",
          "MaxSwitchValue": 1,
          "BitsRequiredForMaxSwitchValue": 1,
          "Bool": false,
          "DeleteByOwner": false,
          "Int": 0,
          "Float": 0.0,
          "Vector": { "X": 0.0, "Y": 0.0, "Z": 0.0 },
          "Object": null,
          "ComponentData": {
            "Component": null,
            "CollisionType": "COLLIDE_CustomDefault",
            "bAttachToMesh": false,
            "bIsUsable": false,
            "bIsSecondaryUsable": false,
            "MeshSocketName": "Hips",
            "HitRegionDefinition": null,
            "InteractIcon": null,
            "SecondaryInteractIcon": null
          },
          "String": null,
          "BodyCompositionIndex": 18
        },
        "ParentAttachmentIdentifier": null,
        "AttachmentBaseInstanceDataIndex": 16,
        "SwitchIdentifier": 0
      },
      {
        "Data": {
          "Name": null,
          "Type": "IDT_ActorComponent",
          "Replication": "IDR_Server",
          "MaxSwitchValue": 0,
          "BitsRequiredForMaxSwitchValue": 0,
          "Bool": false,
          "DeleteByOwner": false,
          "Int": 0,
          "Float": 0.0,
          "Vector": { "X": 0.0, "Y": 0.0, "Z": 0.0 },
          "Object": null,
          "ComponentData": {
            "Component":
              "GD_Prospector.Character.Pawn_Prospector:StaticMeshComponent_271",
            "CollisionType": "COLLIDE_NoCollision",
            "bAttachToMesh": false,
            "bIsUsable": false,
            "bIsSecondaryUsable": false,
            "MeshSocketName": "Hips",
            "HitRegionDefinition": null,
            "InteractIcon": null,
            "SecondaryInteractIcon": null
          },
          "String": null,
          "BodyCompositionIndex": 19
        },
        "ParentAttachmentIdentifier": null,
        "AttachmentBaseInstanceDataIndex": 17,
        "SwitchIdentifier": 0
      },
      {
        "Data": {
          "Name": "Switch_Grenade",
          "Type": "IDT_Switch",
          "Replication": "IDR_Server",
          "MaxSwitchValue": 1,
          "BitsRequiredForMaxSwitchValue": 1,
          "Bool": false,
          "DeleteByOwner": false,
          "Int": 0,
          "Float": 0.0,
          "Vector": { "X": 0.0, "Y": 0.0, "Z": 0.0 },
          "Object": null,
          "ComponentData": {
            "Component": null,
            "CollisionType": "COLLIDE_CustomDefault",
            "bAttachToMesh": false,
            "bIsUsable": false,
            "bIsSecondaryUsable": false,
            "MeshSocketName": "Hips",
            "HitRegionDefinition": null,
            "InteractIcon": null,
            "SecondaryInteractIcon": null
          },
          "String": null,
          "BodyCompositionIndex": 20
        },
        "ParentAttachmentIdentifier": null,
        "AttachmentBaseInstanceDataIndex": 0,
        "SwitchIdentifier": 0
      },
      {
        "Data": {
          "Name": "Switch_CleanUp",
          "Type": "IDT_Switch",
          "Replication": "IDR_Server",
          "MaxSwitchValue": 1,
          "BitsRequiredForMaxSwitchValue": 1,
          "Bool": false,
          "DeleteByOwner": false,
          "Int": 0,
          "Float": 0.0,
          "Vector": { "X": 0.0, "Y": 0.0, "Z": 0.0 },
          "Object": null,
          "ComponentData": {
            "Component": null,
            "CollisionType": "COLLIDE_CustomDefault",
            "bAttachToMesh": false,
            "bIsUsable": false,
            "bIsSecondaryUsable": false,
            "MeshSocketName": "Hips",
            "HitRegionDefinition": null,
            "InteractIcon": null,
            "SecondaryInteractIcon": null
          },
          "String": null,
          "BodyCompositionIndex": 21
        },
        "ParentAttachmentIdentifier": null,
        "AttachmentBaseInstanceDataIndex": 19,
        "SwitchIdentifier": 0
      },
      {
        "Data": {
          "Name": null,
          "Type": "IDT_ActorComponent",
          "Replication": "IDR_Server",
          "MaxSwitchValue": 0,
          "BitsRequiredForMaxSwitchValue": 0,
          "Bool": false,
          "DeleteByOwner": false,
          "Int": 0,
          "Float": 0.0,
          "Vector": { "X": 0.0, "Y": 0.0, "Z": 0.0 },
          "Object": null,
          "ComponentData": {
            "Component":
              "GD_Prospector.Character.Pawn_Prospector:StaticMeshComponent_272",
            "CollisionType": "COLLIDE_NoCollision",
            "bAttachToMesh": false,
            "bIsUsable": false,
            "bIsSecondaryUsable": false,
            "MeshSocketName": "Hips",
            "HitRegionDefinition": null,
            "InteractIcon": null,
            "SecondaryInteractIcon": null
          },
          "String": null,
          "BodyCompositionIndex": 22
        },
        "ParentAttachmentIdentifier": null,
        "AttachmentBaseInstanceDataIndex": 20,
        "SwitchIdentifier": 0
      },
      {
        "Data": {
          "Name": "Switch_CleanUp",
          "Type": "IDT_Switch",
          "Replication": "IDR_Server",
          "MaxSwitchValue": 1,
          "BitsRequiredForMaxSwitchValue": 1,
          "Bool": false,
          "DeleteByOwner": false,
          "Int": 0,
          "Float": 0.0,
          "Vector": { "X": 0.0, "Y": 0.0, "Z": 0.0 },
          "Object": null,
          "ComponentData": {
            "Component": null,
            "CollisionType": "COLLIDE_CustomDefault",
            "bAttachToMesh": false,
            "bIsUsable": false,
            "bIsSecondaryUsable": false,
            "MeshSocketName": "Hips",
            "HitRegionDefinition": null,
            "InteractIcon": null,
            "SecondaryInteractIcon": null
          },
          "String": null,
          "BodyCompositionIndex": 23
        },
        "ParentAttachmentIdentifier": null,
        "AttachmentBaseInstanceDataIndex": 0,
        "SwitchIdentifier": 0
      },
      {
        "Data": {
          "Name": null,
          "Type": "IDT_ActorComponent",
          "Replication": "IDR_Server",
          "MaxSwitchValue": 0,
          "BitsRequiredForMaxSwitchValue": 0,
          "Bool": false,
          "DeleteByOwner": false,
          "Int": 0,
          "Float": 0.0,
          "Vector": { "X": 0.0, "Y": 0.0, "Z": 0.0 },
          "Object": null,
          "ComponentData": {
            "Component":
              "GD_Prospector.Character.Pawn_Prospector:StaticMeshComponent_273",
            "CollisionType": "COLLIDE_NoCollision",
            "bAttachToMesh": false,
            "bIsUsable": false,
            "bIsSecondaryUsable": false,
            "MeshSocketName": "Hips",
            "HitRegionDefinition": null,
            "InteractIcon": null,
            "SecondaryInteractIcon": null
          },
          "String": null,
          "BodyCompositionIndex": 24
        },
        "ParentAttachmentIdentifier": null,
        "AttachmentBaseInstanceDataIndex": 22,
        "SwitchIdentifier": 0
      },
      {
        "Data": {
          "Name": null,
          "Type": "IDT_Object",
          "Replication": "IDR_Server",
          "MaxSwitchValue": 0,
          "BitsRequiredForMaxSwitchValue": 0,
          "Bool": false,
          "DeleteByOwner": false,
          "Int": 0,
          "Float": 0.0,
          "Vector": { "X": 0.0, "Y": 0.0, "Z": 0.0 },
          "Object":
            "GD_Prospector.Character.Pawn_Prospector:SkelControlSingleBone_95",
          "ComponentData": {
            "Component": null,
            "CollisionType": "COLLIDE_CustomDefault",
            "bAttachToMesh": false,
            "bIsUsable": false,
            "bIsSecondaryUsable": false,
            "MeshSocketName": "Skirt_Plate",
            "HitRegionDefinition": null,
            "InteractIcon": null,
            "SecondaryInteractIcon": null
          },
          "String": null,
          "BodyCompositionIndex": 25
        },
        "ParentAttachmentIdentifier": null,
        "AttachmentBaseInstanceDataIndex": 0,
        "SwitchIdentifier": 0
      },
      {
        "Data": {
          "Name": "Switch_CleanUp",
          "Type": "IDT_Switch",
          "Replication": "IDR_Server",
          "MaxSwitchValue": 1,
          "BitsRequiredForMaxSwitchValue": 1,
          "Bool": false,
          "DeleteByOwner": false,
          "Int": 0,
          "Float": 0.0,
          "Vector": { "X": 0.0, "Y": 0.0, "Z": 0.0 },
          "Object": null,
          "ComponentData": {
            "Component": null,
            "CollisionType": "COLLIDE_CustomDefault",
            "bAttachToMesh": false,
            "bIsUsable": false,
            "bIsSecondaryUsable": false,
            "MeshSocketName": "R_Thigh",
            "HitRegionDefinition": null,
            "InteractIcon": null,
            "SecondaryInteractIcon": null
          },
          "String": null,
          "BodyCompositionIndex": 26
        },
        "ParentAttachmentIdentifier": null,
        "AttachmentBaseInstanceDataIndex": 0,
        "SwitchIdentifier": 0
      },
      {
        "Data": {
          "Name": null,
          "Type": "IDT_ActorComponent",
          "Replication": "IDR_Server",
          "MaxSwitchValue": 0,
          "BitsRequiredForMaxSwitchValue": 0,
          "Bool": false,
          "DeleteByOwner": false,
          "Int": 0,
          "Float": 0.0,
          "Vector": { "X": 0.0, "Y": 0.0, "Z": 0.0 },
          "Object": null,
          "ComponentData": {
            "Component":
              "GD_Prospector.Character.Pawn_Prospector:StaticMeshComponent_274",
            "CollisionType": "COLLIDE_NoCollision",
            "bAttachToMesh": false,
            "bIsUsable": false,
            "bIsSecondaryUsable": false,
            "MeshSocketName": "R_Thigh",
            "HitRegionDefinition": null,
            "InteractIcon": null,
            "SecondaryInteractIcon": null
          },
          "String": null,
          "BodyCompositionIndex": 27
        },
        "ParentAttachmentIdentifier": null,
        "AttachmentBaseInstanceDataIndex": 25,
        "SwitchIdentifier": 0
      },
      {
        "Data": {
          "Name": "Switch_Axe",
          "Type": "IDT_Switch",
          "Replication": "IDR_Server",
          "MaxSwitchValue": 1,
          "BitsRequiredForMaxSwitchValue": 1,
          "Bool": false,
          "DeleteByOwner": false,
          "Int": 0,
          "Float": 0.0,
          "Vector": { "X": 0.0, "Y": 0.0, "Z": 0.0 },
          "Object": null,
          "ComponentData": {
            "Component": null,
            "CollisionType": "COLLIDE_CustomDefault",
            "bAttachToMesh": false,
            "bIsUsable": false,
            "bIsSecondaryUsable": false,
            "MeshSocketName": "L_Hand",
            "HitRegionDefinition": null,
            "InteractIcon": null,
            "SecondaryInteractIcon": null
          },
          "String": null,
          "BodyCompositionIndex": 28
        },
        "ParentAttachmentIdentifier": null,
        "AttachmentBaseInstanceDataIndex": 0,
        "SwitchIdentifier": 0
      },
      {
        "Data": {
          "Name": null,
          "Type": "IDT_ActorComponent",
          "Replication": "IDR_Server",
          "MaxSwitchValue": 0,
          "BitsRequiredForMaxSwitchValue": 0,
          "Bool": false,
          "DeleteByOwner": false,
          "Int": 0,
          "Float": 0.0,
          "Vector": { "X": 0.0, "Y": 0.0, "Z": 0.0 },
          "Object": null,
          "ComponentData": {
            "Component":
              "GD_Prospector.Character.Pawn_Prospector:StaticMeshComponent_275",
            "CollisionType": "COLLIDE_NoCollision",
            "bAttachToMesh": false,
            "bIsUsable": false,
            "bIsSecondaryUsable": false,
            "MeshSocketName": "L_Hand",
            "HitRegionDefinition": null,
            "InteractIcon": null,
            "SecondaryInteractIcon": null
          },
          "String": null,
          "BodyCompositionIndex": 29
        },
        "ParentAttachmentIdentifier": null,
        "AttachmentBaseInstanceDataIndex": 27,
        "SwitchIdentifier": 1
      },
      {
        "Data": {
          "Name": "Switch_Grenade",
          "Type": "IDT_Switch",
          "Replication": "IDR_Server",
          "MaxSwitchValue": 1,
          "BitsRequiredForMaxSwitchValue": 1,
          "Bool": false,
          "DeleteByOwner": false,
          "Int": 0,
          "Float": 0.0,
          "Vector": { "X": 0.0, "Y": 0.0, "Z": 0.0 },
          "Object": null,
          "ComponentData": {
            "Component": null,
            "CollisionType": "COLLIDE_CustomDefault",
            "bAttachToMesh": false,
            "bIsUsable": false,
            "bIsSecondaryUsable": false,
            "MeshSocketName": "L_Hand",
            "HitRegionDefinition": null,
            "InteractIcon": null,
            "SecondaryInteractIcon": null
          },
          "String": null,
          "BodyCompositionIndex": 30
        },
        "ParentAttachmentIdentifier": null,
        "AttachmentBaseInstanceDataIndex": 0,
        "SwitchIdentifier": 0
      },
      {
        "Data": {
          "Name": null,
          "Type": "IDT_ActorComponent",
          "Replication": "IDR_Server",
          "MaxSwitchValue": 0,
          "BitsRequiredForMaxSwitchValue": 0,
          "Bool": false,
          "DeleteByOwner": false,
          "Int": 0,
          "Float": 0.0,
          "Vector": { "X": 0.0, "Y": 0.0, "Z": 0.0 },
          "Object": null,
          "ComponentData": {
            "Component":
              "GD_Prospector.Character.Pawn_Prospector:StaticMeshComponent_276",
            "CollisionType": "COLLIDE_NoCollision",
            "bAttachToMesh": false,
            "bIsUsable": false,
            "bIsSecondaryUsable": false,
            "MeshSocketName": "L_Hand",
            "HitRegionDefinition": null,
            "InteractIcon": null,
            "SecondaryInteractIcon": null
          },
          "String": null,
          "BodyCompositionIndex": 31
        },
        "ParentAttachmentIdentifier": null,
        "AttachmentBaseInstanceDataIndex": 29,
        "SwitchIdentifier": 1
      },
      {
        "Data": {
          "Name": "Switch_BloodDrip",
          "Type": "IDT_Switch",
          "Replication": "IDR_Server",
          "MaxSwitchValue": 1,
          "BitsRequiredForMaxSwitchValue": 1,
          "Bool": false,
          "DeleteByOwner": false,
          "Int": 0,
          "Float": 0.0,
          "Vector": { "X": 0.0, "Y": 0.0, "Z": 0.0 },
          "Object": null,
          "ComponentData": {
            "Component": null,
            "CollisionType": "COLLIDE_CustomDefault",
            "bAttachToMesh": false,
            "bIsUsable": false,
            "bIsSecondaryUsable": false,
            "MeshSocketName": "Spine1",
            "HitRegionDefinition": null,
            "InteractIcon": null,
            "SecondaryInteractIcon": null
          },
          "String": null,
          "BodyCompositionIndex": 32
        },
        "ParentAttachmentIdentifier": null,
        "AttachmentBaseInstanceDataIndex": 0,
        "SwitchIdentifier": 0
      },
      {
        "Data": {
          "Name": null,
          "Type": "IDT_ActorComponent",
          "Replication": "IDR_Server",
          "MaxSwitchValue": 0,
          "BitsRequiredForMaxSwitchValue": 0,
          "Bool": false,
          "DeleteByOwner": false,
          "Int": 0,
          "Float": 0.0,
          "Vector": { "X": 0.0, "Y": 0.0, "Z": 0.0 },
          "Object": null,
          "ComponentData": {
            "Component":
              "GD_Prospector.Character.Pawn_Prospector:ParticleSystemComponent_63",
            "CollisionType": "COLLIDE_CustomDefault",
            "bAttachToMesh": false,
            "bIsUsable": false,
            "bIsSecondaryUsable": false,
            "MeshSocketName": "Spine1",
            "HitRegionDefinition": null,
            "InteractIcon": null,
            "SecondaryInteractIcon": null
          },
          "String": null,
          "BodyCompositionIndex": 33
        },
        "ParentAttachmentIdentifier": null,
        "AttachmentBaseInstanceDataIndex": 31,
        "SwitchIdentifier": 1
      },
      {
        "Data": {
          "Name": null,
          "Type": "IDT_ActorComponent",
          "Replication": "IDR_Server",
          "MaxSwitchValue": 0,
          "BitsRequiredForMaxSwitchValue": 0,
          "Bool": false,
          "DeleteByOwner": false,
          "Int": 0,
          "Float": 0.0,
          "Vector": { "X": 0.0, "Y": 0.0, "Z": 0.0 },
          "Object": null,
          "ComponentData": {
            "Component":
              "GD_Prospector.Character.Pawn_Prospector:CylinderComponent_32",
            "CollisionType": "COLLIDE_CustomDefault",
            "bAttachToMesh": false,
            "bIsUsable": false,
            "bIsSecondaryUsable": false,
            "MeshSocketName": null,
            "HitRegionDefinition": null,
            "InteractIcon": null,
            "SecondaryInteractIcon": null
          },
          "String": null,
          "BodyCompositionIndex": 34
        },
        "ParentAttachmentIdentifier": "CylinderComponent",
        "AttachmentBaseInstanceDataIndex": -1,
        "SwitchIdentifier": 0
      },
      {
        "Data": {
          "Name": null,
          "Type": "IDT_ActorComponent",
          "Replication": "IDR_Server",
          "MaxSwitchValue": 0,
          "BitsRequiredForMaxSwitchValue": 0,
          "Bool": false,
          "DeleteByOwner": false,
          "Int": 0,
          "Float": 0.0,
          "Vector": { "X": 0.0, "Y": 0.0, "Z": 0.0 },
          "Object": null,
          "ComponentData": {
            "Component":
              "GD_Prospector.Character.Pawn_Prospector:BulletListenerComponent_28",
            "CollisionType": "COLLIDE_CustomDefault",
            "bAttachToMesh": false,
            "bIsUsable": false,
            "bIsSecondaryUsable": false,
            "MeshSocketName": null,
            "HitRegionDefinition": null,
            "InteractIcon": null,
            "SecondaryInteractIcon": null
          },
          "String": null,
          "BodyCompositionIndex": 35
        },
        "ParentAttachmentIdentifier": null,
        "AttachmentBaseInstanceDataIndex": -1,
        "SwitchIdentifier": 0
      }
    ],
    "MaxExpectedComponents": 0,
    "HasHomingTargetComponents": false
  },
  "CringeMinRepeatTime": 0.5,
  "CringeMaxRepeatTime": 1.0,
  "DodgeAngle": -5.0,
  "DodgeChance": 0.25,
  "DodgeTargetDistMin": 1024.0,
  "DodgeRepeatTimeMin": 5.0,
  "DodgeRepeatTimeMax": 10.0,
  "DodgeDelayTime": { "MinVal": 0.1, "MaxVal": 0.3 },
  "DodgeAnimLeft": null,
  "DodgeAnimRight": null,
  "DodgeGrenadeChance": 1.0,
  "MovementDodgeTime": { "MinVal": 0.0, "MaxVal": 0.0 },
  "PlayProvokedAnimChance": 1.0,
  "PlayUnprovokedAnimChance": 1.0,
  "DialogGroup": null,
  "DialogName": "GD_Dialog_Enemy_Bandits.VOBD_Nomad.DialogName_BT_Nomad",
  "InitialTauntWait": { "MinVal": 3.0, "MaxVal": 7.0 },
  "SubsequentTauntWait": { "MinVal": 3.0, "MaxVal": 12.0 },
  "TauntCustomEvent": null,
  "StartHeavyBreathingAkEvent": null,
  "StopHeavyBreathingAkEvent": null,
  "TimeBetweenHeavyBreathLoop": 5.0,
  "InjuredHealthPct": 0.25,
  "LostShieldAnim": null,
  "StartInjuredAkEvent": null,
  "StopInjuredAkEvent": null,
  "CloakEffect": null,
  "UnCloakEffect": null,
  "CloakEnter": null,
  "CloakExit": null,
  "CoverOffset": 64.0,
  "CoverMantleOffset": 32.0,
  "CoverIdleTime": { "MinVal": 3.0, "MaxVal": 7.0 },
  "CoverFireTime": { "MinVal": 3.0, "MaxVal": 7.0 },
  "CoverMantleLerpStartTime": 1.0,
  "CoverMantleLerpStopTime": 1.25,
  "MantleAnim": null,
  "CoverStance_HighLeft": null,
  "CoverStance_HighRight": null,
  "CoverStance_LowCenter": null,
  "RunStance": "GD_Prospector.Character.BodyClass_Prospector:RunStance0",
  "PatrolStance":
    "GD_Prospector.Character.BodyClass_Prospector:PatrolStance0",
  "SprintStance":
    "GD_Prospector.Character.BodyClass_Prospector:SprintStance0",
  "InjuredStance":
    "GD_Prospector.Character.BodyClass_Prospector:InjuredStance0",
  "CrouchStance":
    "GD_Prospector.Character.BodyClass_Prospector:CrouchStance0",
  "ParentDamageLimit": 0.0,
  "DamageParentScale": 1.0,
  "AudioDistanceRTPC": null,
  "DeltaRotationModifierBySpeed": 0.0,
  "SimulatedRotationLerpTime": 1.0,
  "CrawlerFloorAdjustRadius": 0.0,
  "CrawlerFloorAdjustTraceUp": 0.0,
  "CrawlerFloorAdjustTraceDown": 0.0,
  "CrawlerFloorAdjustOffset": 0.0,
  "CrawlerFloorAdjustRate": 0.2,
  "PhaseLockDef": null,
  "LostShieldDamageTriggers": [ "DAMAGE_TYPE_Shock" ],
  "BreathingLoops": [
    {
      "Condition":
        "GD_Prospector.Character.BodyClass_Prospector:AttributeExpressionEvaluator_138",
      "StartAkEvent":
        "Ake_VOBD.VOBD_Nomad.Ak_Play_VOBD_Nomad_HUM_React_Injured",
      "StopAkEvent": null
    }
  ],
  "DialogGroups": [
    "GD_Dialog_Enemy_Bandits.VOBD_Nomad.DialogGroup_BT_Nomad"
  ],
  "UnprovokedAnims": [
    "GD_Prospector.Character.BodyClass_Prospector:SpecialMove_Motion_0"
  ],
  "FootstepBones": [ "FX_LeftFoot", "FX_RightFoot" ],
  "HitRegionList": [
    "GD_NomadShared.HitRegions.HitRegion_Body",
    "GD_NomadShared.HitRegions.HitRegion_Head",
    "GD_NomadShared.HitRegions.HitRegion_LegLeft",
    "GD_NomadShared.HitRegions.HitRegion_LegRight",
    "GD_NomadShared.HitRegions.HitRegion_ArmLeft",
    "GD_NomadShared.HitRegions.HitRegion_ArmRight"
  ],
  "ScrapedStances": [
    "GD_NomadShared.Anims.Stance_SprintCharge",
    "GD_NomadShared.Character.BodyClass_NomadShared:RunStance0",
    "GD_NomadShared.Character.BodyClass_NomadShared:PatrolStance0",
    "GD_NomadShared.Character.BodyClass_NomadShared:SprintStance0",
    "GD_NomadShared.Character.BodyClass_NomadShared:InjuredStance0",
    "GD_NomadShared.Character.BodyClass_NomadShared:CrouchStance0"
  ],
  "VfTableObject": "",
  "HashNext": "",
  "ObjectFlags": "",
  "HashOuterNext": "",
  "StateFrame": "",
  "Linker": null,
  "LinkerIndex": "",
  "ObjectInternalInteger": 206478,
  "NetIndex": 181,
  "Outer": "GD_Prospector.Character",
  "Name": "BodyClass_Prospector",
  "Class": "WillowGame.BodyClassDefinition",
  "ObjectArchetype": "WillowGame.Default__BodyClassDefinition"
}