{
  "VfTable_IIHitRegionInfoProvider": "",
  "HeadLookAtName": "HeadLookAt",
  "bLeftHandIKDisabled": false,
  "bUseMeshForCollision": false,
  "IgnoreMomentumTransfer": false,
  "UseRootMotion": false,
  "UseRootRotation": false,
  "bAllowProjectilesToCollideWithSkeletalMesh": false,
  "bUpdateMeshTranslationWhenCylinderChanges": false,
  "bCanUpdateMeshTranslation": true,
  "bUseDamageLocationParent": true,
  "bShowDamageLocations": false,
  "bStaggerWhenLandingOnUnwalkableTerrain": false,
  "bUseTurns": true,
  "bUseTurnParent": true,
  "bPawnIsAlwaysRelevant": false,
  "bVehicleBlockingActor": false,
  "bUseKnockbackParent": true,
  "bUseCringe": true,
  "bUseCringeParent": true,
  "bUseDodges": true,
  "bDodgeUseParent": false,
  "bCanAvoidGrenades": false,
  "bProvocationUseParent": true,
  "bNPCDialog": false,
  "bCanBeInjured": true,
  "bInjuredUseParent": true,
  "bOnlyHardFlinchWhenInjured": false,
  "bCloaks": false,
  "bCloakUseParentData": false,
  "bCloakUseParentOptions": false,
  "bCloakingRequiresShields": true,
  "bCanShootWhileCloaked": false,
  "bCloakHideInfo": false,
  "bHideBodyOnCloak": false,
  "bHasCloakingCapability": false,
  "bUseCoverParent": true,
  "bUseParentStances": false,
  "bDamageParent": false,
  "bDisplayParentInfo": false,
  "bOnlyDisplayParentInfoWhileAttached": false,
  "bKillWhenParentDies": false,
  "HideInfoOnHUD": false,
  "bFullyArmored": false,
  "bHideEmptyShieldBar": false,
  "bIsPossibleHomingTarget": true,
  "bUseRotationModifierBySpeed": false,
  "bUseSimulatedRotation": false,
  "bCrawlerFloorAdjust": false,
  "bUseParentPhaselockDef": true,
  "BodyTag": "GD_AI_PopulationPoints.BodyTag_Skag",
  "PhysicsJumpSMD": "GD_SkagShared.Anims.PhysicsJump_Skag",
  "Mass": 100.0,
  "CrouchHeight": 50.0,
  "DefaultHitRegion": "GD_SkagShared.HitRegions.HitRegion_Body",
  "DamageLocationTime": 1.0,
  "DamageLocationFadeTime": 0.25,
  "DamageLocationSize": 128.0,
  "DeathDef": "GD_SkagShared.Death.DeathDef_Skag",
  "InjuredDeathAnim": null,
  "RagDollGravity": 2.0,
  "MinimumRecognizedImpact": 10.0,
  "DirectImpactEffectThreshold": 100.0,
  "SlidingImpactEffectThreshold": 500.0,
  "ImpactEffectProbability": 0.1,
  "RagdollImpact": null,
  "RD_EffectsThreshold": 0.0,
  "RD_SlideThreshold": 0.0,
  "RD_ImpactThreshold": 0.0,
  "RD_SlideMinRepeatTime": 0.0,
  "RD_ImpactMinRepeatTime": 0.0,
  "RD_SlideExplosion": null,
  "RD_SlideExplosionDamageRadius": 64.0,
  "RD_ImpactExplosion": null,
  "RD_ImpactExplosionDamageRadius": 64.0,
  "RD_ImpactAkEventThreshold": 0.0,
  "RD_ImpactAkEventMinRepeatTime": 0.0,
  "RD_ImpactAkEvent": null,
  "FootstepImpact": "GD_Impacts.Footsteps.Footstep_Skag",
  "HeavyFootStepImpact": null,
  "JumpedImpact": null,
  "LandedImpact": null,
  "UnwalkableTerrainStaggerVelocityZ": -0.8,
  "LandedMinVel": 300.0,
  "SkidImpact": null,
  "SkidCameraLurchMagnitude": 6.0,
  "SkidCameraLurchSpeed": 8.0,
  "BehaviorAliasLookup": null,
  "ArmsMaterialIndex": 0,
  "ShieldEnabledParameterName": "ShieldEnabled",
  "ShieldColorParameterName": "ShieldColor",
  "TouchImpactDefinition": null,
  "UntouchImpactDefinition": null,
  "NumFootstepsToStop": 7,
  "StoppedAkEvent": null,
  "HitByVehicleImpactDefinition": null,
  "RunOverByVehicleImpactDefinition": null,
  "PlayerReRezCoordinatedEffect": null,
  "PlayerReRezAnim": null,
  "PlayerEventDef": null,
  "DefaultTurns": null,
  "DefaultCrouchTurns": null,
  "AnimationParentBody": "GD_SkagShared.Character.BodyClass_SkagShared",
  "FirstPersonHands": null,
  "PrimaryStandInOffset": { "X": 0.0, "Y": 0.0, "Z": 0.0 },
  "WeaponActionParentClass": null,
  "AimOffsetNodeName": null,
  "DefaultWeaponHoldDef": null,
  "CanShootWeaponIf": null,
  "DefaultFirstPersonWeaponHoldDef": null,
  "ThrowGrenadeAkEvent": null,
  "MeleeAkEvent": null,
  "ExpectedInstanceDataSize": 0,
  "CloakStyle": "CLOAKSTYLE_None",
  "DefaultStance": "STANCE_Run",
  "DefaultParticleSystemTemplate": null,
  "MeleeWeaponMesh": null,
  "MeleeSocketName": null,
  "MeleeCameraAnim": null,
  "PrimaryColorParameterName": "PrimaryColor",
  "SecondaryColorParameterName": "SecondaryColor",
  "TertiaryColorParameterName": "ThirdColor",
  "PhysVehicleExtentScalars": { "X": 1.0, "Y": 1.0, "Z": 1.0 },
  "StaggerSettings": "GD_SkagShared.Stagger.StaggerDef_Skag",
  "MinKnockbackMomentum": 100000.0,
  "KnockbackSMD": null,
  "KnockbackLandSMD": null,
  "BodyComposition": {
    "Attachments": [
      {
        "Data": {
          "Name": null,
          "Type": "IDT_ActorComponent",
          "Replication": "IDR_Server",
          "MaxSwitchValue": 0,
          "BitsRequiredForMaxSwitchValue": 0,
          "Bool": false,
          "DeleteByOwner": false,
          "Int": 0,
          "Float": 0.0,
          "Vector": { "X": 0.0, "Y": 0.0, "Z": 0.0 },
          "Object": null,
          "ComponentData": {
            "Component":
              "GD_Sage_SkagPup.Character.Pawn_Sage_SkagPup:SkeletalMeshComponent_752",
            "CollisionType": "COLLIDE_CustomDefault",
            "bAttachToMesh": false,
            "bIsUsable": false,
            "bIsSecondaryUsable": false,
            "MeshSocketName": null,
            "HitRegionDefinition": null,
            "InteractIcon": null,
            "SecondaryInteractIcon": null
          },
          "String": null,
          "BodyCompositionIndex": 1
        },
        "ParentAttachmentIdentifier": "Mesh",
        "AttachmentBaseInstanceDataIndex": -1,
        "SwitchIdentifier": 0
      },
      {
        "Data": {
          "Name": null,
          "Type": "IDT_Object",
          "Replication": "IDR_Server",
          "MaxSwitchValue": 0,
          "BitsRequiredForMaxSwitchValue": 0,
          "Bool": false,
          "DeleteByOwner": false,
          "Int": 0,
          "Float": 0.0,
          "Vector": { "X": 0.0, "Y": 0.0, "Z": 0.0 },
          "Object":
            "GD_Sage_SkagPup.Character.Pawn_Sage_SkagPup:SkelControlSingleBone_1318",
          "ComponentData": {
            "Component": null,
            "CollisionType": "COLLIDE_CustomDefault",
            "bAttachToMesh": false,
            "bIsUsable": false,
            "bIsSecondaryUsable": false,
            "MeshSocketName": "Neck",
            "HitRegionDefinition": null,
            "InteractIcon": null,
            "SecondaryInteractIcon": null
          },
          "String": null,
          "BodyCompositionIndex": 2
        },
        "ParentAttachmentIdentifier": null,
        "AttachmentBaseInstanceDataIndex": 0,
        "SwitchIdentifier": 0
      },
      {
        "Data": {
          "Name": null,
          "Type": "IDT_Object",
          "Replication": "IDR_Server",
          "MaxSwitchValue": 0,
          "BitsRequiredForMaxSwitchValue": 0,
          "Bool": false,
          "DeleteByOwner": false,
          "Int": 0,
          "Float": 0.0,
          "Vector": { "X": 0.0, "Y": 0.0, "Z": 0.0 },
          "Object":
            "GD_Sage_SkagPup.Character.Pawn_Sage_SkagPup:SkelControlSingleBone_1319",
          "ComponentData": {
            "Component": null,
            "CollisionType": "COLLIDE_CustomDefault",
            "bAttachToMesh": false,
            "bIsUsable": false,
            "bIsSecondaryUsable": false,
            "MeshSocketName": "SpikeScaler",
            "HitRegionDefinition": null,
            "InteractIcon": null,
            "SecondaryInteractIcon": null
          },
          "String": null,
          "BodyCompositionIndex": 3
        },
        "ParentAttachmentIdentifier": null,
        "AttachmentBaseInstanceDataIndex": 0,
        "SwitchIdentifier": 0
      },
      {
        "Data": {
          "Name": null,
          "Type": "IDT_Object",
          "Replication": "IDR_Server",
          "MaxSwitchValue": 0,
          "BitsRequiredForMaxSwitchValue": 0,
          "Bool": false,
          "DeleteByOwner": false,
          "Int": 0,
          "Float": 0.0,
          "Vector": { "X": 0.0, "Y": 0.0, "Z": 0.0 },
          "Object":
            "GD_Sage_SkagPup.Character.Pawn_Sage_SkagPup:SkelControlSingleBone_1320",
          "ComponentData": {
            "Component": null,
            "CollisionType": "COLLIDE_CustomDefault",
            "bAttachToMesh": false,
            "bIsUsable": false,
            "bIsSecondaryUsable": false,
            "MeshSocketName": "RClaw",
            "HitRegionDefinition": null,
            "InteractIcon": null,
            "SecondaryInteractIcon": null
          },
          "String": null,
          "BodyCompositionIndex": 4
        },
        "ParentAttachmentIdentifier": null,
        "AttachmentBaseInstanceDataIndex": 0,
        "SwitchIdentifier": 0
      },
      {
        "Data": {
          "Name": null,
          "Type": "IDT_Object",
          "Replication": "IDR_Server",
          "MaxSwitchValue": 0,
          "BitsRequiredForMaxSwitchValue": 0,
          "Bool": false,
          "DeleteByOwner": false,
          "Int": 0,
          "Float": 0.0,
          "Vector": { "X": 0.0, "Y": 0.0, "Z": 0.0 },
          "Object":
            "GD_Sage_SkagPup.Character.Pawn_Sage_SkagPup:SkelControlSingleBone_1321",
          "ComponentData": {
            "Component": null,
            "CollisionType": "COLLIDE_CustomDefault",
            "bAttachToMesh": false,
            "bIsUsable": false,
            "bIsSecondaryUsable": false,
            "MeshSocketName": "LClaw",
            "HitRegionDefinition": null,
            "InteractIcon": null,
            "SecondaryInteractIcon": null
          },
          "String": null,
          "BodyCompositionIndex": 5
        },
        "ParentAttachmentIdentifier": null,
        "AttachmentBaseInstanceDataIndex": 0,
        "SwitchIdentifier": 0
      },
      {
        "Data": {
          "Name": null,
          "Type": "IDT_Object",
          "Replication": "IDR_Server",
          "MaxSwitchValue": 0,
          "BitsRequiredForMaxSwitchValue": 0,
          "Bool": false,
          "DeleteByOwner": false,
          "Int": 0,
          "Float": 0.0,
          "Vector": { "X": 0.0, "Y": 0.0, "Z": 0.0 },
          "Object":
            "GD_Sage_SkagPup.Character.Pawn_Sage_SkagPup:SkelControlSingleBone_1322",
          "ComponentData": {
            "Component": null,
            "CollisionType": "COLLIDE_CustomDefault",
            "bAttachToMesh": false,
            "bIsUsable": false,
            "bIsSecondaryUsable": false,
            "MeshSocketName": "LHandClaws",
            "HitRegionDefinition": null,
            "InteractIcon": null,
            "SecondaryInteractIcon": null
          },
          "String": null,
          "BodyCompositionIndex": 6
        },
        "ParentAttachmentIdentifier": null,
        "AttachmentBaseInstanceDataIndex": 0,
        "SwitchIdentifier": 0
      },
      {
        "Data": {
          "Name": null,
          "Type": "IDT_Object",
          "Replication": "IDR_Server",
          "MaxSwitchValue": 0,
          "BitsRequiredForMaxSwitchValue": 0,
          "Bool": false,
          "DeleteByOwner": false,
          "Int": 0,
          "Float": 0.0,
          "Vector": { "X": 0.0, "Y": 0.0, "Z": 0.0 },
          "Object":
            "GD_Sage_SkagPup.Character.Pawn_Sage_SkagPup:SkelControlSingleBone_1323",
          "ComponentData": {
            "Component": null,
            "CollisionType": "COLLIDE_CustomDefault",
            "bAttachToMesh": false,
            "bIsUsable": false,
            "bIsSecondaryUsable": false,
            "MeshSocketName": "RHandClaws",
            "HitRegionDefinition": null,
            "InteractIcon": null,
            "SecondaryInteractIcon": null
          },
          "String": null,
          "BodyCompositionIndex": 7
        },
        "ParentAttachmentIdentifier": null,
        "AttachmentBaseInstanceDataIndex": 0,
        "SwitchIdentifier": 0
      },
      {
        "Data": {
          "Name": "Switch_FXFeet",
          "Type": "IDT_Switch",
          "Replication": "IDR_Server",
          "MaxSwitchValue": 4,
          "BitsRequiredForMaxSwitchValue": 3,
          "Bool": false,
          "DeleteByOwner": false,
          "Int": 0,
          "Float": 0.0,
          "Vector": { "X": 0.0, "Y": 0.0, "Z": 0.0 },
          "Object": null,
          "ComponentData": {
            "Component": null,
            "CollisionType": "COLLIDE_CustomDefault",
            "bAttachToMesh": false,
            "bIsUsable": false,
            "bIsSecondaryUsable": false,
            "MeshSocketName": "FX_L_Foot",
            "HitRegionDefinition": null,
            "InteractIcon": null,
            "SecondaryInteractIcon": null
          },
          "String": null,
          "BodyCompositionIndex": 8
        },
        "ParentAttachmentIdentifier": null,
        "AttachmentBaseInstanceDataIndex": 0,
        "SwitchIdentifier": 0
      },
      {
        "Data": {
          "Name": null,
          "Type": "IDT_ActorComponent",
          "Replication": "IDR_Server",
          "MaxSwitchValue": 0,
          "BitsRequiredForMaxSwitchValue": 0,
          "Bool": false,
          "DeleteByOwner": false,
          "Int": 0,
          "Float": 0.0,
          "Vector": { "X": 0.0, "Y": 0.0, "Z": 0.0 },
          "Object": null,
          "ComponentData": {
            "Component":
              "GD_Sage_SkagPup.Character.Pawn_Sage_SkagPup:ParticleSystemComponent_1836",
            "CollisionType": "COLLIDE_CustomDefault",
            "bAttachToMesh": false,
            "bIsUsable": false,
            "bIsSecondaryUsable": false,
            "MeshSocketName": "FX_L_Foot",
            "HitRegionDefinition": null,
            "InteractIcon": null,
            "SecondaryInteractIcon": null
          },
          "String": null,
          "BodyCompositionIndex": 9
        },
        "ParentAttachmentIdentifier": null,
        "AttachmentBaseInstanceDataIndex": 7,
        "SwitchIdentifier": 1
      },
      {
        "Data": {
          "Name": null,
          "Type": "IDT_ActorComponent",
          "Replication": "IDR_Server",
          "MaxSwitchValue": 0,
          "BitsRequiredForMaxSwitchValue": 0,
          "Bool": false,
          "DeleteByOwner": false,
          "Int": 0,
          "Float": 0.0,
          "Vector": { "X": 0.0, "Y": 0.0, "Z": 0.0 },
          "Object": null,
          "ComponentData": {
            "Component":
              "GD_Sage_SkagPup.Character.Pawn_Sage_SkagPup:ParticleSystemComponent_1837",
            "CollisionType": "COLLIDE_CustomDefault",
            "bAttachToMesh": false,
            "bIsUsable": false,
            "bIsSecondaryUsable": false,
            "MeshSocketName": "FX_L_Foot",
            "HitRegionDefinition": null,
            "InteractIcon": null,
            "SecondaryInteractIcon": null
          },
          "String": null,
          "BodyCompositionIndex": 10
        },
        "ParentAttachmentIdentifier": null,
        "AttachmentBaseInstanceDataIndex": 7,
        "SwitchIdentifier": 2
      },
      {
        "Data": {
          "Name": null,
          "Type": "IDT_ActorComponent",
          "Replication": "IDR_Server",
          "MaxSwitchValue": 0,
          "BitsRequiredForMaxSwitchValue": 0,
          "Bool": false,
          "DeleteByOwner": false,
          "Int": 0,
          "Float": 0.0,
          "Vector": { "X": 0.0, "Y": 0.0, "Z": 0.0 },
          "Object": null,
          "ComponentData": {
            "Component":
              "GD_Sage_SkagPup.Character.Pawn_Sage_SkagPup:ParticleSystemComponent_1838",
            "CollisionType": "COLLIDE_CustomDefault",
            "bAttachToMesh": false,
            "bIsUsable": false,
            "bIsSecondaryUsable": false,
            "MeshSocketName": "FX_L_Foot",
            "HitRegionDefinition": null,
            "InteractIcon": null,
            "SecondaryInteractIcon": null
          },
          "String": null,
          "BodyCompositionIndex": 11
        },
        "ParentAttachmentIdentifier": null,
        "AttachmentBaseInstanceDataIndex": 7,
        "SwitchIdentifier": 3
      },
      {
        "Data": {
          "Name": null,
          "Type": "IDT_ActorComponent",
          "Replication": "IDR_Server",
          "MaxSwitchValue": 0,
          "BitsRequiredForMaxSwitchValue": 0,
          "Bool": false,
          "DeleteByOwner": false,
          "Int": 0,
          "Float": 0.0,
          "Vector": { "X": 0.0, "Y": 0.0, "Z": 0.0 },
          "Object": null,
          "ComponentData": {
            "Component":
              "GD_Sage_SkagPup.Character.Pawn_Sage_SkagPup:ParticleSystemComponent_1839",
            "CollisionType": "COLLIDE_CustomDefault",
            "bAttachToMesh": false,
            "bIsUsable": false,
            "bIsSecondaryUsable": false,
            "MeshSocketName": "FX_L_Foot",
            "HitRegionDefinition": null,
            "InteractIcon": null,
            "SecondaryInteractIcon": null
          },
          "String": null,
          "BodyCompositionIndex": 12
        },
        "ParentAttachmentIdentifier": null,
        "AttachmentBaseInstanceDataIndex": 7,
        "SwitchIdentifier": 4
      },
      {
        "Data": {
          "Name": "Switch_FXFeet",
          "Type": "IDT_Switch",
          "Replication": "IDR_Server",
          "MaxSwitchValue": 4,
          "BitsRequiredForMaxSwitchValue": 3,
          "Bool": false,
          "DeleteByOwner": false,
          "Int": 0,
          "Float": 0.0,
          "Vector": { "X": 0.0, "Y": 0.0, "Z": 0.0 },
          "Object": null,
          "ComponentData": {
            "Component": null,
            "CollisionType": "COLLIDE_CustomDefault",
            "bAttachToMesh": false,
            "bIsUsable": false,
            "bIsSecondaryUsable": false,
            "MeshSocketName": "FX_L_Hand",
            "HitRegionDefinition": null,
            "InteractIcon": null,
            "SecondaryInteractIcon": null
          },
          "String": null,
          "BodyCompositionIndex": 13
        },
        "ParentAttachmentIdentifier": null,
        "AttachmentBaseInstanceDataIndex": 0,
        "SwitchIdentifier": 0
      },
      {
        "Data": {
          "Name": null,
          "Type": "IDT_ActorComponent",
          "Replication": "IDR_Server",
          "MaxSwitchValue": 0,
          "BitsRequiredForMaxSwitchValue": 0,
          "Bool": false,
          "DeleteByOwner": false,
          "Int": 0,
          "Float": 0.0,
          "Vector": { "X": 0.0, "Y": 0.0, "Z": 0.0 },
          "Object": null,
          "ComponentData": {
            "Component":
              "GD_Sage_SkagPup.Character.Pawn_Sage_SkagPup:ParticleSystemComponent_1840",
            "CollisionType": "COLLIDE_CustomDefault",
            "bAttachToMesh": false,
            "bIsUsable": false,
            "bIsSecondaryUsable": false,
            "MeshSocketName": "FX_L_Hand",
            "HitRegionDefinition": null,
            "InteractIcon": null,
            "SecondaryInteractIcon": null
          },
          "String": null,
          "BodyCompositionIndex": 14
        },
        "ParentAttachmentIdentifier": null,
        "AttachmentBaseInstanceDataIndex": 12,
        "SwitchIdentifier": 1
      },
      {
        "Data": {
          "Name": null,
          "Type": "IDT_ActorComponent",
          "Replication": "IDR_Server",
          "MaxSwitchValue": 0,
          "BitsRequiredForMaxSwitchValue": 0,
          "Bool": false,
          "DeleteByOwner": false,
          "Int": 0,
          "Float": 0.0,
          "Vector": { "X": 0.0, "Y": 0.0, "Z": 0.0 },
          "Object": null,
          "ComponentData": {
            "Component":
              "GD_Sage_SkagPup.Character.Pawn_Sage_SkagPup:ParticleSystemComponent_1841",
            "CollisionType": "COLLIDE_CustomDefault",
            "bAttachToMesh": false,
            "bIsUsable": false,
            "bIsSecondaryUsable": false,
            "MeshSocketName": "FX_L_Hand",
            "HitRegionDefinition": null,
            "InteractIcon": null,
            "SecondaryInteractIcon": null
          },
          "String": null,
          "BodyCompositionIndex": 15
        },
        "ParentAttachmentIdentifier": null,
        "AttachmentBaseInstanceDataIndex": 12,
        "SwitchIdentifier": 2
      },
      {
        "Data": {
          "Name": null,
          "Type": "IDT_ActorComponent",
          "Replication": "IDR_Server",
          "MaxSwitchValue": 0,
          "BitsRequiredForMaxSwitchValue": 0,
          "Bool": false,
          "DeleteByOwner": false,
          "Int": 0,
          "Float": 0.0,
          "Vector": { "X": 0.0, "Y": 0.0, "Z": 0.0 },
          "Object": null,
          "ComponentData": {
            "Component":
              "GD_Sage_SkagPup.Character.Pawn_Sage_SkagPup:ParticleSystemComponent_1842",
            "CollisionType": "COLLIDE_CustomDefault",
            "bAttachToMesh": false,
            "bIsUsable": false,
            "bIsSecondaryUsable": false,
            "MeshSocketName": "FX_L_Hand",
            "HitRegionDefinition": null,
            "InteractIcon": null,
            "SecondaryInteractIcon": null
          },
          "String": null,
          "BodyCompositionIndex": 16
        },
        "ParentAttachmentIdentifier": null,
        "AttachmentBaseInstanceDataIndex": 12,
        "SwitchIdentifier": 3
      },
      {
        "Data": {
          "Name": null,
          "Type": "IDT_ActorComponent",
          "Replication": "IDR_Server",
          "MaxSwitchValue": 0,
          "BitsRequiredForMaxSwitchValue": 0,
          "Bool": false,
          "DeleteByOwner": false,
          "Int": 0,
          "Float": 0.0,
          "Vector": { "X": 0.0, "Y": 0.0, "Z": 0.0 },
          "Object": null,
          "ComponentData": {
            "Component":
              "GD_Sage_SkagPup.Character.Pawn_Sage_SkagPup:ParticleSystemComponent_1843",
            "CollisionType": "COLLIDE_CustomDefault",
            "bAttachToMesh": false,
            "bIsUsable": false,
            "bIsSecondaryUsable": false,
            "MeshSocketName": "FX_L_Hand",
            "HitRegionDefinition": null,
            "InteractIcon": null,
            "SecondaryInteractIcon": null
          },
          "String": null,
          "BodyCompositionIndex": 17
        },
        "ParentAttachmentIdentifier": null,
        "AttachmentBaseInstanceDataIndex": 12,
        "SwitchIdentifier": 4
      },
      {
        "Data": {
          "Name": "Switch_FXFeet",
          "Type": "IDT_Switch",
          "Replication": "IDR_Server",
          "MaxSwitchValue": 4,
          "BitsRequiredForMaxSwitchValue": 3,
          "Bool": false,
          "DeleteByOwner": false,
          "Int": 0,
          "Float": 0.0,
          "Vector": { "X": 0.0, "Y": 0.0, "Z": 0.0 },
          "Object": null,
          "ComponentData": {
            "Component": null,
            "CollisionType": "COLLIDE_CustomDefault",
            "bAttachToMesh": false,
            "bIsUsable": false,
            "bIsSecondaryUsable": false,
            "MeshSocketName": "FX_R_Foot",
            "HitRegionDefinition": null,
            "InteractIcon": null,
            "SecondaryInteractIcon": null
          },
          "String": null,
          "BodyCompositionIndex": 18
        },
        "ParentAttachmentIdentifier": null,
        "AttachmentBaseInstanceDataIndex": 0,
        "SwitchIdentifier": 0
      },
      {
        "Data": {
          "Name": null,
          "Type": "IDT_ActorComponent",
          "Replication": "IDR_Server",
          "MaxSwitchValue": 0,
          "BitsRequiredForMaxSwitchValue": 0,
          "Bool": false,
          "DeleteByOwner": false,
          "Int": 0,
          "Float": 0.0,
          "Vector": { "X": 0.0, "Y": 0.0, "Z": 0.0 },
          "Object": null,
          "ComponentData": {
            "Component":
              "GD_Sage_SkagPup.Character.Pawn_Sage_SkagPup:ParticleSystemComponent_1844",
            "CollisionType": "COLLIDE_CustomDefault",
            "bAttachToMesh": false,
            "bIsUsable": false,
            "bIsSecondaryUsable": false,
            "MeshSocketName": "FX_R_Foot",
            "HitRegionDefinition": null,
            "InteractIcon": null,
            "SecondaryInteractIcon": null
          },
          "String": null,
          "BodyCompositionIndex": 19
        },
        "ParentAttachmentIdentifier": null,
        "AttachmentBaseInstanceDataIndex": 17,
        "SwitchIdentifier": 1
      },
      {
        "Data": {
          "Name": null,
          "Type": "IDT_ActorComponent",
          "Replication": "IDR_Server",
          "MaxSwitchValue": 0,
          "BitsRequiredForMaxSwitchValue": 0,
          "Bool": false,
          "DeleteByOwner": false,
          "Int": 0,
          "Float": 0.0,
          "Vector": { "X": 0.0, "Y": 0.0, "Z": 0.0 },
          "Object": null,
          "ComponentData": {
            "Component":
              "GD_Sage_SkagPup.Character.Pawn_Sage_SkagPup:ParticleSystemComponent_1845",
            "CollisionType": "COLLIDE_CustomDefault",
            "bAttachToMesh": false,
            "bIsUsable": false,
            "bIsSecondaryUsable": false,
            "MeshSocketName": "FX_R_Foot",
            "HitRegionDefinition": null,
            "InteractIcon": null,
            "SecondaryInteractIcon": null
          },
          "String": null,
          "BodyCompositionIndex": 20
        },
        "ParentAttachmentIdentifier": null,
        "AttachmentBaseInstanceDataIndex": 17,
        "SwitchIdentifier": 2
      },
      {
        "Data": {
          "Name": null,
          "Type": "IDT_ActorComponent",
          "Replication": "IDR_Server",
          "MaxSwitchValue": 0,
          "BitsRequiredForMaxSwitchValue": 0,
          "Bool": false,
          "DeleteByOwner": false,
          "Int": 0,
          "Float": 0.0,
          "Vector": { "X": 0.0, "Y": 0.0, "Z": 0.0 },
          "Object": null,
          "ComponentData": {
            "Component":
              "GD_Sage_SkagPup.Character.Pawn_Sage_SkagPup:ParticleSystemComponent_1846",
            "CollisionType": "COLLIDE_CustomDefault",
            "bAttachToMesh": false,
            "bIsUsable": false,
            "bIsSecondaryUsable": false,
            "MeshSocketName": "FX_R_Foot",
            "HitRegionDefinition": null,
            "InteractIcon": null,
            "SecondaryInteractIcon": null
          },
          "String": null,
          "BodyCompositionIndex": 21
        },
        "ParentAttachmentIdentifier": null,
        "AttachmentBaseInstanceDataIndex": 17,
        "SwitchIdentifier": 3
      },
      {
        "Data": {
          "Name": null,
          "Type": "IDT_ActorComponent",
          "Replication": "IDR_Server",
          "MaxSwitchValue": 0,
          "BitsRequiredForMaxSwitchValue": 0,
          "Bool": false,
          "DeleteByOwner": false,
          "Int": 0,
          "Float": 0.0,
          "Vector": { "X": 0.0, "Y": 0.0, "Z": 0.0 },
          "Object": null,
          "ComponentData": {
            "Component":
              "GD_Sage_SkagPup.Character.Pawn_Sage_SkagPup:ParticleSystemComponent_1847",
            "CollisionType": "COLLIDE_CustomDefault",
            "bAttachToMesh": false,
            "bIsUsable": false,
            "bIsSecondaryUsable": false,
            "MeshSocketName": "FX_R_Foot",
            "HitRegionDefinition": null,
            "InteractIcon": null,
            "SecondaryInteractIcon": null
          },
          "String": null,
          "BodyCompositionIndex": 22
        },
        "ParentAttachmentIdentifier": null,
        "AttachmentBaseInstanceDataIndex": 17,
        "SwitchIdentifier": 4
      },
      {
        "Data": {
          "Name": "Switch_FXFeet",
          "Type": "IDT_Switch",
          "Replication": "IDR_Server",
          "MaxSwitchValue": 4,
          "BitsRequiredForMaxSwitchValue": 3,
          "Bool": false,
          "DeleteByOwner": false,
          "Int": 0,
          "Float": 0.0,
          "Vector": { "X": 0.0, "Y": 0.0, "Z": 0.0 },
          "Object": null,
          "ComponentData": {
            "Component": null,
            "CollisionType": "COLLIDE_CustomDefault",
            "bAttachToMesh": false,
            "bIsUsable": false,
            "bIsSecondaryUsable": false,
            "MeshSocketName": "FX_R_Hand",
            "HitRegionDefinition": null,
            "InteractIcon": null,
            "SecondaryInteractIcon": null
          },
          "String": null,
          "BodyCompositionIndex": 23
        },
        "ParentAttachmentIdentifier": null,
        "AttachmentBaseInstanceDataIndex": 0,
        "SwitchIdentifier": 0
      },
      {
        "Data": {
          "Name": null,
          "Type": "IDT_ActorComponent",
          "Replication": "IDR_Server",
          "MaxSwitchValue": 0,
          "BitsRequiredForMaxSwitchValue": 0,
          "Bool": false,
          "DeleteByOwner": false,
          "Int": 0,
          "Float": 0.0,
          "Vector": { "X": 0.0, "Y": 0.0, "Z": 0.0 },
          "Object": null,
          "ComponentData": {
            "Component":
              "GD_Sage_SkagPup.Character.Pawn_Sage_SkagPup:ParticleSystemComponent_1848",
            "CollisionType": "COLLIDE_CustomDefault",
            "bAttachToMesh": false,
            "bIsUsable": false,
            "bIsSecondaryUsable": false,
            "MeshSocketName": "FX_R_Hand",
            "HitRegionDefinition": null,
            "InteractIcon": null,
            "SecondaryInteractIcon": null
          },
          "String": null,
          "BodyCompositionIndex": 24
        },
        "ParentAttachmentIdentifier": null,
        "AttachmentBaseInstanceDataIndex": 22,
        "SwitchIdentifier": 1
      },
      {
        "Data": {
          "Name": null,
          "Type": "IDT_ActorComponent",
          "Replication": "IDR_Server",
          "MaxSwitchValue": 0,
          "BitsRequiredForMaxSwitchValue": 0,
          "Bool": false,
          "DeleteByOwner": false,
          "Int": 0,
          "Float": 0.0,
          "Vector": { "X": 0.0, "Y": 0.0, "Z": 0.0 },
          "Object": null,
          "ComponentData": {
            "Component":
              "GD_Sage_SkagPup.Character.Pawn_Sage_SkagPup:ParticleSystemComponent_1849",
            "CollisionType": "COLLIDE_CustomDefault",
            "bAttachToMesh": false,
            "bIsUsable": false,
            "bIsSecondaryUsable": false,
            "MeshSocketName": "FX_R_Hand",
            "HitRegionDefinition": null,
            "InteractIcon": null,
            "SecondaryInteractIcon": null
          },
          "String": null,
          "BodyCompositionIndex": 25
        },
        "ParentAttachmentIdentifier": null,
        "AttachmentBaseInstanceDataIndex": 22,
        "SwitchIdentifier": 2
      },
      {
        "Data": {
          "Name": null,
          "Type": "IDT_ActorComponent",
          "Replication": "IDR_Server",
          "MaxSwitchValue": 0,
          "BitsRequiredForMaxSwitchValue": 0,
          "Bool": false,
          "DeleteByOwner": false,
          "Int": 0,
          "Float": 0.0,
          "Vector": { "X": 0.0, "Y": 0.0, "Z": 0.0 },
          "Object": null,
          "ComponentData": {
            "Component":
              "GD_Sage_SkagPup.Character.Pawn_Sage_SkagPup:ParticleSystemComponent_1850",
            "CollisionType": "COLLIDE_CustomDefault",
            "bAttachToMesh": false,
            "bIsUsable": false,
            "bIsSecondaryUsable": false,
            "MeshSocketName": "FX_R_Hand",
            "HitRegionDefinition": null,
            "InteractIcon": null,
            "SecondaryInteractIcon": null
          },
          "String": null,
          "BodyCompositionIndex": 26
        },
        "ParentAttachmentIdentifier": null,
        "AttachmentBaseInstanceDataIndex": 22,
        "SwitchIdentifier": 3
      },
      {
        "Data": {
          "Name": null,
          "Type": "IDT_ActorComponent",
          "Replication": "IDR_Server",
          "MaxSwitchValue": 0,
          "BitsRequiredForMaxSwitchValue": 0,
          "Bool": false,
          "DeleteByOwner": false,
          "Int": 0,
          "Float": 0.0,
          "Vector": { "X": 0.0, "Y": 0.0, "Z": 0.0 },
          "Object": null,
          "ComponentData": {
            "Component":
              "GD_Sage_SkagPup.Character.Pawn_Sage_SkagPup:ParticleSystemComponent_1851",
            "CollisionType": "COLLIDE_CustomDefault",
            "bAttachToMesh": false,
            "bIsUsable": false,
            "bIsSecondaryUsable": false,
            "MeshSocketName": "FX_R_Hand",
            "HitRegionDefinition": null,
            "InteractIcon": null,
            "SecondaryInteractIcon": null
          },
          "String": null,
          "BodyCompositionIndex": 27
        },
        "ParentAttachmentIdentifier": null,
        "AttachmentBaseInstanceDataIndex": 22,
        "SwitchIdentifier": 4
      },
      {
        "Data": {
          "Name": "Switch_FXBack",
          "Type": "IDT_Switch",
          "Replication": "IDR_Server",
          "MaxSwitchValue": 4,
          "BitsRequiredForMaxSwitchValue": 3,
          "Bool": false,
          "DeleteByOwner": false,
          "Int": 0,
          "Float": 0.0,
          "Vector": { "X": 0.0, "Y": 0.0, "Z": 0.0 },
          "Object": null,
          "ComponentData": {
            "Component": null,
            "CollisionType": "COLLIDE_CustomDefault",
            "bAttachToMesh": false,
            "bIsUsable": false,
            "bIsSecondaryUsable": false,
            "MeshSocketName": "FX_Back_2",
            "HitRegionDefinition": null,
            "InteractIcon": null,
            "SecondaryInteractIcon": null
          },
          "String": null,
          "BodyCompositionIndex": 28
        },
        "ParentAttachmentIdentifier": null,
        "AttachmentBaseInstanceDataIndex": 0,
        "SwitchIdentifier": 0
      },
      {
        "Data": {
          "Name": null,
          "Type": "IDT_ActorComponent",
          "Replication": "IDR_Server",
          "MaxSwitchValue": 0,
          "BitsRequiredForMaxSwitchValue": 0,
          "Bool": false,
          "DeleteByOwner": false,
          "Int": 0,
          "Float": 0.0,
          "Vector": { "X": 0.0, "Y": 0.0, "Z": 0.0 },
          "Object": null,
          "ComponentData": {
            "Component":
              "GD_Sage_SkagPup.Character.Pawn_Sage_SkagPup:ParticleSystemComponent_1852",
            "CollisionType": "COLLIDE_CustomDefault",
            "bAttachToMesh": false,
            "bIsUsable": false,
            "bIsSecondaryUsable": false,
            "MeshSocketName": "FX_Back_2",
            "HitRegionDefinition": null,
            "InteractIcon": null,
            "SecondaryInteractIcon": null
          },
          "String": null,
          "BodyCompositionIndex": 29
        },
        "ParentAttachmentIdentifier": null,
        "AttachmentBaseInstanceDataIndex": 27,
        "SwitchIdentifier": 1
      },
      {
        "Data": {
          "Name": null,
          "Type": "IDT_ActorComponent",
          "Replication": "IDR_Server",
          "MaxSwitchValue": 0,
          "BitsRequiredForMaxSwitchValue": 0,
          "Bool": false,
          "DeleteByOwner": false,
          "Int": 0,
          "Float": 0.0,
          "Vector": { "X": 0.0, "Y": 0.0, "Z": 0.0 },
          "Object": null,
          "ComponentData": {
            "Component":
              "GD_Sage_SkagPup.Character.Pawn_Sage_SkagPup:ParticleSystemComponent_1853",
            "CollisionType": "COLLIDE_CustomDefault",
            "bAttachToMesh": false,
            "bIsUsable": false,
            "bIsSecondaryUsable": false,
            "MeshSocketName": "FX_Back_2",
            "HitRegionDefinition": null,
            "InteractIcon": null,
            "SecondaryInteractIcon": null
          },
          "String": null,
          "BodyCompositionIndex": 30
        },
        "ParentAttachmentIdentifier": null,
        "AttachmentBaseInstanceDataIndex": 27,
        "SwitchIdentifier": 2
      },
      {
        "Data": {
          "Name": null,
          "Type": "IDT_ActorComponent",
          "Replication": "IDR_Server",
          "MaxSwitchValue": 0,
          "BitsRequiredForMaxSwitchValue": 0,
          "Bool": false,
          "DeleteByOwner": false,
          "Int": 0,
          "Float": 0.0,
          "Vector": { "X": 0.0, "Y": 0.0, "Z": 0.0 },
          "Object": null,
          "ComponentData": {
            "Component":
              "GD_Sage_SkagPup.Character.Pawn_Sage_SkagPup:ParticleSystemComponent_1854",
            "CollisionType": "COLLIDE_CustomDefault",
            "bAttachToMesh": false,
            "bIsUsable": false,
            "bIsSecondaryUsable": false,
            "MeshSocketName": "FX_Back_2",
            "HitRegionDefinition": null,
            "InteractIcon": null,
            "SecondaryInteractIcon": null
          },
          "String": null,
          "BodyCompositionIndex": 31
        },
        "ParentAttachmentIdentifier": null,
        "AttachmentBaseInstanceDataIndex": 27,
        "SwitchIdentifier": 2
      },
      {
        "Data": {
          "Name": null,
          "Type": "IDT_ActorComponent",
          "Replication": "IDR_Server",
          "MaxSwitchValue": 0,
          "BitsRequiredForMaxSwitchValue": 0,
          "Bool": false,
          "DeleteByOwner": false,
          "Int": 0,
          "Float": 0.0,
          "Vector": { "X": 0.0, "Y": 0.0, "Z": 0.0 },
          "Object": null,
          "ComponentData": {
            "Component":
              "GD_Sage_SkagPup.Character.Pawn_Sage_SkagPup:ParticleSystemComponent_1855",
            "CollisionType": "COLLIDE_CustomDefault",
            "bAttachToMesh": false,
            "bIsUsable": false,
            "bIsSecondaryUsable": false,
            "MeshSocketName": "FX_Back_2",
            "HitRegionDefinition": null,
            "InteractIcon": null,
            "SecondaryInteractIcon": null
          },
          "String": null,
          "BodyCompositionIndex": 32
        },
        "ParentAttachmentIdentifier": null,
        "AttachmentBaseInstanceDataIndex": 27,
        "SwitchIdentifier": 3
      },
      {
        "Data": {
          "Name": null,
          "Type": "IDT_ActorComponent",
          "Replication": "IDR_Server",
          "MaxSwitchValue": 0,
          "BitsRequiredForMaxSwitchValue": 0,
          "Bool": false,
          "DeleteByOwner": false,
          "Int": 0,
          "Float": 0.0,
          "Vector": { "X": 0.0, "Y": 0.0, "Z": 0.0 },
          "Object": null,
          "ComponentData": {
            "Component":
              "GD_Sage_SkagPup.Character.Pawn_Sage_SkagPup:ParticleSystemComponent_1856",
            "CollisionType": "COLLIDE_CustomDefault",
            "bAttachToMesh": false,
            "bIsUsable": false,
            "bIsSecondaryUsable": false,
            "MeshSocketName": "FX_Back_2",
            "HitRegionDefinition": null,
            "InteractIcon": null,
            "SecondaryInteractIcon": null
          },
          "String": null,
          "BodyCompositionIndex": 33
        },
        "ParentAttachmentIdentifier": null,
        "AttachmentBaseInstanceDataIndex": 27,
        "SwitchIdentifier": 4
      },
      {
        "Data": {
          "Name": "Switch_Play2",
          "Type": "IDT_Switch",
          "Replication": "IDR_Server",
          "MaxSwitchValue": 1,
          "BitsRequiredForMaxSwitchValue": 1,
          "Bool": false,
          "DeleteByOwner": false,
          "Int": 0,
          "Float": 0.0,
          "Vector": { "X": 0.0, "Y": 0.0, "Z": 0.0 },
          "Object": null,
          "ComponentData": {
            "Component": null,
            "CollisionType": "COLLIDE_CustomDefault",
            "bAttachToMesh": false,
            "bIsUsable": false,
            "bIsSecondaryUsable": false,
            "MeshSocketName": "Head",
            "HitRegionDefinition": null,
            "InteractIcon": null,
            "SecondaryInteractIcon": null
          },
          "String": null,
          "BodyCompositionIndex": 34
        },
        "ParentAttachmentIdentifier": null,
        "AttachmentBaseInstanceDataIndex": 0,
        "SwitchIdentifier": 0
      },
      {
        "Data": {
          "Name": null,
          "Type": "IDT_ActorComponent",
          "Replication": "IDR_Server",
          "MaxSwitchValue": 0,
          "BitsRequiredForMaxSwitchValue": 0,
          "Bool": false,
          "DeleteByOwner": false,
          "Int": 0,
          "Float": 0.0,
          "Vector": { "X": 0.0, "Y": 0.0, "Z": 0.0 },
          "Object": null,
          "ComponentData": {
            "Component":
              "GD_Sage_SkagPup.Character.Pawn_Sage_SkagPup:StaticMeshComponent_1155",
            "CollisionType": "COLLIDE_NoCollision",
            "bAttachToMesh": false,
            "bIsUsable": false,
            "bIsSecondaryUsable": false,
            "MeshSocketName": "Head",
            "HitRegionDefinition": null,
            "InteractIcon": null,
            "SecondaryInteractIcon": null
          },
          "String": null,
          "BodyCompositionIndex": 35
        },
        "ParentAttachmentIdentifier": null,
        "AttachmentBaseInstanceDataIndex": 33,
        "SwitchIdentifier": 1
      },
      {
        "Data": {
          "Name": null,
          "Type": "IDT_ActorComponent",
          "Replication": "IDR_Server",
          "MaxSwitchValue": 0,
          "BitsRequiredForMaxSwitchValue": 0,
          "Bool": false,
          "DeleteByOwner": false,
          "Int": 0,
          "Float": 0.0,
          "Vector": { "X": 0.0, "Y": 0.0, "Z": 0.0 },
          "Object": null,
          "ComponentData": {
            "Component":
              "GD_Sage_SkagPup.Character.Pawn_Sage_SkagPup:StaticMeshComponent_1156",
            "CollisionType": "COLLIDE_NoCollision",
            "bAttachToMesh": false,
            "bIsUsable": false,
            "bIsSecondaryUsable": false,
            "MeshSocketName": "Head",
            "HitRegionDefinition": null,
            "InteractIcon": null,
            "SecondaryInteractIcon": null
          },
          "String": null,
          "BodyCompositionIndex": 36
        },
        "ParentAttachmentIdentifier": null,
        "AttachmentBaseInstanceDataIndex": 33,
        "SwitchIdentifier": 1
      },
      {
        "Data": {
          "Name": "GrowSpine",
          "Type": "IDT_Switch",
          "Replication": "IDR_Server",
          "MaxSwitchValue": 1,
          "BitsRequiredForMaxSwitchValue": 1,
          "Bool": false,
          "DeleteByOwner": false,
          "Int": 0,
          "Float": 3.0,
          "Vector": { "X": 0.0, "Y": 0.0, "Z": 0.0 },
          "Object": null,
          "ComponentData": {
            "Component": null,
            "CollisionType": "COLLIDE_CustomDefault",
            "bAttachToMesh": false,
            "bIsUsable": false,
            "bIsSecondaryUsable": false,
            "MeshSocketName": "Spine2",
            "HitRegionDefinition": null,
            "InteractIcon": null,
            "SecondaryInteractIcon": null
          },
          "String": null,
          "BodyCompositionIndex": 37
        },
        "ParentAttachmentIdentifier": null,
        "AttachmentBaseInstanceDataIndex": 0,
        "SwitchIdentifier": 0
      },
      {
        "Data": {
          "Name": null,
          "Type": "IDT_ActorComponent",
          "Replication": "IDR_Server",
          "MaxSwitchValue": 0,
          "BitsRequiredForMaxSwitchValue": 0,
          "Bool": false,
          "DeleteByOwner": false,
          "Int": 0,
          "Float": 0.0,
          "Vector": { "X": 0.0, "Y": 0.0, "Z": 0.0 },
          "Object": null,
          "ComponentData": {
            "Component":
              "GD_Sage_SkagPup.Character.Pawn_Sage_SkagPup:StaticMeshComponent_1157",
            "CollisionType": "COLLIDE_NoCollision",
            "bAttachToMesh": false,
            "bIsUsable": false,
            "bIsSecondaryUsable": false,
            "MeshSocketName": "Spine2",
            "HitRegionDefinition": null,
            "InteractIcon": null,
            "SecondaryInteractIcon": null
          },
          "String": null,
          "BodyCompositionIndex": 38
        },
        "ParentAttachmentIdentifier": null,
        "AttachmentBaseInstanceDataIndex": 36,
        "SwitchIdentifier": 0
      },
      {
        "Data": {
          "Name": null,
          "Type": "IDT_ActorComponent",
          "Replication": "IDR_Server",
          "MaxSwitchValue": 0,
          "BitsRequiredForMaxSwitchValue": 0,
          "Bool": false,
          "DeleteByOwner": false,
          "Int": 0,
          "Float": 0.0,
          "Vector": { "X": 0.0, "Y": 0.0, "Z": 0.0 },
          "Object": null,
          "ComponentData": {
            "Component":
              "GD_Sage_SkagPup.Character.Pawn_Sage_SkagPup:StaticMeshComponent_1158",
            "CollisionType": "COLLIDE_NoCollision",
            "bAttachToMesh": false,
            "bIsUsable": false,
            "bIsSecondaryUsable": false,
            "MeshSocketName": "Spine2",
            "HitRegionDefinition": null,
            "InteractIcon": null,
            "SecondaryInteractIcon": null
          },
          "String": null,
          "BodyCompositionIndex": 39
        },
        "ParentAttachmentIdentifier": null,
        "AttachmentBaseInstanceDataIndex": 36,
        "SwitchIdentifier": 1
      },
      {
        "Data": {
          "Name": "Switch_BloodDrip",
          "Type": "IDT_Switch",
          "Replication": "IDR_Server",
          "MaxSwitchValue": 1,
          "BitsRequiredForMaxSwitchValue": 1,
          "Bool": false,
          "DeleteByOwner": false,
          "Int": 0,
          "Float": 0.0,
          "Vector": { "X": 0.0, "Y": 0.0, "Z": 0.0 },
          "Object": null,
          "ComponentData": {
            "Component": null,
            "CollisionType": "COLLIDE_CustomDefault",
            "bAttachToMesh": false,
            "bIsUsable": false,
            "bIsSecondaryUsable": false,
            "MeshSocketName": "Spine2",
            "HitRegionDefinition": null,
            "InteractIcon": null,
            "SecondaryInteractIcon": null
          },
          "String": null,
          "BodyCompositionIndex": 40
        },
        "ParentAttachmentIdentifier": null,
        "AttachmentBaseInstanceDataIndex": 0,
        "SwitchIdentifier": 0
      },
      {
        "Data": {
          "Name": null,
          "Type": "IDT_ActorComponent",
          "Replication": "IDR_Server",
          "MaxSwitchValue": 0,
          "BitsRequiredForMaxSwitchValue": 0,
          "Bool": false,
          "DeleteByOwner": false,
          "Int": 0,
          "Float": 0.0,
          "Vector": { "X": 0.0, "Y": 0.0, "Z": 0.0 },
          "Object": null,
          "ComponentData": {
            "Component":
              "GD_Sage_SkagPup.Character.Pawn_Sage_SkagPup:ParticleSystemComponent_1857",
            "CollisionType": "COLLIDE_CustomDefault",
            "bAttachToMesh": false,
            "bIsUsable": false,
            "bIsSecondaryUsable": false,
            "MeshSocketName": "Spine2",
            "HitRegionDefinition": null,
            "InteractIcon": null,
            "SecondaryInteractIcon": null
          },
          "String": null,
          "BodyCompositionIndex": 41
        },
        "ParentAttachmentIdentifier": null,
        "AttachmentBaseInstanceDataIndex": 39,
        "SwitchIdentifier": 1
      },
      {
        "Data": {
          "Name": null,
          "Type": "IDT_ActorComponent",
          "Replication": "IDR_Server",
          "MaxSwitchValue": 0,
          "BitsRequiredForMaxSwitchValue": 0,
          "Bool": false,
          "DeleteByOwner": false,
          "Int": 0,
          "Float": 0.0,
          "Vector": { "X": 0.0, "Y": 0.0, "Z": 0.0 },
          "Object": null,
          "ComponentData": {
            "Component":
              "GD_Sage_SkagPup.Character.Pawn_Sage_SkagPup:StaticMeshComponent_1159",
            "CollisionType": "COLLIDE_CustomDefault",
            "bAttachToMesh": false,
            "bIsUsable": false,
            "bIsSecondaryUsable": false,
            "MeshSocketName": "Spine2",
            "HitRegionDefinition": null,
            "InteractIcon": null,
            "SecondaryInteractIcon": null
          },
          "String": null,
          "BodyCompositionIndex": 42
        },
        "ParentAttachmentIdentifier": null,
        "AttachmentBaseInstanceDataIndex": 0,
        "SwitchIdentifier": 0
      },
      {
        "Data": {
          "Name": null,
          "Type": "IDT_ActorComponent",
          "Replication": "IDR_Server",
          "MaxSwitchValue": 0,
          "BitsRequiredForMaxSwitchValue": 0,
          "Bool": false,
          "DeleteByOwner": false,
          "Int": 0,
          "Float": 0.0,
          "Vector": { "X": 0.0, "Y": 0.0, "Z": 0.0 },
          "Object": null,
          "ComponentData": {
            "Component":
              "GD_Sage_SkagPup.Character.Pawn_Sage_SkagPup:StaticMeshComponent_1160",
            "CollisionType": "COLLIDE_CustomDefault",
            "bAttachToMesh": false,
            "bIsUsable": false,
            "bIsSecondaryUsable": false,
            "MeshSocketName": "Hips",
            "HitRegionDefinition": null,
            "InteractIcon": null,
            "SecondaryInteractIcon": null
          },
          "String": null,
          "BodyCompositionIndex": 43
        },
        "ParentAttachmentIdentifier": null,
        "AttachmentBaseInstanceDataIndex": 0,
        "SwitchIdentifier": 0
      },
      {
        "Data": {
          "Name": null,
          "Type": "IDT_ActorComponent",
          "Replication": "IDR_Server",
          "MaxSwitchValue": 0,
          "BitsRequiredForMaxSwitchValue": 0,
          "Bool": false,
          "DeleteByOwner": false,
          "Int": 0,
          "Float": 0.0,
          "Vector": { "X": 0.0, "Y": 0.0, "Z": 0.0 },
          "Object": null,
          "ComponentData": {
            "Component":
              "GD_Sage_SkagPup.Character.Pawn_Sage_SkagPup:StaticMeshComponent_1161",
            "CollisionType": "COLLIDE_CustomDefault",
            "bAttachToMesh": false,
            "bIsUsable": false,
            "bIsSecondaryUsable": false,
            "MeshSocketName": "Spine1",
            "HitRegionDefinition": null,
            "InteractIcon": null,
            "SecondaryInteractIcon": null
          },
          "String": null,
          "BodyCompositionIndex": 44
        },
        "ParentAttachmentIdentifier": null,
        "AttachmentBaseInstanceDataIndex": 0,
        "SwitchIdentifier": 0
      },
      {
        "Data": {
          "Name": null,
          "Type": "IDT_ActorComponent",
          "Replication": "IDR_Server",
          "MaxSwitchValue": 0,
          "BitsRequiredForMaxSwitchValue": 0,
          "Bool": false,
          "DeleteByOwner": false,
          "Int": 0,
          "Float": 0.0,
          "Vector": { "X": 0.0, "Y": 0.0, "Z": 0.0 },
          "Object": null,
          "ComponentData": {
            "Component":
              "GD_Sage_SkagPup.Character.Pawn_Sage_SkagPup:CylinderComponent_778",
            "CollisionType": "COLLIDE_CustomDefault",
            "bAttachToMesh": false,
            "bIsUsable": false,
            "bIsSecondaryUsable": false,
            "MeshSocketName": null,
            "HitRegionDefinition": null,
            "InteractIcon": null,
            "SecondaryInteractIcon": null
          },
          "String": null,
          "BodyCompositionIndex": 45
        },
        "ParentAttachmentIdentifier": "CylinderComponent",
        "AttachmentBaseInstanceDataIndex": -1,
        "SwitchIdentifier": 0
      },
      {
        "Data": {
          "Name": null,
          "Type": "IDT_ActorComponent",
          "Replication": "IDR_Server",
          "MaxSwitchValue": 0,
          "BitsRequiredForMaxSwitchValue": 0,
          "Bool": false,
          "DeleteByOwner": false,
          "Int": 0,
          "Float": 0.0,
          "Vector": { "X": 0.0, "Y": 0.0, "Z": 0.0 },
          "Object": null,
          "ComponentData": {
            "Component":
              "GD_Sage_SkagPup.Character.Pawn_Sage_SkagPup:BulletListenerComponent_119",
            "CollisionType": "COLLIDE_CustomDefault",
            "bAttachToMesh": false,
            "bIsUsable": false,
            "bIsSecondaryUsable": false,
            "MeshSocketName": null,
            "HitRegionDefinition": null,
            "InteractIcon": null,
            "SecondaryInteractIcon": null
          },
          "String": null,
          "BodyCompositionIndex": 46
        },
        "ParentAttachmentIdentifier": null,
        "AttachmentBaseInstanceDataIndex": -1,
        "SwitchIdentifier": 0
      }
    ],
    "MaxExpectedComponents": 0,
    "HasHomingTargetComponents": false
  },
  "CringeMinRepeatTime": 0.5,
  "CringeMaxRepeatTime": 1.0,
  "DodgeAngle": 0.9,
  "DodgeChance": 0.75,
  "DodgeTargetDistMin": 512.0,
  "DodgeRepeatTimeMin": 3.0,
  "DodgeRepeatTimeMax": 1.0,
  "DodgeDelayTime": { "MinVal": 0.1, "MaxVal": 1.0 },
  "DodgeAnimLeft":
    "GD_Sage_SkagPup.Character.BodyClass_Sage_SkagPup:SpecialMove_Dodge_0",
  "DodgeAnimRight":
    "GD_Sage_SkagPup.Character.BodyClass_Sage_SkagPup:SpecialMove_Dodge_1",
  "DodgeGrenadeChance": 1.0,
  "MovementDodgeTime": { "MinVal": 0.0, "MaxVal": 0.0 },
  "PlayProvokedAnimChance": 0.5,
  "PlayUnprovokedAnimChance": 0.5,
  "DialogGroup": null,
  "DialogName": "GD_Dialog_Enemy_Skag.Names.DialogName_Skag_Pup",
  "InitialTauntWait": { "MinVal": 3.0, "MaxVal": 7.0 },
  "SubsequentTauntWait": { "MinVal": 3.0, "MaxVal": 12.0 },
  "TauntCustomEvent": null,
  "StartHeavyBreathingAkEvent": null,
  "StopHeavyBreathingAkEvent": null,
  "TimeBetweenHeavyBreathLoop": 5.0,
  "InjuredHealthPct": 0.0,
  "LostShieldAnim": null,
  "StartInjuredAkEvent": null,
  "StopInjuredAkEvent": null,
  "CloakEffect": null,
  "UnCloakEffect": null,
  "CloakEnter": null,
  "CloakExit": null,
  "CoverOffset": 64.0,
  "CoverMantleOffset": 32.0,
  "CoverIdleTime": { "MinVal": 3.0, "MaxVal": 7.0 },
  "CoverFireTime": { "MinVal": 3.0, "MaxVal": 7.0 },
  "CoverMantleLerpStartTime": 1.0,
  "CoverMantleLerpStopTime": 1.25,
  "MantleAnim": null,
  "CoverStance_HighLeft": null,
  "CoverStance_HighRight": null,
  "CoverStance_LowCenter": null,
  "RunStance": "GD_Sage_SkagPup.Character.BodyClass_Sage_SkagPup:RunStance0",
  "PatrolStance":
    "GD_Sage_SkagPup.Character.BodyClass_Sage_SkagPup:PatrolStance0",
  "SprintStance":
    "GD_Sage_SkagPup.Character.BodyClass_Sage_SkagPup:SprintStance0",
  "InjuredStance":
    "GD_Sage_SkagPup.Character.BodyClass_Sage_SkagPup:InjuredStance0",
  "CrouchStance":
    "GD_Sage_SkagPup.Character.BodyClass_Sage_SkagPup:CrouchStance0",
  "ParentDamageLimit": 0.0,
  "DamageParentScale": 1.0,
  "AudioDistanceRTPC": null,
  "DeltaRotationModifierBySpeed": 0.0,
  "SimulatedRotationLerpTime": 1.0,
  "CrawlerFloorAdjustRadius": 0.0,
  "CrawlerFloorAdjustTraceUp": 0.0,
  "CrawlerFloorAdjustTraceDown": 0.0,
  "CrawlerFloorAdjustOffset": 0.0,
  "CrawlerFloorAdjustRate": 0.2,
  "PhaseLockDef": null,
  "LostShieldDamageTriggers": [ "DAMAGE_TYPE_Shock" ],
  "DialogGroups": [ "GD_Dialog_Enemy_Skag.Groups.DialogGroup_Enemy_Skag" ],
  "UnprovokedAnims": [
    "GD_Sage_SkagPup.Character.BodyClass_Sage_SkagPup:SpecialMove_Motion_2",
    "GD_Sage_SkagPup.Character.BodyClass_Sage_SkagPup:SpecialMove_Motion_3"
  ],
  "ProvokedAnims": [
    "GD_Sage_SkagPup.Character.BodyClass_Sage_SkagPup:SpecialMove_Motion_0",
    "GD_Sage_SkagPup.Character.BodyClass_Sage_SkagPup:SpecialMove_Motion_1"
  ],
  "PainDialogLines": [
    {
      "DET_Pain": "GD_Dialog_Enemy_Skag.Events.Mon_Skag_Pain",
      "DamageThresholdPct": 0.0,
      "ChanceToPlay": 1.0,
      "AkEvent": null,
      "bDeathSound": false,
      "bCriticalHitSound": false,
      "bRanOverSound": false,
      "bGoreTechDeathSound": false,
      "FlinchAnimType": "EF_NoFlinch",
      "FlinchImpulseStrength": 50.0,
      "PainBehaviors": null
    },
    {
      "DET_Pain": "GD_Dialog_Enemy_Skag.Events.Mon_Skag_Death",
      "DamageThresholdPct": 0.0,
      "ChanceToPlay": 1.0,
      "AkEvent": null,
      "bDeathSound": false,
      "bCriticalHitSound": false,
      "bRanOverSound": false,
      "bGoreTechDeathSound": false,
      "FlinchAnimType": "EF_NoFlinch",
      "FlinchImpulseStrength": 50.0,
      "PainBehaviors": null
    }
  ],
  "FootstepBones": [ "FX_L_Foot", "FX_R_Foot" ],
  "HitRegionList": [
    "GD_SkagShared.HitRegions.HitRegion_Head",
    "GD_SkagShared.HitRegions.HitRegion_Body",
    "GD_SkagShared.HitRegions.HitRegion_Mouth",
    "GD_SkagShared.HitRegions.HitRegion_LegLeft",
    "GD_SkagShared.HitRegions.HitRegion_LegRight",
    "GD_SkagShared.HitRegions.HitRegion_ArmLeft",
    "GD_SkagShared.HitRegions.HitRegion_ArmRight"
  ],
  "ScrapedStances": [
    "GD_Sage_SkagPup.Character.BodyClass_Sage_SkagPup:RunStance0",
    "GD_Sage_SkagPup.Character.BodyClass_Sage_SkagPup:PatrolStance0",
    "GD_Sage_SkagPup.Character.BodyClass_Sage_SkagPup:SprintStance0",
    "GD_Sage_SkagPup.Character.BodyClass_Sage_SkagPup:InjuredStance0",
    "GD_Sage_SkagPup.Character.BodyClass_Sage_SkagPup:CrouchStance0"
  ],
  "VfTableObject": "",
  "HashNext": "",
  "ObjectFlags": "",
  "HashOuterNext": "",
  "StateFrame": "",
  "Linker": null,
  "LinkerIndex": "",
  "ObjectInternalInteger": 217177,
  "NetIndex": 67,
  "Outer": "GD_Sage_SkagPup.Character",
  "Name": "BodyClass_Sage_SkagPup",
  "Class": "WillowGame.BodyClassDefinition",
  "ObjectArchetype": "WillowGame.Default__BodyClassDefinition"
}