{
  "VfTable_IIHitRegionInfoProvider": "",
  "HeadLookAtName": "HeadLookAt",
  "bLeftHandIKDisabled": false,
  "bUseMeshForCollision": false,
  "IgnoreMomentumTransfer": false,
  "UseRootMotion": false,
  "UseRootRotation": false,
  "bAllowProjectilesToCollideWithSkeletalMesh": false,
  "bUpdateMeshTranslationWhenCylinderChanges": false,
  "bCanUpdateMeshTranslation": true,
  "bUseDamageLocationParent": true,
  "bShowDamageLocations": false,
  "bStaggerWhenLandingOnUnwalkableTerrain": false,
  "bUseTurns": true,
  "bUseTurnParent": true,
  "bPawnIsAlwaysRelevant": false,
  "bVehicleBlockingActor": false,
  "bUseKnockbackParent": true,
  "bUseCringe": true,
  "bUseCringeParent": true,
  "bUseDodges": false,
  "bDodgeUseParent": true,
  "bCanAvoidGrenades": false,
  "bProvocationUseParent": false,
  "bNPCDialog": false,
  "bCanBeInjured": true,
  "bInjuredUseParent": true,
  "bOnlyHardFlinchWhenInjured": false,
  "bCloaks": false,
  "bCloakUseParentData": false,
  "bCloakUseParentOptions": false,
  "bCloakingRequiresShields": true,
  "bCanShootWhileCloaked": false,
  "bCloakHideInfo": false,
  "bHideBodyOnCloak": false,
  "bHasCloakingCapability": false,
  "bUseCoverParent": true,
  "bUseParentStances": false,
  "bDamageParent": false,
  "bDisplayParentInfo": false,
  "bOnlyDisplayParentInfoWhileAttached": false,
  "bKillWhenParentDies": false,
  "HideInfoOnHUD": false,
  "bFullyArmored": false,
  "bHideEmptyShieldBar": false,
  "bIsPossibleHomingTarget": true,
  "bUseRotationModifierBySpeed": false,
  "bUseSimulatedRotation": false,
  "bCrawlerFloorAdjust": false,
  "bUseParentPhaselockDef": true,
  "BodyTag": null,
  "PhysicsJumpSMD": null,
  "Mass": 100.0,
  "CrouchHeight": 50.0,
  "DefaultHitRegion": "GD_PlayerShared.HitRegions.HitRegion_Body",
  "DamageLocationTime": 1.0,
  "DamageLocationFadeTime": 0.25,
  "DamageLocationSize": 128.0,
  "DeathDef": "GD_Tulip_Mechro_Streaming.Death_Mechromancer",
  "InjuredDeathAnim": "GD_PlayerShared.Anims.InjuredDeath",
  "RagDollGravity": 2.0,
  "MinimumRecognizedImpact": 10.0,
  "DirectImpactEffectThreshold": 100.0,
  "SlidingImpactEffectThreshold": 500.0,
  "ImpactEffectProbability": 0.1,
  "RagdollImpact": null,
  "RD_EffectsThreshold": 0.0,
  "RD_SlideThreshold": 0.0,
  "RD_ImpactThreshold": 0.0,
  "RD_SlideMinRepeatTime": 0.0,
  "RD_ImpactMinRepeatTime": 0.0,
  "RD_SlideExplosion": null,
  "RD_SlideExplosionDamageRadius": 64.0,
  "RD_ImpactExplosion": null,
  "RD_ImpactExplosionDamageRadius": 64.0,
  "RD_ImpactAkEventThreshold": 0.0,
  "RD_ImpactAkEventMinRepeatTime": 0.0,
  "RD_ImpactAkEvent": null,
  "FootstepImpact": "GD_Impacts.Footsteps.Footstep_Common",
  "HeavyFootStepImpact": "GD_Impacts.FootSteps_Run.Footstep_Run_Common",
  "JumpedImpact": "GD_Impacts.Footsteps_Jump.Footsteps_Jump_Common",
  "LandedImpact": "GD_Impacts.Footsteps_Land.Footsteps_Land_Common",
  "UnwalkableTerrainStaggerVelocityZ": -0.8,
  "LandedMinVel": 300.0,
  "SkidImpact": "GD_Impacts.Footsteps_Skid.Footsteps_Skid_Common",
  "SkidCameraLurchMagnitude": 6.0,
  "SkidCameraLurchSpeed": 8.0,
  "BehaviorAliasLookup": null,
  "ArmsMaterialIndex": 0,
  "ShieldEnabledParameterName": "ShieldEnabled",
  "ShieldColorParameterName": "ShieldColor",
  "TouchImpactDefinition": null,
  "UntouchImpactDefinition": null,
  "NumFootstepsToStop": 7,
  "StoppedAkEvent": null,
  "HitByVehicleImpactDefinition": null,
  "RunOverByVehicleImpactDefinition": null,
  "PlayerReRezCoordinatedEffect": "GD_CoordinatedEffects.Player.Player_ReRez",
  "PlayerReRezAnim": "GD_PlayerShared.Anims.Player_ReRez",
  "PlayerEventDef": "GD_Tulip_Mechro_Streaming.PlayerEvents_Mechromancer",
  "DefaultTurns": "GD_PlayerShared.Anims.TurnDef_Player_Default",
  "DefaultCrouchTurns": "GD_PlayerShared.Anims.TurnDef_Player_CrouchDefault",
  "AnimationParentBody": null,
  "FirstPersonHands":
    "GD_Tulip_Mechro_Streaming.BodyClass_Mechromancer:FirstPersonHandsMeshComponent_33",
  "PrimaryStandInOffset": { "X": 0.0, "Y": 0.0, "Z": 0.0 },
  "WeaponActionParentClass":
    "GD_PlayerShared.Character.BodyClass_PlayerShared",
  "AimOffsetNodeName": "AimOffset",
  "DefaultWeaponHoldDef":
    "GD_Tulip_Mechro_Streaming.WeaponHolds.WeaponHold_Mechro_Default",
  "CanShootWeaponIf": null,
  "DefaultFirstPersonWeaponHoldDef":
    "GD_Tulip_Mechro_Streaming.WeaponHolds1st.WeaponHold_Mechro_Default",
  "ThrowGrenadeAkEvent": "Ake_Wep_Melee.Ak_Play_Wep_Melee_Generic_Attack",
  "MeleeAkEvent": "Ake_Wep_Melee.Ak_Play_Wep_Melee_Generic_Attack",
  "ExpectedInstanceDataSize": 0,
  "CloakStyle": "CLOAKSTYLE_None",
  "DefaultStance": "STANCE_Run",
  "DefaultParticleSystemTemplate": null,
  "MeleeWeaponMesh": "Tulip_Melee.MecromancerHammer",
  "MeleeSocketName": "MeleeWeaponSocket",
  "MeleeCameraAnim": "Anim_CameraAnimations.Melee.Canim_Lilith_Melee",
  "PrimaryColorParameterName": "PrimaryColor",
  "SecondaryColorParameterName": "SecondaryColor",
  "TertiaryColorParameterName": "ThirdColor",
  "PhysVehicleExtentScalars": { "X": 1.0, "Y": 1.0, "Z": 1.0 },
  "StaggerSettings": null,
  "MinKnockbackMomentum": 100000.0,
  "KnockbackSMD": null,
  "KnockbackLandSMD": null,
  "BodyComposition": {
    "Attachments": [
      {
        "Data": {
          "Name": null,
          "Type": "IDT_ActorComponent",
          "Replication": "IDR_Server",
          "MaxSwitchValue": 0,
          "BitsRequiredForMaxSwitchValue": 0,
          "Bool": false,
          "DeleteByOwner": false,
          "Int": 0,
          "Float": 0.0,
          "Vector": { "X": 0.0, "Y": 0.0, "Z": 0.0 },
          "Object": null,
          "ComponentData": {
            "Component":
              "GD_Tulip_Mechro_Streaming.Pawn_Mechromancer:SkeletalMeshComponent_1859",
            "CollisionType": "COLLIDE_CustomDefault",
            "bAttachToMesh": false,
            "bIsUsable": false,
            "bIsSecondaryUsable": false,
            "MeshSocketName": null,
            "HitRegionDefinition": null,
            "InteractIcon": null,
            "SecondaryInteractIcon": null
          },
          "String": null,
          "BodyCompositionIndex": 1
        },
        "ParentAttachmentIdentifier": "Mesh",
        "AttachmentBaseInstanceDataIndex": -1,
        "SwitchIdentifier": 0
      },
      {
        "Data": {
          "Name": "CustomHead",
          "Type": "IDT_ActorComponent",
          "Replication": "IDR_Server",
          "MaxSwitchValue": 0,
          "BitsRequiredForMaxSwitchValue": 0,
          "Bool": false,
          "DeleteByOwner": false,
          "Int": 0,
          "Float": 0.0,
          "Vector": { "X": 0.0, "Y": 0.0, "Z": 0.0 },
          "Object": null,
          "ComponentData": {
            "Component":
              "GD_Tulip_Mechro_Streaming.Pawn_Mechromancer:CustomSkeletalMeshComponent_551",
            "CollisionType": "COLLIDE_CustomDefault",
            "bAttachToMesh": false,
            "bIsUsable": false,
            "bIsSecondaryUsable": false,
            "MeshSocketName": "Root",
            "HitRegionDefinition": null,
            "InteractIcon": null,
            "SecondaryInteractIcon": null
          },
          "String": null,
          "BodyCompositionIndex": 2
        },
        "ParentAttachmentIdentifier": "Parent",
        "AttachmentBaseInstanceDataIndex": 0,
        "SwitchIdentifier": 0
      },
      {
        "Data": {
          "Name": null,
          "Type": "IDT_ActorComponent",
          "Replication": "IDR_Server",
          "MaxSwitchValue": 0,
          "BitsRequiredForMaxSwitchValue": 0,
          "Bool": false,
          "DeleteByOwner": false,
          "Int": 0,
          "Float": 0.0,
          "Vector": { "X": 0.0, "Y": 0.0, "Z": 0.0 },
          "Object": null,
          "ComponentData": {
            "Component":
              "GD_Tulip_Mechro_Streaming.Pawn_Mechromancer:GearLikenessMeshComponent_2563",
            "CollisionType": "COLLIDE_CustomDefault",
            "bAttachToMesh": false,
            "bIsUsable": false,
            "bIsSecondaryUsable": false,
            "MeshSocketName": "Spine3",
            "HitRegionDefinition": null,
            "InteractIcon": null,
            "SecondaryInteractIcon": null
          },
          "String": null,
          "BodyCompositionIndex": 3
        },
        "ParentAttachmentIdentifier": null,
        "AttachmentBaseInstanceDataIndex": 0,
        "SwitchIdentifier": 0
      },
      {
        "Data": {
          "Name": null,
          "Type": "IDT_ActorComponent",
          "Replication": "IDR_Server",
          "MaxSwitchValue": 0,
          "BitsRequiredForMaxSwitchValue": 0,
          "Bool": false,
          "DeleteByOwner": false,
          "Int": 0,
          "Float": 0.0,
          "Vector": { "X": 0.0, "Y": 0.0, "Z": 0.0 },
          "Object": null,
          "ComponentData": {
            "Component":
              "GD_Tulip_Mechro_Streaming.Pawn_Mechromancer:GearLikenessMeshComponent_2564",
            "CollisionType": "COLLIDE_CustomDefault",
            "bAttachToMesh": false,
            "bIsUsable": false,
            "bIsSecondaryUsable": false,
            "MeshSocketName": "Spine3",
            "HitRegionDefinition": null,
            "InteractIcon": null,
            "SecondaryInteractIcon": null
          },
          "String": null,
          "BodyCompositionIndex": 4
        },
        "ParentAttachmentIdentifier": null,
        "AttachmentBaseInstanceDataIndex": 0,
        "SwitchIdentifier": 0
      },
      {
        "Data": {
          "Name": null,
          "Type": "IDT_ActorComponent",
          "Replication": "IDR_Server",
          "MaxSwitchValue": 0,
          "BitsRequiredForMaxSwitchValue": 0,
          "Bool": false,
          "DeleteByOwner": false,
          "Int": 0,
          "Float": 0.0,
          "Vector": { "X": 0.0, "Y": 0.0, "Z": 0.0 },
          "Object": null,
          "ComponentData": {
            "Component":
              "GD_Tulip_Mechro_Streaming.Pawn_Mechromancer:GearLikenessMeshComponent_2565",
            "CollisionType": "COLLIDE_CustomDefault",
            "bAttachToMesh": false,
            "bIsUsable": false,
            "bIsSecondaryUsable": false,
            "MeshSocketName": "Shield",
            "HitRegionDefinition": null,
            "InteractIcon": null,
            "SecondaryInteractIcon": null
          },
          "String": null,
          "BodyCompositionIndex": 5
        },
        "ParentAttachmentIdentifier": null,
        "AttachmentBaseInstanceDataIndex": 0,
        "SwitchIdentifier": 0
      },
      {
        "Data": {
          "Name": null,
          "Type": "IDT_ActorComponent",
          "Replication": "IDR_Server",
          "MaxSwitchValue": 0,
          "BitsRequiredForMaxSwitchValue": 0,
          "Bool": false,
          "DeleteByOwner": false,
          "Int": 0,
          "Float": 0.0,
          "Vector": { "X": 0.0, "Y": 0.0, "Z": 0.0 },
          "Object": null,
          "ComponentData": {
            "Component":
              "GD_Tulip_Mechro_Streaming.Pawn_Mechromancer:GearLikenessMeshComponent_2566",
            "CollisionType": "COLLIDE_CustomDefault",
            "bAttachToMesh": false,
            "bIsUsable": false,
            "bIsSecondaryUsable": false,
            "MeshSocketName": "Grenade",
            "HitRegionDefinition": null,
            "InteractIcon": null,
            "SecondaryInteractIcon": null
          },
          "String": null,
          "BodyCompositionIndex": 6
        },
        "ParentAttachmentIdentifier": null,
        "AttachmentBaseInstanceDataIndex": 0,
        "SwitchIdentifier": 0
      },
      {
        "Data": {
          "Name": null,
          "Type": "IDT_ActorComponent",
          "Replication": "IDR_Server",
          "MaxSwitchValue": 0,
          "BitsRequiredForMaxSwitchValue": 0,
          "Bool": false,
          "DeleteByOwner": false,
          "Int": 0,
          "Float": 0.0,
          "Vector": { "X": 0.0, "Y": 0.0, "Z": 0.0 },
          "Object": null,
          "ComponentData": {
            "Component":
              "GD_Tulip_Mechro_Streaming.Pawn_Mechromancer:GearLikenessMeshComponent_2567",
            "CollisionType": "COLLIDE_CustomDefault",
            "bAttachToMesh": false,
            "bIsUsable": false,
            "bIsSecondaryUsable": false,
            "MeshSocketName": "ClassMod",
            "HitRegionDefinition": null,
            "InteractIcon": null,
            "SecondaryInteractIcon": null
          },
          "String": null,
          "BodyCompositionIndex": 7
        },
        "ParentAttachmentIdentifier": null,
        "AttachmentBaseInstanceDataIndex": 0,
        "SwitchIdentifier": 0
      },
      {
        "Data": {
          "Name": null,
          "Type": "IDT_ActorComponent",
          "Replication": "IDR_Server",
          "MaxSwitchValue": 0,
          "BitsRequiredForMaxSwitchValue": 0,
          "Bool": false,
          "DeleteByOwner": false,
          "Int": 0,
          "Float": 0.0,
          "Vector": { "X": 0.0, "Y": 0.0, "Z": 0.0 },
          "Object": null,
          "ComponentData": {
            "Component":
              "GD_Tulip_Mechro_Streaming.Pawn_Mechromancer:GearLikenessMeshComponent_2568",
            "CollisionType": "COLLIDE_CustomDefault",
            "bAttachToMesh": false,
            "bIsUsable": false,
            "bIsSecondaryUsable": false,
            "MeshSocketName": "Spine1",
            "HitRegionDefinition": null,
            "InteractIcon": null,
            "SecondaryInteractIcon": null
          },
          "String": null,
          "BodyCompositionIndex": 8
        },
        "ParentAttachmentIdentifier": null,
        "AttachmentBaseInstanceDataIndex": 0,
        "SwitchIdentifier": 0
      },
      {
        "Data": {
          "Name": null,
          "Type": "IDT_ActorComponent",
          "Replication": "IDR_Server",
          "MaxSwitchValue": 0,
          "BitsRequiredForMaxSwitchValue": 0,
          "Bool": false,
          "DeleteByOwner": false,
          "Int": 0,
          "Float": 0.0,
          "Vector": { "X": 0.0, "Y": 0.0, "Z": 0.0 },
          "Object": null,
          "ComponentData": {
            "Component":
              "GD_Tulip_Mechro_Streaming.Pawn_Mechromancer:GearLikenessMeshComponent_2569",
            "CollisionType": "COLLIDE_CustomDefault",
            "bAttachToMesh": false,
            "bIsUsable": false,
            "bIsSecondaryUsable": false,
            "MeshSocketName": "Launcher",
            "HitRegionDefinition": null,
            "InteractIcon": null,
            "SecondaryInteractIcon": null
          },
          "String": null,
          "BodyCompositionIndex": 9
        },
        "ParentAttachmentIdentifier": null,
        "AttachmentBaseInstanceDataIndex": 0,
        "SwitchIdentifier": 0
      },
      {
        "Data": {
          "Name": null,
          "Type": "IDT_ActorComponent",
          "Replication": "IDR_Server",
          "MaxSwitchValue": 0,
          "BitsRequiredForMaxSwitchValue": 0,
          "Bool": false,
          "DeleteByOwner": false,
          "Int": 0,
          "Float": 0.0,
          "Vector": { "X": 0.0, "Y": 0.0, "Z": 0.0 },
          "Object": null,
          "ComponentData": {
            "Component":
              "GD_Tulip_Mechro_Streaming.Pawn_Mechromancer:CylinderComponent_913",
            "CollisionType": "COLLIDE_BlockAll",
            "bAttachToMesh": false,
            "bIsUsable": false,
            "bIsSecondaryUsable": false,
            "MeshSocketName": null,
            "HitRegionDefinition": null,
            "InteractIcon": null,
            "SecondaryInteractIcon": null
          },
          "String": null,
          "BodyCompositionIndex": 10
        },
        "ParentAttachmentIdentifier": "CylinderComponent",
        "AttachmentBaseInstanceDataIndex": -1,
        "SwitchIdentifier": 0
      },
      {
        "Data": {
          "Name": null,
          "Type": "IDT_ActorComponent",
          "Replication": "IDR_Server",
          "MaxSwitchValue": 0,
          "BitsRequiredForMaxSwitchValue": 0,
          "Bool": false,
          "DeleteByOwner": false,
          "Int": 0,
          "Float": 0.0,
          "Vector": { "X": 0.0, "Y": 0.0, "Z": 0.0 },
          "Object": null,
          "ComponentData": {
            "Component":
              "GD_Tulip_Mechro_Streaming.Pawn_Mechromancer:StaticMeshComponent_1229",
            "CollisionType": "COLLIDE_CustomDefault",
            "bAttachToMesh": false,
            "bIsUsable": false,
            "bIsSecondaryUsable": false,
            "MeshSocketName": null,
            "HitRegionDefinition": null,
            "InteractIcon": null,
            "SecondaryInteractIcon": null
          },
          "String": null,
          "BodyCompositionIndex": 11
        },
        "ParentAttachmentIdentifier": null,
        "AttachmentBaseInstanceDataIndex": -1,
        "SwitchIdentifier": 0
      },
      {
        "Data": {
          "Name": "ViewingStatusMenu",
          "Type": "IDT_Switch",
          "Replication": "IDR_Server",
          "MaxSwitchValue": 1,
          "BitsRequiredForMaxSwitchValue": 1,
          "Bool": false,
          "DeleteByOwner": false,
          "Int": 0,
          "Float": 0.0,
          "Vector": { "X": 0.0, "Y": 0.0, "Z": 0.0 },
          "Object": null,
          "ComponentData": {
            "Component": null,
            "CollisionType": "COLLIDE_CustomDefault",
            "bAttachToMesh": false,
            "bIsUsable": false,
            "bIsSecondaryUsable": false,
            "MeshSocketName": null,
            "HitRegionDefinition": null,
            "InteractIcon": null,
            "SecondaryInteractIcon": null
          },
          "String": null,
          "BodyCompositionIndex": 12
        },
        "ParentAttachmentIdentifier": null,
        "AttachmentBaseInstanceDataIndex": -1,
        "SwitchIdentifier": 0
      },
      {
        "Data": {
          "Name": null,
          "Type": "IDT_ActorComponent",
          "Replication": "IDR_Server",
          "MaxSwitchValue": 0,
          "BitsRequiredForMaxSwitchValue": 0,
          "Bool": false,
          "DeleteByOwner": false,
          "Int": 0,
          "Float": 0.0,
          "Vector": { "X": 0.0, "Y": 0.0, "Z": 0.0 },
          "Object": null,
          "ComponentData": {
            "Component":
              "GD_Tulip_Mechro_Streaming.Pawn_Mechromancer:StaticMeshComponent_1230",
            "CollisionType": "COLLIDE_CustomDefault",
            "bAttachToMesh": false,
            "bIsUsable": false,
            "bIsSecondaryUsable": false,
            "MeshSocketName": null,
            "HitRegionDefinition": null,
            "InteractIcon": null,
            "SecondaryInteractIcon": null
          },
          "String": null,
          "BodyCompositionIndex": 13
        },
        "ParentAttachmentIdentifier": null,
        "AttachmentBaseInstanceDataIndex": 11,
        "SwitchIdentifier": 1
      },
      {
        "Data": {
          "Name": null,
          "Type": "IDT_CustomHead",
          "Replication": "IDR_Local",
          "MaxSwitchValue": 0,
          "BitsRequiredForMaxSwitchValue": 0,
          "Bool": false,
          "DeleteByOwner": false,
          "Int": 0,
          "Float": 0.0,
          "Vector": { "X": 0.0, "Y": 0.0, "Z": 0.0 },
          "Object": "GD_DefaultCustoms_Tulip.Mechro.Head_Default",
          "ComponentData": {
            "Component": null,
            "CollisionType": "COLLIDE_CustomDefault",
            "bAttachToMesh": false,
            "bIsUsable": false,
            "bIsSecondaryUsable": false,
            "MeshSocketName": null,
            "HitRegionDefinition": null,
            "InteractIcon": null,
            "SecondaryInteractIcon": null
          },
          "String": null,
          "BodyCompositionIndex": 14
        },
        "ParentAttachmentIdentifier": "CustomHead",
        "AttachmentBaseInstanceDataIndex": -1,
        "SwitchIdentifier": 0
      },
      {
        "Data": {
          "Name": null,
          "Type": "IDT_CustomSkin",
          "Replication": "IDR_Local",
          "MaxSwitchValue": 0,
          "BitsRequiredForMaxSwitchValue": 0,
          "Bool": false,
          "DeleteByOwner": false,
          "Int": 0,
          "Float": 0.0,
          "Vector": { "X": 0.0, "Y": 0.0, "Z": 0.0 },
          "Object": "GD_DefaultCustoms_Tulip.Mechro.Skin_Default",
          "ComponentData": {
            "Component": null,
            "CollisionType": "COLLIDE_CustomDefault",
            "bAttachToMesh": false,
            "bIsUsable": false,
            "bIsSecondaryUsable": false,
            "MeshSocketName": null,
            "HitRegionDefinition": null,
            "InteractIcon": null,
            "SecondaryInteractIcon": null
          },
          "String": null,
          "BodyCompositionIndex": 15
        },
        "ParentAttachmentIdentifier": "CustomSkin",
        "AttachmentBaseInstanceDataIndex": -1,
        "SwitchIdentifier": 0
      }
    ],
    "MaxExpectedComponents": 0,
    "HasHomingTargetComponents": false
  },
  "CringeMinRepeatTime": 0.5,
  "CringeMaxRepeatTime": 1.0,
  "DodgeAngle": 0.9,
  "DodgeChance": 0.1,
  "DodgeTargetDistMin": 1024.0,
  "DodgeRepeatTimeMin": 4.0,
  "DodgeRepeatTimeMax": 8.0,
  "DodgeDelayTime": { "MinVal": 0.1, "MaxVal": 0.3 },
  "DodgeAnimLeft": null,
  "DodgeAnimRight": null,
  "DodgeGrenadeChance": 1.0,
  "MovementDodgeTime": { "MinVal": 0.0, "MaxVal": 0.0 },
  "PlayProvokedAnimChance": 1.0,
  "PlayUnprovokedAnimChance": 1.0,
  "DialogGroup": null,
  "DialogName":
    "GD_Dialog_Player.VOBD_Player_Mechromancer.DialogName_PL_Mechromancer",
  "InitialTauntWait": { "MinVal": 3.0, "MaxVal": 7.0 },
  "SubsequentTauntWait": { "MinVal": 3.0, "MaxVal": 12.0 },
  "TauntCustomEvent": null,
  "StartHeavyBreathingAkEvent": null,
  "StopHeavyBreathingAkEvent": null,
  "TimeBetweenHeavyBreathLoop": 30.0,
  "InjuredHealthPct": 0.25,
  "LostShieldAnim": null,
  "StartInjuredAkEvent": null,
  "StopInjuredAkEvent": null,
  "CloakEffect": null,
  "UnCloakEffect": null,
  "CloakEnter": null,
  "CloakExit": null,
  "CoverOffset": 64.0,
  "CoverMantleOffset": 32.0,
  "CoverIdleTime": { "MinVal": 3.0, "MaxVal": 7.0 },
  "CoverFireTime": { "MinVal": 3.0, "MaxVal": 7.0 },
  "CoverMantleLerpStartTime": 1.0,
  "CoverMantleLerpStopTime": 1.25,
  "MantleAnim": null,
  "CoverStance_HighLeft": null,
  "CoverStance_HighRight": null,
  "CoverStance_LowCenter": null,
  "RunStance":
    "GD_Tulip_Mechro_Streaming.BodyClass_Mechromancer:RunStance0_4",
  "PatrolStance":
    "GD_Tulip_Mechro_Streaming.BodyClass_Mechromancer:PatrolStance0_5",
  "SprintStance":
    "GD_Tulip_Mechro_Streaming.BodyClass_Mechromancer:SprintStance0_6",
  "InjuredStance":
    "GD_Tulip_Mechro_Streaming.BodyClass_Mechromancer:InjuredStance0_7",
  "CrouchStance":
    "GD_Tulip_Mechro_Streaming.BodyClass_Mechromancer:CrouchStance0",
  "ParentDamageLimit": 0.0,
  "DamageParentScale": 1.0,
  "AudioDistanceRTPC": null,
  "DeltaRotationModifierBySpeed": 0.0,
  "SimulatedRotationLerpTime": 1.0,
  "CrawlerFloorAdjustRadius": 0.0,
  "CrawlerFloorAdjustTraceUp": 0.0,
  "CrawlerFloorAdjustTraceDown": 0.0,
  "CrawlerFloorAdjustOffset": 0.0,
  "CrawlerFloorAdjustRate": 0.2,
  "PhaseLockDef": null,
  "DLCVehicleAnimSetMappings": [
    {
      "VehicleArchetypeName": "Vehicle_SawBladeTechnical",
      "AnimSet": "Anim_Mechromancer.BanditTechnical_Mechromancer"
    },
    {
      "VehicleArchetypeName": "Vehicle_CatapultTechnical",
      "AnimSet": "Anim_Mechromancer.BanditTechnical_Mechromancer"
    },
    {
      "VehicleArchetypeName": "Vehicle_LightRunnerMG",
      "AnimSet": "Anim_Mechromancer.LightRunner_Mechromancer"
    },
    {
      "VehicleArchetypeName": "Vehicle_RocketRunner",
      "AnimSet": "Anim_Mechromancer.LightRunner_Mechromancer"
    },
    { "VehicleArchetypeName": "Pawn_CannonTurret", "AnimSet": null },
    {
      "VehicleArchetypeName": "Pawn_BanditTurret",
      "AnimSet": "Anim_Mechromancer.BanditTurret_Mechromancer"
    }
  ],
  "LostShieldDamageTriggers": [ "DAMAGE_TYPE_Shock" ],
  "BreathingLoops": [
    {
      "Condition":
        "GD_Tulip_Mechro_Streaming.BodyClass_Mechromancer:AttributeExpressionEvaluator_20",
      "StartAkEvent":
        "Ake_Tulip_VOBD_PL_Mechromancer.Ak_Play_VOBD_Mechromancer_PL_Start_Breathing",
      "StopAkEvent":
        "Ake_Tulip_VOBD_PL_Mechromancer.Ak_Break_VOBD_Mechromancer_PL_Start_Breathing"
    }
  ],
  "DialogGroups": [
    "GD_Tulip_Dialog_Player.VOBD_Player_Mechromancer.DialogGroup_PL_Mechromancer"
  ],
  "PainDialogLines": [
    {
      "DET_Pain": null,
      "DamageThresholdPct": 0.03,
      "ChanceToPlay": 1.0,
      "AkEvent": null,
      "bDeathSound": false,
      "bCriticalHitSound": false,
      "bRanOverSound": false,
      "bGoreTechDeathSound": false,
      "FlinchAnimType": "EF_NoFlinch",
      "FlinchImpulseStrength": 0.0,
      "PainBehaviors": null
    },
    {
      "DET_Pain": null,
      "DamageThresholdPct": 0.2,
      "ChanceToPlay": 1.0,
      "AkEvent": null,
      "bDeathSound": false,
      "bCriticalHitSound": false,
      "bRanOverSound": false,
      "bGoreTechDeathSound": false,
      "FlinchAnimType": "EF_NoFlinch",
      "FlinchImpulseStrength": 0.0,
      "PainBehaviors": null
    }
  ],
  "WeaponHoldDefs": [
    "GD_Tulip_Mechro_Streaming.WeaponHolds.WeaponHold_Mechro_Pistol",
    "GD_Tulip_Mechro_Streaming.WeaponHolds.WeaponHold_Mechro_Shotgun",
    "GD_Tulip_Mechro_Streaming.WeaponHolds.WeaponHold_Mechro_Rifle",
    "GD_Tulip_Mechro_Streaming.WeaponHolds.WeaponHold_Mechro_SMG",
    "GD_Tulip_Mechro_Streaming.WeaponHolds.WeaponHold_Mechro_RocketLauncher",
    "GD_Tulip_Mechro_Streaming.WeaponHolds.WeaponHold_Mechro_SniperRifle",
    "GD_Tulip_Mechro_Streaming.WeaponHolds.WeaponHold_Mechro_Unarmed"
  ],
  "ScrapedStances": [
    "GD_Tulip_Mechro_Streaming.BodyClass_Mechromancer:RunStance0_4",
    "GD_Tulip_Mechro_Streaming.BodyClass_Mechromancer:PatrolStance0_5",
    "GD_Tulip_Mechro_Streaming.BodyClass_Mechromancer:SprintStance0_6",
    "GD_Tulip_Mechro_Streaming.BodyClass_Mechromancer:InjuredStance0_7",
    "GD_Tulip_Mechro_Streaming.BodyClass_Mechromancer:CrouchStance0"
  ],
  "VfTableObject": "",
  "HashNext": "",
  "ObjectFlags": "",
  "HashOuterNext": "",
  "StateFrame": "",
  "Linker": null,
  "LinkerIndex": "",
  "ObjectInternalInteger": 183621,
  "NetIndex": 68,
  "Outer": "Package'GD_Tulip_Mechro_Streaming'",
  "Name": "BodyClass_Mechromancer",
  "Class": "WillowGame.BodyClassDefinition",
  "ObjectArchetype": "WillowGame.Default__BodyClassDefinition"
}