{
  "bHealthy": true,
  "bInjured": false,
  "bDead": false,
  "VfTableObject": "",
  "HashNext": "",
  "ObjectFlags": "",
  "HashOuterNext": "",
  "StateFrame": "",
  "Linker": null,
  "LinkerIndex": "",
  "ObjectInternalInteger": 129316,
  "NetIndex": 123,
  "Outer": "GD_BuffDrinks.Skill.Skill_BuffDrink_HealingRegen",
  "Name": "HealthStateExpressionEvaluator_0",
  "Class": "WillowGame.HealthStateExpressionEvaluator",
  "ObjectArchetype": "WillowGame.Default__HealthStateExpressionEvaluator"
}