{
  "bHealthy": true,
  "bInjured": false,
  "bDead": false,
  "VfTableObject": "",
  "HashNext": "",
  "ObjectFlags": "",
  "HashOuterNext": "",
  "StateFrame": "",
  "Linker": null,
  "LinkerIndex": "",
  "ObjectInternalInteger": 176114,
  "NetIndex": 111,
  "Outer": "GD_Orchid_RaidWeapons.Shield.Skill_SeraphShield_HealthRegen",
  "Name": "HealthStateExpressionEvaluator_0",
  "Class": "WillowGame.HealthStateExpressionEvaluator",
  "ObjectArchetype": "WillowGame.Default__HealthStateExpressionEvaluator"
}