{
  "LoaderMap": "Loader",
  "LevelWorldDiscoveryStatID": null,
  "TotalNumWorldDiscoveryAreas": 0,
  "AllAreasDiscoveredAchievement": "WA_Invalid",
  "LevelList": [
    {
      "PersistentMap": "Xmas_P",
      "SecondaryMaps": [
        "Xmas_Audio", "Xmas_Combat", "Xmas_Dynamic", "XMas_Light",
        "Xmas_Skybox", "Xmas_Boss", "Xmas_Mission"
      ],
      "ConnectedPersistents": null,
      "LevelName": "Frost Bottom",
      "GameReleaseDef": "GD_AlliumPackageDef.GameRelease_Allium",
      "DiscoveryAchievements": null
    }
  ],
  "VfTableObject": "",
  "HashNext": "",
  "ObjectFlags": "",
  "HashOuterNext": "",
  "StateFrame": "",
  "Linker": null,
  "LinkerIndex": "",
  "ObjectInternalInteger": 162556,
  "NetIndex": 15,
  "Outer": "Package'GD_AlliumPackageDef'",
  "Name": "AlliumXmas_LevelList",
  "Class": "WillowGame.LevelDependencyList",
  "ObjectArchetype": "WillowGame.Default__LevelDependencyList"
}