{
  "StaggeredPhysicalMaterial":
    "GD_ConstructorShared.Stagger.PhysMaterial_Stagger_Constructor",
  "StaggeredGravity": -1000.0,
  "StaggeredRestVelocity": 10.0,
  "StaggeredRestTimeMin": 0.5,
  "StaggeredRestTimeMax": 3.0,
  "StaggeredPhysicsBlendOutSpeed": 2.0,
  "StaggeredRestGiveUpTime": 25.0,
  "VehicleStaggerSpeed": 500.0,
  "bPrefersOverTheHoodOnVehicleImpact": false,
  "StaggeredOverHoodMinSpeed": 600.0,
  "MaxStaggerAdjustExtents": { "X": 0.0, "Y": 0.0, "Z": 0.0 },
  "StaggeredRecoveryRotation": { "BoneName": "Body", "BoneAxis": "AXIS_X" },
  "HardFlinchAnimation": null,
  "UnstaggerGiveUpTime": 60.0,
  "VfTableObject": "",
  "HashNext": "",
  "ObjectFlags": "",
  "HashOuterNext": "",
  "StateFrame": "",
  "Linker": null,
  "LinkerIndex": "",
  "ObjectInternalInteger": 192389,
  "NetIndex": 1970,
  "Outer": "GD_ConstructorShared.Stagger",
  "Name": "StaggerDef_ConstructorTurret",
  "Class": "WillowGame.StaggerDefinition",
  "ObjectArchetype": "WillowGame.Default__StaggerDefinition"
}