{
  "StaggeredPhysicalMaterial":
    "GD_EngineerShared.Stagger.PhysMaterial_Stagger_EngineerShared",
  "StaggeredGravity": -1000.0,
  "StaggeredRestVelocity": 10.0,
  "StaggeredRestTimeMin": 0.5,
  "StaggeredRestTimeMax": 3.0,
  "StaggeredPhysicsBlendOutSpeed": 2.0,
  "StaggeredRestGiveUpTime": 25.0,
  "VehicleStaggerSpeed": 500.0,
  "bPrefersOverTheHoodOnVehicleImpact": true,
  "StaggeredOverHoodMinSpeed": 600.0,
  "MaxStaggerAdjustExtents": { "X": 0.0, "Y": 0.0, "Z": 90.0 },
  "StaggeredRecoveryRotation": { "BoneName": "Spine2", "BoneAxis": "AXIS_X" },
  "HardFlinchAnimation":
    "GD_EngineerArmsShared.Anims.Anim_EngineerArmsShared_HeadHit",
  "UnstaggerGiveUpTime": 60.0,
  "VfTableObject": "",
  "HashNext": "",
  "ObjectFlags": "",
  "HashOuterNext": "",
  "StateFrame": "",
  "Linker": null,
  "LinkerIndex": "",
  "ObjectInternalInteger": 186115,
  "NetIndex": 1046,
  "Outer": "GD_EngineerShared.Stagger",
  "Name": "StaggerDef_Engineer_Big",
  "Class": "WillowGame.StaggerDefinition",
  "ObjectArchetype": "WillowGame.Default__StaggerDefinition"
}