{
  "ConstantValue": 54.0,
  "VfTableObject": "",
  "HashNext": "",
  "ObjectFlags": "",
  "HashOuterNext": "",
  "StateFrame": "",
  "Linker": null,
  "LinkerIndex": "",
  "ObjectInternalInteger": 159866,
  "NetIndex": 143,
  "Outer": "GD_Ammodrops.AmmoPickup_Amounts.AmmoAmountShop_Repeater",
  "Name": "ConstantAttributeValueResolver_4",
  "Class": "GearboxFramework.ConstantAttributeValueResolver",
  "ObjectArchetype":
    "GearboxFramework.Default__ConstantAttributeValueResolver"
}