{
  "ConstantValue": 0.0,
  "VfTableObject": "",
  "HashNext": "",
  "ObjectFlags": "",
  "HashOuterNext": "",
  "StateFrame": "",
  "Linker": null,
  "LinkerIndex": "",
  "ObjectInternalInteger": 107974,
  "NetIndex": 105,
  "Outer": "GD_BlackMarket.Misc.Att_BlackMarketUpgrade_TopStat",
  "Name": "ConstantAttributeValueResolver_0",
  "Class": "GearboxFramework.ConstantAttributeValueResolver",
  "ObjectArchetype":
    "GearboxFramework.Default__ConstantAttributeValueResolver"
}