{
  "ConstantValue": 2.6,
  "VfTableObject": "",
  "HashNext": "",
  "ObjectFlags": "",
  "HashOuterNext": "",
  "StateFrame": "",
  "Linker": null,
  "LinkerIndex": "",
  "ObjectInternalInteger": 108147,
  "NetIndex": 139,
  "Outer": "GD_Economy.Rarity.Att_Price_RarityMultiplier_03_Rare",
  "Name": "ConstantAttributeValueResolver_0",
  "Class": "GearboxFramework.ConstantAttributeValueResolver",
  "ObjectArchetype":
    "GearboxFramework.Default__ConstantAttributeValueResolver"
}