{
  "ConstantValue": 0.9,
  "VfTableObject": "",
  "HashNext": "",
  "ObjectFlags": "",
  "HashOuterNext": "",
  "StateFrame": "",
  "Linker": null,
  "LinkerIndex": "",
  "ObjectInternalInteger": 182424,
  "NetIndex": 107,
  "Outer": "GD_Economy.BaseCost.Att_BaseCost_Ammo_PistolAmmo",
  "Name": "ConstantAttributeValueResolver_0",
  "Class": "GearboxFramework.ConstantAttributeValueResolver",
  "ObjectArchetype":
    "GearboxFramework.Default__ConstantAttributeValueResolver"
}