{
  "ConstantValue": 0.0015,
  "VfTableObject": "",
  "HashNext": "",
  "ObjectFlags": "",
  "HashOuterNext": "",
  "StateFrame": "",
  "Linker": null,
  "LinkerIndex": "",
  "ObjectInternalInteger": 108260,
  "NetIndex": 82,
  "Outer": "GD_Itempools.DropWeights.DropODDS_EridiumBar",
  "Name": "ConstantAttributeValueResolver_1",
  "Class": "GearboxFramework.ConstantAttributeValueResolver",
  "ObjectArchetype":
    "GearboxFramework.Default__ConstantAttributeValueResolver"
}