{
  "ConstantValue": 0.07000000000000001,
  "VfTableObject": "",
  "HashNext": "",
  "ObjectFlags": "",
  "HashOuterNext": "",
  "StateFrame": "",
  "Linker": null,
  "LinkerIndex": "",
  "ObjectInternalInteger": 221324,
  "NetIndex": 313,
  "Outer":
    "GD_Lilac_Skills_Hellborn.Attributes.Att_BurnBabyBurn_BurnModifierBonus",
  "Name": "ConstantAttributeValueResolver_0",
  "Class": "GearboxFramework.ConstantAttributeValueResolver",
  "ObjectArchetype":
    "GearboxFramework.Default__ConstantAttributeValueResolver"
}