{
  "ConstantValue": 0.002,
  "VfTableObject": "",
  "HashNext": "",
  "ObjectFlags": "",
  "HashOuterNext": "",
  "StateFrame": "",
  "Linker": null,
  "LinkerIndex": "",
  "ObjectInternalInteger": 221398,
  "NetIndex": 356,
  "Outer":
    "GD_Lilac_Skills_Bloodlust.Attributes.Att_BloodEuphoria_PerGradeHealthModifier",
  "Name": "ConstantAttributeValueResolver_0",
  "Class": "GearboxFramework.ConstantAttributeValueResolver",
  "ObjectArchetype":
    "GearboxFramework.Default__ConstantAttributeValueResolver"
}