{
  "ConstantValue": 1.0,
  "VfTableObject": "",
  "HashNext": "",
  "ObjectFlags": "",
  "HashOuterNext": "",
  "StateFrame": "",
  "Linker": null,
  "LinkerIndex": "",
  "ObjectInternalInteger": 108399,
  "NetIndex": 14,
  "Outer": "GD_MissionRewardBalance.Cash.CashReward_03_Medium",
  "Name": "ConstantAttributeValueResolver_0",
  "Class": "GearboxFramework.ConstantAttributeValueResolver",
  "ObjectArchetype":
    "GearboxFramework.Default__ConstantAttributeValueResolver"
}