{
  "ConstantValue": 0.008,
  "VfTableObject": "",
  "HashNext": "",
  "ObjectFlags": "",
  "HashOuterNext": "",
  "StateFrame": "",
  "Linker": null,
  "LinkerIndex": "",
  "ObjectInternalInteger": 189277,
  "NetIndex": 684,
  "Outer":
    "GD_Tulip_Mechromancer_Skills.Misc.Att_UnstoppableForce_ShieldRegen_PerLvl",
  "Name": "ConstantAttributeValueResolver_0",
  "Class": "GearboxFramework.ConstantAttributeValueResolver",
  "ObjectArchetype":
    "GearboxFramework.Default__ConstantAttributeValueResolver"
}