{
  "AimProfile": "Default",
  "Enter": "GD_NomadShared.Anims.CoverStance_LowCenter:Enter0",
  "Exit": "GD_NomadShared.Anims.CoverStance_LowCenter:Exit0",
  "Idle": "GD_NomadShared.Anims.CoverStance_LowCenter:Idle0",
  "FireEnter": "GD_NomadShared.Anims.CoverStance_LowCenter:FireEnter0",
  "FireExit": "GD_NomadShared.Anims.CoverStance_LowCenter:FireExit0",
  "FireIdle": "GD_NomadShared.Anims.CoverStance_LowCenter:FireIdle0",
  "VfTableObject": "",
  "HashNext": "",
  "ObjectFlags": "",
  "HashOuterNext": "",
  "StateFrame": "",
  "Linker": null,
  "LinkerIndex": "",
  "ObjectInternalInteger": 208042,
  "NetIndex": 1128,
  "Outer": "GD_NomadShared.Anims",
  "Name": "CoverStance_LowCenter",
  "Class": "WillowGame.WillowCoverStanceDefinition",
  "ObjectArchetype": "WillowGame.Default__WillowCoverStanceDefinition"
}