{
  "AimProfile": "Default",
  "Enter": "GD_Sheriff.Anims.CoverStance_HighLeft:Enter0",
  "Exit": "GD_Sheriff.Anims.CoverStance_HighLeft:Exit0",
  "Idle": "GD_Sheriff.Anims.CoverStance_HighLeft:Idle0",
  "FireEnter": "GD_Sheriff.Anims.CoverStance_HighLeft:FireEnter0",
  "FireExit": "GD_Sheriff.Anims.CoverStance_HighLeft:FireExit0",
  "FireIdle": "GD_Sheriff.Anims.CoverStance_HighLeft:FireIdle0",
  "VfTableObject": "",
  "HashNext": "",
  "ObjectFlags": "",
  "HashOuterNext": "",
  "StateFrame": "",
  "Linker": null,
  "LinkerIndex": "",
  "ObjectInternalInteger": 187156,
  "NetIndex": 704,
  "Outer": "GD_Sheriff.Anims",
  "Name": "CoverStance_HighLeft",
  "Class": "WillowGame.WillowCoverStanceDefinition",
  "ObjectArchetype": "WillowGame.Default__WillowCoverStanceDefinition"
}