{
  "FormOfCurrency": "CURRENCY_Credits",
  "VfTableObject": "",
  "HashNext": "",
  "ObjectFlags": "",
  "HashOuterNext": "",
  "StateFrame": "",
  "Linker": null,
  "LinkerIndex": "",
  "ObjectInternalInteger": 107358,
  "NetIndex": 671,
  "Outer": "D_Attributes.Currency.CreditsOnHand",
  "Name": "CurrencyAttributeValueResolver_0",
  "Class": "WillowGame.CurrencyAttributeValueResolver",
  "ObjectArchetype": "WillowGame.Default__CurrencyAttributeValueResolver"
}