{
  "VfTable_IIConstructObject": "",
  "PawnArchetypePath": "GD_Assassin_Streaming.Pawn_Assassin",
  "SkillTreePath": "GD_Assassin_Streaming.SkillTree.SkillTree_Assassin",
  "InitialFOVModifierSpeed": 10.0,
  "InitialEyeHeightModifierSpeed": 10.0,
  "GotFirstSkillPointStatID": "STAT_PLAYER_FIRST_SKILL_POINT_CLASS_A",
  "MaximumCoDependentDamageReturnRange": 1000.0,
  "ActionSkillAvailableAkEvent": null,
  "ExperiencePoolDefinition": "D_Resourcepools.PlayerPools.ExperiencePool",
  "SkillCooldownPoolDefinition":
    "D_Resourcepools.PlayerPools.ActiveSkillCooldownPool_Assassin",
  "MeleeSkillCooldownPoolDefinition": null,
  "BulletReflectionParticle": null,
  "GFxUIManagerDefinition": "Menus_Common.Definitions.GFxUIManager",
  "bNeedsDualWieldInventoryGuides": false,
  "bMeleeSkillUsesSharedWeaponAction": false,
  "CharacterSelectUIPrimaryStandInOffset": {
    "X": 0.15,
    "Y": -19.18,
    "Z": -18.630001
  },
  "CharacterSelectUIPrimaryStandInRotation": {
    "Pitch": 0,
    "Yaw": -55705,
    "Roll": 0
  },
  "CharacterSelectUISplitStandInOffset": {
    "X": 32.900002,
    "Y": -26.01,
    "Z": -8.960000000000001
  },
  "CharacterSelectUISplitStandInRotation": {
    "Pitch": 0,
    "Yaw": -56069,
    "Roll": 0
  },
  "LowHealthPercent": 0.3,
  "CharacterNameId": "GD_PlayerNameId.Assassin",
  "InputContextSelector": "WillowGame.AssassinInputContextSelector",
  "InputDeviceCollection":
    "GD_Assassin.InputDevices.DeviceCollection_Assassin",
  "SprintSettings": "GD_PlayerShared.Sprint.SprintDefinition_Default",
  "FocusDef": "GD_PlayerShared.FocusCamera.FocusCameraDefinition",
  "ExtraClipPostTranslate": { "X": -5.0, "Y": -30.0, "Z": 8.0 },
  "TradeInteractionDefinition":
    "GD_PlayerShared.Trade.PlayerTradeInteractionDefinition",
  "CharacterInjuredDefinitionOverride": null,
  "InjuredDefOverridePath":
    "(PathComponentNames[0]=,PathComponentNames[1]=,PathComponentNames[2]=,PathComponentNames[3]=,PathComponentNames[4]=,PathComponentNames[5]=,IsSubobjectMask=0)",
  "PlayerClassAchievementData": [
    {
      "UnlockType": "PCAUT_TimeSpentInActionSkill",
      "Achievement": "WA_UnseenPredator",
      "IntData": 10
    }
  ],
  "InputContexts": [
    {
      "ContextName": "VisionMode",
      "Definition":
        "GD_Assassin.InputContexts.InputContext_AssassinVisionMode"
    },
    {
      "ContextName": "Execute",
      "Definition": "GD_Assassin.InputContexts.InputContext_AssassinExecute"
    }
  ],
  "OnLevelUpNaturally": [
    "GD_Assassin.Character.CharClass_Assassin:Behavior_RunBehaviorCollection_2"
  ],
  "OnLevelUp": [
    "GD_Assassin.Character.CharClass_Assassin:Behavior_RunBehaviorCollection_6"
  ],
  "VfTable_IIBehaviorProvider": "",
  "AttributeParentClass": null,
  "BaseCommerceMarkup": {
    "BaseValueConstant": 1.0,
    "BaseValueAttribute": null,
    "InitializationDefinition": null,
    "BaseValueScaleConstant": 1.0
  },
  "bCountsTowardDamageAndKillStats": true,
  "bTreatAsVehicleForStats": false,
  "KilledStatID": null,
  "KilledCriticalStatID": null,
  "RanOverStatID": null,
  "LevelUpKillStat": null,
  "BaseIgniteChanceResistanceModifier": {
    "BaseValueConstant": 1.0,
    "BaseValueAttribute": null,
    "InitializationDefinition": null,
    "BaseValueScaleConstant": 1.0
  },
  "BaseShockChanceResistanceModifier": {
    "BaseValueConstant": 1.0,
    "BaseValueAttribute": null,
    "InitializationDefinition": null,
    "BaseValueScaleConstant": 1.0
  },
  "BaseCorrosiveChanceResistanceModifier": {
    "BaseValueConstant": 1.0,
    "BaseValueAttribute": null,
    "InitializationDefinition": null,
    "BaseValueScaleConstant": 1.0
  },
  "BaseSlowChanceResistanceModifier": {
    "BaseValueConstant": 1.0,
    "BaseValueAttribute": null,
    "InitializationDefinition": null,
    "BaseValueScaleConstant": 1.0
  },
  "BaseAmpChanceResistanceModifier": {
    "BaseValueConstant": 1.0,
    "BaseValueAttribute": null,
    "InitializationDefinition": null,
    "BaseValueScaleConstant": 1.0
  },
  "BaseIgniteDurationResistanceModifier": {
    "BaseValueConstant": 1.0,
    "BaseValueAttribute": null,
    "InitializationDefinition": null,
    "BaseValueScaleConstant": 1.0
  },
  "BaseShockDurationResistanceModifier": {
    "BaseValueConstant": 1.0,
    "BaseValueAttribute": null,
    "InitializationDefinition": null,
    "BaseValueScaleConstant": 1.0
  },
  "BaseCorrosiveDurationResistanceModifier": {
    "BaseValueConstant": 1.0,
    "BaseValueAttribute": null,
    "InitializationDefinition": null,
    "BaseValueScaleConstant": 1.0
  },
  "BaseSlowDurationResistanceModifier": {
    "BaseValueConstant": 1.0,
    "BaseValueAttribute": null,
    "InitializationDefinition": null,
    "BaseValueScaleConstant": 1.0
  },
  "BaseAmpDurationResistanceModifier": {
    "BaseValueConstant": 1.0,
    "BaseValueAttribute": null,
    "InitializationDefinition": null,
    "BaseValueScaleConstant": 1.0
  },
  "BehaviorProviderDefinition": null,
  "RevivalHealthMultiplier": 1.0,
  "CharacterInjuredDefinition":
    "GD_PlayerShared.injured.PlayerInjuredDefinition",
  "EligibleUsage": [ "WillowGame.CustomizationUsage_Assassin" ],
  "GroundSpeed": 440.0,
  "AirSpeed": 500.0,
  "WalkingPct": 0.3,
  "SprintingPct": 1.0,
  "JumpZ": 630.0,
  "CrouchedPct": 0.5,
  "BaseEncumbranceResistance": {
    "BaseValueConstant": 0.0,
    "BaseValueAttribute": null,
    "InitializationDefinition": null,
    "BaseValueScaleConstant": 1.0
  },
  "MaxFallSpeed": 1500.0,
  "HealthPoolDefinition": "D_Resourcepools.PlayerPools.HealthPool",
  "ShieldPoolDefinition": "D_Resourcepools.PlayerPools.ShieldPool",
  "AccuracyPoolDefinition": "D_Resourcepools.PlayerPools.AccuracyPool",
  "OffHandAccuracyPoolDefinition": null,
  "bDealsLocationalDamage": false,
  "CanHarmSelf": false,
  "bAutoDisableAttractorOnDeath": true,
  "BaseArmor": {
    "BaseValueConstant": 0.0,
    "BaseValueAttribute": null,
    "InitializationDefinition": null,
    "BaseValueScaleConstant": 1.0
  },
  "BaseNormalDamageModifiers": {
    "ResistanceToImpact": {
      "BaseValueConstant": 1.0,
      "BaseValueAttribute": null,
      "InitializationDefinition": null,
      "BaseValueScaleConstant": 1.0
    },
    "ResistanceToStatusEffect": {
      "BaseValueConstant": 1.0,
      "BaseValueAttribute": null,
      "InitializationDefinition": null,
      "BaseValueScaleConstant": 1.0
    }
  },
  "BaseExplosiveDamageModifiers": {
    "ResistanceToImpact": {
      "BaseValueConstant": 1.0,
      "BaseValueAttribute": null,
      "InitializationDefinition": null,
      "BaseValueScaleConstant": 1.0
    },
    "ResistanceToStatusEffect": {
      "BaseValueConstant": 1.0,
      "BaseValueAttribute": null,
      "InitializationDefinition": null,
      "BaseValueScaleConstant": 1.0
    }
  },
  "BaseShockDamageModifiers": {
    "ResistanceToImpact": {
      "BaseValueConstant": 1.0,
      "BaseValueAttribute": null,
      "InitializationDefinition": null,
      "BaseValueScaleConstant": 1.0
    },
    "ResistanceToStatusEffect": {
      "BaseValueConstant": 1.0,
      "BaseValueAttribute": null,
      "InitializationDefinition": null,
      "BaseValueScaleConstant": 1.0
    }
  },
  "BaseCorrosiveDamageModifiers": {
    "ResistanceToImpact": {
      "BaseValueConstant": 1.0,
      "BaseValueAttribute": null,
      "InitializationDefinition": null,
      "BaseValueScaleConstant": 1.0
    },
    "ResistanceToStatusEffect": {
      "BaseValueConstant": 1.0,
      "BaseValueAttribute": null,
      "InitializationDefinition": null,
      "BaseValueScaleConstant": 1.0
    }
  },
  "BaseIncendiaryDamageModifiers": {
    "ResistanceToImpact": {
      "BaseValueConstant": 1.0,
      "BaseValueAttribute": null,
      "InitializationDefinition": null,
      "BaseValueScaleConstant": 1.0
    },
    "ResistanceToStatusEffect": {
      "BaseValueConstant": 1.0,
      "BaseValueAttribute": null,
      "InitializationDefinition": null,
      "BaseValueScaleConstant": 1.0
    }
  },
  "BaseAmpDamageModifiers": {
    "ResistanceToImpact": {
      "BaseValueConstant": 1.0,
      "BaseValueAttribute": null,
      "InitializationDefinition": null,
      "BaseValueScaleConstant": 1.0
    },
    "ResistanceToStatusEffect": {
      "BaseValueConstant": 1.0,
      "BaseValueAttribute": null,
      "InitializationDefinition": null,
      "BaseValueScaleConstant": 1.0
    }
  },
  "ResourcePools": [
    "D_Resourcepools.AmmoPools.Ammo_Combat_Rifle_Pool",
    "D_Resourcepools.AmmoPools.Ammo_Combat_Shotgun_Pool",
    "D_Resourcepools.AmmoPools.Ammo_Grenade_Protean_Pool",
    "D_Resourcepools.AmmoPools.Ammo_Patrol_SMG_Pool",
    "D_Resourcepools.AmmoPools.Ammo_Repeater_Pistol_Pool",
    "D_Resourcepools.AmmoPools.Ammo_Rocket_Launcher_Pool",
    "D_Resourcepools.AmmoPools.Ammo_Sniper_Rifle_Pool"
  ],
  "VfTableObject": "",
  "HashNext": "",
  "ObjectFlags": "",
  "HashOuterNext": "",
  "StateFrame": "",
  "Linker": null,
  "LinkerIndex": "",
  "ObjectInternalInteger": 116219,
  "NetIndex": 17,
  "Outer": "GD_Assassin.Character",
  "Name": "CharClass_Assassin",
  "Class": "WillowGame.PlayerClassDefinition",
  "ObjectArchetype": "WillowGame.Default__PlayerClassDefinition"
}