{
  "RootChild":
    "GD_ArmoredPsycho.Character.BodyClass_ArmoredPsycho:ExpressionTree_116.CompoundExpressionEvaluator_116",
  "VfTableObject": "",
  "HashNext": "",
  "ObjectFlags": "",
  "HashOuterNext": "",
  "StateFrame": "",
  "Linker": null,
  "LinkerIndex": "",
  "ObjectInternalInteger": 208398,
  "NetIndex": 68,
  "Outer": "GD_ArmoredPsycho.Character.BodyClass_ArmoredPsycho",
  "Name": "ExpressionTree_116",
  "Class": "Engine.ExpressionTree",
  "ObjectArchetype": "Engine.Default__ExpressionTree"
}