{
  "RootChild":
    "GD_Allium_Tim.Character.BodyClass_Allium_Tim:ExpressionTree_136.CompoundExpressionEvaluator_136",
  "VfTableObject": "",
  "HashNext": "",
  "ObjectFlags": "",
  "HashOuterNext": "",
  "StateFrame": "",
  "Linker": null,
  "LinkerIndex": "",
  "ObjectInternalInteger": 206810,
  "NetIndex": 87,
  "Outer": "GD_Allium_Tim.Character.BodyClass_Allium_Tim",
  "Name": "ExpressionTree_136",
  "Class": "Engine.ExpressionTree",
  "ObjectArchetype": "Engine.Default__ExpressionTree"
}