{
  "RootChild":
    "GD_Allium_MarauderKitchen.Character.BodyClass_MarauderKitchen:ExpressionTree_103.CompoundExpressionEvaluator_103",
  "VfTableObject": "",
  "HashNext": "",
  "ObjectFlags": "",
  "HashOuterNext": "",
  "StateFrame": "",
  "Linker": null,
  "LinkerIndex": "",
  "ObjectInternalInteger": 217492,
  "NetIndex": 208,
  "Outer": "GD_Allium_MarauderKitchen.Character.BodyClass_MarauderKitchen",
  "Name": "ExpressionTree_103",
  "Class": "Engine.ExpressionTree",
  "ObjectArchetype": "Engine.Default__ExpressionTree"
}