{
  "RootChild":
    "gd_blackqueen.Character.AIDef_BlackQueen:ExpressionTree_16.CompoundExpressionEvaluator_2",
  "VfTableObject": "",
  "HashNext": "",
  "ObjectFlags": "",
  "HashOuterNext": "",
  "StateFrame": "",
  "Linker": null,
  "LinkerIndex": "",
  "ObjectInternalInteger": 198558,
  "NetIndex": 167,
  "Outer": "gd_blackqueen.Character.AIDef_BlackQueen",
  "Name": "ExpressionTree_16",
  "Class": "Engine.ExpressionTree",
  "ObjectArchetype": "Engine.Default__ExpressionTree"
}