{
  "RootChild":
    "GD_BanditTechnical.AI.AIDef_BanditTechnicalGunner:ExpressionTree_1.AttributeExpressionEvaluator_22",
  "VfTableObject": "",
  "HashNext": "",
  "ObjectFlags": "",
  "HashOuterNext": "",
  "StateFrame": "",
  "Linker": null,
  "LinkerIndex": "",
  "ObjectInternalInteger": 155825,
  "NetIndex": 496,
  "Outer": "GD_BanditTechnical.AI.AIDef_BanditTechnicalGunner",
  "Name": "ExpressionTree_1",
  "Class": "Engine.ExpressionTree",
  "ObjectArchetype": "Engine.Default__ExpressionTree"
}