{
  "RootChild":
    "GD_ConstructorShared.Flags.Flag_CanSpawnTurret:ExpressionTree_0.CompoundExpressionEvaluator_0",
  "VfTableObject": "",
  "HashNext": "",
  "ObjectFlags": "",
  "HashOuterNext": "",
  "StateFrame": "",
  "Linker": null,
  "LinkerIndex": "",
  "ObjectInternalInteger": 207567,
  "NetIndex": 1043,
  "Outer": "GD_ConstructorShared.Flags.Flag_CanSpawnTurret",
  "Name": "ExpressionTree_0",
  "Class": "Engine.ExpressionTree",
  "ObjectArchetype": "Engine.Default__ExpressionTree"
}