{
  "RootChild":
    "GD_GoliathCorrosive.Character.AIDef_GoliathCorrosive:ExpressionTree_14.CompoundExpressionEvaluator_0",
  "VfTableObject": "",
  "HashNext": "",
  "ObjectFlags": "",
  "HashOuterNext": "",
  "StateFrame": "",
  "Linker": null,
  "LinkerIndex": "",
  "ObjectInternalInteger": 196162,
  "NetIndex": 424,
  "Outer": "GD_GoliathCorrosive.Character.AIDef_GoliathCorrosive",
  "Name": "ExpressionTree_14",
  "Class": "Engine.ExpressionTree",
  "ObjectArchetype": "Engine.Default__ExpressionTree"
}