{
  "RootChild":
    "GD_HodunkBadass.Character.BodyClass_HodunkBadass:ExpressionTree_93.CompoundExpressionEvaluator_93",
  "VfTableObject": "",
  "HashNext": "",
  "ObjectFlags": "",
  "HashOuterNext": "",
  "StateFrame": "",
  "Linker": null,
  "LinkerIndex": "",
  "ObjectInternalInteger": 229179,
  "NetIndex": 263,
  "Outer": "GD_HodunkBadass.Character.BodyClass_HodunkBadass",
  "Name": "ExpressionTree_93",
  "Class": "Engine.ExpressionTree",
  "ObjectArchetype": "Engine.Default__ExpressionTree"
}