{
  "RootChild":
    "GD_Iris_BikeRiderMarauderBadass.Character.BodyClass_Iris_BikeRiderMarauderBadass:ExpressionTree_95.CompoundExpressionEvaluator_95",
  "VfTableObject": "",
  "HashNext": "",
  "ObjectFlags": "",
  "HashOuterNext": "",
  "StateFrame": "",
  "Linker": null,
  "LinkerIndex": "",
  "ObjectInternalInteger": 212599,
  "NetIndex": 38,
  "Outer":
    "GD_Iris_BikeRiderMarauderBadass.Character.BodyClass_Iris_BikeRiderMarauderBadass",
  "Name": "ExpressionTree_95",
  "Class": "Engine.ExpressionTree",
  "ObjectArchetype": "Engine.Default__ExpressionTree"
}