{
  "RootChild":
    "GD_Iris_SayFaceTroll.Character.BodyClass_Iris_SayFaceTroll:ExpressionTree_95.CompoundExpressionEvaluator_95",
  "VfTableObject": "",
  "HashNext": "",
  "ObjectFlags": "",
  "HashOuterNext": "",
  "StateFrame": "",
  "Linker": null,
  "LinkerIndex": "",
  "ObjectInternalInteger": 207246,
  "NetIndex": 38,
  "Outer": "GD_Iris_SayFaceTroll.Character.BodyClass_Iris_SayFaceTroll",
  "Name": "ExpressionTree_95",
  "Class": "Engine.ExpressionTree",
  "ObjectArchetype": "Engine.Default__ExpressionTree"
}