{
  "RootChild":
    "GD_Iris_BikeRiderPsycho.Character.BodyClass_Iris_BikeRiderPsycho:ExpressionTree_136.CompoundExpressionEvaluator_136",
  "VfTableObject": "",
  "HashNext": "",
  "ObjectFlags": "",
  "HashOuterNext": "",
  "StateFrame": "",
  "Linker": null,
  "LinkerIndex": "",
  "ObjectInternalInteger": 212587,
  "NetIndex": 770,
  "Outer": "GD_Iris_BikeRiderPsycho.Character.BodyClass_Iris_BikeRiderPsycho",
  "Name": "ExpressionTree_136",
  "Class": "Engine.ExpressionTree",
  "ObjectArchetype": "Engine.Default__ExpressionTree"
}