{
  "RootChild":
    "GD_Loadershared.Character.BodyClass_LoaderShared:ExpressionTree_0.CompoundExpressionEvaluator_0",
  "VfTableObject": "",
  "HashNext": "",
  "ObjectFlags": "",
  "HashOuterNext": "",
  "StateFrame": "",
  "Linker": null,
  "LinkerIndex": "",
  "ObjectInternalInteger": 204258,
  "NetIndex": 2217,
  "Outer": "GD_Loadershared.Character.BodyClass_LoaderShared",
  "Name": "ExpressionTree_0",
  "Class": "Engine.ExpressionTree",
  "ObjectArchetype": "Engine.Default__ExpressionTree"
}