{
  "RootChild":
    "GD_Lynchwood_Male.Character.BodyClass_Lynchwood_Male:ExpressionTree_93.CompoundExpressionEvaluator_93",
  "VfTableObject": "",
  "HashNext": "",
  "ObjectFlags": "",
  "HashOuterNext": "",
  "StateFrame": "",
  "Linker": null,
  "LinkerIndex": "",
  "ObjectInternalInteger": 217457,
  "NetIndex": 94,
  "Outer": "GD_Lynchwood_Male.Character.BodyClass_Lynchwood_Male",
  "Name": "ExpressionTree_93",
  "Class": "Engine.ExpressionTree",
  "ObjectArchetype": "Engine.Default__ExpressionTree"
}