{
  "RootChild":
    "GD_LootMidget_Goliath.Character.BodyClass_LootMidget_Goliath:ExpressionTree_0.CompoundExpressionEvaluator_0",
  "VfTableObject": "",
  "HashNext": "",
  "ObjectFlags": "",
  "HashOuterNext": "",
  "StateFrame": "",
  "Linker": null,
  "LinkerIndex": "",
  "ObjectInternalInteger": 225601,
  "NetIndex": 211,
  "Outer": "GD_LootMidget_Goliath.Character.BodyClass_LootMidget_Goliath",
  "Name": "ExpressionTree_0",
  "Class": "Engine.ExpressionTree",
  "ObjectArchetype": "Engine.Default__ExpressionTree"
}