{
  "RootChild":
    "GD_LoaderION.Character.BodyClass_LoaderION:ExpressionTree_0.CompoundExpressionEvaluator_0",
  "VfTableObject": "",
  "HashNext": "",
  "ObjectFlags": "",
  "HashOuterNext": "",
  "StateFrame": "",
  "Linker": null,
  "LinkerIndex": "",
  "ObjectInternalInteger": 204276,
  "NetIndex": 206,
  "Outer": "GD_LoaderION.Character.BodyClass_LoaderION",
  "Name": "ExpressionTree_0",
  "Class": "Engine.ExpressionTree",
  "ObjectArchetype": "Engine.Default__ExpressionTree"
}