{
  "RootChild":
    "GD_MadDog.Character.BodyClass_MadDog:ExpressionTree_124.CompoundExpressionEvaluator_124",
  "VfTableObject": "",
  "HashNext": "",
  "ObjectFlags": "",
  "HashOuterNext": "",
  "StateFrame": "",
  "Linker": null,
  "LinkerIndex": "",
  "ObjectInternalInteger": 209081,
  "NetIndex": 309,
  "Outer": "GD_MadDog.Character.BodyClass_MadDog",
  "Name": "ExpressionTree_124",
  "Class": "Engine.ExpressionTree",
  "ObjectArchetype": "Engine.Default__ExpressionTree"
}