{
  "RootChild":
    "GD_MarauderMidget.Character.BodyClass_MarauderMidget:ExpressionTree_113.CompoundExpressionEvaluator_113",
  "VfTableObject": "",
  "HashNext": "",
  "ObjectFlags": "",
  "HashOuterNext": "",
  "StateFrame": "",
  "Linker": null,
  "LinkerIndex": "",
  "ObjectInternalInteger": 225560,
  "NetIndex": 75,
  "Outer": "GD_MarauderMidget.Character.BodyClass_MarauderMidget",
  "Name": "ExpressionTree_113",
  "Class": "Engine.ExpressionTree",
  "ObjectArchetype": "Engine.Default__ExpressionTree"
}