{
  "RootChild":
    "GD_MrBubbles.Character.BodyClass_MrBubbles:ExpressionTree_136.CompoundExpressionEvaluator_136",
  "VfTableObject": "",
  "HashNext": "",
  "ObjectFlags": "",
  "HashOuterNext": "",
  "StateFrame": "",
  "Linker": null,
  "LinkerIndex": "",
  "ObjectInternalInteger": 236878,
  "NetIndex": 185,
  "Outer": "GD_MrBubbles.Character.BodyClass_MrBubbles",
  "Name": "ExpressionTree_136",
  "Class": "Engine.ExpressionTree",
  "ObjectArchetype": "Engine.Default__ExpressionTree"
}