{
  "RootChild":
    "GD_Mercenary_Streaming.WeaponHolds.WeaponHold_Merc_Default:ExpressionTree_1.CompoundExpressionEvaluator_1",
  "VfTableObject": "",
  "HashNext": "",
  "ObjectFlags": "",
  "HashOuterNext": "",
  "StateFrame": "",
  "Linker": null,
  "LinkerIndex": "",
  "ObjectInternalInteger": 216326,
  "NetIndex": 371,
  "Outer": "GD_Mercenary_Streaming.WeaponHolds.WeaponHold_Merc_Default",
  "Name": "ExpressionTree_1",
  "Class": "Engine.ExpressionTree",
  "ObjectArchetype": "Engine.Default__ExpressionTree"
}