{
  "RootChild":
    "GD_MarauderRegular_Digi.Character.BodyClass_MarauderRegular_Digi:ExpressionTree_24.CompoundExpressionEvaluator_24",
  "VfTableObject": "",
  "HashNext": "",
  "ObjectFlags": "",
  "HashOuterNext": "",
  "StateFrame": "",
  "Linker": null,
  "LinkerIndex": "",
  "ObjectInternalInteger": 225649,
  "NetIndex": 299,
  "Outer": "GD_MarauderRegular_Digi.Character.BodyClass_MarauderRegular_Digi",
  "Name": "ExpressionTree_24",
  "Class": "Engine.ExpressionTree",
  "ObjectArchetype": "Engine.Default__ExpressionTree"
}