{
  "RootChild":
    "GD_MarauderBadass.Character.BodyClass_MarauderBadass:ExpressionTree_93.CompoundExpressionEvaluator_93",
  "VfTableObject": "",
  "HashNext": "",
  "ObjectFlags": "",
  "HashOuterNext": "",
  "StateFrame": "",
  "Linker": null,
  "LinkerIndex": "",
  "ObjectInternalInteger": 219444,
  "NetIndex": 27,
  "Outer": "GD_MarauderBadass.Character.BodyClass_MarauderBadass",
  "Name": "ExpressionTree_93",
  "Class": "Engine.ExpressionTree",
  "ObjectArchetype": "Engine.Default__ExpressionTree"
}