{
  "RootChild":
    "GD_Native_Soldier.Character.BodyClass_Native_Soldier:ExpressionTree_97.CompoundExpressionEvaluator_97",
  "VfTableObject": "",
  "HashNext": "",
  "ObjectFlags": "",
  "HashOuterNext": "",
  "StateFrame": "",
  "Linker": null,
  "LinkerIndex": "",
  "ObjectInternalInteger": 182377,
  "NetIndex": 287,
  "Outer": "GD_Native_Soldier.Character.BodyClass_Native_Soldier",
  "Name": "ExpressionTree_97",
  "Class": "Engine.ExpressionTree",
  "ObjectArchetype": "Engine.Default__ExpressionTree"
}