{
  "RootChild":
    "GD_Nast_Native_Soldier.Character.BodyClass_Nast_Native_Soldier:ExpressionTree_97.CompoundExpressionEvaluator_97",
  "VfTableObject": "",
  "HashNext": "",
  "ObjectFlags": "",
  "HashOuterNext": "",
  "StateFrame": "",
  "Linker": null,
  "LinkerIndex": "",
  "ObjectInternalInteger": 229072,
  "NetIndex": 274,
  "Outer": "GD_Nast_Native_Soldier.Character.BodyClass_Nast_Native_Soldier",
  "Name": "ExpressionTree_97",
  "Class": "Engine.ExpressionTree",
  "ObjectArchetype": "Engine.Default__ExpressionTree"
}