{
  "RootChild":
    "GD_Nast_Zaford_Grunt.Character.BodyClass_Nast_Zaford_Grunt:ExpressionTree_103.CompoundExpressionEvaluator_103",
  "VfTableObject": "",
  "HashNext": "",
  "ObjectFlags": "",
  "HashOuterNext": "",
  "StateFrame": "",
  "Linker": null,
  "LinkerIndex": "",
  "ObjectInternalInteger": 229128,
  "NetIndex": 288,
  "Outer": "GD_Nast_Zaford_Grunt.Character.BodyClass_Nast_Zaford_Grunt",
  "Name": "ExpressionTree_103",
  "Class": "Engine.ExpressionTree",
  "ObjectArchetype": "Engine.Default__ExpressionTree"
}