{
  "RootChild":
    "GD_Orchid_PirateNinja.Character.BodyClass_Orchid_Assassin:ExpressionTree_1.CompoundExpressionEvaluator_1",
  "VfTableObject": "",
  "HashNext": "",
  "ObjectFlags": "",
  "HashOuterNext": "",
  "StateFrame": "",
  "Linker": null,
  "LinkerIndex": "",
  "ObjectInternalInteger": 222789,
  "NetIndex": 344,
  "Outer": "GD_Orchid_PirateNinja.Character.BodyClass_Orchid_Assassin",
  "Name": "ExpressionTree_1",
  "Class": "Engine.ExpressionTree",
  "ObjectArchetype": "Engine.Default__ExpressionTree"
}