{
  "RootChild":
    "GD_Orchid_PirateHenchman.Character.BodyClass_Orchid_PirateHenchman2:ExpressionTree_94.CompoundExpressionEvaluator_94",
  "VfTableObject": "",
  "HashNext": "",
  "ObjectFlags": "",
  "HashOuterNext": "",
  "StateFrame": "",
  "Linker": null,
  "LinkerIndex": "",
  "ObjectInternalInteger": 212866,
  "NetIndex": 119,
  "Outer":
    "GD_Orchid_PirateHenchman.Character.BodyClass_Orchid_PirateHenchman2",
  "Name": "ExpressionTree_94",
  "Class": "Engine.ExpressionTree",
  "ObjectArchetype": "Engine.Default__ExpressionTree"
}