{
  "RootChild":
    "GD_Orc_ClaptrapWand_Proto.Character.BodyClass_Orc_ClaptrapWand_Proto:ExpressionTree_137.CompoundExpressionEvaluator_137",
  "VfTableObject": "",
  "HashNext": "",
  "ObjectFlags": "",
  "HashOuterNext": "",
  "StateFrame": "",
  "Linker": null,
  "LinkerIndex": "",
  "ObjectInternalInteger": 200645,
  "NetIndex": 150,
  "Outer":
    "GD_Orc_ClaptrapWand_Proto.Character.BodyClass_Orc_ClaptrapWand_Proto",
  "Name": "ExpressionTree_137",
  "Class": "Engine.ExpressionTree",
  "ObjectArchetype": "Engine.Default__ExpressionTree"
}