{
  "RootChild":
    "GD_Orchid_Spiderant.Character.AIDef_SpiderantQueen_Orchid:ExpressionTree_3.CompoundExpressionEvaluator_2",
  "VfTableObject": "",
  "HashNext": "",
  "ObjectFlags": "",
  "HashOuterNext": "",
  "StateFrame": "",
  "Linker": null,
  "LinkerIndex": "",
  "ObjectInternalInteger": 229129,
  "NetIndex": 160,
  "Outer": "GD_Orchid_Spiderant.Character.AIDef_SpiderantQueen_Orchid",
  "Name": "ExpressionTree_3",
  "Class": "Engine.ExpressionTree",
  "ObjectArchetype": "Engine.Default__ExpressionTree"
}