{
  "RootChild":
    "GD_Orchid_RaidShaman.Character.BodyClass_Orchid_RaidShaman:ExpressionTree_98.CompoundExpressionEvaluator_98",
  "VfTableObject": "",
  "HashNext": "",
  "ObjectFlags": "",
  "HashOuterNext": "",
  "StateFrame": "",
  "Linker": null,
  "LinkerIndex": "",
  "ObjectInternalInteger": 199239,
  "NetIndex": 379,
  "Outer": "GD_Orchid_RaidShaman.Character.BodyClass_Orchid_RaidShaman",
  "Name": "ExpressionTree_98",
  "Class": "Engine.ExpressionTree",
  "ObjectArchetype": "Engine.Default__ExpressionTree"
}