{
  "RootChild":
    "GD_Orchid_PiratePegLeg.Character.BodyClass_Orchid_PiratePegLeg:ExpressionTree_140.CompoundExpressionEvaluator_140",
  "VfTableObject": "",
  "HashNext": "",
  "ObjectFlags": "",
  "HashOuterNext": "",
  "StateFrame": "",
  "Linker": null,
  "LinkerIndex": "",
  "ObjectInternalInteger": 222259,
  "NetIndex": 141,
  "Outer": "GD_Orchid_PiratePegLeg.Character.BodyClass_Orchid_PiratePegLeg",
  "Name": "ExpressionTree_140",
  "Class": "Engine.ExpressionTree",
  "ObjectArchetype": "Engine.Default__ExpressionTree"
}