{
  "RootChild":
    "GD_Orchid_PirateMarauderSMG.BodyClass_Orchid_PirateMarauderSMG:ExpressionTree_102.CompoundExpressionEvaluator_102",
  "VfTableObject": "",
  "HashNext": "",
  "ObjectFlags": "",
  "HashOuterNext": "",
  "StateFrame": "",
  "Linker": null,
  "LinkerIndex": "",
  "ObjectInternalInteger": 222796,
  "NetIndex": 153,
  "Outer": "GD_Orchid_PirateMarauderSMG.BodyClass_Orchid_PirateMarauderSMG",
  "Name": "ExpressionTree_102",
  "Class": "Engine.ExpressionTree",
  "ObjectArchetype": "Engine.Default__ExpressionTree"
}