{
  "RootChild":
    "GD_Orchid_SM_Smells_Data.BodyClass_Orchid_ShivSpike:ExpressionTree_3.CompoundExpressionEvaluator_3",
  "VfTableObject": "",
  "HashNext": "",
  "ObjectFlags": "",
  "HashOuterNext": "",
  "StateFrame": "",
  "Linker": null,
  "LinkerIndex": "",
  "ObjectInternalInteger": 210987,
  "NetIndex": 139,
  "Outer": "GD_Orchid_SM_Smells_Data.BodyClass_Orchid_ShivSpike",
  "Name": "ExpressionTree_3",
  "Class": "Engine.ExpressionTree",
  "ObjectArchetype": "Engine.Default__ExpressionTree"
}