{
  "RootChild":
    "GD_PsychoSnow.Character.BodyClass_PsychoSnow:ExpressionTree_136.CompoundExpressionEvaluator_136",
  "VfTableObject": "",
  "HashNext": "",
  "ObjectFlags": "",
  "HashOuterNext": "",
  "StateFrame": "",
  "Linker": null,
  "LinkerIndex": "",
  "ObjectInternalInteger": 223147,
  "NetIndex": 124,
  "Outer": "GD_PsychoSnow.Character.BodyClass_PsychoSnow",
  "Name": "ExpressionTree_136",
  "Class": "Engine.ExpressionTree",
  "ObjectArchetype": "Engine.Default__ExpressionTree"
}