{
  "RootChild":
    "GD_Psycho_Digi.Character.BodyClass_Psycho_Digi:ExpressionTree_137.CompoundExpressionEvaluator_137",
  "VfTableObject": "",
  "HashNext": "",
  "ObjectFlags": "",
  "HashOuterNext": "",
  "StateFrame": "",
  "Linker": null,
  "LinkerIndex": "",
  "ObjectInternalInteger": 225587,
  "NetIndex": 313,
  "Outer": "GD_Psycho_Digi.Character.BodyClass_Psycho_Digi",
  "Name": "ExpressionTree_137",
  "Class": "Engine.ExpressionTree",
  "ObjectArchetype": "Engine.Default__ExpressionTree"
}