{
  "RootChild":
    "GD_PrimalBeastBaby.Character.CharClass_PrimalBeastBaby:BehaviorProviderDefinition_23.Behavior_Conditional_7.ExpressionTree_3.CompoundExpressionEvaluator_0",
  "VfTableObject": "",
  "HashNext": "",
  "ObjectFlags": "",
  "HashOuterNext": "",
  "StateFrame": "",
  "Linker": null,
  "LinkerIndex": "",
  "ObjectInternalInteger": 210587,
  "NetIndex": 143,
  "Outer":
    "GD_PrimalBeastBaby.Character.CharClass_PrimalBeastBaby:BehaviorProviderDefinition_23.Behavior_Conditional_7",
  "Name": "ExpressionTree_3",
  "Class": "Engine.ExpressionTree",
  "ObjectArchetype": "Engine.Default__ExpressionTree"
}