{
  "RootChild":
    "GD_RatLab.Character.BodyClass_RatLab:ExpressionTree_1.CompoundExpressionEvaluator_1",
  "VfTableObject": "",
  "HashNext": "",
  "ObjectFlags": "",
  "HashOuterNext": "",
  "StateFrame": "",
  "Linker": null,
  "LinkerIndex": "",
  "ObjectInternalInteger": 208319,
  "NetIndex": 202,
  "Outer": "GD_RatLab.Character.BodyClass_RatLab",
  "Name": "ExpressionTree_1",
  "Class": "Engine.ExpressionTree",
  "ObjectArchetype": "Engine.Default__ExpressionTree"
}