{
  "RootChild":
    "GD_RakkBadass.Character.AIDef_RakkBadass:ExpressionTree_20.CompoundExpressionEvaluator_0",
  "VfTableObject": "",
  "HashNext": "",
  "ObjectFlags": "",
  "HashOuterNext": "",
  "StateFrame": "",
  "Linker": null,
  "LinkerIndex": "",
  "ObjectInternalInteger": 201522,
  "NetIndex": 217,
  "Outer": "GD_RakkBadass.Character.AIDef_RakkBadass",
  "Name": "ExpressionTree_20",
  "Class": "Engine.ExpressionTree",
  "ObjectArchetype": "Engine.Default__ExpressionTree"
}