{
  "RootChild":
    "GD_ShirtlessMan.Character.BodyClass_ShirtlessMan:ExpressionTree_83.CompoundExpressionEvaluator_83",
  "VfTableObject": "",
  "HashNext": "",
  "ObjectFlags": "",
  "HashOuterNext": "",
  "StateFrame": "",
  "Linker": null,
  "LinkerIndex": "",
  "ObjectInternalInteger": 213013,
  "NetIndex": 175,
  "Outer": "GD_ShirtlessMan.Character.BodyClass_ShirtlessMan",
  "Name": "ExpressionTree_83",
  "Class": "Engine.ExpressionTree",
  "ObjectArchetype": "Engine.Default__ExpressionTree"
}