{
  "RootChild":
    "GD_SavageLee.Character.BodyClass_SavageLee:ExpressionTree_132.CompoundExpressionEvaluator_132",
  "VfTableObject": "",
  "HashNext": "",
  "ObjectFlags": "",
  "HashOuterNext": "",
  "StateFrame": "",
  "Linker": null,
  "LinkerIndex": "",
  "ObjectInternalInteger": 223139,
  "NetIndex": 103,
  "Outer": "GD_SavageLee.Character.BodyClass_SavageLee",
  "Name": "ExpressionTree_132",
  "Class": "Engine.ExpressionTree",
  "ObjectArchetype": "Engine.Default__ExpressionTree"
}