{
  "RootChild":
    "GD_Snowman.Flags.Flag_CanSummonSnowMinions:ExpressionTree_0.CompoundExpressionEvaluator_1",
  "VfTableObject": "",
  "HashNext": "",
  "ObjectFlags": "",
  "HashOuterNext": "",
  "StateFrame": "",
  "Linker": null,
  "LinkerIndex": "",
  "ObjectInternalInteger": 209237,
  "NetIndex": 1527,
  "Outer": "GD_Snowman.Flags.Flag_CanSummonSnowMinions",
  "Name": "ExpressionTree_0",
  "Class": "Engine.ExpressionTree",
  "ObjectArchetype": "Engine.Default__ExpressionTree"
}