{
  "RootChild":
    "GD_SmallTurkeyMinion.Character.BodyClass_SmallTurkeyMinion:ExpressionTree_136.CompoundExpressionEvaluator_136",
  "VfTableObject": "",
  "HashNext": "",
  "ObjectFlags": "",
  "HashOuterNext": "",
  "StateFrame": "",
  "Linker": null,
  "LinkerIndex": "",
  "ObjectInternalInteger": 217426,
  "NetIndex": 512,
  "Outer": "GD_SmallTurkeyMinion.Character.BodyClass_SmallTurkeyMinion",
  "Name": "ExpressionTree_136",
  "Class": "Engine.ExpressionTree",
  "ObjectArchetype": "Engine.Default__ExpressionTree"
}