{
  "RootChild":
    "GD_TundraPatrol.Character.BodyClass_TundraPatrol:ExpressionTree_87.CompoundExpressionEvaluator_87",
  "VfTableObject": "",
  "HashNext": "",
  "ObjectFlags": "",
  "HashOuterNext": "",
  "StateFrame": "",
  "Linker": null,
  "LinkerIndex": "",
  "ObjectInternalInteger": 219364,
  "NetIndex": 104,
  "Outer": "GD_TundraPatrol.Character.BodyClass_TundraPatrol",
  "Name": "ExpressionTree_87",
  "Class": "Engine.ExpressionTree",
  "ObjectArchetype": "Engine.Default__ExpressionTree"
}