{
  "BaseDuration": {
    "BaseValueConstant": 8.0,
    "BaseValueAttribute": null,
    "InitializationDefinition": null,
    "BaseValueScaleConstant": 1.0
  },
  "BaseSpreadTimeInterval": {
    "BaseValueConstant": 2.0,
    "BaseValueAttribute": null,
    "InitializationDefinition": null,
    "BaseValueScaleConstant": 1.0
  },
  "BaseSpreadDistanceFromSource": {
    "BaseValueConstant": 64.0,
    "BaseValueAttribute": null,
    "InitializationDefinition": null,
    "BaseValueScaleConstant": 1.0
  },
  "BaseSpreadCap": {
    "BaseValueConstant": 0.0,
    "BaseValueAttribute": null,
    "InitializationDefinition": null,
    "BaseValueScaleConstant": 1.0
  },
  "TargetStatusEffectChanceModifier": {
    "BaseValueConstant": 0.0,
    "BaseValueAttribute":
      "D_Attributes.StatusEffectModifiers.CorrosiveChanceResistanceModifier",
    "InitializationDefinition": null,
    "BaseValueScaleConstant": 1.0
  },
  "TargetStatusEffectDurationModifier": {
    "BaseValueConstant": 0.0,
    "BaseValueAttribute":
      "D_Attributes.StatusEffectModifiers.CorrosiveDurationResistanceModifier",
    "InitializationDefinition": null,
    "BaseValueScaleConstant": 1.0
  },
  "TargetStatusEffectDamageModifier": {
    "BaseValueConstant": 1.0,
    "BaseValueAttribute":
      "D_Attributes.DamageTypeModifers.CorrosiveStatusEffectDamageModifier",
    "InitializationDefinition": null,
    "BaseValueScaleConstant": 1.0
  },
  "bCanSpread": false,
  "bDoesDamageOverTime": true,
  "bCanReturnToRegion": false,
  "bCanReturnToTarget": false,
  "bIsRegionSpecific": true,
  "bNoStatusEffectChanceFalloff": false,
  "bIsInfiniteDuration": false,
  "StatusEffectType": "STATUS_EFFECT_Corrosive",
  "DamageTypeDefinition": "GD_Corrosive.DamageType.DmgType_Corrosive_Status",
  "AppliedEffectStatId": "STAT_PLAYER_APPLIED_CORROSIVE",
  "ScreenParticleInit": {
    "Template":
      "FX_Aster_INT_Screen.Particles.Elemental_Damage.Part_Corrosive_Screen",
    "ScreenParticleModifiers": null,
    "TemplateScreenParticleMaterial": null,
    "MatParamName": null,
    "bHideWhenFinished": true,
    "ParticleTag": "StatusEffectScreenParticleTag",
    "ContentDims": { "X": 16.0, "Y": 9.0 },
    "ParticleDepth": 20.0,
    "ScalingMode": "ESPSM_FitToViewport",
    "StopParamsOT": {
      "ScalarParams": [
        {
          "ParameterName": "p_alpha",
          "TotalTime": 2.0,
          "StartValue": 1.0,
          "EndValue": 0.0,
          "LastValue": 0.0
        }
      ],
      "VectorParams": null
    },
    "bOnlyOwnerSee": true
  },
  "DamageSurfaceChanceModifiers": [
    {
      "SurfaceType": "DMGSURFACE_Generic",
      "BaseChance": {
        "BaseValueConstant": 20.0,
        "BaseValueAttribute": null,
        "InitializationDefinition": null,
        "BaseValueScaleConstant": 1.0
      },
      "BaseSpreadChance": {
        "BaseValueConstant": 0.0,
        "BaseValueAttribute": null,
        "InitializationDefinition": null,
        "BaseValueScaleConstant": 1.0
      },
      "SpreadChanceDecayMultiplier": {
        "BaseValueConstant": 0.0,
        "BaseValueAttribute": null,
        "InitializationDefinition": null,
        "BaseValueScaleConstant": 1.0
      }
    },
    {
      "SurfaceType": "DMGSURFACE_Flesh",
      "BaseChance": {
        "BaseValueConstant": 15.0,
        "BaseValueAttribute": null,
        "InitializationDefinition": null,
        "BaseValueScaleConstant": 1.0
      },
      "BaseSpreadChance": {
        "BaseValueConstant": 15.0,
        "BaseValueAttribute": null,
        "InitializationDefinition": null,
        "BaseValueScaleConstant": 1.0
      },
      "SpreadChanceDecayMultiplier": {
        "BaseValueConstant": 0.5,
        "BaseValueAttribute": null,
        "InitializationDefinition": null,
        "BaseValueScaleConstant": 1.0
      }
    },
    {
      "SurfaceType": "DMGSURFACE_Armor",
      "BaseChance": {
        "BaseValueConstant": 30.0,
        "BaseValueAttribute": null,
        "InitializationDefinition": null,
        "BaseValueScaleConstant": 1.0
      },
      "BaseSpreadChance": {
        "BaseValueConstant": 20.0,
        "BaseValueAttribute": null,
        "InitializationDefinition": null,
        "BaseValueScaleConstant": 1.0
      },
      "SpreadChanceDecayMultiplier": {
        "BaseValueConstant": 0.5,
        "BaseValueAttribute": null,
        "InitializationDefinition": null,
        "BaseValueScaleConstant": 1.0
      }
    },
    {
      "SurfaceType": "DMGSURFACE_Shield",
      "BaseChance": {
        "BaseValueConstant": 15.0,
        "BaseValueAttribute": null,
        "InitializationDefinition": null,
        "BaseValueScaleConstant": 1.0
      },
      "BaseSpreadChance": {
        "BaseValueConstant": 0.0,
        "BaseValueAttribute": null,
        "InitializationDefinition": null,
        "BaseValueScaleConstant": 1.0
      },
      "SpreadChanceDecayMultiplier": {
        "BaseValueConstant": 0.5,
        "BaseValueAttribute": null,
        "InitializationDefinition": null,
        "BaseValueScaleConstant": 1.0
      }
    }
  ],
  "OnDurationEnd": [
    "GD_Poison.StatusEffect.Status_Poison:Behavior_DeactivateSkill_0",
    "GD_Poison.StatusEffect.Status_Poison:Behavior_PostAkEvent_58"
  ],
  "OnApplication": [
    "GD_Poison.StatusEffect.Status_Poison:Behavior_ActivateSkill_0",
    "GD_Poison.StatusEffect.Status_Poison:Behavior_TriggerDialogEvent_1",
    "GD_Poison.StatusEffect.Status_Poison:Behavior_PostAkEvent_0"
  ],
  "VfTableObject": "",
  "HashNext": "",
  "ObjectFlags": "",
  "HashOuterNext": "",
  "StateFrame": "",
  "Linker": null,
  "LinkerIndex": "",
  "ObjectInternalInteger": 215052,
  "NetIndex": 8,
  "Outer": "GD_Poison.StatusEffect",
  "Name": "Status_Poison",
  "Class": "WillowGame.StatusEffectDefinition",
  "ObjectArchetype": "WillowGame.Default__StatusEffectDefinition"
}