{
  "SwfMovie": null,
  "SwfMovieClass": null,
  "Movie": null,
  "ExternalInterfaceClass": null,
  "bTakeFocus": false,
  "bCaptureInput": false,
  "bStartPaused": false,
  "bIsModalGameMenu": false,
  "bOverrideWorldLighting": false,
  "bInputOwnerOnly": false,
  "bInputAllKeys": false,
  "FadeInSeconds": 0.1,
  "FadeOutSeconds": 0.1,
  "WorldLightingDirectionOffset": { "Pitch": 0, "Yaw": 0, "Roll": 0 },
  "DrawStyle": null,
  "DepthPriority": 0,
  "PoolType": "GMP_Pooled",
  "ScaleMode": "SM_NoScale",
  "AlignMode": "Align_Center",
  "TimingMode": "TM_Game",
  "RenderTextureMode": "RTM_Opaque",
  "Pool": null,
  "RenderTexture": null,
  "VfTableObject": "",
  "HashNext": "",
  "ObjectFlags": "",
  "HashOuterNext": "",
  "StateFrame": "",
  "Linker": null,
  "LinkerIndex": "",
  "ObjectInternalInteger": 3003,
  "NetIndex": 3851,
  "Outer": "Package'GearboxFramework'",
  "Name": "Default__GFxMovieDefinition",
  "Class": "GearboxFramework.GFxMovieDefinition",
  "ObjectArchetype": "Engine.Default__GBXDefinition"
}