{
  "SwfMovie": "UI_Inworld.FastTravelDisplay",
  "SwfMovieClass": "WillowGame.LevelTransitionSignGFxMovie",
  "Movie": null,
  "ExternalInterfaceClass": null,
  "bTakeFocus": false,
  "bCaptureInput": false,
  "bStartPaused": false,
  "bIsModalGameMenu": false,
  "bOverrideWorldLighting": false,
  "bInputOwnerOnly": false,
  "bInputAllKeys": false,
  "FadeInSeconds": 0.1,
  "FadeOutSeconds": 0.1,
  "WorldLightingDirectionOffset": { "Pitch": 0, "Yaw": 0, "Roll": 0 },
  "DrawStyle": "Transient.GFxMovieDrawStyleMesh_185",
  "DepthPriority": 0,
  "PoolType": "GMP_Shared",
  "ScaleMode": "SM_ShowAll",
  "AlignMode": "Align_Center",
  "TimingMode": "TM_Game",
  "RenderTextureMode": "RTM_Opaque",
  "Pool": null,
  "RenderTexture": null,
  "InteractionOverrideSounds": [
    {
      "Interaction": "MenuOpen",
      "AkEvent":
        "Ake_UI.UI_Object_Interaction.Ak_Play_UI_FastTravel_Proximity_Holo"
    }
  ],
  "VfTableObject": "",
  "HashNext": "",
  "ObjectFlags": "",
  "HashOuterNext": "",
  "StateFrame": "",
  "Linker": null,
  "LinkerIndex": "",
  "ObjectInternalInteger": 238881,
  "NetIndex": -1,
  "Outer": "Package'Transient'",
  "Name": "GFxMovieDefinition_78",
  "Class": "GearboxFramework.GFxMovieDefinition",
  "ObjectArchetype": "UI_Inworld.Definitions.LevelTransitionSign"
}