{
  "PlayerChallenges": [
    "GD_Iris_Challenges.Challenges.Challenge_Iris_KillMotorcycles",
    "GD_Iris_Challenges.Challenges.Challenge_Iris_KillBikers",
    "GD_Iris_Challenges.Challenges.Challenge_Iris_TorgueTokens",
    "GD_Iris_Challenges.Challenges.Challenge_Iris_BuyTorgueItems",
    "GD_Iris_Challenges.Challenges.Challenge_Iris_CompleteBattles",
    "GD_Iris_Challenges.Challenges.Challenge_Iris_Raid1",
    "GD_Iris_Challenges.LevelChallenges.Arena_C4IsForCookie",
    "GD_Iris_Challenges.LevelChallenges.Arena_CultOfTheVault",
    "GD_Iris_Challenges.LevelChallenges.Arena_ItsCool",
    "GD_Iris_Challenges.LevelChallenges.Arena_NotEntertained",
    "GD_Iris_Challenges.LevelChallenges.Arena_RingOfFire",
    "GD_Iris_Challenges.LevelChallenges.Beatdown_CultOfTheVault",
    "GD_Iris_Challenges.LevelChallenges.Beatdown_IThoughtBigger",
    "GD_Iris_Challenges.LevelChallenges.Crater_AsAdvertised",
    "GD_Iris_Challenges.LevelChallenges.Crater_CultOfTheVault",
    "GD_Iris_Challenges.LevelChallenges.Crater_FanclubMembership",
    "GD_Iris_Challenges.LevelChallenges.Crater_ICanFly",
    "GD_Iris_Challenges.LevelChallenges.Crater_OnlyShellsINeed",
    "GD_Iris_Challenges.LevelChallenges.Forge_AirMail",
    "GD_Iris_Challenges.LevelChallenges.Forge_CultOfTheVault",
    "GD_Iris_Challenges.LevelChallenges.Forge_IDIDStartFire",
    "GD_Iris_Challenges.LevelChallenges.Forge_ParachutePansies",
    "GD_Iris_Challenges.LevelChallenges.Southern_CultOfTheVault"
  ],
  "VfTableObject": "",
  "HashNext": "",
  "ObjectFlags": "",
  "HashOuterNext": "",
  "StateFrame": "",
  "Linker": null,
  "LinkerIndex": "",
  "ObjectInternalInteger": 170780,
  "NetIndex": 80,
  "Outer": "GD_Iris_Challenges.ChallengeList",
  "Name": "Iris_ChallengeList",
  "Class": "WillowGame.PlayerChallengeListDefinition",
  "ObjectArchetype": "WillowGame.Default__PlayerChallengeListDefinition"
}