{
  "Key": 323,
  "CheatSpawnLevel": {
    "BaseValueConstant": 0.0,
    "BaseValueAttribute": null,
    "InitializationDefinition": null,
    "BaseValueScaleConstant": 1.0
  },
  "bDisablePhysicsDrop": false,
  "bAutoReadyItems": false,
  "bSupportsGameStageVariance": true,
  "bShopsHaveInfiniteQuantity": false,
  "bEligibleForUncommonWeightMultiplier": false,
  "Quantity": {
    "BaseValueConstant": 1.0,
    "BaseValueAttribute": null,
    "InitializationDefinition": null,
    "BaseValueScaleConstant": 1.0
  },
  "MinGameStageRequirement": null,
  "MaxGameStageRequirement": null,
  "BalancedItems": [
    {
      "ItmPoolDefinition": "GD_CustomItemPools_MainGame.Assassin.GreenBold",
      "InvBalanceDefinition": null,
      "Probability": {
        "BaseValueConstant": 1.0,
        "BaseValueAttribute": null,
        "InitializationDefinition":
          "Transient.AttributeInitializationDefinition_28",
        "BaseValueScaleConstant": 1.0
      },
      "bDropOnDeath": true
    },
    {
      "ItmPoolDefinition": "GD_CustomItemPools_MainGame.Mercenary.GreenBold",
      "InvBalanceDefinition": null,
      "Probability": {
        "BaseValueConstant": 1.0,
        "BaseValueAttribute": null,
        "InitializationDefinition":
          "Transient.AttributeInitializationDefinition_29",
        "BaseValueScaleConstant": 1.0
      },
      "bDropOnDeath": true
    },
    {
      "ItmPoolDefinition": "GD_CustomItemPools_MainGame.Siren.GreenBold",
      "InvBalanceDefinition": null,
      "Probability": {
        "BaseValueConstant": 1.0,
        "BaseValueAttribute": null,
        "InitializationDefinition":
          "Transient.AttributeInitializationDefinition_30",
        "BaseValueScaleConstant": 1.0
      },
      "bDropOnDeath": true
    },
    {
      "ItmPoolDefinition": "GD_CustomItemPools_MainGame.Soldier.GreenBold",
      "InvBalanceDefinition": null,
      "Probability": {
        "BaseValueConstant": 1.0,
        "BaseValueAttribute": null,
        "InitializationDefinition":
          "Transient.AttributeInitializationDefinition_31",
        "BaseValueScaleConstant": 1.0
      },
      "bDropOnDeath": true
    },
    {
      "ItmPoolDefinition": "GD_CustomItemPools_Lilac.Psycho.GreenBold",
      "InvBalanceDefinition": null,
      "Probability": {
        "BaseValueConstant": 1.0,
        "BaseValueAttribute": null,
        "InitializationDefinition":
          "Transient.AttributeInitializationDefinition_32",
        "BaseValueScaleConstant": 1.0
      },
      "bDropOnDeath": true
    },
    {
      "ItmPoolDefinition": "GD_CustomItemPools_tulip.Mechro.GreenBold",
      "InvBalanceDefinition": null,
      "Probability": {
        "BaseValueConstant": 1.0,
        "BaseValueAttribute": null,
        "InitializationDefinition":
          "Transient.AttributeInitializationDefinition_33",
        "BaseValueScaleConstant": 1.0
      },
      "bDropOnDeath": true
    }
  ],
  "VfTableObject": "",
  "HashNext": "",
  "ObjectFlags": "",
  "HashOuterNext": "",
  "StateFrame": "",
  "Linker": null,
  "LinkerIndex": "",
  "ObjectInternalInteger": 122431,
  "NetIndex": 390,
  "Outer": "GD_CustomItemPools_MainGame.Rewards",
  "Name": "GreenBold",
  "Class": "WillowGame.KeyedItemPoolDefinition",
  "ObjectArchetype": "WillowGame.Default__KeyedItemPoolDefinition"
}