{
  "ShieldType": "SHT_Absorption",
  "ShieldPrimeMechanism": "SPM_AlwaysPrimed",
  "ShieldTypeFlashFrameName": "absorb",
  "PrimedFlashFrameName": "absorb",
  "ShieldPhysicalMaterial":
    "GD_PhysicalMaterial_Shield.PhysicalMaterials.PhysMat_GenericShield",
  "DamageTypeIcon": "DAMAGE_TYPE_Unknown",
  "VfTable_IIBehaviorProvider": "",
  "VfTable_IIConstructObject": "",
  "DroppedImpact": "GD_Impacts.Loot.Loot_Drop_Ammo",
  "UseFailureCharacterMessage": "You must be a %s to use this item.",
  "ItemName": "Orb Shield",
  "bItemNameIsFullName": false,
  "bUseMeshCompositing": true,
  "NonCompositeStaticMesh": null,
  "NonCompositeSkeletalMesh": null,
  "OverrideMaterial": null,
  "GestaltMesh": "Item_Shields.Gestalt.GestaltDef_Shields",
  "AlphaParts": "GD_Shields.Body.PartsList_Body_Absorption",
  "BetaParts": "GD_Shields.Battery.PartsList_Battery_Standard",
  "GammaParts": "GD_Shields.Capacitor.PartsList_Capacitor_Standard",
  "DeltaParts": "GD_Shields.Accessory.PartsList_Accessory_Absorption",
  "EpsilonParts": null,
  "ZetaParts": null,
  "EtaParts": null,
  "ThetaParts": null,
  "MaterialParts": "GD_Shields.Material.PartsList_Materials_Absorption",
  "BehaviorProviderDefinition":
    "GD_Shields.A_Item.Shield_Absorption:BehaviorProviderDefinition_5",
  "Behaviors": { "OnUsed": null },
  "RequiredPlayerClass": null,
  "PickupIconOverride": null,
  "CustomPresentations": [
    "GD_Shields.A_Item.Shield_Absorption:AttributePresentationDefinition_2",
    "GD_Shields.A_Item.Shield_Absorption:AttributePresentationDefinition_1"
  ],
  "ExternalAttributeEffects": [
    {
      "AttributeToModify": "D_Attributes.ShieldResourcePool.ShieldMaxValue",
      "ModifierType": "MT_PreAdd",
      "BaseModifierValue": {
        "BaseValueConstant": 0.0,
        "BaseValueAttribute": null,
        "InitializationDefinition":
          "GD_Balance_HealthAndDamage.Shields.Init_ShieldItem_CapacityMaxValue",
        "BaseValueScaleConstant": 1.0
      }
    },
    {
      "AttributeToModify":
        "D_Attributes.ShieldResourcePool.ShieldOnIdleRegenerationDelay",
      "ModifierType": "MT_PreAdd",
      "BaseModifierValue": {
        "BaseValueConstant": 0.0,
        "BaseValueAttribute":
          "GD_Shields.Misc.Att_UniversalShieldBaseDelayConstant",
        "InitializationDefinition": null,
        "BaseValueScaleConstant": 1.0
      }
    },
    {
      "AttributeToModify":
        "D_Attributes.ShieldResourcePool.ShieldOnIdleRegenerationRate",
      "ModifierType": "MT_PreAdd",
      "BaseModifierValue": {
        "BaseValueConstant": 0.0,
        "BaseValueAttribute": null,
        "InitializationDefinition":
          "GD_Balance_HealthAndDamage.Shields.Init_ShieldItem_BaseRegenRatePercentage",
        "BaseValueScaleConstant": 1.0
      }
    }
  ],
  "InventoryClass": "WillowGame.WillowShield",
  "bAutomaticallyPickup": false,
  "bPickupInBulk": false,
  "bDisallowAIFromGrabbingPickup": false,
  "bDuplicatePickupJustAddsQuantity": false,
  "bSuppressPickupCard": false,
  "bTorque": false,
  "bNeverDisplayPickupMessage": false,
  "bShopsHaveInfiniteQuantity": false,
  "bCanCompare": true,
  "bUsesPlayerLevelRequirement": true,
  "bUIMeshRotationNeedsTransformFixup": false,
  "bIsConsumable": false,
  "bAllowInventoryDefToModifyPartWeight": false,
  "PlayerDroppability": "EPD_Droppable",
  "FormOfCurrency": "CURRENCY_Credits",
  "OnUseConstraintsMode": "EXPRMODE_And",
  "AttributeSlotEffectMode": "ATTRSLOTEFFECTMODE_Default",
  "PickupLifeSpan": 0.0,
  "PickupFlagScale": 1.0,
  "PickupFlagIcon": "fx_shared_items.Textures.ItemCards.Shield",
  "PickupFlagOffset": { "X": 0.0, "Y": 9.0, "Z": -4.0 },
  "Torque": { "X": 0.0, "Y": 0.0, "Z": 0.0 },
  "ThirdPersonMeshScale": 1.0,
  "MaterialClass": "Engine.MaterialInstanceConstant",
  "PhysicsAsset": "Item_Shields.Physics.Phat_Shield",
  "PickupMessage": "Acquired a Basic Orb Shield",
  "UseFailureLevelMessage": "You must be at least level %d to use this item.",
  "UseFailureConstraintsMessage": "You cannot use this item.",
  "NoManufacturerName": "Generic",
  "BaseRarity": {
    "BaseValueConstant": 0.0,
    "BaseValueAttribute": null,
    "InitializationDefinition": null,
    "BaseValueScaleConstant": 1.0
  },
  "MonetaryValue": {
    "BaseValueConstant": 0.0,
    "BaseValueAttribute": null,
    "InitializationDefinition":
      "GD_Economy.PriceCalc.Init_Shields_Absorption_PriceCalculator",
    "BaseValueScaleConstant": 1.0
  },
  "BaseMonetaryValueModifier": 1.0,
  "PlayerUseLevelBonus": {
    "BaseValueConstant": 0.0,
    "BaseValueAttribute": null,
    "InitializationDefinition":
      "GD_Balance_Inventory.LevelRequirement.Init_BaseGearLevelRequirementBonus",
    "BaseValueScaleConstant": 1.0
  },
  "UIMeshRotation": { "Pitch": 0, "Yaw": 32768, "Roll": 32768 },
  "Presentation": "GD_InventoryPresentations.Definitions.Shield",
  "CalloutDefinition": null,
  "PickedUpStatID": null,
  "PurchasedStatID": "STAT_PLAYER_SHIELD_PURCHASED",
  "FocusRadius": 55.0,
  "FocusOffset": { "X": -0.4, "Y": -0.075, "Z": 0.0 },
  "AttributeSlotEffectSkillDuration": {
    "BaseValueConstant": 0.0,
    "BaseValueAttribute": null,
    "InitializationDefinition": null,
    "BaseValueScaleConstant": 1.0
  },
  "AttributeSlotBaseGrade": {
    "BaseValueConstant": 1.0,
    "BaseValueAttribute": null,
    "InitializationDefinition": null,
    "BaseValueScaleConstant": 1.0
  },
  "AttributeSlotMaxActivated": 19,
  "LootBeamColorOverride": { "B": 0, "G": 0, "R": 0, "A": 0 },
  "AttributeSlotUpgrades": [
    { "SlotName": "Capacity", "GradeIncrease": 0, "bActivateSlot": true },
    { "SlotName": "RechargeRate", "GradeIncrease": 0, "bActivateSlot": true },
    {
      "SlotName": "RechargeDelay",
      "GradeIncrease": 0,
      "bActivateSlot": true
    },
    { "SlotName": "Special01", "GradeIncrease": 0, "bActivateSlot": true },
    { "SlotName": "Special02", "GradeIncrease": 0, "bActivateSlot": true }
  ],
  "AttributeSlotEffects": [
    {
      "SlotName": "Capacity",
      "bExternalSlot": true,
      "bRunEffectsAsSkill": false,
      "AttributeToModify": "D_Attributes.ShieldResourcePool.ShieldMaxValue",
      "ConstraintAttribute": null,
      "ModifierType": "MT_Scale",
      "BaseModifierValue": {
        "BaseValueConstant": 0.0,
        "BaseValueAttribute": null,
        "InitializationDefinition": null,
        "BaseValueScaleConstant": 1.0
      },
      "PerGradeUpgrade": {
        "BaseValueConstant": 0.03,
        "BaseValueAttribute": null,
        "InitializationDefinition": null,
        "BaseValueScaleConstant": 1.0
      },
      "bIncludeInFunStats": false,
      "bIncludeAlliesAsTarget": false,
      "bEnforceMinimumGrade": false,
      "bEnforceMaximumGrade": false,
      "MinimumGrade": 0,
      "MaximumGrade": 0,
      "TargetInstanceDataName": null
    },
    {
      "SlotName": "RechargeRate",
      "bExternalSlot": true,
      "bRunEffectsAsSkill": false,
      "AttributeToModify":
        "D_Attributes.ShieldResourcePool.ShieldOnIdleRegenerationRate",
      "ConstraintAttribute": null,
      "ModifierType": "MT_Scale",
      "BaseModifierValue": {
        "BaseValueConstant": 0.0,
        "BaseValueAttribute": null,
        "InitializationDefinition": null,
        "BaseValueScaleConstant": 1.0
      },
      "PerGradeUpgrade": {
        "BaseValueConstant": 0.03,
        "BaseValueAttribute": null,
        "InitializationDefinition": null,
        "BaseValueScaleConstant": 1.0
      },
      "bIncludeInFunStats": false,
      "bIncludeAlliesAsTarget": false,
      "bEnforceMinimumGrade": false,
      "bEnforceMaximumGrade": false,
      "MinimumGrade": 0,
      "MaximumGrade": 0,
      "TargetInstanceDataName": null
    },
    {
      "SlotName": "RechargeDelay",
      "bExternalSlot": true,
      "bRunEffectsAsSkill": false,
      "AttributeToModify":
        "D_Attributes.ShieldResourcePool.ShieldOnIdleRegenerationDelay",
      "ConstraintAttribute": null,
      "ModifierType": "MT_Scale",
      "BaseModifierValue": {
        "BaseValueConstant": 0.0,
        "BaseValueAttribute": null,
        "InitializationDefinition": null,
        "BaseValueScaleConstant": 1.0
      },
      "PerGradeUpgrade": {
        "BaseValueConstant": -0.04,
        "BaseValueAttribute": null,
        "InitializationDefinition": null,
        "BaseValueScaleConstant": 1.0
      },
      "bIncludeInFunStats": false,
      "bIncludeAlliesAsTarget": false,
      "bEnforceMinimumGrade": false,
      "bEnforceMaximumGrade": false,
      "MinimumGrade": 0,
      "MaximumGrade": 0,
      "TargetInstanceDataName": null
    },
    {
      "SlotName": "FireResist",
      "bExternalSlot": true,
      "bRunEffectsAsSkill": false,
      "AttributeToModify":
        "D_Attributes.StatusEffectModifiers.IgniteChanceResistanceModifier",
      "ConstraintAttribute": null,
      "ModifierType": "MT_PreAdd",
      "BaseModifierValue": {
        "BaseValueConstant": -1.0,
        "BaseValueAttribute": null,
        "InitializationDefinition": null,
        "BaseValueScaleConstant": 1.0
      },
      "PerGradeUpgrade": {
        "BaseValueConstant": 0.0,
        "BaseValueAttribute": null,
        "InitializationDefinition": null,
        "BaseValueScaleConstant": 1.0
      },
      "bIncludeInFunStats": false,
      "bIncludeAlliesAsTarget": false,
      "bEnforceMinimumGrade": false,
      "bEnforceMaximumGrade": false,
      "MinimumGrade": 0,
      "MaximumGrade": 0,
      "TargetInstanceDataName": null
    },
    {
      "SlotName": "ShockResist",
      "bExternalSlot": true,
      "bRunEffectsAsSkill": false,
      "AttributeToModify":
        "D_Attributes.StatusEffectModifiers.ShockChanceResistanceModifier",
      "ConstraintAttribute": null,
      "ModifierType": "MT_PreAdd",
      "BaseModifierValue": {
        "BaseValueConstant": -1.0,
        "BaseValueAttribute": null,
        "InitializationDefinition": null,
        "BaseValueScaleConstant": 1.0
      },
      "PerGradeUpgrade": {
        "BaseValueConstant": 0.0,
        "BaseValueAttribute": null,
        "InitializationDefinition": null,
        "BaseValueScaleConstant": 1.0
      },
      "bIncludeInFunStats": false,
      "bIncludeAlliesAsTarget": false,
      "bEnforceMinimumGrade": false,
      "bEnforceMaximumGrade": false,
      "MinimumGrade": 0,
      "MaximumGrade": 0,
      "TargetInstanceDataName": null
    },
    {
      "SlotName": "CorrosiveResist",
      "bExternalSlot": true,
      "bRunEffectsAsSkill": false,
      "AttributeToModify":
        "D_Attributes.StatusEffectModifiers.CorrosiveChanceResistanceModifier",
      "ConstraintAttribute": null,
      "ModifierType": "MT_PreAdd",
      "BaseModifierValue": {
        "BaseValueConstant": -1.0,
        "BaseValueAttribute": null,
        "InitializationDefinition": null,
        "BaseValueScaleConstant": 1.0
      },
      "PerGradeUpgrade": {
        "BaseValueConstant": 0.0,
        "BaseValueAttribute": null,
        "InitializationDefinition": null,
        "BaseValueScaleConstant": 1.0
      },
      "bIncludeInFunStats": false,
      "bIncludeAlliesAsTarget": false,
      "bEnforceMinimumGrade": false,
      "bEnforceMaximumGrade": false,
      "MinimumGrade": 0,
      "MaximumGrade": 0,
      "TargetInstanceDataName": null
    },
    {
      "SlotName": "ExplosiveDamageResistance",
      "bExternalSlot": true,
      "bRunEffectsAsSkill": false,
      "AttributeToModify":
        "GD_Shields.Misc.Att_Shield_ExplosiveDamageResistance",
      "ConstraintAttribute": null,
      "ModifierType": "MT_Scale",
      "BaseModifierValue": {
        "BaseValueConstant": 0.0,
        "BaseValueAttribute": "GD_Shields.Misc.Att_ShieldResistance_Base",
        "InitializationDefinition": null,
        "BaseValueScaleConstant": 1.0
      },
      "PerGradeUpgrade": {
        "BaseValueConstant": 0.0,
        "BaseValueAttribute":
          "GD_Shields.Misc.Att_ShieldResistance_PerGradeUpgrade",
        "InitializationDefinition": null,
        "BaseValueScaleConstant": 1.0
      },
      "bIncludeInFunStats": false,
      "bIncludeAlliesAsTarget": false,
      "bEnforceMinimumGrade": false,
      "bEnforceMaximumGrade": false,
      "MinimumGrade": 0,
      "MaximumGrade": 0,
      "TargetInstanceDataName": null
    },
    {
      "SlotName": "MaxHealth",
      "bExternalSlot": true,
      "bRunEffectsAsSkill": false,
      "AttributeToModify": "D_Attributes.HealthResourcePool.HealthMaxValue",
      "ConstraintAttribute": null,
      "ModifierType": "MT_PostAdd",
      "BaseModifierValue": {
        "BaseValueConstant": 0.0,
        "BaseValueAttribute": null,
        "InitializationDefinition": null,
        "BaseValueScaleConstant": 1.0
      },
      "PerGradeUpgrade": {
        "BaseValueConstant": 0.0,
        "BaseValueAttribute": null,
        "InitializationDefinition":
          "GD_Balance_HealthAndDamage.HealthAndDamage.Init_HealthBonusFromShields_Formula",
        "BaseValueScaleConstant": 0.03
      },
      "bIncludeInFunStats": false,
      "bIncludeAlliesAsTarget": false,
      "bEnforceMinimumGrade": false,
      "bEnforceMaximumGrade": false,
      "MinimumGrade": 0,
      "MaximumGrade": 0,
      "TargetInstanceDataName": null
    },
    {
      "SlotName": "Special01",
      "bExternalSlot": false,
      "bRunEffectsAsSkill": false,
      "AttributeToModify": "D_Attributes.Shield.PercentChanceToAbsorbAmmo",
      "ConstraintAttribute": null,
      "ModifierType": "MT_PreAdd",
      "BaseModifierValue": {
        "BaseValueConstant": 0.15,
        "BaseValueAttribute": null,
        "InitializationDefinition": null,
        "BaseValueScaleConstant": 1.0
      },
      "PerGradeUpgrade": {
        "BaseValueConstant": 0.008,
        "BaseValueAttribute": null,
        "InitializationDefinition": null,
        "BaseValueScaleConstant": 1.0
      },
      "bIncludeInFunStats": false,
      "bIncludeAlliesAsTarget": false,
      "bEnforceMinimumGrade": false,
      "bEnforceMaximumGrade": false,
      "MinimumGrade": 0,
      "MaximumGrade": 0,
      "TargetInstanceDataName": null
    },
    {
      "SlotName": "Special02",
      "bExternalSlot": false,
      "bRunEffectsAsSkill": false,
      "AttributeToModify":
        "D_Attributes.Shield.PercentDamageToNegateWhenAmmoAbsorbed",
      "ConstraintAttribute": null,
      "ModifierType": "MT_PreAdd",
      "BaseModifierValue": {
        "BaseValueConstant": 1.0,
        "BaseValueAttribute": null,
        "InitializationDefinition": null,
        "BaseValueScaleConstant": 1.0
      },
      "PerGradeUpgrade": {
        "BaseValueConstant": 0.0,
        "BaseValueAttribute": null,
        "InitializationDefinition": null,
        "BaseValueScaleConstant": 1.0
      },
      "bIncludeInFunStats": false,
      "bIncludeAlliesAsTarget": false,
      "bEnforceMinimumGrade": false,
      "bEnforceMaximumGrade": false,
      "MinimumGrade": 0,
      "MaximumGrade": 0,
      "TargetInstanceDataName": null
    }
  ],
  "UIStatList": [
    {
      "bDisplayAsModifierOnly": false,
      "AttributeStyle": "ATTRSTYLE_JustNumber",
      "SupplementalAttributeStyle": "ATTRSTYLE_JustNumber",
      "StatCombinationMethod": "SCM_Multiply",
      "Attribute": "D_Attributes.ShieldResourcePool.ShieldMaxValue",
      "ConstraintAttribute": null,
      "SupplementalAttributeExpression": {
        "AttributeOperand1": null,
        "ComparisonOperator": "OPERATOR_EqualTo",
        "Operand2Usage": "OPERAND_PreferAttribute",
        "AttributeOperand2": null,
        "ConstantOperand2": 0.0
      },
      "SupplementalAttributeToAppend": null
    },
    {
      "bDisplayAsModifierOnly": false,
      "AttributeStyle": "ATTRSTYLE_JustNumber",
      "SupplementalAttributeStyle": "ATTRSTYLE_JustNumber",
      "StatCombinationMethod": "SCM_Multiply",
      "Attribute":
        "D_Attributes.ShieldResourcePool.ShieldOnIdleRegenerationRate",
      "ConstraintAttribute": null,
      "SupplementalAttributeExpression": {
        "AttributeOperand1": null,
        "ComparisonOperator": "OPERATOR_EqualTo",
        "Operand2Usage": "OPERAND_PreferAttribute",
        "AttributeOperand2": null,
        "ConstantOperand2": 0.0
      },
      "SupplementalAttributeToAppend": null
    },
    {
      "bDisplayAsModifierOnly": false,
      "AttributeStyle": "ATTRSTYLE_JustNumber",
      "SupplementalAttributeStyle": "ATTRSTYLE_JustNumber",
      "StatCombinationMethod": "SCM_Multiply",
      "Attribute":
        "D_Attributes.ShieldResourcePool.ShieldOnIdleRegenerationDelay",
      "ConstraintAttribute": null,
      "SupplementalAttributeExpression": {
        "AttributeOperand1": null,
        "ComparisonOperator": "OPERATOR_EqualTo",
        "Operand2Usage": "OPERAND_PreferAttribute",
        "AttributeOperand2": null,
        "ConstantOperand2": 0.0
      },
      "SupplementalAttributeToAppend": null
    },
    {
      "bDisplayAsModifierOnly": false,
      "AttributeStyle": "ATTRSTYLE_ModifierText",
      "SupplementalAttributeStyle": "ATTRSTYLE_JustNumber",
      "StatCombinationMethod": "SCM_Multiply",
      "Attribute": "D_Attributes.Shield.PercentChanceToAbsorbAmmo",
      "ConstraintAttribute": null,
      "SupplementalAttributeExpression": {
        "AttributeOperand1": null,
        "ComparisonOperator": "OPERATOR_EqualTo",
        "Operand2Usage": "OPERAND_PreferAttribute",
        "AttributeOperand2": null,
        "ConstantOperand2": 0.0
      },
      "SupplementalAttributeToAppend": null
    }
  ],
  "PickupSounds": [
    {
      "Event": "Ake_Obj_Pickup.Obj_Pickup.Ak_Play_Obj_Pickup_Shield",
      "Cue": null,
      "Expressions": null
    }
  ],
  "VfTableObject": "",
  "HashNext": "",
  "ObjectFlags": "",
  "HashOuterNext": "",
  "StateFrame": "",
  "Linker": null,
  "LinkerIndex": "",
  "ObjectInternalInteger": 109967,
  "NetIndex": 3633,
  "Outer": "GD_Shields.A_Item",
  "Name": "Shield_Absorption",
  "Class": "WillowGame.ShieldDefinition",
  "ObjectArchetype": "WillowGame.Default__ShieldDefinition"
}