{
  "FireType": "EWWFT_Rocket",
  "BeamLockBehavior": "LBL_LockOn",
  "DamageTypeDefinition": null,
  "ProjectileDefinition":
    "GD_BTech_Streaming.Weapon.Projectiles.Projectile_SawBlade",
  "ExplosionOverrideDefinition": null,
  "ExplosionOverideInstanceDataName": null,
  "PartSysTemplate": null,
  "ConditionalPartSysTemplate": null,
  "Lifetime": 5.0,
  "TraceInterval": 0.2,
  "bSuppressImpactEffects": false,
  "bPenetratePawn": false,
  "bParameterizedSourceLocation": false,
  "bBeamChooseRandomBone": false,
  "bFireRandomlyFromPattern": false,
  "bResetPatternAfterEachShot": false,
  "bSuppressWeaponSpread": false,
  "bScalePatternByWeaponSpread": false,
  "OverchargedImpactTemplate": null,
  "NumRicochets": 0,
  "Speed": 2000.0,
  "Acceleration": { "X": 0.0, "Y": 0.0, "Z": 0.0 },
  "WaveFreq": { "X": 0.0, "Y": 0.0, "Z": 0.0 },
  "WaveAmp": { "X": 0.0, "Y": 0.0, "Z": 0.0 },
  "WavePhase": { "X": 0.0, "Y": 0.0, "Z": 0.0 },
  "RicochetFriction": 0.0,
  "AirFriction": 0.0,
  "RicochetResponse": {
    "SplitNum": 0,
    "SplitAngle": 0.0,
    "SplitAngleOffset": 0.0,
    "SplitDistance": 0.0,
    "SplitFire": null,
    "NewSpeed": 0.0,
    "bDetonate": false,
    "bRespawnTracer": false,
    "bUpdateBeamSourceLocation": false,
    "Behaviors": null
  },
  "TraceExtent": { "X": 0.0, "Y": 0.0, "Z": 0.0 },
  "LightProjectileSourceLocationName": "SourceLocation",
  "BeamMaxLockOnDistance": 5000.0,
  "BeamMaxLength": 7500.0,
  "BeamSourceTangentStrengthOverDistance": 1.5,
  "BeamTargetTangentStrengthOverDistance": 0.25,
  "BeamApproxRepUpdateTime": 1.0,
  "BeamTraceNumSteps": 6,
  "BeamSourceLocationName": "SourceLocation",
  "BeamSourceTangentName": "SourceTangent",
  "BeamSourceStrengthName": "SourceStrength",
  "BeamTargetLocationName": "TargetLocation",
  "BeamTargetTangentName": "TargetTangent",
  "BeamTargetStrengthName": "TargetStrength",
  "BeamDirectionName": "Direction",
  "BeamChainDelay": 1.0,
  "BeamChainNum": 3,
  "BeamChainMaxDistance": 4000.0,
  "BeamRandomBoneTimeMin": 1.0,
  "BeamRandomBoneTimeMax": 2.0,
  "SoundDefinition": null,
  "BasePatternSpread": 1.0,
  "MinPatternScale": 0.0,
  "FiringPatternLines": [
    {
      "StartPoint": { "Pitch": 728, "Yaw": -273, "Roll": 0 },
      "EndPoint": { "Pitch": 0, "Yaw": 0, "Roll": 0 },
      "bUseStartPointOnly": true,
      "CustomWaveMotion": {
        "bUseCustomWaveMotion": false,
        "WaveFreq": { "X": 0.0, "Y": 0.0, "Z": 0.0 },
        "WaveAmp": { "X": 0.0, "Y": 0.0, "Z": 0.0 },
        "WavePhase": { "X": 0.0, "Y": 0.0, "Z": 0.0 }
      }
    },
    {
      "StartPoint": { "Pitch": 728, "Yaw": 0, "Roll": 0 },
      "EndPoint": { "Pitch": 0, "Yaw": 0, "Roll": 0 },
      "bUseStartPointOnly": true,
      "CustomWaveMotion": {
        "bUseCustomWaveMotion": false,
        "WaveFreq": { "X": 0.0, "Y": 0.0, "Z": 0.0 },
        "WaveAmp": { "X": 0.0, "Y": 0.0, "Z": 0.0 },
        "WavePhase": { "X": 0.0, "Y": 0.0, "Z": 0.0 }
      }
    },
    {
      "StartPoint": { "Pitch": 728, "Yaw": 273, "Roll": 0 },
      "EndPoint": { "Pitch": 0, "Yaw": 0, "Roll": 0 },
      "bUseStartPointOnly": true,
      "CustomWaveMotion": {
        "bUseCustomWaveMotion": false,
        "WaveFreq": { "X": 0.0, "Y": 0.0, "Z": 0.0 },
        "WaveAmp": { "X": 0.0, "Y": 0.0, "Z": 0.0 },
        "WavePhase": { "X": 0.0, "Y": 0.0, "Z": 0.0 }
      }
    }
  ],
  "VfTableObject": "",
  "HashNext": "",
  "ObjectFlags": "",
  "HashOuterNext": "",
  "StateFrame": "",
  "Linker": null,
  "LinkerIndex": "",
  "ObjectInternalInteger": 194830,
  "NetIndex": 52,
  "Outer": "GD_Orchid_SawHovercraft.Weapon.FiringModes",
  "Name": "FiringMode_SawBladeLauncher",
  "Class": "WillowGame.FiringModeDefinition",
  "ObjectArchetype": "WillowGame.Default__FiringModeDefinition"
}