{
  "FireType": "EWWFT_Bullet",
  "BeamLockBehavior": "LBL_LockOn",
  "DamageTypeDefinition": null,
  "ProjectileDefinition": null,
  "ExplosionOverrideDefinition":
    "GD_Weap_Shared_Effects.Default_Elemental_Explosions",
  "ExplosionOverideInstanceDataName": "ExplosionOverride",
  "PartSysTemplate": "FX_WEP_Trails.Particles.Part_Wep_Tracer_Wavy",
  "ConditionalPartSysTemplate": null,
  "Lifetime": 6.0,
  "TraceInterval": 0.2,
  "bSuppressImpactEffects": false,
  "bPenetratePawn": false,
  "bParameterizedSourceLocation": false,
  "bBeamChooseRandomBone": false,
  "bFireRandomlyFromPattern": false,
  "bResetPatternAfterEachShot": false,
  "bSuppressWeaponSpread": false,
  "bScalePatternByWeaponSpread": false,
  "OverchargedImpactTemplate": null,
  "NumRicochets": 0,
  "Speed": 2000.0,
  "Acceleration": { "X": 0.0, "Y": 0.0, "Z": -1200.0 },
  "WaveFreq": { "X": 0.0, "Y": 0.0, "Z": 0.0 },
  "WaveAmp": { "X": 0.0, "Y": 0.0, "Z": 0.0 },
  "WavePhase": { "X": 0.0, "Y": 0.0, "Z": 0.0 },
  "RicochetFriction": 0.0,
  "AirFriction": 0.04,
  "RicochetResponse": {
    "SplitNum": 0,
    "SplitAngle": 0.0,
    "SplitAngleOffset": 0.0,
    "SplitDistance": 0.0,
    "SplitFire": null,
    "NewSpeed": 0.0,
    "bDetonate": false,
    "bRespawnTracer": false,
    "bUpdateBeamSourceLocation": false,
    "Behaviors": null
  },
  "TraceExtent": { "X": 0.0, "Y": 0.0, "Z": 0.0 },
  "LightProjectileSourceLocationName": "SourceLocation",
  "BeamMaxLockOnDistance": 5000.0,
  "BeamMaxLength": 7500.0,
  "BeamSourceTangentStrengthOverDistance": 1.5,
  "BeamTargetTangentStrengthOverDistance": 0.25,
  "BeamApproxRepUpdateTime": 1.0,
  "BeamTraceNumSteps": 6,
  "BeamSourceLocationName": "SourceLocation",
  "BeamSourceTangentName": "SourceTangent",
  "BeamSourceStrengthName": "SourceStrength",
  "BeamTargetLocationName": "TargetLocation",
  "BeamTargetTangentName": "TargetTangent",
  "BeamTargetStrengthName": "TargetStrength",
  "BeamDirectionName": "Direction",
  "BeamChainDelay": 1.0,
  "BeamChainNum": 3,
  "BeamChainMaxDistance": 4000.0,
  "BeamRandomBoneTimeMin": 1.0,
  "BeamRandomBoneTimeMax": 2.0,
  "SoundDefinition":
    "GD_Weap_Bullet_Tech_Sounds.Sound_Definitions.Default_Bullet",
  "BasePatternSpread": 1.0,
  "MinPatternScale": 0.0,
  "FiringPatternLines": [
    {
      "StartPoint": { "Pitch": 1274, "Yaw": 0, "Roll": 0 },
      "EndPoint": { "Pitch": 0, "Yaw": 0, "Roll": 0 },
      "bUseStartPointOnly": true,
      "CustomWaveMotion": {
        "bUseCustomWaveMotion": false,
        "WaveFreq": { "X": 0.0, "Y": 0.0, "Z": 0.0 },
        "WaveAmp": { "X": 0.0, "Y": 0.0, "Z": 0.0 },
        "WavePhase": { "X": 0.0, "Y": 0.0, "Z": 0.0 }
      }
    }
  ],
  "TimerEvents": [
    {
      "Time": 0.4,
      "Response": {
        "SplitNum": 3,
        "SplitAngle": 2.5,
        "SplitAngleOffset": 0.0,
        "SplitDistance": 0.0,
        "SplitFire":
          "GD_Sage_RaidWeapons.FiringModes.Bullet_Assault_LeadStorm_Child",
        "NewSpeed": 0.0,
        "bDetonate": true,
        "bRespawnTracer": true,
        "bUpdateBeamSourceLocation": false,
        "Behaviors": null
      }
    }
  ],
  "VfTableObject": "",
  "HashNext": "",
  "ObjectFlags": "",
  "HashOuterNext": "",
  "StateFrame": "",
  "Linker": null,
  "LinkerIndex": "",
  "ObjectInternalInteger": 178726,
  "NetIndex": 21,
  "Outer": "GD_Sage_RaidWeapons.FiringModes",
  "Name": "Bullet_Assault_LeadStorm",
  "Class": "WillowGame.FiringModeDefinition",
  "ObjectArchetype": "WillowGame.Default__FiringModeDefinition"
}