{
  "bAlwaysAvailable": false,
  "ActionName": "Reload",
  "OnBegin": [
    "GD_Input.Actions.InputAction_Reload:PlayerBehavior_Reload_0"
  ],
  "VfTableObject": "",
  "HashNext": "",
  "ObjectFlags": "",
  "HashOuterNext": "",
  "StateFrame": "",
  "Linker": null,
  "LinkerIndex": "",
  "ObjectInternalInteger": 129336,
  "NetIndex": 75,
  "Outer": "GD_Input.Actions",
  "Name": "InputAction_Reload",
  "Class": "WillowGame.InputActionDefinition",
  "ObjectArchetype": "WillowGame.Default__InputActionDefinition"
}