{
  "bAlwaysAvailable": false,
  "ActionName": "Skills",
  "OnBegin": [
    "GD_Input.Actions.InputAction_ShowSkills:Behavior_ClientConsoleCommand_1"
  ],
  "VfTableObject": "",
  "HashNext": "",
  "ObjectFlags": "",
  "HashOuterNext": "",
  "StateFrame": "",
  "Linker": null,
  "LinkerIndex": "",
  "ObjectInternalInteger": 113274,
  "NetIndex": 83,
  "Outer": "GD_Input.Actions",
  "Name": "InputAction_ShowSkills",
  "Class": "WillowGame.InputActionDefinition",
  "ObjectArchetype": "WillowGame.Default__InputActionDefinition"
}