{
  "bAlwaysAvailable": false,
  "ActionName": "Afterburner",
  "OnBegin": [
    "GD_Input.Actions.InputAction_Afterburner:Behavior_ClientConsoleCommand_2"
  ],
  "VfTableObject": "",
  "HashNext": "",
  "ObjectFlags": "",
  "HashOuterNext": "",
  "StateFrame": "",
  "Linker": null,
  "LinkerIndex": "",
  "ObjectInternalInteger": 113217,
  "NetIndex": 56,
  "Outer": "GD_Input.Actions",
  "Name": "InputAction_Afterburner",
  "Class": "WillowGame.InputActionDefinition",
  "ObjectArchetype": "WillowGame.Default__InputActionDefinition"
}