{
  "DefaultOpinion": "OPINION_Enemy",
  "SelfOpinion": "OPINION_Friendly",
  "ForcedOtherOpinion": "OPINION_Enemy",
  "bForceAllOtherOpinions": false,
  "AllegianceKilledStat": null,
  "VfTableObject": "",
  "HashNext": "",
  "ObjectFlags": "",
  "HashOuterNext": "",
  "StateFrame": "",
  "Linker": null,
  "LinkerIndex": "",
  "ObjectInternalInteger": 588,
  "NetIndex": 7811,
  "Outer": "Package'Engine'",
  "Name": "Default__PawnAllegiance",
  "Class": "Engine.PawnAllegiance",
  "ObjectArchetype": "Engine.Default__GBXDefinition"
}