{
  "DefaultOpinion": "OPINION_Enemy",
  "SelfOpinion": "OPINION_Friendly",
  "ForcedOtherOpinion": "OPINION_Enemy",
  "bForceAllOtherOpinions": false,
  "AllegianceKilledStat": null,
  "OtherOpinions": [
    {
      "Opinion": "OPINION_Friendly",
      "Allegiance": "GD_AI_Allegiance.Allegiance_Bandit"
    },
    {
      "Opinion": "OPINION_Friendly",
      "Allegiance": "GD_AI_Allegiance_Allium.Allegiance_BigBird"
    }
  ],
  "MyOpinions": [
    {
      "Opinion": "OPINION_Friendly",
      "Allegiance": "GD_AI_Allegiance.Allegiance_ExplosiveBarrel"
    },
    {
      "Opinion": "OPINION_Friendly",
      "Allegiance": "GD_AI_Allegiance.Allegiance_BoomBoom"
    },
    {
      "Opinion": "OPINION_Friendly",
      "Allegiance": "GD_AI_Allegiance.Allegiance_Bandit"
    },
    {
      "Opinion": "OPINION_Friendly",
      "Allegiance": "GD_AI_Allegiance_Allium.Allegiance_BigBird"
    }
  ],
  "VfTableObject": "",
  "HashNext": "",
  "ObjectFlags": "",
  "HashOuterNext": "",
  "StateFrame": "",
  "Linker": null,
  "LinkerIndex": "",
  "ObjectInternalInteger": 209604,
  "NetIndex": 2,
  "Outer": "Package'GD_AI_Allegiance_Allium'",
  "Name": "Allegiance_BigBird_BanditFriendly",
  "Class": "Engine.PawnAllegiance",
  "ObjectArchetype": "Engine.Default__PawnAllegiance"
}