{
  "DefaultOpinion": "OPINION_Friendly",
  "SelfOpinion": "OPINION_Friendly",
  "ForcedOtherOpinion": "OPINION_Friendly",
  "bForceAllOtherOpinions": true,
  "AllegianceKilledStat": null,
  "OtherOpinions": [
    {
      "Opinion": "OPINION_Friendly",
      "Allegiance": "GD_AI_Allegiance.Allegiance_Bot"
    },
    {
      "Opinion": "OPINION_Enemy",
      "Allegiance": "GD_AI_Allegiance.Allegiance_Player"
    }
  ],
  "MyOpinions": [
    {
      "Opinion": "OPINION_Enemy",
      "Allegiance": "GD_AI_Allegiance.Allegiance_Player"
    },
    {
      "Opinion": "OPINION_Enemy",
      "Allegiance": "GD_AI_Allegiance.Allegiance_Player_NoLevel"
    },
    {
      "Opinion": "OPINION_Enemy",
      "Allegiance": "GD_AI_Allegiance.Allegiance_BunkerBoss_Gyro"
    }
  ],
  "VfTableObject": "",
  "HashNext": "",
  "ObjectFlags": "",
  "HashOuterNext": "",
  "StateFrame": "",
  "Linker": null,
  "LinkerIndex": "",
  "ObjectInternalInteger": 151367,
  "NetIndex": 9,
  "Outer": "Package'GD_AI_Allegiance'",
  "Name": "Allegiance_BunkerBoss_AutoCannon",
  "Class": "Engine.PawnAllegiance",
  "ObjectArchetype": "Engine.Default__PawnAllegiance"
}