{
  "DefaultOpinion": "OPINION_Friendly",
  "SelfOpinion": "OPINION_Friendly",
  "ForcedOtherOpinion": "OPINION_Friendly",
  "bForceAllOtherOpinions": true,
  "AllegianceKilledStat": null,
  "OtherOpinions": [
    {
      "Opinion": "OPINION_Enemy",
      "Allegiance": "GD_AI_Allegiance.Allegiance_Player"
    }
  ],
  "MyOpinions": [
    {
      "Opinion": "OPINION_Enemy",
      "Allegiance": "GD_AI_Allegiance.Allegiance_Player"
    }
  ],
  "VfTableObject": "",
  "HashNext": "",
  "ObjectFlags": "",
  "HashOuterNext": "",
  "StateFrame": "",
  "Linker": null,
  "LinkerIndex": "",
  "ObjectInternalInteger": 205692,
  "NetIndex": 2616,
  "Outer": "GD_FinalBoss.AI",
  "Name": "Allegiance_FinalBoss",
  "Class": "Engine.PawnAllegiance",
  "ObjectArchetype": "Engine.Default__PawnAllegiance"
}