{
  "DefaultOpinion": "OPINION_Enemy",
  "SelfOpinion": "OPINION_Friendly",
  "ForcedOtherOpinion": "OPINION_Enemy",
  "bForceAllOtherOpinions": false,
  "AllegianceKilledStat": null,
  "VfTableObject": "",
  "HashNext": "",
  "ObjectFlags": "",
  "HashOuterNext": "",
  "StateFrame": "",
  "Linker": null,
  "LinkerIndex": "",
  "ObjectInternalInteger": 220253,
  "NetIndex": 0,
  "Outer": "Package'GD_Flax_AI_Allegiance'",
  "Name": "Allegiance_HallowSkeletons",
  "Class": "Engine.PawnAllegiance",
  "ObjectArchetype": "Engine.Default__PawnAllegiance"
}