{
  "DefaultOpinion": "OPINION_Enemy",
  "SelfOpinion": "OPINION_Friendly",
  "ForcedOtherOpinion": "OPINION_Enemy",
  "bForceAllOtherOpinions": false,
  "AllegianceKilledStat": "STAT_PLAYER_KILLS_GROUP_BANDIT",
  "OtherOpinions": [
    {
      "Opinion": "OPINION_Friendly",
      "Allegiance": "GD_AI_Allegiance.Allegiance_Bandit"
    }
  ],
  "MyOpinions": [
    {
      "Opinion": "OPINION_Friendly",
      "Allegiance": "GD_AI_Allegiance.Allegiance_Nomad"
    },
    {
      "Opinion": "OPINION_Friendly",
      "Allegiance": "GD_AI_Allegiance.Allegiance_Gyrocopter"
    },
    {
      "Opinion": "OPINION_Friendly",
      "Allegiance": "GD_AI_Allegiance.Allegiance_ExplosiveBarrel"
    },
    {
      "Opinion": "OPINION_Friendly",
      "Allegiance": "GD_AI_Allegiance.Allegiance_BoomBoom"
    },
    {
      "Opinion": "OPINION_Friendly",
      "Allegiance": "GD_Iris_AI_Allegiance.Allegiance_MamaBoostBiker"
    },
    {
      "Opinion": "OPINION_Friendly",
      "Allegiance": "GD_AI_Allegiance.Allegiance_Bandit"
    }
  ],
  "VfTableObject": "",
  "HashNext": "",
  "ObjectFlags": "",
  "HashOuterNext": "",
  "StateFrame": "",
  "Linker": null,
  "LinkerIndex": "",
  "ObjectInternalInteger": 218556,
  "NetIndex": 1,
  "Outer": "Package'GD_Iris_AI_Allegiance'",
  "Name": "Allegiance_RaidMama",
  "Class": "Engine.PawnAllegiance",
  "ObjectArchetype": "Engine.Default__PawnAllegiance"
}