{
  "SpecialMoveList": [
    {
      "Expression":
        "GD_MarauderShared.Anims.AnimExpression_MarauderDeath:ExpressionTree_0",
      "SMD": "GD_MarauderShared.Anims.AnimRandom_MarauderDeath_Back"
    },
    {
      "Expression": null,
      "SMD": "GD_MarauderShared.Anims.AnimRandom_MarauderDeath_Front"
    }
  ],
  "NextSpecialMove": null,
  "StopExpression": null,
  "bOwnerAlwaysRelevant": false,
  "bClientHasAuthority": false,
  "VfTableObject": "",
  "HashNext": "",
  "ObjectFlags": "",
  "HashOuterNext": "",
  "StateFrame": "",
  "Linker": null,
  "LinkerIndex": "",
  "ObjectInternalInteger": 182728,
  "NetIndex": 918,
  "Outer": "GD_MarauderShared.Anims",
  "Name": "AnimExpression_MarauderDeath",
  "Class": "GearboxFramework.SpecialMoveExpressionList",
  "ObjectArchetype": "GearboxFramework.Default__SpecialMoveExpressionList"
}