{
  "VfTable_IIDamageCauser": "",
  "Damage": {
    "BaseValueConstant": 0.0,
    "BaseValueAttribute": null,
    "InitializationDefinition":
      "GD_Balance_HealthAndDamage.HealthAndDamage.Init_EnemyNonWeaponDamage",
    "BaseValueScaleConstant": 0.3
  },
  "DamageSource": null,
  "DamageTypeDefinitionOverride": null,
  "DamageTypeDefinition":
    "GD_Incendiary.DamageType.DmgType_Incendiary_Impact",
  "ImpactDefinition":
    "GD_Impacts.ExplosiveImpacts.ExplosiveImpactIncendiary512",
  "Knockback": {
    "BaseValueConstant": 0.05,
    "BaseValueAttribute": null,
    "InitializationDefinition": null,
    "BaseValueScaleConstant": 1.0
  },
  "StatusEffectDamage": {
    "BaseValueConstant": 0.0,
    "BaseValueAttribute": null,
    "InitializationDefinition":
      "GD_Balance_HealthAndDamage.HealthAndDamage.Init_EnemyNonWeaponStatusEffectDamage",
    "BaseValueScaleConstant": 0.8
  },
  "StatusEffectChance": {
    "BaseValueConstant": 10.0,
    "BaseValueAttribute": null,
    "InitializationDefinition": null,
    "BaseValueScaleConstant": 1.0
  },
  "HitStartSocketOrBone": "BreathSocketGround",
  "HitStartOffset": { "X": 0.0, "Y": 0.0, "Z": 0.0 },
  "bMeleeOverPeriodOfTime": true,
  "bHitEachTargetOnlyOnce": false,
  "bStopMeleeOnLanded": false,
  "bAffectEnemy": true,
  "bAffectFriendly": true,
  "bAffectNeutral": true,
  "bUseDamageRadius": false,
  "bExpandRadiusOverTime": false,
  "bUseTargetCone": true,
  "bIgnoreWorldGeometry": false,
  "MaxMeleeDuration": 1.15,
  "AttackInterval": 0.2,
  "DamageRadius": 2048.0,
  "DamageHeight": 2048.0,
  "DamageConeAngle": 360.0,
  "DamageHeightOffset": 0.0,
  "ConeAngle": 20.0,
  "TraceDistance": 2048.0,
  "OnHitFriendly": [
    "GD_BloodwingShared.Melee.MeleeDef_Bloodwing_FireBreathGround:Behavior_Conditional_0"
  ],
  "VfTableObject": "",
  "HashNext": "",
  "ObjectFlags": "",
  "HashOuterNext": "",
  "StateFrame": "",
  "Linker": null,
  "LinkerIndex": "",
  "ObjectInternalInteger": 191026,
  "NetIndex": 456,
  "Outer": "GD_BloodwingShared.Melee",
  "Name": "MeleeDef_Bloodwing_FireBreathGround",
  "Class": "WillowGame.MeleeDefinition",
  "ObjectArchetype": "WillowGame.Default__MeleeDefinition"
}