{
  "VfTable_IIDamageCauser": "",
  "Damage": {
    "BaseValueConstant": 0.0,
    "BaseValueAttribute": null,
    "InitializationDefinition":
      "GD_Balance_HealthAndDamage.HealthAndDamage.Init_EnemyNonWeaponDamage",
    "BaseValueScaleConstant": 0.5
  },
  "DamageSource": "WillowGame.WillowDmgSource_Melee",
  "DamageTypeDefinitionOverride": null,
  "DamageTypeDefinition": "GD_Impact.DamageType.DmgType_Normal",
  "ImpactDefinition": "GD_Impacts.Melee.Impact_MeleeGeneric",
  "Knockback": {
    "BaseValueConstant": 1.0,
    "BaseValueAttribute": null,
    "InitializationDefinition": null,
    "BaseValueScaleConstant": 1.0
  },
  "StatusEffectDamage": {
    "BaseValueConstant": 0.0,
    "BaseValueAttribute": null,
    "InitializationDefinition": null,
    "BaseValueScaleConstant": 1.0
  },
  "StatusEffectChance": {
    "BaseValueConstant": 0.0,
    "BaseValueAttribute": null,
    "InitializationDefinition": null,
    "BaseValueScaleConstant": 1.0
  },
  "HitStartSocketOrBone": null,
  "HitStartOffset": { "X": 0.0, "Y": -25.0, "Z": 0.0 },
  "bMeleeOverPeriodOfTime": true,
  "bHitEachTargetOnlyOnce": true,
  "bStopMeleeOnLanded": false,
  "bAffectEnemy": true,
  "bAffectFriendly": false,
  "bAffectNeutral": true,
  "bUseDamageRadius": true,
  "bExpandRadiusOverTime": false,
  "bUseTargetCone": false,
  "bIgnoreWorldGeometry": false,
  "MaxMeleeDuration": 1.5,
  "AttackInterval": 0.33,
  "DamageRadius": 3000.0,
  "DamageHeight": 400.0,
  "DamageConeAngle": 90.0,
  "DamageHeightOffset": 0.0,
  "ConeAngle": 0.0,
  "TraceDistance": 0.0,
  "OnHitEnemyHealth": [
    "GD_Crawmerax_Son.Melee.MeleeDef_Crawmerax_Snaps:Behavior_ScreenParticle_2",
    "GD_Crawmerax_Son.Melee.MeleeDef_Crawmerax_Snaps:Behavior_PostAkEvent_146"
  ],
  "OnHitEnemy": [
    "GD_Crawmerax_Son.Melee.MeleeDef_Crawmerax_Snaps:PlayerBehavior_CameraAnim_1"
  ],
  "VfTableObject": "",
  "HashNext": "",
  "ObjectFlags": "",
  "HashOuterNext": "",
  "StateFrame": "",
  "Linker": null,
  "LinkerIndex": "",
  "ObjectInternalInteger": 213585,
  "NetIndex": 1620,
  "Outer": "GD_Crawmerax_Son.Melee",
  "Name": "MeleeDef_Crawmerax_Snaps",
  "Class": "WillowGame.MeleeDefinition",
  "ObjectArchetype": "WillowGame.Default__MeleeDefinition"
}