{
  "VfTable_IIDamageCauser": "",
  "Damage": {
    "BaseValueConstant": 0.0,
    "BaseValueAttribute": null,
    "InitializationDefinition":
      "GD_Balance_HealthAndDamage.HealthAndDamage.Init_EnemyNonWeaponDamage",
    "BaseValueScaleConstant": 0.3
  },
  "DamageSource": null,
  "DamageTypeDefinitionOverride": null,
  "DamageTypeDefinition":
    "GD_Incendiary.DamageType.DmgType_Incendiary_Impact",
  "ImpactDefinition":
    "GD_Impacts.ExplosiveImpacts.ExplosiveImpactIncendiary512",
  "Knockback": {
    "BaseValueConstant": 0.4,
    "BaseValueAttribute": null,
    "InitializationDefinition": null,
    "BaseValueScaleConstant": 1.0
  },
  "StatusEffectDamage": {
    "BaseValueConstant": 0.0,
    "BaseValueAttribute": null,
    "InitializationDefinition":
      "GD_Balance_HealthAndDamage.HealthAndDamage.Init_EnemyNonWeaponStatusEffectDamage",
    "BaseValueScaleConstant": 2.0
  },
  "StatusEffectChance": {
    "BaseValueConstant": 10.0,
    "BaseValueAttribute": null,
    "InitializationDefinition": null,
    "BaseValueScaleConstant": 1.0
  },
  "HitStartSocketOrBone": "L_Robot_HandExtension",
  "HitStartOffset": { "X": 0.0, "Y": 0.0, "Z": 0.0 },
  "bMeleeOverPeriodOfTime": true,
  "bHitEachTargetOnlyOnce": false,
  "bStopMeleeOnLanded": false,
  "bAffectEnemy": true,
  "bAffectFriendly": false,
  "bAffectNeutral": true,
  "bUseDamageRadius": true,
  "bExpandRadiusOverTime": false,
  "bUseTargetCone": false,
  "bIgnoreWorldGeometry": false,
  "MaxMeleeDuration": 1.0,
  "AttackInterval": 0.1,
  "DamageRadius": 1000.0,
  "DamageHeight": 90.0,
  "DamageConeAngle": 45.0,
  "DamageHeightOffset": -25.0,
  "ConeAngle": 0.0,
  "TraceDistance": 0.0,
  "VfTableObject": "",
  "HashNext": "",
  "ObjectFlags": "",
  "HashOuterNext": "",
  "StateFrame": "",
  "Linker": null,
  "LinkerIndex": "",
  "ObjectInternalInteger": 216987,
  "NetIndex": 644,
  "Outer": "GD_Iris_Pyro_Pete.Melee",
  "Name": "MeleeDef_Iris_Pyro_Pete_L_FlameBlast",
  "Class": "WillowGame.MeleeDefinition",
  "ObjectArchetype": "WillowGame.Default__MeleeDefinition"
}