{
  "VfTable_IIDamageCauser": "",
  "Damage": {
    "BaseValueConstant": 0.0,
    "BaseValueAttribute": null,
    "InitializationDefinition":
      "GD_Balance_HealthAndDamage.HealthAndDamage.Init_PlayerMeleeDamage",
    "BaseValueScaleConstant": 4.0
  },
  "DamageSource": "WillowGame.WillowDmgSource_Melee",
  "DamageTypeDefinitionOverride": "MeleeDamageType",
  "DamageTypeDefinition": "GD_Impact.DamageType.DmgType_Normal",
  "ImpactDefinition": "GD_Impacts.Melee.Impact_MeleeGeneric",
  "Knockback": {
    "BaseValueConstant": 1.0,
    "BaseValueAttribute": null,
    "InitializationDefinition": null,
    "BaseValueScaleConstant": 1.0
  },
  "StatusEffectDamage": {
    "BaseValueConstant": 0.0,
    "BaseValueAttribute": null,
    "InitializationDefinition": null,
    "BaseValueScaleConstant": 1.0
  },
  "StatusEffectChance": {
    "BaseValueConstant": 0.0,
    "BaseValueAttribute": null,
    "InitializationDefinition": null,
    "BaseValueScaleConstant": 1.0
  },
  "HitStartSocketOrBone": null,
  "HitStartOffset": { "X": -30.0, "Y": 0.0, "Z": 0.0 },
  "bMeleeOverPeriodOfTime": false,
  "bHitEachTargetOnlyOnce": true,
  "bStopMeleeOnLanded": false,
  "bAffectEnemy": true,
  "bAffectFriendly": true,
  "bAffectNeutral": true,
  "bUseDamageRadius": false,
  "bExpandRadiusOverTime": false,
  "bUseTargetCone": true,
  "bIgnoreWorldGeometry": false,
  "MaxMeleeDuration": 5.0,
  "AttackInterval": 0.1,
  "DamageRadius": 0.0,
  "DamageHeight": 0.0,
  "DamageConeAngle": 0.0,
  "DamageHeightOffset": 0.0,
  "ConeAngle": 40.0,
  "TraceDistance": 350.0,
  "OnHitFriendly": [
    "GD_Mercenary_Skills.Misc.MeleeDefinition_FistfulOfHurt:WillowVersusDuelBehavior_0"
  ],
  "OnHitEnemy": [
    "GD_Mercenary_Skills.Misc.MeleeDefinition_FistfulOfHurt:Behavior_PlaySound_0",
    "GD_Mercenary_Skills.Misc.MeleeDefinition_FistfulOfHurt:PlayerBehavior_ForceFeedback_0",
    "GD_Mercenary_Skills.Misc.MeleeDefinition_FistfulOfHurt:PlayerBehavior_ViewShake_0"
  ],
  "VfTableObject": "",
  "HashNext": "",
  "ObjectFlags": "",
  "HashOuterNext": "",
  "StateFrame": "",
  "Linker": null,
  "LinkerIndex": "",
  "ObjectInternalInteger": 197474,
  "NetIndex": 512,
  "Outer": "GD_Mercenary_Skills.Misc",
  "Name": "MeleeDefinition_FistfulOfHurt",
  "Class": "WillowGame.MeleeDefinition",
  "ObjectArchetype": "WillowGame.Default__MeleeDefinition"
}