{
  "VfTable_IIDamageCauser": "",
  "Damage": {
    "BaseValueConstant": 0.0,
    "BaseValueAttribute": null,
    "InitializationDefinition":
      "GD_Balance_HealthAndDamage.HealthAndDamage.Init_EnemyNonWeaponDamage",
    "BaseValueScaleConstant": 1.0
  },
  "DamageSource": "WillowGame.WillowDmgSource_Melee",
  "DamageTypeDefinitionOverride": null,
  "DamageTypeDefinition":
    "GD_Incendiary.DamageType.DmgType_Incendiary_Impact",
  "ImpactDefinition": "GD_Impacts.Melee.Impact_MeleeGeneric",
  "Knockback": {
    "BaseValueConstant": 0.5,
    "BaseValueAttribute": null,
    "InitializationDefinition": null,
    "BaseValueScaleConstant": 1.0
  },
  "StatusEffectDamage": {
    "BaseValueConstant": 0.0,
    "BaseValueAttribute": null,
    "InitializationDefinition":
      "GD_Balance_HealthAndDamage.HealthAndDamage.Init_EnemyNonWeaponStatusEffectDamage",
    "BaseValueScaleConstant": 1.0
  },
  "StatusEffectChance": {
    "BaseValueConstant": 100.0,
    "BaseValueAttribute": null,
    "InitializationDefinition": null,
    "BaseValueScaleConstant": 1.0
  },
  "HitStartSocketOrBone": null,
  "HitStartOffset": { "X": -100.0, "Y": 0.0, "Z": 0.0 },
  "bMeleeOverPeriodOfTime": false,
  "bHitEachTargetOnlyOnce": false,
  "bStopMeleeOnLanded": false,
  "bAffectEnemy": true,
  "bAffectFriendly": false,
  "bAffectNeutral": true,
  "bUseDamageRadius": true,
  "bExpandRadiusOverTime": false,
  "bUseTargetCone": false,
  "bIgnoreWorldGeometry": false,
  "MaxMeleeDuration": 0.0,
  "AttackInterval": 0.0,
  "DamageRadius": 512.0,
  "DamageHeight": 128.0,
  "DamageConeAngle": 128.0,
  "DamageHeightOffset": 0.0,
  "ConeAngle": 30.0,
  "TraceDistance": 200.0,
  "OnHitEnemyHealth": [
    "GD_Native_Badass.Melee.MeleeDef_Native_FireMelee:Behavior_PostAkEvent_0",
    "GD_Native_Badass.Melee.MeleeDef_Native_FireMelee:Behavior_ScreenParticle_0"
  ],
  "OnHitEnemy": [
    "GD_Native_Badass.Melee.MeleeDef_Native_FireMelee:PlayerBehavior_CameraAnim_0",
    "GD_Native_Badass.Melee.MeleeDef_Native_FireMelee:Behavior_SpawnParticleSystem_30"
  ],
  "VfTableObject": "",
  "HashNext": "",
  "ObjectFlags": "",
  "HashOuterNext": "",
  "StateFrame": "",
  "Linker": null,
  "LinkerIndex": "",
  "ObjectInternalInteger": 220900,
  "NetIndex": 668,
  "Outer": "GD_Native_Badass.Melee",
  "Name": "MeleeDef_Native_FireMelee",
  "Class": "WillowGame.MeleeDefinition",
  "ObjectArchetype": "WillowGame.Default__MeleeDefinition"
}