{
  "VfTable_IIDamageCauser": "",
  "Damage": {
    "BaseValueConstant": 0.0,
    "BaseValueAttribute": null,
    "InitializationDefinition":
      "GD_Balance_HealthAndDamage.HealthAndDamage.Init_EnemyNonWeaponDamage",
    "BaseValueScaleConstant": 6.0
  },
  "DamageSource": null,
  "DamageTypeDefinitionOverride": null,
  "DamageTypeDefinition": "GD_Impact.DamageType.DmgType_Normal",
  "ImpactDefinition": "GD_Impacts.Melee.Impact_MeleeGeneric",
  "Knockback": {
    "BaseValueConstant": 0.5,
    "BaseValueAttribute": null,
    "InitializationDefinition": null,
    "BaseValueScaleConstant": 1.0
  },
  "StatusEffectDamage": {
    "BaseValueConstant": 0.0,
    "BaseValueAttribute": null,
    "InitializationDefinition": null,
    "BaseValueScaleConstant": 1.0
  },
  "StatusEffectChance": {
    "BaseValueConstant": 0.0,
    "BaseValueAttribute": null,
    "InitializationDefinition": null,
    "BaseValueScaleConstant": 1.0
  },
  "HitStartSocketOrBone": "R_Anchor",
  "HitStartOffset": { "X": 0.0, "Y": 0.0, "Z": 0.0 },
  "bMeleeOverPeriodOfTime": false,
  "bHitEachTargetOnlyOnce": false,
  "bStopMeleeOnLanded": false,
  "bAffectEnemy": true,
  "bAffectFriendly": false,
  "bAffectNeutral": true,
  "bUseDamageRadius": true,
  "bExpandRadiusOverTime": false,
  "bUseTargetCone": false,
  "bIgnoreWorldGeometry": false,
  "MaxMeleeDuration": 0.0,
  "AttackInterval": 0.0,
  "DamageRadius": 512.0,
  "DamageHeight": 192.0,
  "DamageConeAngle": 360.0,
  "DamageHeightOffset": 0.0,
  "ConeAngle": 30.0,
  "TraceDistance": 200.0,
  "OnHitEnemyHealth": [
    "GD_Nast_AnchorManShared.Melee.MeleeDef_AnchorMan_Radius_Throw:Behavior_PostAkEvent_0"
  ],
  "OnHitEnemy": [
    "GD_Nast_AnchorManShared.Melee.MeleeDef_AnchorMan_Radius_Throw:PlayerBehavior_CameraAnim_0"
  ],
  "VfTableObject": "",
  "HashNext": "",
  "ObjectFlags": "",
  "HashOuterNext": "",
  "StateFrame": "",
  "Linker": null,
  "LinkerIndex": "",
  "ObjectInternalInteger": 202486,
  "NetIndex": 1148,
  "Outer": "GD_Nast_AnchorManShared.Melee",
  "Name": "MeleeDef_AnchorMan_Radius_Throw",
  "Class": "WillowGame.MeleeDefinition",
  "ObjectArchetype": "WillowGame.Default__MeleeDefinition"
}