{
  "VfTable_IIDamageCauser": "",
  "Damage": {
    "BaseValueConstant": 0.0,
    "BaseValueAttribute": null,
    "InitializationDefinition":
      "GD_Balance_HealthAndDamage.HealthAndDamage.Init_EnemyNonWeaponDamage",
    "BaseValueScaleConstant": 1.0
  },
  "DamageSource": "WillowGame.WillowDmgSource_Melee",
  "DamageTypeDefinitionOverride": null,
  "DamageTypeDefinition": "GD_Impact.DamageType.DmgType_Normal",
  "ImpactDefinition": "GD_Impacts.Melee.Impact_MeleeGeneric",
  "Knockback": {
    "BaseValueConstant": 1.0,
    "BaseValueAttribute": null,
    "InitializationDefinition": null,
    "BaseValueScaleConstant": 1.0
  },
  "StatusEffectDamage": {
    "BaseValueConstant": 0.0,
    "BaseValueAttribute": null,
    "InitializationDefinition": null,
    "BaseValueScaleConstant": 1.0
  },
  "StatusEffectChance": {
    "BaseValueConstant": 0.0,
    "BaseValueAttribute": null,
    "InitializationDefinition": null,
    "BaseValueScaleConstant": 1.0
  },
  "HitStartSocketOrBone": "Root",
  "HitStartOffset": { "X": 0.0, "Y": 0.0, "Z": 100.0 },
  "bMeleeOverPeriodOfTime": false,
  "bHitEachTargetOnlyOnce": true,
  "bStopMeleeOnLanded": false,
  "bAffectEnemy": true,
  "bAffectFriendly": false,
  "bAffectNeutral": true,
  "bUseDamageRadius": true,
  "bExpandRadiusOverTime": false,
  "bUseTargetCone": false,
  "bIgnoreWorldGeometry": false,
  "MaxMeleeDuration": 5.0,
  "AttackInterval": 0.1,
  "DamageRadius": 1024.0,
  "DamageHeight": 200.0,
  "DamageConeAngle": 360.0,
  "DamageHeightOffset": 0.0,
  "ConeAngle": 30.0,
  "TraceDistance": 200.0,
  "VfTableObject": "",
  "HashNext": "",
  "ObjectFlags": "",
  "HashOuterNext": "",
  "StateFrame": "",
  "Linker": null,
  "LinkerIndex": "",
  "ObjectInternalInteger": 210485,
  "NetIndex": 213,
  "Outer": "GD_Orchid_LoaderBoss.Melee",
  "Name": "MeleeDef_OrchidLoaderBoss_Stomp",
  "Class": "WillowGame.MeleeDefinition",
  "ObjectArchetype": "WillowGame.Default__MeleeDefinition"
}