{
  "VfTable_IIDamageCauser": "",
  "Damage": {
    "BaseValueConstant": 0.0,
    "BaseValueAttribute": null,
    "InitializationDefinition":
      "GD_Balance_HealthAndDamage.HealthAndDamage.Init_EnemyNonWeaponDamage",
    "BaseValueScaleConstant": 0.04
  },
  "DamageSource": null,
  "DamageTypeDefinitionOverride": null,
  "DamageTypeDefinition": "GD_Impact.DamageType.DmgType_Normal",
  "ImpactDefinition": null,
  "Knockback": {
    "BaseValueConstant": 0.0,
    "BaseValueAttribute": null,
    "InitializationDefinition": null,
    "BaseValueScaleConstant": 1.0
  },
  "StatusEffectDamage": {
    "BaseValueConstant": 0.0,
    "BaseValueAttribute": null,
    "InitializationDefinition": null,
    "BaseValueScaleConstant": 1.0
  },
  "StatusEffectChance": {
    "BaseValueConstant": 0.0,
    "BaseValueAttribute": null,
    "InitializationDefinition": null,
    "BaseValueScaleConstant": 1.0
  },
  "HitStartSocketOrBone": "Rock",
  "HitStartOffset": { "X": 0.0, "Y": 0.0, "Z": 0.0 },
  "bMeleeOverPeriodOfTime": true,
  "bHitEachTargetOnlyOnce": false,
  "bStopMeleeOnLanded": false,
  "bAffectEnemy": true,
  "bAffectFriendly": false,
  "bAffectNeutral": true,
  "bUseDamageRadius": true,
  "bExpandRadiusOverTime": false,
  "bUseTargetCone": false,
  "bIgnoreWorldGeometry": false,
  "MaxMeleeDuration": 2.2,
  "AttackInterval": 0.12,
  "DamageRadius": 5000.0,
  "DamageHeight": 3500.0,
  "DamageConeAngle": 35.0,
  "DamageHeightOffset": 600.0,
  "ConeAngle": 30.0,
  "TraceDistance": 200.0,
  "VfTableObject": "",
  "HashNext": "",
  "ObjectFlags": "",
  "HashOuterNext": "",
  "StateFrame": "",
  "Linker": null,
  "LinkerIndex": "",
  "ObjectInternalInteger": 220895,
  "NetIndex": 1136,
  "Outer": "GD_Orchid_BossWorm.Melee",
  "Name": "MeleeDef_Orchid_BossWorm_SlagSpray",
  "Class": "WillowGame.MeleeDefinition",
  "ObjectArchetype": "WillowGame.Default__MeleeDefinition"
}