{
  "VfTable_IIDamageCauser": "",
  "Damage": {
    "BaseValueConstant": 0.0,
    "BaseValueAttribute": null,
    "InitializationDefinition":
      "GD_Balance_HealthAndDamage.HealthAndDamage.Init_EnemyNonWeaponDamage",
    "BaseValueScaleConstant": 1.0
  },
  "DamageSource": "WillowGame.WillowDmgSource_Melee",
  "DamageTypeDefinitionOverride": null,
  "DamageTypeDefinition": "GD_Impact.DamageType.DmgType_Normal",
  "ImpactDefinition": "GD_Impacts.Melee.Impact_MeleeGeneric",
  "Knockback": {
    "BaseValueConstant": 0.75,
    "BaseValueAttribute": null,
    "InitializationDefinition": null,
    "BaseValueScaleConstant": 1.0
  },
  "StatusEffectDamage": {
    "BaseValueConstant": 0.0,
    "BaseValueAttribute": null,
    "InitializationDefinition": null,
    "BaseValueScaleConstant": 1.0
  },
  "StatusEffectChance": {
    "BaseValueConstant": 0.0,
    "BaseValueAttribute": null,
    "InitializationDefinition": null,
    "BaseValueScaleConstant": 1.0
  },
  "HitStartSocketOrBone": null,
  "HitStartOffset": { "X": -100.0, "Y": 0.0, "Z": 0.0 },
  "bMeleeOverPeriodOfTime": false,
  "bHitEachTargetOnlyOnce": false,
  "bStopMeleeOnLanded": false,
  "bAffectEnemy": true,
  "bAffectFriendly": false,
  "bAffectNeutral": true,
  "bUseDamageRadius": true,
  "bExpandRadiusOverTime": false,
  "bUseTargetCone": false,
  "bIgnoreWorldGeometry": false,
  "MaxMeleeDuration": 0.0,
  "AttackInterval": 0.1,
  "DamageRadius": 640.0,
  "DamageHeight": 256.0,
  "DamageConeAngle": 128.0,
  "DamageHeightOffset": 0.0,
  "ConeAngle": 30.0,
  "TraceDistance": 200.0,
  "OnHitEnemyHealth": [
    "GD_PrimalBeastShared.Melee.MeleeDef_PrimalBeast_Melee:Behavior_PostAkEvent_30"
  ],
  "OnHitEnemy": [
    "GD_PrimalBeastShared.Melee.MeleeDef_PrimalBeast_Melee:PlayerBehavior_CameraAnim_0"
  ],
  "VfTableObject": "",
  "HashNext": "",
  "ObjectFlags": "",
  "HashOuterNext": "",
  "StateFrame": "",
  "Linker": null,
  "LinkerIndex": "",
  "ObjectInternalInteger": 225771,
  "NetIndex": 1850,
  "Outer": "GD_PrimalBeastShared.Melee",
  "Name": "MeleeDef_PrimalBeast_Melee",
  "Class": "WillowGame.MeleeDefinition",
  "ObjectArchetype": "WillowGame.Default__MeleeDefinition"
}