{
  "VfTable_IIDamageCauser": "",
  "Damage": {
    "BaseValueConstant": 0.0,
    "BaseValueAttribute": null,
    "InitializationDefinition":
      "GD_Balance_HealthAndDamage.HealthAndDamage.Init_EnemyNonWeaponDamage",
    "BaseValueScaleConstant": 1.0
  },
  "DamageSource": "WillowGame.WillowDmgSource_Melee",
  "DamageTypeDefinitionOverride": null,
  "DamageTypeDefinition": "GD_Impact.DamageType.DmgType_Normal",
  "ImpactDefinition": "GD_Impacts.Melee.Impact_MeleeGeneric",
  "Knockback": {
    "BaseValueConstant": 0.75,
    "BaseValueAttribute": null,
    "InitializationDefinition": null,
    "BaseValueScaleConstant": 1.0
  },
  "StatusEffectDamage": {
    "BaseValueConstant": 0.0,
    "BaseValueAttribute": null,
    "InitializationDefinition": null,
    "BaseValueScaleConstant": 1.0
  },
  "StatusEffectChance": {
    "BaseValueConstant": 0.0,
    "BaseValueAttribute": null,
    "InitializationDefinition": null,
    "BaseValueScaleConstant": 1.0
  },
  "HitStartSocketOrBone": "Head",
  "HitStartOffset": { "X": 0.0, "Y": 0.0, "Z": 0.0 },
  "bMeleeOverPeriodOfTime": true,
  "bHitEachTargetOnlyOnce": true,
  "bStopMeleeOnLanded": true,
  "bAffectEnemy": true,
  "bAffectFriendly": false,
  "bAffectNeutral": true,
  "bUseDamageRadius": true,
  "bExpandRadiusOverTime": false,
  "bUseTargetCone": false,
  "bIgnoreWorldGeometry": false,
  "MaxMeleeDuration": 5.0,
  "AttackInterval": 0.066667,
  "DamageRadius": 300.0,
  "DamageHeight": 96.0,
  "DamageConeAngle": 60.0,
  "DamageHeightOffset": 0.0,
  "ConeAngle": 80.0,
  "TraceDistance": 340.0,
  "OnHitEnemyHealth": [
    "GD_Sage_ScaylionShared.Melee.MeleeDef_Sage_Scaylion_Leap:Behavior_ScreenParticle_1",
    "GD_Sage_ScaylionShared.Melee.MeleeDef_Sage_Scaylion_Leap:PlayerBehavior_ViewShake_1",
    "GD_Sage_ScaylionShared.Melee.MeleeDef_Sage_Scaylion_Leap:Behavior_PostAkEvent_50"
  ],
  "VfTableObject": "",
  "HashNext": "",
  "ObjectFlags": "",
  "HashOuterNext": "",
  "StateFrame": "",
  "Linker": null,
  "LinkerIndex": "",
  "ObjectInternalInteger": 220595,
  "NetIndex": 237,
  "Outer": "GD_Sage_ScaylionShared.Melee",
  "Name": "MeleeDef_Sage_Scaylion_Leap",
  "Class": "WillowGame.MeleeDefinition",
  "ObjectArchetype": "WillowGame.Default__MeleeDefinition"
}