{
  "VfTable_IIDamageCauser": "",
  "Damage": {
    "BaseValueConstant": 0.0,
    "BaseValueAttribute": null,
    "InitializationDefinition": null,
    "BaseValueScaleConstant": 1.0
  },
  "DamageSource": null,
  "DamageTypeDefinitionOverride": null,
  "DamageTypeDefinition": null,
  "ImpactDefinition": null,
  "Knockback": {
    "BaseValueConstant": 0.0,
    "BaseValueAttribute": null,
    "InitializationDefinition": null,
    "BaseValueScaleConstant": 1.0
  },
  "StatusEffectDamage": {
    "BaseValueConstant": 0.0,
    "BaseValueAttribute": null,
    "InitializationDefinition": null,
    "BaseValueScaleConstant": 1.0
  },
  "StatusEffectChance": {
    "BaseValueConstant": 0.0,
    "BaseValueAttribute": null,
    "InitializationDefinition": null,
    "BaseValueScaleConstant": 1.0
  },
  "HitStartSocketOrBone": null,
  "HitStartOffset": { "X": 0.0, "Y": 0.0, "Z": 0.0 },
  "bMeleeOverPeriodOfTime": false,
  "bHitEachTargetOnlyOnce": true,
  "bStopMeleeOnLanded": false,
  "bAffectEnemy": false,
  "bAffectFriendly": true,
  "bAffectNeutral": false,
  "bUseDamageRadius": true,
  "bExpandRadiusOverTime": false,
  "bUseTargetCone": false,
  "bIgnoreWorldGeometry": false,
  "MaxMeleeDuration": 0.0,
  "AttackInterval": 0.0,
  "DamageRadius": 512.0,
  "DamageHeight": 128.0,
  "DamageConeAngle": 360.0,
  "DamageHeightOffset": 0.0,
  "ConeAngle": 0.0,
  "TraceDistance": 0.0,
  "OnHitFriendly": [
    "GD_Sage_RhinoBadassFire.Melee.MeleeDef_Sage_RhinoBadassFire_Trans:Behavior_Conditional_0"
  ],
  "VfTableObject": "",
  "HashNext": "",
  "ObjectFlags": "",
  "HashOuterNext": "",
  "StateFrame": "",
  "Linker": null,
  "LinkerIndex": "",
  "ObjectInternalInteger": 203330,
  "NetIndex": 95,
  "Outer": "GD_Sage_RhinoBadassFire.Melee",
  "Name": "MeleeDef_Sage_RhinoBadassFire_Trans",
  "Class": "WillowGame.MeleeDefinition",
  "ObjectArchetype": "WillowGame.Default__MeleeDefinition"
}