{
  "VfTable_IIDamageCauser": "",
  "Damage": {
    "BaseValueConstant": 10.0,
    "BaseValueAttribute": null,
    "InitializationDefinition":
      "GD_Balance_HealthAndDamage.HealthAndDamage.Init_EnemyNonWeaponDamage",
    "BaseValueScaleConstant": 1.0
  },
  "DamageSource": "WillowGame.WillowDmgSource_Melee",
  "DamageTypeDefinitionOverride": null,
  "DamageTypeDefinition": "GD_Impact.DamageType.DmgType_Normal",
  "ImpactDefinition": "GD_Impacts.Melee.Impact_MeleeGeneric",
  "Knockback": {
    "BaseValueConstant": 0.6,
    "BaseValueAttribute": null,
    "InitializationDefinition": null,
    "BaseValueScaleConstant": 1.0
  },
  "StatusEffectDamage": {
    "BaseValueConstant": 0.0,
    "BaseValueAttribute": null,
    "InitializationDefinition": null,
    "BaseValueScaleConstant": 1.0
  },
  "StatusEffectChance": {
    "BaseValueConstant": 0.0,
    "BaseValueAttribute": null,
    "InitializationDefinition": null,
    "BaseValueScaleConstant": 1.0
  },
  "HitStartSocketOrBone": null,
  "HitStartOffset": { "X": 0.0, "Y": 0.0, "Z": 0.0 },
  "bMeleeOverPeriodOfTime": false,
  "bHitEachTargetOnlyOnce": true,
  "bStopMeleeOnLanded": false,
  "bAffectEnemy": true,
  "bAffectFriendly": false,
  "bAffectNeutral": true,
  "bUseDamageRadius": true,
  "bExpandRadiusOverTime": false,
  "bUseTargetCone": false,
  "bIgnoreWorldGeometry": false,
  "MaxMeleeDuration": 0.0,
  "AttackInterval": 0.0,
  "DamageRadius": 1024.0,
  "DamageHeight": 100.0,
  "DamageConeAngle": 360.0,
  "DamageHeightOffset": 0.0,
  "ConeAngle": 0.0,
  "TraceDistance": 0.0,
  "OnHitEnemy": [
    "GD_Stalker_Name1.Melee.MeleeDef_StalkerName1_QuillRadius:PlayerBehavior_ViewShake_1"
  ],
  "VfTableObject": "",
  "HashNext": "",
  "ObjectFlags": "",
  "HashOuterNext": "",
  "StateFrame": "",
  "Linker": null,
  "LinkerIndex": "",
  "ObjectInternalInteger": 200256,
  "NetIndex": 258,
  "Outer": "GD_Stalker_Name1.Melee",
  "Name": "MeleeDef_StalkerName1_QuillRadius",
  "Class": "WillowGame.MeleeDefinition",
  "ObjectArchetype": "WillowGame.Default__MeleeDefinition"
}