{
  "VfTable_IIDamageCauser": "",
  "Damage": {
    "BaseValueConstant": 0.0,
    "BaseValueAttribute": null,
    "InitializationDefinition": null,
    "BaseValueScaleConstant": 1.0
  },
  "DamageSource": null,
  "DamageTypeDefinitionOverride": null,
  "DamageTypeDefinition": "GD_Impact.DamageType.DmgType_Rhino",
  "ImpactDefinition": "GD_Impacts.Melee.Impact_MeleeGeneric",
  "Knockback": {
    "BaseValueConstant": 1.5,
    "BaseValueAttribute": null,
    "InitializationDefinition": null,
    "BaseValueScaleConstant": 1.0
  },
  "StatusEffectDamage": {
    "BaseValueConstant": 0.0,
    "BaseValueAttribute": null,
    "InitializationDefinition": null,
    "BaseValueScaleConstant": 1.0
  },
  "StatusEffectChance": {
    "BaseValueConstant": 0.0,
    "BaseValueAttribute": null,
    "InitializationDefinition": null,
    "BaseValueScaleConstant": 1.0
  },
  "HitStartSocketOrBone": null,
  "HitStartOffset": { "X": 0.0, "Y": 0.0, "Z": 0.0 },
  "bMeleeOverPeriodOfTime": true,
  "bHitEachTargetOnlyOnce": false,
  "bStopMeleeOnLanded": false,
  "bAffectEnemy": false,
  "bAffectFriendly": true,
  "bAffectNeutral": false,
  "bUseDamageRadius": true,
  "bExpandRadiusOverTime": false,
  "bUseTargetCone": false,
  "bIgnoreWorldGeometry": false,
  "MaxMeleeDuration": 5.0,
  "AttackInterval": 0.33,
  "DamageRadius": 820.0,
  "DamageHeight": 200.0,
  "DamageConeAngle": 360.0,
  "DamageHeightOffset": 0.0,
  "ConeAngle": 30.0,
  "TraceDistance": 200.0,
  "OnHitFriendly": [
    "GD_Willhelm.Melee.MeleeDef_Willhelm_HelicopterAoE_Push:Behavior_CauseDamage_0"
  ],
  "VfTableObject": "",
  "HashNext": "",
  "ObjectFlags": "",
  "HashOuterNext": "",
  "StateFrame": "",
  "Linker": null,
  "LinkerIndex": "",
  "ObjectInternalInteger": 211233,
  "NetIndex": 1586,
  "Outer": "GD_Willhelm.Melee",
  "Name": "MeleeDef_Willhelm_HelicopterAoE_Push",
  "Class": "WillowGame.MeleeDefinition",
  "ObjectArchetype": "WillowGame.Default__MeleeDefinition"
}