{
  "Attributes": [
    "GD_Sage_Shields.Attributes.AttrPresent_BucklerShieldCapacityProxy",
    "GD_Sage_Shields.Attributes.AttrPresent_BucklerShieldDamageResistance"
  ],
  "VfTableObject": "",
  "HashNext": "",
  "ObjectFlags": "",
  "HashOuterNext": "",
  "StateFrame": "",
  "Linker": null,
  "LinkerIndex": "",
  "ObjectInternalInteger": 177877,
  "NetIndex": 6,
  "Outer": "GD_Sage_Shields.Attributes",
  "Name": "ShieldOverridePresentationList_Sage",
  "Class": "WillowGame.AttributePresentationListDefinition",
  "ObjectArchetype":
    "WillowGame.Default__AttributePresentationListDefinition"
}