{
  "OwnerTarget": null,
  "BodyConsumptionPercent": 0.0,
  "LastPrimaryStatusEffect": null,
  "bCanApplyStatusEffects": true,
  "bUseClientEmitterList": false,
  "bUpdateAudio": false,
  "bEnabled": false,
  "bOwnerDied": false,
  "bDebugUsingStatusEffectInspector": false,
  "bStatusEffectsCleared": false,
  "IgniteChanceResistanceModifier": 1.0,
  "IgniteChanceResistanceModifierBaseValue": 1.0,
  "ShockChanceResistanceModifier": 1.0,
  "ShockChanceResistanceModifierBaseValue": 1.0,
  "CorrosiveChanceResistanceModifier": 1.0,
  "CorrosiveChanceResistanceModifierBaseValue": 1.0,
  "SlowChanceResistanceModifier": 1.0,
  "SlowChanceResistanceModifierBaseValue": 1.0,
  "AmpChanceResistanceModifier": 1.0,
  "AmpChanceResistanceModifierBaseValue": 1.0,
  "IgniteDurationResistanceModifier": 1.0,
  "IgniteDurationResistanceModifierBaseValue": 1.0,
  "ShockDurationResistanceModifier": 1.0,
  "ShockDurationResistanceModifierBaseValue": 1.0,
  "CorrosiveDurationResistanceModifier": 1.0,
  "CorrosiveDurationResistanceModifierBaseValue": 1.0,
  "SlowDurationResistanceModifier": 1.0,
  "SlowDurationResistanceModifierBaseValue": 1.0,
  "AmpDurationResistanceModifier": 1.0,
  "AmpDurationResistanceModifierBaseValue": 1.0,
  "DebugPawnMarkerInst": null,
  "OngoingEffects": [
    {
      "TotalDamageDealtToHealth": 0.0,
      "TotalDamageDealtToShields": 0.0,
      "Duration": 0.0
    },
    {
      "TotalDamageDealtToHealth": 0.0,
      "TotalDamageDealtToShields": 0.0,
      "Duration": 0.0
    },
    {
      "TotalDamageDealtToHealth": 0.0,
      "TotalDamageDealtToShields": 0.0,
      "Duration": 0.0
    },
    {
      "TotalDamageDealtToHealth": 0.0,
      "TotalDamageDealtToShields": 0.0,
      "Duration": 0.0
    },
    {
      "TotalDamageDealtToHealth": 0.0,
      "TotalDamageDealtToShields": 0.0,
      "Duration": 0.0
    },
    {
      "TotalDamageDealtToHealth": 0.0,
      "TotalDamageDealtToShields": 0.0,
      "Duration": 0.0
    },
    {
      "TotalDamageDealtToHealth": 0.0,
      "TotalDamageDealtToShields": 0.0,
      "Duration": 0.0
    }
  ],
  "VfTable_IIWorldBody": "",
  "Scene": "",
  "Owner": null,
  "bAttached": false,
  "bSkipChildComponentUpdate": false,
  "bTickInEditor": false,
  "bTickInGame": true,
  "bTickInStatusMenu": false,
  "bNeedsReattach": false,
  "bNeedsUpdateTransform": false,
  "TickGroup": "TG_PreAsyncWork",
  "TemplateOwnerClass": null,
  "TemplateName": "StatComp",
  "VfTableObject": "",
  "HashNext": "",
  "ObjectFlags": "",
  "HashOuterNext": "",
  "StateFrame": "",
  "Linker": null,
  "LinkerIndex": "",
  "ObjectInternalInteger": 195732,
  "NetIndex": 763,
  "Outer": "GD_Orchid_Grendel.Character.Pawn_Orchid_Grendel",
  "Name": "StatComp",
  "Class": "WillowGame.StatusEffectsComponent",
  "ObjectArchetype": "WillowGame.Default__WillowAIPawn:StatComp"
}