{
  "ShadowmapTotalSize": 1.333008,
  "LightmapTotalSize": 2.703125,
  "VfTableObject": "",
  "HashNext": "",
  "ObjectFlags": "",
  "HashOuterNext": "",
  "StateFrame": "",
  "Linker": null,
  "LinkerIndex": "",
  "ObjectInternalInteger": 200630,
  "NetIndex": 116,
  "Outer": "CastleExterior_FX.TheWorld",
  "Name": "PersistentLevel",
  "Class": "Engine.Level",
  "ObjectArchetype": "Engine.Default__Level"
}