{
  "ShadowmapTotalSize": 173.333984,
  "LightmapTotalSize": 186.765625,
  "VfTableObject": "",
  "HashNext": "",
  "ObjectFlags": "",
  "HashOuterNext": "",
  "StateFrame": "",
  "Linker": null,
  "LinkerIndex": "",
  "ObjectInternalInteger": 200003,
  "NetIndex": 531,
  "Outer": "CastleExterior_Light.TheWorld",
  "Name": "PersistentLevel",
  "Class": "Engine.Level",
  "ObjectArchetype": "Engine.Default__Level"
}