{
  "ShadowmapTotalSize": 170.666016,
  "LightmapTotalSize": 85.359375,
  "VfTableObject": "",
  "HashNext": "",
  "ObjectFlags": "",
  "HashOuterNext": "",
  "StateFrame": "",
  "Linker": null,
  "LinkerIndex": "",
  "ObjectInternalInteger": 194883,
  "NetIndex": 2,
  "Outer": "CreatureSlaughter_Skybox.TheWorld",
  "Name": "PersistentLevel",
  "Class": "Engine.Level",
  "ObjectArchetype": "Engine.Default__Level"
}