{
  "ShadowmapTotalSize": 0.0,
  "LightmapTotalSize": 21.515625,
  "VfTableObject": "",
  "HashNext": "",
  "ObjectFlags": "",
  "HashOuterNext": "",
  "StateFrame": "",
  "Linker": null,
  "LinkerIndex": "",
  "ObjectInternalInteger": 225052,
  "NetIndex": 250,
  "Outer": "DungeonRaid_Combat.TheWorld",
  "Name": "PersistentLevel",
  "Class": "Engine.Level",
  "ObjectArchetype": "Engine.Default__Level"
}