{
  "ShadowmapTotalSize": 10.666992,
  "LightmapTotalSize": 21.359375,
  "VfTableObject": "",
  "HashNext": "",
  "ObjectFlags": "",
  "HashOuterNext": "",
  "StateFrame": "",
  "Linker": null,
  "LinkerIndex": "",
  "ObjectInternalInteger": 215867,
  "NetIndex": 345,
  "Outer": "Easter_Boss.TheWorld",
  "Name": "PersistentLevel",
  "Class": "Engine.Level",
  "ObjectArchetype": "Engine.Default__Level"
}