{
  "ShadowmapTotalSize": 110.998047,
  "LightmapTotalSize": 331.703125,
  "VfTableObject": "",
  "HashNext": "",
  "ObjectFlags": "",
  "HashOuterNext": "",
  "StateFrame": "",
  "Linker": null,
  "LinkerIndex": "",
  "ObjectInternalInteger": 210133,
  "NetIndex": 173,
  "Outer": "Fridge_Light.TheWorld",
  "Name": "PersistentLevel",
  "Class": "Engine.Level",
  "ObjectArchetype": "Engine.Default__Level"
}