{
  "ShadowmapTotalSize": 0.332031,
  "LightmapTotalSize": 0.4375,
  "VfTableObject": "",
  "HashNext": "",
  "ObjectFlags": "",
  "HashOuterNext": "",
  "StateFrame": "",
  "Linker": null,
  "LinkerIndex": "",
  "ObjectInternalInteger": 183064,
  "NetIndex": 86,
  "Outer": "Grass_Light.TheWorld",
  "Name": "PersistentLevel",
  "Class": "Engine.Level",
  "ObjectArchetype": "Engine.Default__Level"
}