{
  "ShadowmapTotalSize": 2560.007813,
  "LightmapTotalSize": 9328.671875,
  "VfTableObject": "",
  "HashNext": "",
  "ObjectFlags": "",
  "HashOuterNext": "",
  "StateFrame": "",
  "Linker": null,
  "LinkerIndex": "",
  "ObjectInternalInteger": 228876,
  "NetIndex": 2276,
  "Outer": "Hunger_P.TheWorld",
  "Name": "PersistentLevel",
  "Class": "Engine.Level",
  "ObjectArchetype": "Engine.Default__Level"
}