{
  "ShadowmapTotalSize": 174.666016,
  "LightmapTotalSize": 257.46875,
  "VfTableObject": "",
  "HashNext": "",
  "ObjectFlags": "",
  "HashOuterNext": "",
  "StateFrame": "",
  "Linker": null,
  "LinkerIndex": "",
  "ObjectInternalInteger": 189461,
  "NetIndex": 4,
  "Outer": "HyperionCity_Skybox.TheWorld",
  "Name": "PersistentLevel",
  "Class": "Engine.Level",
  "ObjectArchetype": "Engine.Default__Level"
}