{
  "ShadowmapTotalSize": 45.334961,
  "LightmapTotalSize": 57.484375,
  "VfTableObject": "",
  "HashNext": "",
  "ObjectFlags": "",
  "HashOuterNext": "",
  "StateFrame": "",
  "Linker": null,
  "LinkerIndex": "",
  "ObjectInternalInteger": 182172,
  "NetIndex": 164,
  "Outer": "Interlude_FX.TheWorld",
  "Name": "PersistentLevel",
  "Class": "Engine.Level",
  "ObjectArchetype": "Engine.Default__Level"
}