{
  "ShadowmapTotalSize": 95.99706999999999,
  "LightmapTotalSize": 96.234375,
  "VfTableObject": "",
  "HashNext": "",
  "ObjectFlags": "",
  "HashOuterNext": "",
  "StateFrame": "",
  "Linker": null,
  "LinkerIndex": "",
  "ObjectInternalInteger": 180926,
  "NetIndex": 4,
  "Outer": "Iris_DL3_Skybox.TheWorld",
  "Name": "PersistentLevel",
  "Class": "Engine.Level",
  "ObjectArchetype": "Engine.Default__Level"
}