{
  "ShadowmapTotalSize": 4088.00293,
  "LightmapTotalSize": 4753.359375,
  "VfTableObject": "",
  "HashNext": "",
  "ObjectFlags": "",
  "HashOuterNext": "",
  "StateFrame": "",
  "Linker": null,
  "LinkerIndex": "",
  "ObjectInternalInteger": 229721,
  "NetIndex": 877,
  "Outer": "Iris_Hub2_P.TheWorld",
  "Name": "PersistentLevel",
  "Class": "Engine.Level",
  "ObjectArchetype": "Engine.Default__Level"
}