{
  "ShadowmapTotalSize": 6138.670898,
  "LightmapTotalSize": 7295.234375,
  "VfTableObject": "",
  "HashNext": "",
  "ObjectFlags": "",
  "HashOuterNext": "",
  "StateFrame": "",
  "Linker": null,
  "LinkerIndex": "",
  "ObjectInternalInteger": 201678,
  "NetIndex": 935,
  "Outer": "Iris_Hub_Race.TheWorld",
  "Name": "PersistentLevel",
  "Class": "Engine.Level",
  "ObjectArchetype": "Engine.Default__Level"
}