{
  "ShadowmapTotalSize": 13.333008,
  "LightmapTotalSize": 24.078125,
  "VfTableObject": "",
  "HashNext": "",
  "ObjectFlags": "",
  "HashOuterNext": "",
  "StateFrame": "",
  "Linker": null,
  "LinkerIndex": "",
  "ObjectInternalInteger": 197056,
  "NetIndex": 2,
  "Outer": "Iris_DL1_Skybox.TheWorld",
  "Name": "PersistentLevel",
  "Class": "Engine.Level",
  "ObjectArchetype": "Engine.Default__Level"
}