{
  "ShadowmapTotalSize": 3.0,
  "LightmapTotalSize": 11.0625,
  "VfTableObject": "",
  "HashNext": "",
  "ObjectFlags": "",
  "HashOuterNext": "",
  "StateFrame": "",
  "Linker": null,
  "LinkerIndex": "",
  "ObjectInternalInteger": 209968,
  "NetIndex": 1447,
  "Outer": "Orchid_Spire_Combat.TheWorld",
  "Name": "PersistentLevel",
  "Class": "Engine.Level",
  "ObjectArchetype": "Engine.Default__Level"
}