{
  "ShadowmapTotalSize": 0.0,
  "LightmapTotalSize": 0.0,
  "VfTableObject": "",
  "HashNext": "",
  "ObjectFlags": "",
  "HashOuterNext": "",
  "StateFrame": "",
  "Linker": null,
  "LinkerIndex": "",
  "ObjectInternalInteger": 196480,
  "NetIndex": 89,
  "Outer": "Orchid_ShipGraveyard_Audio.TheWorld",
  "Name": "PersistentLevel",
  "Class": "Engine.Level",
  "ObjectArchetype": "Engine.Default__Level"
}