{
  "ShadowmapTotalSize": 10.666016,
  "LightmapTotalSize": 12.4375,
  "VfTableObject": "",
  "HashNext": "",
  "ObjectFlags": "",
  "HashOuterNext": "",
  "StateFrame": "",
  "Linker": null,
  "LinkerIndex": "",
  "ObjectInternalInteger": 207500,
  "NetIndex": 3203,
  "Outer": "Sage_Underground_Combat.TheWorld",
  "Name": "PersistentLevel",
  "Class": "Engine.Level",
  "ObjectArchetype": "Engine.Default__Level"
}