{
  "ShadowmapTotalSize": 42.666992,
  "LightmapTotalSize": 42.703125,
  "VfTableObject": "",
  "HashNext": "",
  "ObjectFlags": "",
  "HashOuterNext": "",
  "StateFrame": "",
  "Linker": null,
  "LinkerIndex": "",
  "ObjectInternalInteger": 210998,
  "NetIndex": 1372,
  "Outer": "SanctuaryAir_Dynamic.TheWorld",
  "Name": "PersistentLevel",
  "Class": "Engine.Level",
  "ObjectArchetype": "Engine.Default__Level"
}