{
  "ShadowmapTotalSize": 6.666016,
  "LightmapTotalSize": 22.71875,
  "VfTableObject": "",
  "HashNext": "",
  "ObjectFlags": "",
  "HashOuterNext": "",
  "StateFrame": "",
  "Linker": null,
  "LinkerIndex": "",
  "ObjectInternalInteger": 185824,
  "NetIndex": 401,
  "Outer": "Stockade_Dynamic.TheWorld",
  "Name": "PersistentLevel",
  "Class": "Engine.Level",
  "ObjectArchetype": "Engine.Default__Level"
}