{
  "ShadowmapTotalSize": 0.083008,
  "LightmapTotalSize": 0.109375,
  "VfTableObject": "",
  "HashNext": "",
  "ObjectFlags": "",
  "HashOuterNext": "",
  "StateFrame": "",
  "Linker": null,
  "LinkerIndex": "",
  "ObjectInternalInteger": 213129,
  "NetIndex": 96,
  "Outer": "TESTINGZONE_LIGHT.TheWorld",
  "Name": "PersistentLevel",
  "Class": "Engine.Level",
  "ObjectArchetype": "Engine.Default__Level"
}