{
  "ShadowmapTotalSize": 0.417969,
  "LightmapTotalSize": 0.96875,
  "VfTableObject": "",
  "HashNext": "",
  "ObjectFlags": "",
  "HashOuterNext": "",
  "StateFrame": "",
  "Linker": null,
  "LinkerIndex": "",
  "ObjectInternalInteger": 212609,
  "NetIndex": 85,
  "Outer": "ThresherRaid_Light.TheWorld",
  "Name": "PersistentLevel",
  "Class": "Engine.Level",
  "ObjectArchetype": "Engine.Default__Level"
}