{
  "FlagToLookUp": null,
  "AggregationType": "AGGREG_AtLeastOne",
  "VfTableObject": "",
  "HashNext": "",
  "ObjectFlags": "",
  "HashOuterNext": "",
  "StateFrame": "",
  "Linker": null,
  "LinkerIndex": "",
  "ObjectInternalInteger": 3185,
  "NetIndex": 5373,
  "Outer": "Package'GearboxFramework'",
  "Name": "Default__MultipleFlagValueResolver",
  "Class": "GearboxFramework.MultipleFlagValueResolver",
  "ObjectArchetype": "GearboxFramework.Default__FlagValueResolver"
}