{
  "ValueExpressions": {
    "bEnabled": true,
    "ConditionalExpressionList": [
      {
        "BaseValueIfTrue": {
          "BaseValueConstant": -0.1,
          "BaseValueAttribute": null,
          "InitializationDefinition": null,
          "BaseValueScaleConstant": 1.0
        },
        "Expressions": [
          {
            "AttributeOperand1":
              "GD_Lilac_Skills_Bloodlust.SkillGrades.SkillGrade_TasteOfBlood",
            "ComparisonOperator": "OPERATOR_EqualTo",
            "Operand2Usage": "OPERAND_PreferAttribute",
            "AttributeOperand2": null,
            "ConstantOperand2": 1.0
          }
        ]
      },
      {
        "BaseValueIfTrue": {
          "BaseValueConstant": -0.2,
          "BaseValueAttribute": null,
          "InitializationDefinition": null,
          "BaseValueScaleConstant": 1.0
        },
        "Expressions": [
          {
            "AttributeOperand1":
              "GD_Lilac_Skills_Bloodlust.SkillGrades.SkillGrade_TasteOfBlood",
            "ComparisonOperator": "OPERATOR_EqualTo",
            "Operand2Usage": "OPERAND_PreferAttribute",
            "AttributeOperand2": null,
            "ConstantOperand2": 2.0
          }
        ]
      },
      {
        "BaseValueIfTrue": {
          "BaseValueConstant": -0.3,
          "BaseValueAttribute": null,
          "InitializationDefinition": null,
          "BaseValueScaleConstant": 1.0
        },
        "Expressions": [
          {
            "AttributeOperand1":
              "GD_Lilac_Skills_Bloodlust.SkillGrades.SkillGrade_TasteOfBlood",
            "ComparisonOperator": "OPERATOR_EqualTo",
            "Operand2Usage": "OPERAND_PreferAttribute",
            "AttributeOperand2": null,
            "ConstantOperand2": 3.0
          }
        ]
      },
      {
        "BaseValueIfTrue": {
          "BaseValueConstant": -0.4,
          "BaseValueAttribute": null,
          "InitializationDefinition": null,
          "BaseValueScaleConstant": 1.0
        },
        "Expressions": [
          {
            "AttributeOperand1":
              "GD_Lilac_Skills_Bloodlust.SkillGrades.SkillGrade_TasteOfBlood",
            "ComparisonOperator": "OPERATOR_EqualTo",
            "Operand2Usage": "OPERAND_PreferAttribute",
            "AttributeOperand2": null,
            "ConstantOperand2": 4.0
          }
        ]
      },
      {
        "BaseValueIfTrue": {
          "BaseValueConstant": -0.5,
          "BaseValueAttribute": null,
          "InitializationDefinition": null,
          "BaseValueScaleConstant": 1.0
        },
        "Expressions": [
          {
            "AttributeOperand1":
              "GD_Lilac_Skills_Bloodlust.SkillGrades.SkillGrade_TasteOfBlood",
            "ComparisonOperator": "OPERATOR_EqualTo",
            "Operand2Usage": "OPERAND_PreferAttribute",
            "AttributeOperand2": null,
            "ConstantOperand2": 5.0
          }
        ]
      },
      {
        "BaseValueIfTrue": {
          "BaseValueConstant": -0.55,
          "BaseValueAttribute": null,
          "InitializationDefinition": null,
          "BaseValueScaleConstant": 1.0
        },
        "Expressions": [
          {
            "AttributeOperand1":
              "GD_Lilac_Skills_Bloodlust.SkillGrades.SkillGrade_TasteOfBlood",
            "ComparisonOperator": "OPERATOR_EqualTo",
            "Operand2Usage": "OPERAND_PreferAttribute",
            "AttributeOperand2": null,
            "ConstantOperand2": 6.0
          }
        ]
      },
      {
        "BaseValueIfTrue": {
          "BaseValueConstant": -0.6,
          "BaseValueAttribute": null,
          "InitializationDefinition": null,
          "BaseValueScaleConstant": 1.0
        },
        "Expressions": [
          {
            "AttributeOperand1":
              "GD_Lilac_Skills_Bloodlust.SkillGrades.SkillGrade_TasteOfBlood",
            "ComparisonOperator": "OPERATOR_EqualTo",
            "Operand2Usage": "OPERAND_PreferAttribute",
            "AttributeOperand2": null,
            "ConstantOperand2": 7.0
          }
        ]
      },
      {
        "BaseValueIfTrue": {
          "BaseValueConstant": -0.65,
          "BaseValueAttribute": null,
          "InitializationDefinition": null,
          "BaseValueScaleConstant": 1.0
        },
        "Expressions": [
          {
            "AttributeOperand1":
              "GD_Lilac_Skills_Bloodlust.SkillGrades.SkillGrade_TasteOfBlood",
            "ComparisonOperator": "OPERATOR_EqualTo",
            "Operand2Usage": "OPERAND_PreferAttribute",
            "AttributeOperand2": null,
            "ConstantOperand2": 8.0
          }
        ]
      },
      {
        "BaseValueIfTrue": {
          "BaseValueConstant": -0.7,
          "BaseValueAttribute": null,
          "InitializationDefinition": null,
          "BaseValueScaleConstant": 1.0
        },
        "Expressions": [
          {
            "AttributeOperand1":
              "GD_Lilac_Skills_Bloodlust.SkillGrades.SkillGrade_TasteOfBlood",
            "ComparisonOperator": "OPERATOR_EqualTo",
            "Operand2Usage": "OPERAND_PreferAttribute",
            "AttributeOperand2": null,
            "ConstantOperand2": 9.0
          }
        ]
      },
      {
        "BaseValueIfTrue": {
          "BaseValueConstant": -0.75,
          "BaseValueAttribute": null,
          "InitializationDefinition": null,
          "BaseValueScaleConstant": 1.0
        },
        "Expressions": [
          {
            "AttributeOperand1":
              "GD_Lilac_Skills_Bloodlust.SkillGrades.SkillGrade_TasteOfBlood",
            "ComparisonOperator": "OPERATOR_EqualTo",
            "Operand2Usage": "OPERAND_PreferAttribute",
            "AttributeOperand2": null,
            "ConstantOperand2": 10.0
          }
        ]
      },
      {
        "BaseValueIfTrue": {
          "BaseValueConstant": -0.8,
          "BaseValueAttribute": null,
          "InitializationDefinition": null,
          "BaseValueScaleConstant": 1.0
        },
        "Expressions": [
          {
            "AttributeOperand1":
              "GD_Lilac_Skills_Bloodlust.SkillGrades.SkillGrade_TasteOfBlood",
            "ComparisonOperator": "OPERATOR_GreaterThanOrEqual",
            "Operand2Usage": "OPERAND_PreferAttribute",
            "AttributeOperand2": null,
            "ConstantOperand2": 11.0
          }
        ]
      }
    ],
    "DefaultBaseValue": {
      "BaseValueConstant": 0.0,
      "BaseValueAttribute": null,
      "InitializationDefinition": null,
      "BaseValueScaleConstant": 1.0
    }
  },
  "VfTableObject": "",
  "HashNext": "",
  "ObjectFlags": "",
  "HashOuterNext": "",
  "StateFrame": "",
  "Linker": null,
  "LinkerIndex": "",
  "ObjectInternalInteger": 221376,
  "NetIndex": 354,
  "Outer":
    "GD_Lilac_Skills_Bloodlust.Attributes.Att_TasteOfBlood_DamageMod_PerGrade",
  "Name": "ConditionalAttributeValueResolver_0",
  "Class": "GearboxFramework.ConditionalAttributeValueResolver",
  "ObjectArchetype":
    "GearboxFramework.Default__ConditionalAttributeValueResolver"
}