{
  "ValueExpressions": {
    "bEnabled": true,
    "ConditionalExpressionList": [
      {
        "BaseValueIfTrue": {
          "BaseValueConstant": 0.003,
          "BaseValueAttribute": null,
          "InitializationDefinition": null,
          "BaseValueScaleConstant": 1.0
        },
        "Expressions": [
          {
            "AttributeOperand1":
              "D_Attributes.HealthResourcePool.HealthCurrentValue",
            "ComparisonOperator": "OPERATOR_LessThanOrEqual",
            "Operand2Usage": "OPERAND_PreferAttribute",
            "AttributeOperand2": null,
            "ConstantOperand2": 0.0
          }
        ]
      }
    ],
    "DefaultBaseValue": {
      "BaseValueConstant": 0.0,
      "BaseValueAttribute": null,
      "InitializationDefinition": null,
      "BaseValueScaleConstant": 1.0
    }
  },
  "VfTableObject": "",
  "HashNext": "",
  "ObjectFlags": "",
  "HashOuterNext": "",
  "StateFrame": "",
  "Linker": null,
  "LinkerIndex": "",
  "ObjectInternalInteger": 221392,
  "NetIndex": 353,
  "Outer":
    "GD_Lilac_Skills_Bloodlust.Attributes.Att_BloodyRevival_PerStackDamageBonus",
  "Name": "ConditionalAttributeValueResolver_1",
  "Class": "GearboxFramework.ConditionalAttributeValueResolver",
  "ObjectArchetype":
    "GearboxFramework.Default__ConditionalAttributeValueResolver"
}