{
  "bNameIsUnique": false,
  "PartName": "Shock Singularity",
  "MinExpLevelRequirement": 1,
  "MaxExpLevelRequirement": 100,
  "Priority": 1.0,
  "Expressions": [
    {
      "AttributeOperand1": "D_Attributes.GrenadeMod.GrenadeModIsShock",
      "ComparisonOperator": "OPERATOR_EqualTo",
      "Operand2Usage": "OPERAND_PreferAttribute",
      "AttributeOperand2": null,
      "ConstantOperand2": 1.0
    }
  ],
  "VfTable_IIBehaviorProvider": "",
  "PartType": "IP_Alpha",
  "BehaviorProviderDefinition": null,
  "Material": null,
  "bIsGestaltMode": false,
  "GestaltModeSkeletalMeshName": null,
  "NongestaltSkeletalMesh": null,
  "MonetaryValueMod": null,
  "Rarity": {
    "BaseValueConstant": 0.0,
    "BaseValueAttribute": null,
    "InitializationDefinition": null,
    "BaseValueScaleConstant": 1.0
  },
  "AdditionalGestaltModeSkeletalMeshNames": [ null, null ],
  "VfTableObject": "",
  "HashNext": "",
  "ObjectFlags": "",
  "HashOuterNext": "",
  "StateFrame": "",
  "Linker": null,
  "LinkerIndex": "",
  "ObjectInternalInteger": 129287,
  "NetIndex": 2855,
  "Outer": "GD_GrenadeMods.Title",
  "Name": "Title_SingularityShock",
  "Class": "WillowGame.ItemNamePartDefinition",
  "ObjectArchetype": "WillowGame.Default__ItemNamePartDefinition"
}