{
  "bNameIsUnique": false,
  "PartName": "Diesel Sickle",
  "MinExpLevelRequirement": 1,
  "MaxExpLevelRequirement": 100,
  "Priority": 3.0,
  "Expressions": [
    {
      "AttributeOperand1": "D_Attributes.ClassMod.ClassMod_SlotRank_Skill2",
      "ComparisonOperator": "OPERATOR_GreaterThan",
      "Operand2Usage": "OPERAND_PreferAttribute",
      "AttributeOperand2": "D_Attributes.ClassMod.ClassMod_SlotRank_Skill1",
      "ConstantOperand2": 0.0
    },
    {
      "AttributeOperand1": "D_Attributes.ClassMod.ClassMod_SlotRank_Skill2",
      "ComparisonOperator": "OPERATOR_GreaterThan",
      "Operand2Usage": "OPERAND_PreferAttribute",
      "AttributeOperand2": "D_Attributes.ClassMod.ClassMod_SlotRank_Skill3",
      "ConstantOperand2": 0.0
    }
  ],
  "VfTable_IIBehaviorProvider": "",
  "PartType": "IP_Alpha",
  "BehaviorProviderDefinition": null,
  "Material": null,
  "bIsGestaltMode": false,
  "GestaltModeSkeletalMeshName": null,
  "NongestaltSkeletalMesh": null,
  "MonetaryValueMod": null,
  "Rarity": {
    "BaseValueConstant": 0.0,
    "BaseValueAttribute": null,
    "InitializationDefinition": null,
    "BaseValueScaleConstant": 1.0
  },
  "AdditionalGestaltModeSkeletalMeshNames": [ null, null ],
  "VfTableObject": "",
  "HashNext": "",
  "ObjectFlags": "",
  "HashOuterNext": "",
  "StateFrame": "",
  "Linker": null,
  "LinkerIndex": "",
  "ObjectInternalInteger": 171747,
  "NetIndex": 161,
  "Outer": "GD_Lilac_ClassMods.Prefix_Psycho",
  "Name": "Prefix_Sickle_02_DieselSickle",
  "Class": "WillowGame.ItemNamePartDefinition",
  "ObjectArchetype": "WillowGame.Default__ItemNamePartDefinition"
}