{
  "bNameIsUnique": false,
  "PartName": "Whisky Tango Foxtrot",
  "MinExpLevelRequirement": 1,
  "MaxExpLevelRequirement": 100,
  "Priority": 1.0,
  "VfTable_IIBehaviorProvider": "",
  "PartType": "IP_Alpha",
  "BehaviorProviderDefinition": null,
  "CustomPresentations": [
    "GD_Shields.Titles.Title_Booster04_BoosterShieldLegendary:AttributePresentationDefinition_0"
  ],
  "Material": null,
  "bIsGestaltMode": false,
  "GestaltModeSkeletalMeshName": null,
  "NongestaltSkeletalMesh": null,
  "MonetaryValueMod": null,
  "Rarity": {
    "BaseValueConstant": 0.0,
    "BaseValueAttribute": null,
    "InitializationDefinition": null,
    "BaseValueScaleConstant": 1.0
  },
  "AdditionalGestaltModeSkeletalMeshNames": [ null, null ],
  "VfTableObject": "",
  "HashNext": "",
  "ObjectFlags": "",
  "HashOuterNext": "",
  "StateFrame": "",
  "Linker": null,
  "LinkerIndex": "",
  "ObjectInternalInteger": 110090,
  "NetIndex": 2171,
  "Outer": "GD_Shields.Titles",
  "Name": "Title_Booster04_BoosterShieldLegendary",
  "Class": "WillowGame.ItemNamePartDefinition",
  "ObjectArchetype": "WillowGame.Default__ItemNamePartDefinition"
}