{
  "bNameIsUnique": false,
  "PartName": "Cracked",
  "MinExpLevelRequirement": 1,
  "MaxExpLevelRequirement": 100,
  "Priority": 0.8,
  "Expressions": [
    {
      "AttributeOperand1":
        "D_Attributes.Shield.ShieldCapacitySlotGradeMinusRarity",
      "ComparisonOperator": "OPERATOR_LessThanOrEqual",
      "Operand2Usage": "OPERAND_PreferAttribute",
      "AttributeOperand2": null,
      "ConstantOperand2": -9.0
    },
    {
      "AttributeOperand1": "D_Attributes.Inventory.ItemRarityLevel",
      "ComparisonOperator": "OPERATOR_LessThan",
      "Operand2Usage": "OPERAND_PreferAttribute",
      "AttributeOperand2": null,
      "ConstantOperand2": 3.0
    }
  ],
  "VfTable_IIBehaviorProvider": "",
  "PartType": "IP_Alpha",
  "BehaviorProviderDefinition": null,
  "Material": null,
  "bIsGestaltMode": false,
  "GestaltModeSkeletalMeshName": null,
  "NongestaltSkeletalMesh": null,
  "MonetaryValueMod": null,
  "Rarity": {
    "BaseValueConstant": 0.0,
    "BaseValueAttribute": null,
    "InitializationDefinition": null,
    "BaseValueScaleConstant": 1.0
  },
  "AdditionalGestaltModeSkeletalMeshNames": [ null, null ],
  "VfTableObject": "",
  "HashNext": "",
  "ObjectFlags": "",
  "HashOuterNext": "",
  "StateFrame": "",
  "Linker": null,
  "LinkerIndex": "",
  "ObjectInternalInteger": 131367,
  "NetIndex": 1960,
  "Outer": "GD_Shields.Prefixes",
  "Name": "Prefix_Capacity_Pangolin01",
  "Class": "WillowGame.ItemNamePartDefinition",
  "ObjectArchetype": "WillowGame.Default__ItemNamePartDefinition"
}