{
  "bNameIsUnique": false,
  "PartName": "",
  "MinExpLevelRequirement": 1,
  "MaxExpLevelRequirement": 100,
  "Priority": 1.0,
  "VfTable_IIBehaviorProvider": "",
  "PartType": "IP_Alpha",
  "BehaviorProviderDefinition": null,
  "Material": null,
  "bIsGestaltMode": false,
  "GestaltModeSkeletalMeshName": null,
  "NongestaltSkeletalMesh": null,
  "MonetaryValueMod": null,
  "Rarity": {
    "BaseValueConstant": 0.0,
    "BaseValueAttribute": null,
    "InitializationDefinition": null,
    "BaseValueScaleConstant": 1.0
  },
  "AdditionalGestaltModeSkeletalMeshNames": [ null, null ],
  "VfTableObject": "",
  "HashNext": "",
  "ObjectFlags": "",
  "HashOuterNext": "",
  "StateFrame": "",
  "Linker": null,
  "LinkerIndex": "",
  "ObjectInternalInteger": 4067,
  "NetIndex": 26296,
  "Outer": "Package'WillowGame'",
  "Name": "Default__ItemNamePartDefinition",
  "Class": "WillowGame.ItemNamePartDefinition",
  "ObjectArchetype": "WillowGame.Default__ItemPartDefinition"
}