{
  "PropertyName": "AccelerationDotProduct",
  "CachedProperty": null,
  "VfTableObject": "",
  "HashNext": "",
  "ObjectFlags": "",
  "HashOuterNext": "",
  "StateFrame": "",
  "Linker": null,
  "LinkerIndex": "",
  "ObjectInternalInteger": 221432,
  "NetIndex": 1157,
  "Outer": "D_Attributes.Movement.AccelerationDotProduct",
  "Name": "ObjectPropertyAttributeValueResolver_20",
  "Class": "Engine.ObjectPropertyAttributeValueResolver",
  "ObjectArchetype": "Engine.Default__ObjectPropertyAttributeValueResolver"
}