{
  "PropertyName": "EasterEgg1",
  "CachedProperty": null,
  "VfTableObject": "",
  "HashNext": "",
  "ObjectFlags": "",
  "HashOuterNext": "",
  "StateFrame": "",
  "Linker": null,
  "LinkerIndex": "",
  "ObjectInternalInteger": 229863,
  "NetIndex": 1033,
  "Outer": "D_Attributes.EasterEgg.PlayerEasterEgg1",
  "Name": "ObjectPropertyAttributeValueResolver_591",
  "Class": "Engine.ObjectPropertyAttributeValueResolver",
  "ObjectArchetype": "Engine.Default__ObjectPropertyAttributeValueResolver"
}