{
  "PropertyName": "MaxValue",
  "CachedProperty": null,
  "VfTableObject": "",
  "HashNext": "",
  "ObjectFlags": "",
  "HashOuterNext": "",
  "StateFrame": "",
  "Linker": null,
  "LinkerIndex": "",
  "ObjectInternalInteger": 135870,
  "NetIndex": 1165,
  "Outer": "D_Attributes.OffHandAccuracyResourcePool.OffHandAccuracyMaxValue",
  "Name": "ObjectPropertyAttributeValueResolver_635",
  "Class": "Engine.ObjectPropertyAttributeValueResolver",
  "ObjectArchetype": "Engine.Default__ObjectPropertyAttributeValueResolver"
}