{
  "PropertyName": "bClassModIsBuffingTeamActionSkill",
  "CachedProperty": null,
  "VfTableObject": "",
  "HashNext": "",
  "ObjectFlags": "",
  "HashOuterNext": "",
  "StateFrame": "",
  "Linker": null,
  "LinkerIndex": "",
  "ObjectInternalInteger": 107337,
  "NetIndex": 963,
  "Outer": "D_Attributes.ClassMod.ClassModIsBuffingTeamActionSkill",
  "Name": "ObjectPropertyAttributeValueResolver_20",
  "Class": "Engine.ObjectPropertyAttributeValueResolver",
  "ObjectArchetype": "Engine.Default__ObjectPropertyAttributeValueResolver"
}