{
  "PropertyName": "Bob",
  "CachedProperty": null,
  "VfTableObject": "",
  "HashNext": "",
  "ObjectFlags": "",
  "HashOuterNext": "",
  "StateFrame": "",
  "Linker": null,
  "LinkerIndex": "",
  "ObjectInternalInteger": 221451,
  "NetIndex": 1060,
  "Outer": "D_Attributes.GameplayAttributes.Bob",
  "Name": "ObjectPropertyAttributeValueResolver_569",
  "Class": "Engine.ObjectPropertyAttributeValueResolver",
  "ObjectArchetype": "Engine.Default__ObjectPropertyAttributeValueResolver"
}