{
  "PropertyName": "MeshYawOffset",
  "CachedProperty": null,
  "VfTableObject": "",
  "HashNext": "",
  "ObjectFlags": "",
  "HashOuterNext": "",
  "StateFrame": "",
  "Linker": null,
  "LinkerIndex": "",
  "ObjectInternalInteger": 197888,
  "NetIndex": 1179,
  "Outer": "D_Attributes.Pawn.MeshOffset",
  "Name": "ObjectPropertyAttributeValueResolver_20",
  "Class": "Engine.ObjectPropertyAttributeValueResolver",
  "ObjectArchetype": "Engine.Default__ObjectPropertyAttributeValueResolver"
}