{
  "PropertyName": "IsSkillListeningForThrowGrenadeOverrideEvent",
  "CachedProperty": null,
  "VfTableObject": "",
  "HashNext": "",
  "ObjectFlags": "",
  "HashOuterNext": "",
  "StateFrame": "",
  "Linker": null,
  "LinkerIndex": "",
  "ObjectInternalInteger": 217126,
  "NetIndex": 1238,
  "Outer":
    "D_Attributes.SkillAttributes.IsSkillListeningForThrowGrenadeOverrideEvent",
  "Name": "ObjectPropertyAttributeValueResolver_591",
  "Class": "Engine.ObjectPropertyAttributeValueResolver",
  "ObjectArchetype": "Engine.Default__ObjectPropertyAttributeValueResolver"
}