{
  "PropertyName": "NormalImpactDamageModifier",
  "CachedProperty": null,
  "VfTableObject": "",
  "HashNext": "",
  "ObjectFlags": "",
  "HashOuterNext": "",
  "StateFrame": "",
  "Linker": null,
  "LinkerIndex": "",
  "ObjectInternalInteger": 107440,
  "NetIndex": 1025,
  "Outer": "D_Attributes.DamageTypeModifers.NormalImpactDamageModifier",
  "Name": "ObjectPropertyAttributeValueResolver_560",
  "Class": "Engine.ObjectPropertyAttributeValueResolver",
  "ObjectArchetype": "Engine.Default__ObjectPropertyAttributeValueResolver"
}