{
  "PropertyName": "NumberOfChildProjectiles",
  "CachedProperty": null,
  "VfTableObject": "",
  "HashNext": "",
  "ObjectFlags": "",
  "HashOuterNext": "",
  "StateFrame": "",
  "Linker": null,
  "LinkerIndex": "",
  "ObjectInternalInteger": 107588,
  "NetIndex": 1182,
  "Outer": "D_Attributes.Projectile.NumberOfChildProjectiles",
  "Name": "ObjectPropertyAttributeValueResolver_21",
  "Class": "Engine.ObjectPropertyAttributeValueResolver",
  "ObjectArchetype": "Engine.Default__ObjectPropertyAttributeValueResolver"
}