{
  "PropertyName": "ActiveRegenerationRate",
  "CachedProperty": null,
  "VfTableObject": "",
  "HashNext": "",
  "ObjectFlags": "",
  "HashOuterNext": "",
  "StateFrame": "",
  "Linker": null,
  "LinkerIndex": "",
  "ObjectInternalInteger": 167042,
  "NetIndex": 932,
  "Outer":
    "D_Attributes.AmmoResource_Repeater_Pistol.Ammo_Repeater_Pistol_RegenerationRate",
  "Name": "ObjectPropertyAttributeValueResolver_678",
  "Class": "Engine.ObjectPropertyAttributeValueResolver",
  "ObjectArchetype": "Engine.Default__ObjectPropertyAttributeValueResolver"
}