{
  "PropertyName": "bOvercharged",
  "CachedProperty": null,
  "VfTableObject": "",
  "HashNext": "",
  "ObjectFlags": "",
  "HashOuterNext": "",
  "StateFrame": "",
  "Linker": null,
  "LinkerIndex": "",
  "ObjectInternalInteger": 107696,
  "NetIndex": 1284,
  "Outer": "D_Attributes.Weapon.Overcharged",
  "Name": "ObjectPropertyAttributeValueResolver_599",
  "Class": "Engine.ObjectPropertyAttributeValueResolver",
  "ObjectArchetype": "Engine.Default__ObjectPropertyAttributeValueResolver"
}