{
  "PropertyName": "LeftDotToTarget",
  "CachedProperty": null,
  "VfTableObject": "",
  "HashNext": "",
  "ObjectFlags": "",
  "HashOuterNext": "",
  "StateFrame": "",
  "Linker": null,
  "LinkerIndex": "",
  "ObjectInternalInteger": 212674,
  "NetIndex": 904,
  "Outer": "D_Attributes.AITarget.LeftDotToTarget",
  "Name": "ObjectPropertyAttributeValueResolver_553",
  "Class": "Engine.ObjectPropertyAttributeValueResolver",
  "ObjectArchetype": "Engine.Default__ObjectPropertyAttributeValueResolver"
}