{
  "PropertyName": "BulletRicochetedTowardsEnemyDamageScale",
  "CachedProperty":
    "WillowGame.WillowPawn:BulletRicochetedTowardsEnemyDamageScale",
  "VfTableObject": "",
  "HashNext": "",
  "ObjectFlags": "",
  "HashOuterNext": "",
  "StateFrame": "",
  "Linker": null,
  "LinkerIndex": "",
  "ObjectInternalInteger": 189378,
  "NetIndex": 961,
  "Outer":
    "D_Attributes.BulletRicochet.BulletRicochetedTowardsEnemyDamageScale",
  "Name": "ObjectPropertyAttributeValueResolver_21",
  "Class": "Engine.ObjectPropertyAttributeValueResolver",
  "ObjectArchetype": "Engine.Default__ObjectPropertyAttributeValueResolver"
}