{
  "PropertyName": "StatusEffectDamage",
  "CachedProperty": null,
  "VfTableObject": "",
  "HashNext": "",
  "ObjectFlags": "",
  "HashOuterNext": "",
  "StateFrame": "",
  "Linker": null,
  "LinkerIndex": "",
  "ObjectInternalInteger": 107606,
  "NetIndex": 1190,
  "Outer": "D_Attributes.Projectile.ProjectileStatusEffectDamage",
  "Name": "ObjectPropertyAttributeValueResolver_589",
  "Class": "Engine.ObjectPropertyAttributeValueResolver",
  "ObjectArchetype": "Engine.Default__ObjectPropertyAttributeValueResolver"
}