{
  "PropertyName": "EyeHeightModifier",
  "CachedProperty": null,
  "VfTableObject": "",
  "HashNext": "",
  "ObjectFlags": "",
  "HashOuterNext": "",
  "StateFrame": "",
  "Linker": null,
  "LinkerIndex": "",
  "ObjectInternalInteger": 221448,
  "NetIndex": 1063,
  "Outer": "D_Attributes.GameplayAttributes.EyeHeightModifier",
  "Name": "ObjectPropertyAttributeValueResolver_572",
  "Class": "Engine.ObjectPropertyAttributeValueResolver",
  "ObjectArchetype": "Engine.Default__ObjectPropertyAttributeValueResolver"
}