{
  "PropertyName": "InstigatedCorrosiveDamageModifier",
  "CachedProperty": null,
  "VfTableObject": "",
  "HashNext": "",
  "ObjectFlags": "",
  "HashOuterNext": "",
  "StateFrame": "",
  "Linker": null,
  "LinkerIndex": "",
  "ObjectInternalInteger": 107426,
  "NetIndex": 1017,
  "Outer":
    "D_Attributes.DamageTypeModifers.InstigatedCorrosiveDamageModifier",
  "Name": "ObjectPropertyAttributeValueResolver_563",
  "Class": "Engine.ObjectPropertyAttributeValueResolver",
  "ObjectArchetype": "Engine.Default__ObjectPropertyAttributeValueResolver"
}