{
  "PropertyName": "Spread",
  "CachedProperty": null,
  "VfTableObject": "",
  "HashNext": "",
  "ObjectFlags": "",
  "HashOuterNext": "",
  "StateFrame": "",
  "Linker": null,
  "LinkerIndex": "",
  "ObjectInternalInteger": 107577,
  "NetIndex": 1178,
  "Outer": "D_Attributes.OffHandWeapon.WeaponSpread_Offhand",
  "Name": "ObjectPropertyAttributeValueResolver_620",
  "Class": "Engine.ObjectPropertyAttributeValueResolver",
  "ObjectArchetype": "Engine.Default__ObjectPropertyAttributeValueResolver"
}