{
  "PropertyName": "NormalStatusEffectDamageModifier",
  "CachedProperty": null,
  "VfTableObject": "",
  "HashNext": "",
  "ObjectFlags": "",
  "HashOuterNext": "",
  "StateFrame": "",
  "Linker": null,
  "LinkerIndex": "",
  "ObjectInternalInteger": 107443,
  "NetIndex": 1026,
  "Outer": "D_Attributes.DamageTypeModifers.NormalStatusEffectDamageModifier",
  "Name": "ObjectPropertyAttributeValueResolver_561",
  "Class": "Engine.ObjectPropertyAttributeValueResolver",
  "ObjectArchetype": "Engine.Default__ObjectPropertyAttributeValueResolver"
}