{
  "PropertyName": "InstigatedIncendiaryStatusDamageModifier",
  "CachedProperty":
    "Engine.Controller:InstigatedIncendiaryStatusDamageModifier",
  "VfTableObject": "",
  "HashNext": "",
  "ObjectFlags": "",
  "HashOuterNext": "",
  "StateFrame": "",
  "Linker": null,
  "LinkerIndex": "",
  "ObjectInternalInteger": 107432,
  "NetIndex": 1021,
  "Outer":
    "D_Attributes.DamageTypeModifers.InstigatedIncendiaryStatusDamageModifier",
  "Name": "ObjectPropertyAttributeValueResolver_563",
  "Class": "Engine.ObjectPropertyAttributeValueResolver",
  "ObjectArchetype": "Engine.Default__ObjectPropertyAttributeValueResolver"
}