{
  "PropertyName": "InstigatedBulletDamageModifier",
  "CachedProperty": null,
  "VfTableObject": "",
  "HashNext": "",
  "ObjectFlags": "",
  "HashOuterNext": "",
  "StateFrame": "",
  "Linker": null,
  "LinkerIndex": "",
  "ObjectInternalInteger": 107369,
  "NetIndex": 992,
  "Outer":
    "D_Attributes.DamageSourceModifiers.InstigatedBulletDamageModifier",
  "Name": "ObjectPropertyAttributeValueResolver_555",
  "Class": "Engine.ObjectPropertyAttributeValueResolver",
  "ObjectArchetype": "Engine.Default__ObjectPropertyAttributeValueResolver"
}