{
  "PropertyName": "Grade",
  "CachedProperty": null,
  "VfTableObject": "",
  "HashNext": "",
  "ObjectFlags": "",
  "HashOuterNext": "",
  "StateFrame": "",
  "Linker": null,
  "LinkerIndex": "",
  "ObjectInternalInteger": 165343,
  "NetIndex": 278,
  "Outer": "GD_Aster_ClassMods.Attributes.Aster_WiresDontTalk",
  "Name": "ObjectPropertyAttributeValueResolver_20",
  "Class": "Engine.ObjectPropertyAttributeValueResolver",
  "ObjectArchetype": "Engine.Default__ObjectPropertyAttributeValueResolver"
}