{
  "PropertyName": "Grade",
  "CachedProperty": null,
  "VfTableObject": "",
  "HashNext": "",
  "ObjectFlags": "",
  "HashOuterNext": "",
  "StateFrame": "",
  "Linker": null,
  "LinkerIndex": "",
  "ObjectInternalInteger": 171914,
  "NetIndex": 195,
  "Outer": "GD_Lilac_ClassMods.SkillGradeModifiers.BloodTrance",
  "Name": "ObjectPropertyAttributeValueResolver_20",
  "Class": "Engine.ObjectPropertyAttributeValueResolver",
  "ObjectArchetype": "Engine.Default__ObjectPropertyAttributeValueResolver"
}