{
  "PropertyName": "Grade",
  "CachedProperty": null,
  "VfTableObject": "",
  "HashNext": "",
  "ObjectFlags": "",
  "HashOuterNext": "",
  "StateFrame": "",
  "Linker": null,
  "LinkerIndex": "",
  "ObjectInternalInteger": 221339,
  "NetIndex": 470,
  "Outer":
    "GD_Lilac_Skills_Bloodlust.SkillGrades.SkillGrade_BuzzAxeBombadier",
  "Name": "ObjectPropertyAttributeValueResolver_0",
  "Class": "Engine.ObjectPropertyAttributeValueResolver",
  "ObjectArchetype": "Engine.Default__ObjectPropertyAttributeValueResolver"
}