{
  "PropertyName": "Grade",
  "CachedProperty": null,
  "VfTableObject": "",
  "HashNext": "",
  "ObjectFlags": "",
  "HashOuterNext": "",
  "StateFrame": "",
  "Linker": null,
  "LinkerIndex": "",
  "ObjectInternalInteger": 221335,
  "NetIndex": 471,
  "Outer": "GD_Lilac_Skills_Bloodlust.SkillGrades.SkillGrade_FuelTheBlood",
  "Name": "ObjectPropertyAttributeValueResolver_0",
  "Class": "Engine.ObjectPropertyAttributeValueResolver",
  "ObjectArchetype": "Engine.Default__ObjectPropertyAttributeValueResolver"
}