{
  "EvaluationExpression": null,
  "ValueResolver":
    "GD_Aster_RolandNPC.Flags.Flag_Roland_IsFighting:RuleEngineFlagValueResolver_0",
  "ContextResolverChain": [
    "GD_Aster_RolandNPC.Flags.Flag_Roland_IsFighting:WillowMindAttributeContextResolver_0"
  ],
  "VfTableObject": "",
  "HashNext": "",
  "ObjectFlags": "",
  "HashOuterNext": "",
  "StateFrame": "",
  "Linker": null,
  "LinkerIndex": "",
  "ObjectInternalInteger": 198763,
  "NetIndex": 548,
  "Outer": "GD_Aster_RolandNPC.Flags",
  "Name": "Flag_Roland_IsFighting",
  "Class": "GearboxFramework.FlagDefinition",
  "ObjectArchetype": "GearboxFramework.Default__FlagDefinition"
}