{
  "EvaluationExpression": null,
  "ValueResolver":
    "GD_BloodwingShared.Flags.Flag_TargetAgainstWall:RuleEngineFlagValueResolver_2",
  "ContextResolverChain": [
    "GD_BloodwingShared.Flags.Flag_TargetAgainstWall:WillowMindAttributeContextResolver_2"
  ],
  "VfTableObject": "",
  "HashNext": "",
  "ObjectFlags": "",
  "HashOuterNext": "",
  "StateFrame": "",
  "Linker": null,
  "LinkerIndex": "",
  "ObjectInternalInteger": 190468,
  "NetIndex": 429,
  "Outer": "GD_BloodwingShared.Flags",
  "Name": "Flag_TargetAgainstWall",
  "Class": "GearboxFramework.FlagDefinition",
  "ObjectArchetype": "GearboxFramework.Default__FlagDefinition"
}