{
  "EvaluationExpression":
    "GD_BugMorphShared.Flags.Flag_CanFly:FlagExpressionEvaluator_42",
  "ValueResolver": null,
  "VfTableObject": "",
  "HashNext": "",
  "ObjectFlags": "",
  "HashOuterNext": "",
  "StateFrame": "",
  "Linker": null,
  "LinkerIndex": "",
  "ObjectInternalInteger": 230585,
  "NetIndex": 1013,
  "Outer": "GD_BugMorphShared.Flags",
  "Name": "Flag_CanFly",
  "Class": "GearboxFramework.FlagDefinition",
  "ObjectArchetype": "GearboxFramework.Default__FlagDefinition"
}