{
  "EvaluationExpression": null,
  "ValueResolver":
    "GD_BoomBoom.Flags.Flag_GroundAttacks:RuleEngineFlagValueResolver_2",
  "ContextResolverChain": [
    "GD_BoomBoom.Flags.Flag_GroundAttacks:WillowMindAttributeContextResolver_2"
  ],
  "VfTableObject": "",
  "HashNext": "",
  "ObjectFlags": "",
  "HashOuterNext": "",
  "StateFrame": "",
  "Linker": null,
  "LinkerIndex": "",
  "ObjectInternalInteger": 202503,
  "NetIndex": 715,
  "Outer": "GD_BoomBoom.Flags",
  "Name": "Flag_GroundAttacks",
  "Class": "GearboxFramework.FlagDefinition",
  "ObjectArchetype": "GearboxFramework.Default__FlagDefinition"
}