{
  "EvaluationExpression": null,
  "ValueResolver":
    "GD_BloodwingShared.Flags.Flag_Takeoff:RuleEngineFlagValueResolver_2",
  "ContextResolverChain": [
    "GD_BloodwingShared.Flags.Flag_Takeoff:WillowMindAttributeContextResolver_2"
  ],
  "VfTableObject": "",
  "HashNext": "",
  "ObjectFlags": "",
  "HashOuterNext": "",
  "StateFrame": "",
  "Linker": null,
  "LinkerIndex": "",
  "ObjectInternalInteger": 190465,
  "NetIndex": 428,
  "Outer": "GD_BloodwingShared.Flags",
  "Name": "Flag_Takeoff",
  "Class": "GearboxFramework.FlagDefinition",
  "ObjectArchetype": "GearboxFramework.Default__FlagDefinition"
}