{
  "EvaluationExpression": null,
  "ValueResolver":
    "GD_ConstructorShared.Flags.Flag_Badass:RuleEngineFlagValueResolver_2",
  "ContextResolverChain": [
    "GD_ConstructorShared.Flags.Flag_Badass:WillowMindAttributeContextResolver_2"
  ],
  "VfTableObject": "",
  "HashNext": "",
  "ObjectFlags": "",
  "HashOuterNext": "",
  "StateFrame": "",
  "Linker": null,
  "LinkerIndex": "",
  "ObjectInternalInteger": 231970,
  "NetIndex": 1054,
  "Outer": "GD_ConstructorShared.Flags",
  "Name": "Flag_Badass",
  "Class": "GearboxFramework.FlagDefinition",
  "ObjectArchetype": "GearboxFramework.Default__FlagDefinition"
}