{
  "EvaluationExpression": null,
  "ValueResolver":
    "GD_Crystalisk_Mini.Flag.Flag_PlayDeathAnim:RuleEngineFlagValueResolver_0",
  "ContextResolverChain": [
    "GD_Crystalisk_Mini.Flag.Flag_PlayDeathAnim:WillowMindAttributeContextResolver_0"
  ],
  "VfTableObject": "",
  "HashNext": "",
  "ObjectFlags": "",
  "HashOuterNext": "",
  "StateFrame": "",
  "Linker": null,
  "LinkerIndex": "",
  "ObjectInternalInteger": 202153,
  "NetIndex": 377,
  "Outer": "GD_Crystalisk_Mini.Flag",
  "Name": "Flag_PlayDeathAnim",
  "Class": "GearboxFramework.FlagDefinition",
  "ObjectArchetype": "GearboxFramework.Default__FlagDefinition"
}