{
  "EvaluationExpression": null,
  "ValueResolver":
    "GD_ConstructorRoland.Flags.Flag_PlayerBehindConstructor:RuleEngineFlagValueResolver_2",
  "ContextResolverChain": [
    "GD_ConstructorRoland.Flags.Flag_PlayerBehindConstructor:WillowMindAttributeContextResolver_2"
  ],
  "VfTableObject": "",
  "HashNext": "",
  "ObjectFlags": "",
  "HashOuterNext": "",
  "StateFrame": "",
  "Linker": null,
  "LinkerIndex": "",
  "ObjectInternalInteger": 207746,
  "NetIndex": 668,
  "Outer": "GD_ConstructorRoland.Flags",
  "Name": "Flag_PlayerBehindConstructor",
  "Class": "GearboxFramework.FlagDefinition",
  "ObjectArchetype": "GearboxFramework.Default__FlagDefinition"
}