{
  "EvaluationExpression": null,
  "ValueResolver":
    "GD_Crawmerax_Son.Flags.Flag_Phase2:RuleEngineFlagValueResolver_2",
  "ContextResolverChain": [
    "GD_Crawmerax_Son.Flags.Flag_Phase2:WillowMindAttributeContextResolver_2"
  ],
  "VfTableObject": "",
  "HashNext": "",
  "ObjectFlags": "",
  "HashOuterNext": "",
  "StateFrame": "",
  "Linker": null,
  "LinkerIndex": "",
  "ObjectInternalInteger": 213317,
  "NetIndex": 1377,
  "Outer": "GD_Crawmerax_Son.Flags",
  "Name": "Flag_Phase2",
  "Class": "GearboxFramework.FlagDefinition",
  "ObjectArchetype": "GearboxFramework.Default__FlagDefinition"
}