{
  "EvaluationExpression": null,
  "ValueResolver":
    "GD_DwarfShared.Flags.Flag_StandStill_ThrowDynamite:RuleEngineFlagValueResolver_2",
  "ContextResolverChain": [
    "GD_DwarfShared.Flags.Flag_StandStill_ThrowDynamite:WillowMindAttributeContextResolver_2"
  ],
  "VfTableObject": "",
  "HashNext": "",
  "ObjectFlags": "",
  "HashOuterNext": "",
  "StateFrame": "",
  "Linker": null,
  "LinkerIndex": "",
  "ObjectInternalInteger": 212464,
  "NetIndex": 540,
  "Outer": "GD_DwarfShared.Flags",
  "Name": "Flag_StandStill_ThrowDynamite",
  "Class": "GearboxFramework.FlagDefinition",
  "ObjectArchetype": "GearboxFramework.Default__FlagDefinition"
}