{
  "EvaluationExpression":
    "GD_FinalBoss.Flags.Flag_FinalBoss_TailAttack:AttributeExpressionEvaluator_20",
  "ValueResolver": null,
  "VfTableObject": "",
  "HashNext": "",
  "ObjectFlags": "",
  "HashOuterNext": "",
  "StateFrame": "",
  "Linker": null,
  "LinkerIndex": "",
  "ObjectInternalInteger": 212659,
  "NetIndex": 2431,
  "Outer": "GD_FinalBoss.Flags",
  "Name": "Flag_FinalBoss_TailAttack",
  "Class": "GearboxFramework.FlagDefinition",
  "ObjectArchetype": "GearboxFramework.Default__FlagDefinition"
}