{
  "EvaluationExpression": null,
  "ValueResolver": "GD_Flynt.Flags.Flag_Intro:RuleEngineFlagValueResolver_2",
  "ContextResolverChain": [
    "GD_Flynt.Flags.Flag_Intro:WillowMindAttributeContextResolver_2"
  ],
  "VfTableObject": "",
  "HashNext": "",
  "ObjectFlags": "",
  "HashOuterNext": "",
  "StateFrame": "",
  "Linker": null,
  "LinkerIndex": "",
  "ObjectInternalInteger": 202459,
  "NetIndex": 427,
  "Outer": "GD_Flynt.Flags",
  "Name": "Flag_Intro",
  "Class": "GearboxFramework.FlagDefinition",
  "ObjectArchetype": "GearboxFramework.Default__FlagDefinition"
}