{
  "EvaluationExpression": null,
  "ValueResolver":
    "GD_Gyrocopter-BunkerBoss.Flags.Flag_GyrocopterBunkerBoss:RuleEngineFlagValueResolver_0",
  "ContextResolverChain": [
    "GD_Gyrocopter-BunkerBoss.Flags.Flag_GyrocopterBunkerBoss:WillowMindAttributeContextResolver_0"
  ],
  "VfTableObject": "",
  "HashNext": "",
  "ObjectFlags": "",
  "HashOuterNext": "",
  "StateFrame": "",
  "Linker": null,
  "LinkerIndex": "",
  "ObjectInternalInteger": 217736,
  "NetIndex": 147,
  "Outer": "GD_Gyrocopter-BunkerBoss.Flags",
  "Name": "Flag_GyrocopterBunkerBoss",
  "Class": "GearboxFramework.FlagDefinition",
  "ObjectArchetype": "GearboxFramework.Default__FlagDefinition"
}