{
  "EvaluationExpression": null,
  "ValueResolver":
    "GD_Golem_SwordInStone.Flags.Flag_Spawn3Adds:RuleEngineFlagValueResolver_2",
  "ContextResolverChain": [
    "GD_Golem_SwordInStone.Flags.Flag_Spawn3Adds:WillowMindAttributeContextResolver_2"
  ],
  "VfTableObject": "",
  "HashNext": "",
  "ObjectFlags": "",
  "HashOuterNext": "",
  "StateFrame": "",
  "Linker": null,
  "LinkerIndex": "",
  "ObjectInternalInteger": 213487,
  "NetIndex": 347,
  "Outer": "GD_Golem_SwordInStone.Flags",
  "Name": "Flag_Spawn3Adds",
  "Class": "GearboxFramework.FlagDefinition",
  "ObjectArchetype": "GearboxFramework.Default__FlagDefinition"
}