{
  "EvaluationExpression": null,
  "ValueResolver":
    "GD_Iris_Raid_PyroPete.Flags.Flag_FuelTankDamaged:RuleEngineFlagValueResolver_2",
  "ContextResolverChain": [
    "GD_Iris_Raid_PyroPete.Flags.Flag_FuelTankDamaged:WillowMindAttributeContextResolver_2"
  ],
  "VfTableObject": "",
  "HashNext": "",
  "ObjectFlags": "",
  "HashOuterNext": "",
  "StateFrame": "",
  "Linker": null,
  "LinkerIndex": "",
  "ObjectInternalInteger": 202476,
  "NetIndex": 2901,
  "Outer": "GD_Iris_Raid_PyroPete.Flags",
  "Name": "Flag_FuelTankDamaged",
  "Class": "GearboxFramework.FlagDefinition",
  "ObjectArchetype": "GearboxFramework.Default__FlagDefinition"
}