{
  "EvaluationExpression": null,
  "ValueResolver":
    "GD_Iris_BlimpBoss.Flags.Flag_BlimpRCannonUpperBDoorOpen:RuleEngineFlagValueResolver_2",
  "ContextResolverChain": [
    "GD_Iris_BlimpBoss.Flags.Flag_BlimpRCannonUpperBDoorOpen:WillowMindAttributeContextResolver_2"
  ],
  "VfTableObject": "",
  "HashNext": "",
  "ObjectFlags": "",
  "HashOuterNext": "",
  "StateFrame": "",
  "Linker": null,
  "LinkerIndex": "",
  "ObjectInternalInteger": 197565,
  "NetIndex": 860,
  "Outer": "GD_Iris_BlimpBoss.Flags",
  "Name": "Flag_BlimpRCannonUpperBDoorOpen",
  "Class": "GearboxFramework.FlagDefinition",
  "ObjectArchetype": "GearboxFramework.Default__FlagDefinition"
}