{
  "EvaluationExpression": null,
  "ValueResolver":
    "GD_Iris_BikeTest00.Flags.Flag_DriverOff:RuleEngineFlagValueResolver_2",
  "ContextResolverChain": [
    "GD_Iris_BikeTest00.Flags.Flag_DriverOff:WillowMindAttributeContextResolver_2"
  ],
  "VfTableObject": "",
  "HashNext": "",
  "ObjectFlags": "",
  "HashOuterNext": "",
  "StateFrame": "",
  "Linker": null,
  "LinkerIndex": "",
  "ObjectInternalInteger": 207014,
  "NetIndex": 461,
  "Outer": "GD_Iris_BikeTest00.Flags",
  "Name": "Flag_DriverOff",
  "Class": "GearboxFramework.FlagDefinition",
  "ObjectArchetype": "GearboxFramework.Default__FlagDefinition"
}