{
  "EvaluationExpression": null,
  "ValueResolver":
    "GD_Iris_Pyro_Pete.Flags.Flag_SweepLoop:RuleEngineFlagValueResolver_2",
  "ContextResolverChain": [
    "GD_Iris_Pyro_Pete.Flags.Flag_SweepLoop:WillowMindAttributeContextResolver_2"
  ],
  "VfTableObject": "",
  "HashNext": "",
  "ObjectFlags": "",
  "HashOuterNext": "",
  "StateFrame": "",
  "Linker": null,
  "LinkerIndex": "",
  "ObjectInternalInteger": 216751,
  "NetIndex": 624,
  "Outer": "GD_Iris_Pyro_Pete.Flags",
  "Name": "Flag_SweepLoop",
  "Class": "GearboxFramework.FlagDefinition",
  "ObjectArchetype": "GearboxFramework.Default__FlagDefinition"
}