{
  "EvaluationExpression": null,
  "ValueResolver":
    "GD_Iris_Bike.Flags.Flag_RaidMamaSupport:RuleEngineFlagValueResolver_2",
  "ContextResolverChain": [
    "GD_Iris_Bike.Flags.Flag_RaidMamaSupport:WillowMindAttributeContextResolver_2"
  ],
  "VfTableObject": "",
  "HashNext": "",
  "ObjectFlags": "",
  "HashOuterNext": "",
  "StateFrame": "",
  "Linker": null,
  "LinkerIndex": "",
  "ObjectInternalInteger": 222584,
  "NetIndex": 1082,
  "Outer": "GD_Iris_Bike.Flags",
  "Name": "Flag_RaidMamaSupport",
  "Class": "GearboxFramework.FlagDefinition",
  "ObjectArchetype": "GearboxFramework.Default__FlagDefinition"
}