{
  "EvaluationExpression": null,
  "ValueResolver":
    "GD_Iris_Bike.Flags.Flag_HandlebarRiderOff:RuleEngineFlagValueResolver_2",
  "ContextResolverChain": [
    "GD_Iris_Bike.Flags.Flag_HandlebarRiderOff:WillowMindAttributeContextResolver_2"
  ],
  "VfTableObject": "",
  "HashNext": "",
  "ObjectFlags": "",
  "HashOuterNext": "",
  "StateFrame": "",
  "Linker": null,
  "LinkerIndex": "",
  "ObjectInternalInteger": 224591,
  "NetIndex": 1079,
  "Outer": "GD_Iris_Bike.Flags",
  "Name": "Flag_HandlebarRiderOff",
  "Class": "GearboxFramework.FlagDefinition",
  "ObjectArchetype": "GearboxFramework.Default__FlagDefinition"
}