{
  "EvaluationExpression": null,
  "ValueResolver":
    "GD_JacksBodyDouble.Flags.Flag_IsOutside:RuleEngineFlagValueResolver_2",
  "ContextResolverChain": [
    "GD_JacksBodyDouble.Flags.Flag_IsOutside:WillowMindAttributeContextResolver_2"
  ],
  "VfTableObject": "",
  "HashNext": "",
  "ObjectFlags": "",
  "HashOuterNext": "",
  "StateFrame": "",
  "Linker": null,
  "LinkerIndex": "",
  "ObjectInternalInteger": 186708,
  "NetIndex": 296,
  "Outer": "GD_JacksBodyDouble.Flags",
  "Name": "Flag_IsOutside",
  "Class": "GearboxFramework.FlagDefinition",
  "ObjectArchetype": "GearboxFramework.Default__FlagDefinition"
}