{
  "EvaluationExpression": null,
  "ValueResolver":
    "GD_Knight_Paladin.Flags.Flag_CanHeal:RuleEngineFlagValueResolver_2",
  "ContextResolverChain": [
    "GD_Knight_Paladin.Flags.Flag_CanHeal:WillowMindAttributeContextResolver_2"
  ],
  "VfTableObject": "",
  "HashNext": "",
  "ObjectFlags": "",
  "HashOuterNext": "",
  "StateFrame": "",
  "Linker": null,
  "LinkerIndex": "",
  "ObjectInternalInteger": 217283,
  "NetIndex": 355,
  "Outer": "GD_Knight_Paladin.Flags",
  "Name": "Flag_CanHeal",
  "Class": "GearboxFramework.FlagDefinition",
  "ObjectArchetype": "GearboxFramework.Default__FlagDefinition"
}