{
  "EvaluationExpression": null,
  "ValueResolver":
    "GD_MordecaiNPC.Flags.Flag_MordecaiBloodwing:RuleEngineFlagValueResolver_2",
  "ContextResolverChain": [
    "GD_MordecaiNPC.Flags.Flag_MordecaiBloodwing:WillowMindAttributeContextResolver_2"
  ],
  "VfTableObject": "",
  "HashNext": "",
  "ObjectFlags": "",
  "HashOuterNext": "",
  "StateFrame": "",
  "Linker": null,
  "LinkerIndex": "",
  "ObjectInternalInteger": 189743,
  "NetIndex": 667,
  "Outer": "GD_MordecaiNPC.Flags",
  "Name": "Flag_MordecaiBloodwing",
  "Class": "GearboxFramework.FlagDefinition",
  "ObjectArchetype": "GearboxFramework.Default__FlagDefinition"
}