{
  "EvaluationExpression": null,
  "ValueResolver":
    "GD_MonsterMash2.Flags.Flag_Idle:RuleEngineFlagValueResolver_2",
  "ContextResolverChain": [
    "GD_MonsterMash2.Flags.Flag_Idle:WillowMindAttributeContextResolver_2"
  ],
  "VfTableObject": "",
  "HashNext": "",
  "ObjectFlags": "",
  "HashOuterNext": "",
  "StateFrame": "",
  "Linker": null,
  "LinkerIndex": "",
  "ObjectInternalInteger": 205439,
  "NetIndex": 87,
  "Outer": "GD_MonsterMash2.Flags",
  "Name": "Flag_Idle",
  "Class": "GearboxFramework.FlagDefinition",
  "ObjectArchetype": "GearboxFramework.Default__FlagDefinition"
}