{
  "EvaluationExpression": null,
  "ValueResolver":
    "GD_Nast_Native_WithcDoctorShared.Flags.Flag_Attack:RuleEngineFlagValueResolver_2",
  "ContextResolverChain": [
    "GD_Nast_Native_WithcDoctorShared.Flags.Flag_Attack:WillowMindAttributeContextResolver_2"
  ],
  "VfTableObject": "",
  "HashNext": "",
  "ObjectFlags": "",
  "HashOuterNext": "",
  "StateFrame": "",
  "Linker": null,
  "LinkerIndex": "",
  "ObjectInternalInteger": 202314,
  "NetIndex": 360,
  "Outer": "GD_Nast_Native_WithcDoctorShared.Flags",
  "Name": "Flag_Attack",
  "Class": "GearboxFramework.FlagDefinition",
  "ObjectArchetype": "GearboxFramework.Default__FlagDefinition"
}