{
  "EvaluationExpression": null,
  "ValueResolver":
    "GD_Nast_Native_Shared.Flags.Flag_Demon:RuleEngineFlagValueResolver_2",
  "ContextResolverChain": [
    "GD_Nast_Native_Shared.Flags.Flag_Demon:WillowMindAttributeContextResolver_2"
  ],
  "VfTableObject": "",
  "HashNext": "",
  "ObjectFlags": "",
  "HashOuterNext": "",
  "StateFrame": "",
  "Linker": null,
  "LinkerIndex": "",
  "ObjectInternalInteger": 213293,
  "NetIndex": 463,
  "Outer": "GD_Nast_Native_Shared.Flags",
  "Name": "Flag_Demon",
  "Class": "GearboxFramework.FlagDefinition",
  "ObjectArchetype": "GearboxFramework.Default__FlagDefinition"
}