{
  "EvaluationExpression": null,
  "ValueResolver":
    "GD_Native_Hunter.Flags.Flag_Boomerang:RuleEngineFlagValueResolver_2",
  "ContextResolverChain": [
    "GD_Native_Hunter.Flags.Flag_Boomerang:WillowMindAttributeContextResolver_2"
  ],
  "VfTableObject": "",
  "HashNext": "",
  "ObjectFlags": "",
  "HashOuterNext": "",
  "StateFrame": "",
  "Linker": null,
  "LinkerIndex": "",
  "ObjectInternalInteger": 219997,
  "NetIndex": 665,
  "Outer": "GD_Native_Hunter.Flags",
  "Name": "Flag_Boomerang",
  "Class": "GearboxFramework.FlagDefinition",
  "ObjectArchetype": "GearboxFramework.Default__FlagDefinition"
}