{
  "EvaluationExpression": null,
  "ValueResolver":
    "GD_Nast_AnchorManShared.Flags.Flag_CanBlock:RuleEngineFlagValueResolver_2",
  "ContextResolverChain": [
    "GD_Nast_AnchorManShared.Flags.Flag_CanBlock:WillowMindAttributeContextResolver_2"
  ],
  "VfTableObject": "",
  "HashNext": "",
  "ObjectFlags": "",
  "HashOuterNext": "",
  "StateFrame": "",
  "Linker": null,
  "LinkerIndex": "",
  "ObjectInternalInteger": 202349,
  "NetIndex": 1117,
  "Outer": "GD_Nast_AnchorManShared.Flags",
  "Name": "Flag_CanBlock",
  "Class": "GearboxFramework.FlagDefinition",
  "ObjectArchetype": "GearboxFramework.Default__FlagDefinition"
}