{
  "EvaluationExpression": null,
  "ValueResolver":
    "GD_Orchid_RaidEngineerAid.Flag_Orchid_RaidEngineerAid_Idle:RuleEngineFlagValueResolver_2",
  "ContextResolverChain": [
    "GD_Orchid_RaidEngineerAid.Flag_Orchid_RaidEngineerAid_Idle:WillowMindAttributeContextResolver_2"
  ],
  "VfTableObject": "",
  "HashNext": "",
  "ObjectFlags": "",
  "HashOuterNext": "",
  "StateFrame": "",
  "Linker": null,
  "LinkerIndex": "",
  "ObjectInternalInteger": 206666,
  "NetIndex": 552,
  "Outer": "Package'GD_Orchid_RaidEngineerAid'",
  "Name": "Flag_Orchid_RaidEngineerAid_Idle",
  "Class": "GearboxFramework.FlagDefinition",
  "ObjectArchetype": "GearboxFramework.Default__FlagDefinition"
}