{
  "EvaluationExpression": null,
  "ValueResolver":
    "GD_Orchid_RaidEngineer.Flags.Flag_Orchid_RaidEngineer_Frozen:RuleEngineFlagValueResolver_2",
  "ContextResolverChain": [
    "GD_Orchid_RaidEngineer.Flags.Flag_Orchid_RaidEngineer_Frozen:WillowMindAttributeContextResolver_2"
  ],
  "VfTableObject": "",
  "HashNext": "",
  "ObjectFlags": "",
  "HashOuterNext": "",
  "StateFrame": "",
  "Linker": null,
  "LinkerIndex": "",
  "ObjectInternalInteger": 206675,
  "NetIndex": 1023,
  "Outer": "GD_Orchid_RaidEngineer.Flags",
  "Name": "Flag_Orchid_RaidEngineer_Frozen",
  "Class": "GearboxFramework.FlagDefinition",
  "ObjectArchetype": "GearboxFramework.Default__FlagDefinition"
}