{
  "EvaluationExpression": null,
  "ValueResolver":
    "GD_PsychoMidget.Flags.Flag_GoliathEnraged:FromContextFlagValueResolver_0",
  "ContextResolverChain": [
    "GD_PsychoMidget.Flags.Flag_GoliathEnraged:InstanceDataContextResolver_0",
    "GD_PsychoMidget.Flags.Flag_GoliathEnraged:WillowMindAttributeContextResolver_0"
  ],
  "VfTableObject": "",
  "HashNext": "",
  "ObjectFlags": "",
  "HashOuterNext": "",
  "StateFrame": "",
  "Linker": null,
  "LinkerIndex": "",
  "ObjectInternalInteger": 231367,
  "NetIndex": 196,
  "Outer": "GD_PsychoMidget.Flags",
  "Name": "Flag_GoliathEnraged",
  "Class": "GearboxFramework.FlagDefinition",
  "ObjectArchetype": "GearboxFramework.Default__FlagDefinition"
}