{
  "EvaluationExpression": null,
  "ValueResolver":
    "GD_PrimalBeast_Ranged.Flags.Flag_HiGround:RuleEngineFlagValueResolver_2",
  "ContextResolverChain": [
    "GD_PrimalBeast_Ranged.Flags.Flag_HiGround:WillowMindAttributeContextResolver_2"
  ],
  "VfTableObject": "",
  "HashNext": "",
  "ObjectFlags": "",
  "HashOuterNext": "",
  "StateFrame": "",
  "Linker": null,
  "LinkerIndex": "",
  "ObjectInternalInteger": 204213,
  "NetIndex": 151,
  "Outer": "GD_PrimalBeast_Ranged.Flags",
  "Name": "Flag_HiGround",
  "Class": "GearboxFramework.FlagDefinition",
  "ObjectArchetype": "GearboxFramework.Default__FlagDefinition"
}