{
  "EvaluationExpression": null,
  "ValueResolver":
    "GD_RakkMan.Flags.Flag_Rakkman_Idle:RuleEngineFlagValueResolver_2",
  "ContextResolverChain": [
    "GD_RakkMan.Flags.Flag_Rakkman_Idle:WillowMindAttributeContextResolver_2"
  ],
  "VfTableObject": "",
  "HashNext": "",
  "ObjectFlags": "",
  "HashOuterNext": "",
  "StateFrame": "",
  "Linker": null,
  "LinkerIndex": "",
  "ObjectInternalInteger": 206389,
  "NetIndex": 478,
  "Outer": "GD_RakkMan.Flags",
  "Name": "Flag_Rakkman_Idle",
  "Class": "GearboxFramework.FlagDefinition",
  "ObjectArchetype": "GearboxFramework.Default__FlagDefinition"
}