{
  "EvaluationExpression": null,
  "ValueResolver":
    "GD_RatShared.Flags.Flag_CanUseCover:RuleEngineFlagValueResolver_0",
  "ContextResolverChain": [
    "GD_RatShared.Flags.Flag_CanUseCover:WillowMindAttributeContextResolver_0"
  ],
  "VfTableObject": "",
  "HashNext": "",
  "ObjectFlags": "",
  "HashOuterNext": "",
  "StateFrame": "",
  "Linker": null,
  "LinkerIndex": "",
  "ObjectInternalInteger": 223490,
  "NetIndex": 582,
  "Outer": "GD_RatShared.Flags",
  "Name": "Flag_CanUseCover",
  "Class": "GearboxFramework.FlagDefinition",
  "ObjectArchetype": "GearboxFramework.Default__FlagDefinition"
}