{
  "EvaluationExpression": null,
  "ValueResolver":
    "GD_RakkShared.Flags.Flag_RakkBloom:RuleEngineFlagValueResolver_2",
  "ContextResolverChain": [
    "GD_RakkShared.Flags.Flag_RakkBloom:WillowMindAttributeContextResolver_2"
  ],
  "VfTableObject": "",
  "HashNext": "",
  "ObjectFlags": "",
  "HashOuterNext": "",
  "StateFrame": "",
  "Linker": null,
  "LinkerIndex": "",
  "ObjectInternalInteger": 235268,
  "NetIndex": 493,
  "Outer": "GD_RakkShared.Flags",
  "Name": "Flag_RakkBloom",
  "Class": "GearboxFramework.FlagDefinition",
  "ObjectArchetype": "GearboxFramework.Default__FlagDefinition"
}