{
  "EvaluationExpression": null,
  "ValueResolver":
    "GD_Sage_Raid_BeastMaster.Flags.Flag_Sage_Raid_BeastMaster_CanChangeTarget:RuleEngineFlagValueResolver_2",
  "ContextResolverChain": [
    "GD_Sage_Raid_BeastMaster.Flags.Flag_Sage_Raid_BeastMaster_CanChangeTarget:WillowMindAttributeContextResolver_2"
  ],
  "VfTableObject": "",
  "HashNext": "",
  "ObjectFlags": "",
  "HashOuterNext": "",
  "StateFrame": "",
  "Linker": null,
  "LinkerIndex": "",
  "ObjectInternalInteger": 192756,
  "NetIndex": 410,
  "Outer": "GD_Sage_Raid_BeastMaster.Flags",
  "Name": "Flag_Sage_Raid_BeastMaster_CanChangeTarget",
  "Class": "GearboxFramework.FlagDefinition",
  "ObjectArchetype": "GearboxFramework.Default__FlagDefinition"
}