{
  "EvaluationExpression": null,
  "ValueResolver":
    "GD_SpiderantShared.Flags.Flag_SpiderantRoyalGuardAttack:RuleEngineFlagValueResolver_2",
  "ContextResolverChain": [
    "GD_SpiderantShared.Flags.Flag_SpiderantRoyalGuardAttack:WillowMindAttributeContextResolver_2"
  ],
  "VfTableObject": "",
  "HashNext": "",
  "ObjectFlags": "",
  "HashOuterNext": "",
  "StateFrame": "",
  "Linker": null,
  "LinkerIndex": "",
  "ObjectInternalInteger": 223463,
  "NetIndex": 1127,
  "Outer": "GD_SpiderantShared.Flags",
  "Name": "Flag_SpiderantRoyalGuardAttack",
  "Class": "GearboxFramework.FlagDefinition",
  "ObjectArchetype": "GearboxFramework.Default__FlagDefinition"
}