{
  "EvaluationExpression": null,
  "ValueResolver":
    "GD_Sage_SM_PallingAroundData.Creature.Flag_Sage_Turtle:RuleEngineFlagValueResolver_2",
  "ContextResolverChain": [
    "GD_Sage_SM_PallingAroundData.Creature.Flag_Sage_Turtle:WillowMindAttributeContextResolver_2"
  ],
  "VfTableObject": "",
  "HashNext": "",
  "ObjectFlags": "",
  "HashOuterNext": "",
  "StateFrame": "",
  "Linker": null,
  "LinkerIndex": "",
  "ObjectInternalInteger": 205591,
  "NetIndex": 276,
  "Outer": "GD_Sage_SM_PallingAroundData.Creature",
  "Name": "Flag_Sage_Turtle",
  "Class": "GearboxFramework.FlagDefinition",
  "ObjectArchetype": "GearboxFramework.Default__FlagDefinition"
}