{
  "EvaluationExpression": null,
  "ValueResolver":
    "GD_SkeletonShared.Flags.Flag_StandStill:RuleEngineFlagValueResolver_2",
  "ContextResolverChain": [
    "GD_SkeletonShared.Flags.Flag_StandStill:WillowMindAttributeContextResolver_2"
  ],
  "VfTableObject": "",
  "HashNext": "",
  "ObjectFlags": "",
  "HashOuterNext": "",
  "StateFrame": "",
  "Linker": null,
  "LinkerIndex": "",
  "ObjectInternalInteger": 217289,
  "NetIndex": 1603,
  "Outer": "GD_SkeletonShared.Flags",
  "Name": "Flag_StandStill",
  "Class": "GearboxFramework.FlagDefinition",
  "ObjectArchetype": "GearboxFramework.Default__FlagDefinition"
}