{
  "EvaluationExpression": null,
  "ValueResolver":
    "GD_Wisp.Flags.Flag_WispAngryTransition:RuleEngineFlagValueResolver_2",
  "ContextResolverChain": [
    "GD_Wisp.Flags.Flag_WispAngryTransition:WillowMindAttributeContextResolver_2"
  ],
  "VfTableObject": "",
  "HashNext": "",
  "ObjectFlags": "",
  "HashOuterNext": "",
  "StateFrame": "",
  "Linker": null,
  "LinkerIndex": "",
  "ObjectInternalInteger": 218903,
  "NetIndex": 651,
  "Outer": "GD_Wisp.Flags",
  "Name": "Flag_WispAngryTransition",
  "Class": "GearboxFramework.FlagDefinition",
  "ObjectArchetype": "GearboxFramework.Default__FlagDefinition"
}