{
  "EvaluationExpression": null,
  "ValueResolver":
    "GD_WizardShared.Flags.Flag_SoulShieldGone:RuleEngineFlagValueResolver_2",
  "ContextResolverChain": [
    "GD_WizardShared.Flags.Flag_SoulShieldGone:WillowMindAttributeContextResolver_2"
  ],
  "VfTableObject": "",
  "HashNext": "",
  "ObjectFlags": "",
  "HashOuterNext": "",
  "StateFrame": "",
  "Linker": null,
  "LinkerIndex": "",
  "ObjectInternalInteger": 217278,
  "NetIndex": 628,
  "Outer": "GD_WizardShared.Flags",
  "Name": "Flag_SoulShieldGone",
  "Class": "GearboxFramework.FlagDefinition",
  "ObjectArchetype": "GearboxFramework.Default__FlagDefinition"
}