{
  "VfTable_IIBehaviorProvider": "",
  "VfTable_IIConstructObject": "",
  "WeaponType": "WT_RocketLauncher",
  "BarrelSpinMode": "BSM_None",
  "InventoryGroup": 2,
  "WeaponLockType": "GBXWEAPLOCK_PaintAndHold",
  "ScaleformFrameName": "vehicle_rocket",
  "ScaleformDLCClip": null,
  "AmmoResource": null,
  "StartingAmmoCount": 9999,
  "MaxStoredAmmo": 9999,
  "ShotCost": 0,
  "ClipSize": 3,
  "AmmoRegenerationRate": 1.0,
  "bUseOverheatBehavior": false,
  "bRemoveBaseAccuracyFromRecoilScale": false,
  "AltFireRespectsPrimaryFireInterval": false,
  "bAlternativeKickEnabled": false,
  "bMuzzleFlashPSCLoops": false,
  "bTypeNameIsFullName": true,
  "bDisableReloadMessages": true,
  "RegenRate": 20.0,
  "OverheatRegenDelay": 4.0,
  "FireRegenDelay": 1.0,
  "InstantHitDamage": {
    "BaseValueConstant": 0.0,
    "BaseValueAttribute": null,
    "InitializationDefinition": null,
    "BaseValueScaleConstant": 1.0
  },
  "InstantHitDamageType": null,
  "DefaultDamageTypeDefinition": null,
  "InstantHitMomentum": {
    "BaseValueConstant": 10.0,
    "BaseValueAttribute": null,
    "InitializationDefinition": null,
    "BaseValueScaleConstant": 1.0
  },
  "ProjectilesPerShot": 1,
  "MeleeDamage": {
    "BaseValueConstant": 0.0,
    "BaseValueAttribute": null,
    "InitializationDefinition": null,
    "BaseValueScaleConstant": 0.0
  },
  "NormalizedInstantHitDamage": {
    "BaseValueConstant": 0.0,
    "BaseValueAttribute": null,
    "InitializationDefinition": null,
    "BaseValueScaleConstant": 0.0
  },
  "NormalizedMeleeDamage": {
    "BaseValueConstant": 0.0,
    "BaseValueAttribute": null,
    "InitializationDefinition": null,
    "BaseValueScaleConstant": 0.0
  },
  "BaseStatusEffectChanceModifier": {
    "BaseValueConstant": 1.0,
    "BaseValueAttribute": null,
    "InitializationDefinition": null,
    "BaseValueScaleConstant": 1.0
  },
  "StatusEffectDamage": {
    "BaseValueConstant": 1.0,
    "BaseValueAttribute": null,
    "InitializationDefinition": null,
    "BaseValueScaleConstant": 1.0
  },
  "Spread": 0.0,
  "PerShotAccuracyImpulse": 0.0,
  "BodyWeaponHoldName": null,
  "WeaponAnimSet": null,
  "WeaponAnimTree": null,
  "AnimNodeSlotName": "CustomAnimSlot",
  "OffHandAnimNodeSlotName": "OffHandAnimSlot",
  "WeaponGrabAnimation": null,
  "MinFireAnimDuration": 0.0,
  "RecoilAnimScaleCurve": {
    "Points": null,
    "InterpMethod": "IMT_UseFixedTangentEvalAndNewAutoTangents"
  },
  "ZoomedRecoilAnimScale": 0.1,
  "DefaultFiringModeDefinition":
    "GD_Runner_Streaming.Weapon.FiringModes.FiringMode_RocketLauncher",
  "Range": 16384.0,
  "FireRate": 1.0,
  "FireOffset": { "X": 0.0, "Y": 0.0, "Z": 0.0 },
  "FiringForceFeedback":
    "GD_Runner_Streaming.Weapon.WeaponTypes.WeaponType_RocketLauncher:ForceFeedbackWaveform_1",
  "ExtraShotDelay": {
    "BaseValueConstant": 0.0,
    "BaseValueAttribute": null,
    "InitializationDefinition": null,
    "BaseValueScaleConstant": 1.0
  },
  "ShortFireIntervalModPower": 0.0,
  "LongFireIntervalModPower": 0.0,
  "BurstInterval": 0.0,
  "AutomaticBurstCount": 0,
  "BurstShotAccuracyImpulseScale": 0.0,
  "ReloadTime": 1.0,
  "ReloadCompletePercent": 1.0,
  "ReloadDOFKernelSize": 2.0,
  "ReloadDOFZoomRate": 100.0,
  "ReloadDOFInnerRadius": 50.0,
  "ReloadDOFFocusDistance": 50.0,
  "EquipTime": 0.33,
  "PutDownTime": 0.33,
  "GrabEquipTime": 1.0333,
  "LeadingSpeed": 6.0,
  "ViewModelLeadPivotName": "L_Weapon_Bone",
  "ViewModelRotationOriginOffset": { "X": 150.0, "Y": 0.0, "Z": 0.0 },
  "ViewModelRotationAmt": 3.0,
  "ViewModelTranslationAmt": 3.0,
  "LeadingZoomedScale": 0.1,
  "ZoomedEndFOV": 40.0,
  "ZoomedRate": 5.0,
  "BobDamping": 0.6,
  "MaxPitchLead": 256.0,
  "MaxYawLead": 256.0,
  "PlayerViewOffset": { "X": 0.0, "Y": 0.0, "Z": 0.0 },
  "FirstPersonMeshFOV": 0.0,
  "ZoomSocketPreferred": "EyeSocket1",
  "ZoomSocketFallback": "EyeSocket2",
  "FrontScopeSocket": "FrontScope",
  "FrontSightSocket": "FrontSight",
  "RearSightSocket": "RearSight",
  "ZoomTime": 0.03,
  "FractalWanderSpeed": 0.0,
  "FractalWanderLacunarity": 1.618034,
  "FractalWanderPersistence": 0.618034,
  "FractalWanderDiscWidth": 0.0,
  "FractalWanderDiscHeight": 0.0,
  "ZoomWanderSmoothingSpeed": 10.0,
  "ZoomWanderSmoothInTime_OnZoom": 2.0,
  "ZoomWanderSmoothInTime_OnFire": 1.0,
  "ScopedMuzzleFlashOffset": { "X": -50.0, "Y": 0.0, "Z": -20.0 },
  "BoneToHideOnMesh": null,
  "AdditionalBoneToHideOnMesh": null,
  "WeaponKickSpeed": 4.0,
  "WeaponKickRecoveryTime": 0.5,
  "WeaponKickZoomMultiplier": 2.0,
  "WeaponKickUp": 1.0,
  "WeaponKickDown": 0.0,
  "MinimumVerticalPercentage": 0.0,
  "WeaponKickLeft": 0.0,
  "WeaponKickRight": 0.0,
  "MinimumHorizontalPercentage": 0.0,
  "AlternativeWeaponKick": {
    "BaseValueConstant": 0.0,
    "BaseValueAttribute": null,
    "InitializationDefinition": null,
    "BaseValueScaleConstant": 1.0
  },
  "DOFKernelSize": 2.0,
  "DOFZoomRate": 15.0,
  "DOFInnerRadius": 1000.0,
  "EffectSocket": "Rocket_Turret_Muzzle",
  "MuzzleFlashDuration": 0.33,
  "MuzzleFlashPSTemplates": null,
  "MuzzleFlashLightTemplate":
    "GD_Runner_Streaming.Weapon.WeaponTypes.WeaponType_RocketLauncher:WillowPointLight_0",
  "MuzzleFlashSocket": "Rocket_Turret_Muzzle",
  "FireShake": {
    "OffsetMag": { "X": 0.0, "Y": 0.0, "Z": 0.0 },
    "OffsetRate": { "X": 20.0, "Y": 20.0, "Z": 20.0 },
    "OffsetTime": 1.0,
    "RotMag": { "X": 50.0, "Y": 50.0, "Z": 50.0 },
    "RotRate": { "X": 20.0, "Y": 20.0, "Z": 20.0 },
    "RotTime": 0.1,
    "FOVMag": 0.0,
    "FOVRate": 0.0,
    "FOVTime": 0.0
  },
  "MeleeCameraAnim": null,
  "TracerTemplate": null,
  "TracerColor": { "B": 200, "G": 200, "R": 200, "A": 255 },
  "TracerColorParameterName": "TracerColor",
  "DroppedImpact": null,
  "ShellCasingPSCTemplate": null,
  "ShellCasingSocket": "EjectPort",
  "ScopedShellCasingOffset": { "X": 70.0, "Y": 0.0, "Z": -20.0 },
  "OffHandShellCasingRotOffset": { "Pitch": -11832, "Yaw": 0, "Roll": 0 },
  "GlowScaleMaterialParamName": "p_EmissiveScale",
  "MaxGlowImpulseScale": 5.0,
  "GlowImpulseDecayDelay": 0.2,
  "GlowImpulseDecayRate": 3.5,
  "FiringGlowImpulse": 0.25,
  "InventoryWeight": 0.0,
  "LockRequiredTime": 2.0,
  "LockCoolDownTime": 0.0,
  "LockRequiredDotProduct": 0.99,
  "LockAttemptStartedAkEvent":
    "Ake_Veh_Bandit_Technical.Targeting.Ak_Play_Veh_BT_Target_Start",
  "LockAcquiredAkEvent":
    "Ake_Veh_Bandit_Technical.Targeting.Ak_Play_Veh_BT_Target_Success",
  "LockLostAkEvent":
    "Ake_Veh_Bandit_Technical.Targeting.Ak_Play_Veh_BT_Target_Failed",
  "AIAimError": 0.0,
  "AIBurstCount": { "MinVal": 3.0, "MaxVal": 5.0 },
  "AIBurstDelay": { "MinVal": 0.1, "MaxVal": 1.0 },
  "Typename": " Bandit Technical Rocket Launcher",
  "GestaltMesh": null,
  "AttachmentData": {
    "FirstPersonAttachmentSocket": "Weapon",
    "ThirdPersonAttachmentSocket": "Weapon",
    "FirstPersonOffHandAttachmentSocket": "OffHandWeapon",
    "ThirdPersonOffHandAttachmentSocket": "OffHandWeapon"
  },
  "BodyParts": null,
  "GripParts": null,
  "BarrelParts": null,
  "SightParts": "GD_Runner_Streaming.Parts.SightPartList_RocketRunner",
  "StockParts": null,
  "ElementalParts": null,
  "Accessory1Parts": null,
  "Accessory2Parts": null,
  "MaterialParts": null,
  "WeaponImpact": null,
  "CrosshairFrame": "VehicleRockets",
  "MaxDistSqr": 900000000.0,
  "MaxAngleCos": 0.707,
  "BonusToCurrentTargetScore": 0.1,
  "UpdateRate": 0.2,
  "MaintainTargetTime": 2.0,
  "BehaviorProviderDefinition":
    "GD_Runner_Streaming.Weapon.WeaponTypes.WeaponType_RocketLauncher:BehaviorProviderDefinition_0",
  "FireSounds": [
    {
      "Event":
        "Ake_Veh_Bandit_Technical.Weapon.Ak_Play_veh_BT_wep_rocket_launch",
      "Cue": null,
      "Expressions": null
    }
  ],
  "InventoryClass": "WillowGame.WillowVehicleWeapon",
  "bAutomaticallyPickup": false,
  "bPickupInBulk": false,
  "bDisallowAIFromGrabbingPickup": false,
  "bDuplicatePickupJustAddsQuantity": false,
  "bSuppressPickupCard": false,
  "bTorque": false,
  "bNeverDisplayPickupMessage": false,
  "bShopsHaveInfiniteQuantity": false,
  "bCanCompare": true,
  "bUsesPlayerLevelRequirement": false,
  "bUIMeshRotationNeedsTransformFixup": false,
  "bIsConsumable": false,
  "bAllowInventoryDefToModifyPartWeight": false,
  "PlayerDroppability": "EPD_Droppable",
  "FormOfCurrency": "CURRENCY_Credits",
  "OnUseConstraintsMode": "EXPRMODE_And",
  "AttributeSlotEffectMode": "ATTRSLOTEFFECTMODE_Default",
  "PickupLifeSpan": 0.0,
  "PickupFlagScale": 1.0,
  "PickupFlagIcon": null,
  "PickupFlagOffset": { "X": 0.0, "Y": 0.0, "Z": 0.0 },
  "Torque": { "X": 0.0, "Y": 0.0, "Z": 0.0 },
  "ThirdPersonMeshScale": 1.0,
  "MaterialClass": "Engine.MaterialInstanceConstant",
  "PhysicsAsset": null,
  "PickupMessage": "You got %s",
  "UseFailureLevelMessage": "You must be at least level %d to use this item.",
  "UseFailureConstraintsMessage": "You cannot use this item.",
  "NoManufacturerName": "Generic",
  "BaseRarity": {
    "BaseValueConstant": 0.0,
    "BaseValueAttribute": null,
    "InitializationDefinition": null,
    "BaseValueScaleConstant": 1.0
  },
  "MonetaryValue": {
    "BaseValueConstant": 0.0,
    "BaseValueAttribute": null,
    "InitializationDefinition": null,
    "BaseValueScaleConstant": 1.0
  },
  "BaseMonetaryValueModifier": 0.0,
  "PlayerUseLevelBonus": {
    "BaseValueConstant": 0.0,
    "BaseValueAttribute": null,
    "InitializationDefinition": null,
    "BaseValueScaleConstant": 1.0
  },
  "UIMeshRotation": { "Pitch": 0, "Yaw": 0, "Roll": 0 },
  "Presentation": null,
  "CalloutDefinition": null,
  "PickedUpStatID": null,
  "PurchasedStatID": null,
  "FocusRadius": 55.0,
  "FocusOffset": { "X": -0.4, "Y": -0.075, "Z": 0.0 },
  "AttributeSlotEffectSkillDuration": {
    "BaseValueConstant": 0.0,
    "BaseValueAttribute": null,
    "InitializationDefinition": null,
    "BaseValueScaleConstant": 1.0
  },
  "AttributeSlotBaseGrade": {
    "BaseValueConstant": 1.0,
    "BaseValueAttribute": null,
    "InitializationDefinition": null,
    "BaseValueScaleConstant": 1.0
  },
  "AttributeSlotMaxActivated": 19,
  "LootBeamColorOverride": { "B": 0, "G": 0, "R": 0, "A": 0 },
  "VfTableObject": "",
  "HashNext": "",
  "ObjectFlags": "",
  "HashOuterNext": "",
  "StateFrame": "",
  "Linker": null,
  "LinkerIndex": "",
  "ObjectInternalInteger": 181676,
  "NetIndex": 641,
  "Outer": "GD_Runner_Streaming.Weapon.WeaponTypes",
  "Name": "WeaponType_RocketLauncher",
  "Class": "WillowGame.WeaponTypeDefinition",
  "ObjectArchetype": "WillowGame.Default__WeaponTypeDefinition"
}