{
  "VfTable_IIBehaviorProvider": "",
  "VfTable_IIConstructObject": "",
  "WeaponType": "WT_SMG",
  "BarrelSpinMode": "BSM_None",
  "InventoryGroup": 2,
  "WeaponLockType": "GBXWEAPLOCK_None",
  "ScaleformFrameName": "smg",
  "ScaleformDLCClip": null,
  "AmmoResource": "D_Resources.AmmoResources.Ammo_Patrol_SMG",
  "StartingAmmoCount": 30,
  "MaxStoredAmmo": 120,
  "ShotCost": 1,
  "ClipSize": 56,
  "AmmoRegenerationRate": 1.2,
  "bUseOverheatBehavior": false,
  "bRemoveBaseAccuracyFromRecoilScale": true,
  "AltFireRespectsPrimaryFireInterval": false,
  "bAlternativeKickEnabled": false,
  "bMuzzleFlashPSCLoops": false,
  "bTypeNameIsFullName": false,
  "bDisableReloadMessages": false,
  "RegenRate": 20.0,
  "OverheatRegenDelay": 4.0,
  "FireRegenDelay": 1.0,
  "InstantHitDamage": {
    "BaseValueConstant": 0.0,
    "BaseValueAttribute": null,
    "InitializationDefinition":
      "GD_Balance_HealthAndDamage.HealthAndDamage.Init_WeaponDamage",
    "BaseValueScaleConstant": 0.93
  },
  "InstantHitDamageType": "WillowGame.WillowDmgSource_SubMachineGun",
  "DefaultDamageTypeDefinition": "GD_Impact.DamageType.DmgType_Normal",
  "InstantHitMomentum": {
    "BaseValueConstant": 5.0,
    "BaseValueAttribute": null,
    "InitializationDefinition": null,
    "BaseValueScaleConstant": 1.0
  },
  "ProjectilesPerShot": 1,
  "MeleeDamage": {
    "BaseValueConstant": 0.0,
    "BaseValueAttribute": null,
    "InitializationDefinition":
      "GD_Balance_HealthAndDamage.HealthAndDamage.Init_PlayerMeleeDamage",
    "BaseValueScaleConstant": 1.0
  },
  "NormalizedInstantHitDamage": {
    "BaseValueConstant": 0.93,
    "BaseValueAttribute": null,
    "InitializationDefinition": null,
    "BaseValueScaleConstant": 1.0
  },
  "NormalizedMeleeDamage": {
    "BaseValueConstant": 1.0,
    "BaseValueAttribute": null,
    "InitializationDefinition": null,
    "BaseValueScaleConstant": 1.0
  },
  "BaseStatusEffectChanceModifier": {
    "BaseValueConstant": 0.5,
    "BaseValueAttribute": null,
    "InitializationDefinition": null,
    "BaseValueScaleConstant": 1.0
  },
  "StatusEffectDamage": {
    "BaseValueConstant": 1.0,
    "BaseValueAttribute": null,
    "InitializationDefinition":
      "GD_Balance_HealthAndDamage.HealthAndDamage.Init_WeaponDamage",
    "BaseValueScaleConstant": 1.0
  },
  "Spread": 1.8,
  "PerShotAccuracyImpulse": 2.2,
  "BodyWeaponHoldName": "SMG",
  "WeaponAnimSet": "Anim_1st_Person.SMG",
  "WeaponAnimTree": "GD_Weap_SMG.AnimTree.AnimTree_SMG",
  "AnimNodeSlotName": "CustomAnimSlot",
  "OffHandAnimNodeSlotName": "OffHandAnimSlot",
  "WeaponGrabAnimation": null,
  "MinFireAnimDuration": 0.0,
  "RecoilAnimScaleCurve": {
    "Points": [
      {
        "InVal": 0.0,
        "OutVal": 0.5,
        "ArriveTangent": 0.0,
        "LeaveTangent": 0.0,
        "InterpMode": "CIM_Linear"
      },
      {
        "InVal": 10.0,
        "OutVal": 1.0,
        "ArriveTangent": 0.0,
        "LeaveTangent": 0.0,
        "InterpMode": "CIM_Linear"
      }
    ],
    "InterpMethod": "IMT_UseFixedTangentEvalAndNewAutoTangents"
  },
  "ZoomedRecoilAnimScale": 0.1,
  "DefaultFiringModeDefinition": "GD_Weap_SMG.FiringModes.Bullet_SMG_Default",
  "Range": 16384.0,
  "FireRate": 0.13,
  "FireOffset": { "X": 0.0, "Y": 0.0, "Z": 0.0 },
  "FiringForceFeedback":
    "GD_Weap_SMG.A_Weapons.WT_SMG_Bandit:ForceFeedbackWaveform_0",
  "ExtraShotDelay": {
    "BaseValueConstant": 0.05,
    "BaseValueAttribute": null,
    "InitializationDefinition":
      "GD_Assassin_Skills.Misc.Init_TwoFang_ExtraShotDelayFormula",
    "BaseValueScaleConstant": 1.0
  },
  "ShortFireIntervalModPower": 0.0,
  "LongFireIntervalModPower": 0.0,
  "BurstInterval": 0.6,
  "AutomaticBurstCount": 0,
  "BurstShotAccuracyImpulseScale": 0.0,
  "ReloadTime": 4.2,
  "ReloadCompletePercent": 0.75,
  "ReloadDOFKernelSize": 2.0,
  "ReloadDOFZoomRate": 100.0,
  "ReloadDOFInnerRadius": 50.0,
  "ReloadDOFFocusDistance": 50.0,
  "EquipTime": 0.6,
  "PutDownTime": 0.6,
  "GrabEquipTime": 1.5,
  "LeadingSpeed": 6.0,
  "ViewModelLeadPivotName": "L_Weapon_Bone",
  "ViewModelRotationOriginOffset": { "X": 150.0, "Y": 0.0, "Z": 0.0 },
  "ViewModelRotationAmt": 3.0,
  "ViewModelTranslationAmt": 3.0,
  "LeadingZoomedScale": 0.1,
  "ZoomedEndFOV": 45.0,
  "ZoomedRate": 1.0,
  "BobDamping": 0.6,
  "MaxPitchLead": 256.0,
  "MaxYawLead": 256.0,
  "PlayerViewOffset": { "X": 10.0, "Y": 3.0, "Z": 0.0 },
  "FirstPersonMeshFOV": 50.0,
  "ZoomSocketPreferred": "EyeSocket1",
  "ZoomSocketFallback": "EyeSocket2",
  "FrontScopeSocket": "FrontScope",
  "FrontSightSocket": "FrontSight",
  "RearSightSocket": "RearSight",
  "ZoomTime": 0.2,
  "FractalWanderSpeed": 2.2,
  "FractalWanderLacunarity": 1.0,
  "FractalWanderPersistence": 1.0,
  "FractalWanderDiscWidth": 0.45,
  "FractalWanderDiscHeight": 0.25,
  "ZoomWanderSmoothingSpeed": 10.0,
  "ZoomWanderSmoothInTime_OnZoom": 0.15,
  "ZoomWanderSmoothInTime_OnFire": 0.0,
  "ScopedMuzzleFlashOffset": { "X": 70.0, "Y": 0.0, "Z": -20.0 },
  "BoneToHideOnMesh": null,
  "AdditionalBoneToHideOnMesh": null,
  "WeaponKickSpeed": 15.0,
  "WeaponKickRecoveryTime": 0.2,
  "WeaponKickZoomMultiplier": 1.5,
  "WeaponKickUp": 0.5,
  "WeaponKickDown": 0.2,
  "MinimumVerticalPercentage": 0.0,
  "WeaponKickLeft": 0.5,
  "WeaponKickRight": 1.0,
  "MinimumHorizontalPercentage": 0.3,
  "AlternativeWeaponKick": {
    "BaseValueConstant": 0.0,
    "BaseValueAttribute": null,
    "InitializationDefinition": null,
    "BaseValueScaleConstant": 1.0
  },
  "DOFKernelSize": 2.0,
  "DOFZoomRate": 15.0,
  "DOFInnerRadius": 1000.0,
  "EffectSocket": "Muzzle",
  "MuzzleFlashDuration": 0.33,
  "MuzzleFlashPSTemplates": "GD_Weap_SMG.Effects.SMG_Default_MuzzleFlashes",
  "MuzzleFlashLightTemplate":
    "GD_Weap_SMG.A_Weapons.WT_SMG_Bandit:WillowPointLight_16",
  "MuzzleFlashSocket": "Muzzle",
  "FireShake": {
    "OffsetMag": { "X": 0.0, "Y": 0.0, "Z": 0.0 },
    "OffsetRate": { "X": 10.0, "Y": 10.0, "Z": 10.0 },
    "OffsetTime": 0.1,
    "RotMag": { "X": 50.0, "Y": 50.0, "Z": 50.0 },
    "RotRate": { "X": 10.0, "Y": 10.0, "Z": 10.0 },
    "RotTime": 0.1,
    "FOVMag": 0.0,
    "FOVRate": 0.0,
    "FOVTime": 0.0
  },
  "MeleeCameraAnim": "Anim_CameraAnimations.Melee.Canim_PatrolSmg_Melee",
  "TracerTemplate": null,
  "TracerColor": { "B": 200, "G": 200, "R": 200, "A": 255 },
  "TracerColorParameterName": "TracerColor",
  "DroppedImpact": "GD_Impacts.Loot.Loot_Drop_Rifle",
  "ShellCasingPSCTemplate": "FX_WEP_Pistol.Particles.Part_Pistol_Shells",
  "ShellCasingSocket": "EjectPort",
  "ScopedShellCasingOffset": { "X": 70.0, "Y": 0.0, "Z": -20.0 },
  "OffHandShellCasingRotOffset": { "Pitch": 32768, "Yaw": 0, "Roll": 32768 },
  "GlowScaleMaterialParamName": "p_EmissiveScale",
  "MaxGlowImpulseScale": 5.0,
  "GlowImpulseDecayDelay": 0.2,
  "GlowImpulseDecayRate": 3.5,
  "FiringGlowImpulse": 0.25,
  "InventoryWeight": 0.0,
  "LockRequiredTime": 0.0,
  "LockCoolDownTime": 0.0,
  "LockRequiredDotProduct": 0.9,
  "LockAttemptStartedAkEvent": null,
  "LockAcquiredAkEvent": null,
  "LockLostAkEvent": null,
  "AIAimError": 3.0,
  "AIBurstCount": { "MinVal": 3.0, "MaxVal": 5.0 },
  "AIBurstDelay": { "MinVal": 0.1, "MaxVal": 1.0 },
  "Typename": "Sub-Machine Gun",
  "GestaltMesh": "Weap_SMG.GestaltDef_SMG",
  "AttachmentData": {
    "FirstPersonAttachmentSocket": "Weapon",
    "ThirdPersonAttachmentSocket": "Weapon",
    "FirstPersonOffHandAttachmentSocket": "OffHandWeapon",
    "ThirdPersonOffHandAttachmentSocket": "OffHandWeapon"
  },
  "BodyParts": "GD_Weap_SMG.Body.Body_PartList",
  "GripParts": "GD_Weap_SMG.Grip.Grip_PartList",
  "BarrelParts": "GD_Weap_SMG.Barrel.Barrel_PartList",
  "SightParts": null,
  "StockParts": "GD_Weap_SMG.Stock.Stock_PartList",
  "ElementalParts": null,
  "Accessory1Parts": null,
  "Accessory2Parts": null,
  "MaterialParts": null,
  "WeaponImpact": "GD_Impacts.Bullets.Bullet_LargeCaliber",
  "CrosshairFrame": "SMG",
  "MaxDistSqr": 900000000.0,
  "MaxAngleCos": 0.707,
  "BonusToCurrentTargetScore": 0.1,
  "UpdateRate": 0.2,
  "MaintainTargetTime": 2.0,
  "BehaviorProviderDefinition": null,
  "ZoomExternalAttributeEffects": [
    {
      "AttributeToModify":
        "D_Attributes.AccuracyResourcePool.AccuracyMinValue",
      "ModifierType": "MT_Scale",
      "BaseModifierValue": {
        "BaseValueConstant": -1.0,
        "BaseValueAttribute": null,
        "InitializationDefinition": null,
        "BaseValueScaleConstant": 1.0
      }
    },
    {
      "AttributeToModify":
        "D_Attributes.AccuracyResourcePool.AccuracyMaxValue",
      "ModifierType": "MT_Scale",
      "BaseModifierValue": {
        "BaseValueConstant": -0.15,
        "BaseValueAttribute": null,
        "InitializationDefinition": null,
        "BaseValueScaleConstant": 1.0
      }
    }
  ],
  "ExternalAttributeEffects": [
    {
      "AttributeToModify":
        "D_Attributes.AccuracyResourcePool.AccuracyMinValue",
      "ModifierType": "MT_PreAdd",
      "BaseModifierValue": {
        "BaseValueConstant": 0.0,
        "BaseValueAttribute": null,
        "InitializationDefinition": null,
        "BaseValueScaleConstant": 1.0
      }
    },
    {
      "AttributeToModify":
        "D_Attributes.AccuracyResourcePool.AccuracyMaxValue",
      "ModifierType": "MT_PreAdd",
      "BaseModifierValue": {
        "BaseValueConstant": -2.0,
        "BaseValueAttribute": null,
        "InitializationDefinition": null,
        "BaseValueScaleConstant": 1.0
      }
    },
    {
      "AttributeToModify":
        "D_Attributes.AccuracyResourcePool.AccuracyOnIdleRegenerationRate",
      "ModifierType": "MT_PreAdd",
      "BaseModifierValue": {
        "BaseValueConstant": -2.0,
        "BaseValueAttribute": null,
        "InitializationDefinition": null,
        "BaseValueScaleConstant": 1.0
      }
    }
  ],
  "PrefixList": [ "GD_Weap_SMG.Name.Prefix_Bandit.Prefix__JuryRigged" ],
  "TitleList": [ "GD_Weap_SMG.Name.Title_Bandit.Title__Smig" ],
  "DryFireSounds": [ { "Event": null, "Cue": null, "Expressions": null } ],
  "EquipSounds": [ { "Event": null, "Cue": null, "Expressions": null } ],
  "FireTailSounds": [
    {
      "Event": "Ake_Wep_SMGs.SMG_Bandit.Ak_Play_Wep_SMG_BT_Shot_Release",
      "Cue": null,
      "Expressions": null
    },
    {
      "Event": null,
      "Cue": null,
      "Expressions": [
        {
          "AttributeOperand1":
            "D_Attributes.Weapon.WeaponCurrentBurstShotCount",
          "ComparisonOperator": "OPERATOR_EqualTo",
          "Operand2Usage": "OPERAND_PreferAttribute",
          "AttributeOperand2": null,
          "ConstantOperand2": 1.0
        }
      ]
    }
  ],
  "FireSounds": [
    {
      "Event": "Ake_Wep_SMGs.SMG_Bandit.Ak_Play_Wep_SMG_BT_Shot_Short",
      "Cue": null,
      "Expressions": null
    },
    {
      "Event": "Ake_Wep_SMGs.SMG_Bandit.Ak_Play_Wep_SMG_BT_Shot_Long",
      "Cue": null,
      "Expressions": [
        {
          "AttributeOperand1":
            "D_Attributes.Weapon.WeaponCurrentBurstShotCount",
          "ComparisonOperator": "OPERATOR_EqualTo",
          "Operand2Usage": "OPERAND_PreferAttribute",
          "AttributeOperand2": null,
          "ConstantOperand2": 1.0
        }
      ]
    }
  ],
  "ProjectileBaseValues": [
    {
      "Attribute": "D_Attributes.Projectile.ProjectileDamage",
      "BaseValue": {
        "BaseValueConstant": 0.0,
        "BaseValueAttribute": "D_Attributes.Weapon.WeaponDamage",
        "InitializationDefinition": null,
        "BaseValueScaleConstant": 1.0
      }
    },
    {
      "Attribute": "D_Attributes.Projectile.ProjectileStatusEffectDamage",
      "BaseValue": {
        "BaseValueConstant": 0.0,
        "BaseValueAttribute": "D_Attributes.Weapon.WeaponStatusEffectDamage",
        "InitializationDefinition": null,
        "BaseValueScaleConstant": 1.0
      }
    },
    {
      "Attribute":
        "D_Attributes.Projectile.ProjectileStatusEffectChanceModifier",
      "BaseValue": {
        "BaseValueConstant": 0.0,
        "BaseValueAttribute":
          "D_Attributes.Weapon.WeaponCombinedStatusEffectChanceModifier",
        "InitializationDefinition": null,
        "BaseValueScaleConstant": 1.0
      }
    }
  ],
  "AnimThresholdValues": [
    {
      "Attribute": "D_Attributes.Weapon.WeaponMaxFastReloadAnimTime",
      "BaseValue": {
        "BaseValueConstant": 3.0,
        "BaseValueAttribute": null,
        "InitializationDefinition": null,
        "BaseValueScaleConstant": 1.0
      }
    }
  ],
  "WeaponReloadAnimations": [
    {
      "Expression":
        "GD_Weap_SMG.A_Weapons.WT_SMG_Bandit:AttributeExpressionEvaluator_20",
      "AnimationName": "Reload_BanditMade_Fast",
      "CameraAnim": null,
      "AnimSet": null
    },
    {
      "Expression": null,
      "AnimationName": "Reload_BanditMade",
      "CameraAnim": null,
      "AnimSet": null
    }
  ],
  "InventoryClass": "WillowGame.WillowWeapon",
  "bAutomaticallyPickup": false,
  "bPickupInBulk": false,
  "bDisallowAIFromGrabbingPickup": false,
  "bDuplicatePickupJustAddsQuantity": false,
  "bSuppressPickupCard": false,
  "bTorque": false,
  "bNeverDisplayPickupMessage": false,
  "bShopsHaveInfiniteQuantity": false,
  "bCanCompare": true,
  "bUsesPlayerLevelRequirement": true,
  "bUIMeshRotationNeedsTransformFixup": false,
  "bIsConsumable": false,
  "bAllowInventoryDefToModifyPartWeight": false,
  "PlayerDroppability": "EPD_Droppable",
  "FormOfCurrency": "CURRENCY_Credits",
  "OnUseConstraintsMode": "EXPRMODE_And",
  "AttributeSlotEffectMode": "ATTRSLOTEFFECTMODE_Default",
  "PickupLifeSpan": 0.0,
  "PickupFlagScale": 1.0,
  "PickupFlagIcon": "fx_shared_items.Textures.ItemCards.SMG",
  "PickupFlagOffset": { "X": 0.0, "Y": 0.0, "Z": 0.0 },
  "Torque": { "X": 0.0, "Y": 0.0, "Z": 0.0 },
  "ThirdPersonMeshScale": 0.85,
  "MaterialClass": "Engine.MaterialInstanceConstant",
  "PhysicsAsset": "Weap_SMG.Physics.Phat_SMG",
  "PickupMessage": "You got %s",
  "UseFailureLevelMessage": "You must be at least level %d to use this item.",
  "UseFailureConstraintsMessage": "You cannot use this item.",
  "NoManufacturerName": "Generic",
  "BaseRarity": {
    "BaseValueConstant": 0.0,
    "BaseValueAttribute": null,
    "InitializationDefinition": null,
    "BaseValueScaleConstant": 1.0
  },
  "MonetaryValue": {
    "BaseValueConstant": 0.0,
    "BaseValueAttribute":
      "GD_Economy.WeaponCostModifiers.Att_Manufacturer_Bandit",
    "InitializationDefinition":
      "GD_Economy.PriceCalc.Init_Gun_SMG_PriceCalculator",
    "BaseValueScaleConstant": 1.0
  },
  "BaseMonetaryValueModifier": 1.0,
  "PlayerUseLevelBonus": {
    "BaseValueConstant": 0.0,
    "BaseValueAttribute": null,
    "InitializationDefinition":
      "GD_Balance_Inventory.LevelRequirement.Init_BaseGearLevelRequirementBonus",
    "BaseValueScaleConstant": 1.0
  },
  "UIMeshRotation": { "Pitch": 0, "Yaw": 0, "Roll": 0 },
  "Presentation": "GD_InventoryPresentations.Definitions.SMG",
  "CalloutDefinition":
    "GD_Weap_Sound_Definitions.Sound_Callout.CalloutDef_FindRareItem",
  "PickedUpStatID": null,
  "PurchasedStatID": null,
  "FocusRadius": 55.0,
  "FocusOffset": { "X": -0.4, "Y": -0.075, "Z": 0.0 },
  "AttributeSlotEffectSkillDuration": {
    "BaseValueConstant": 0.0,
    "BaseValueAttribute": null,
    "InitializationDefinition": null,
    "BaseValueScaleConstant": 1.0
  },
  "AttributeSlotBaseGrade": {
    "BaseValueConstant": 1.0,
    "BaseValueAttribute": null,
    "InitializationDefinition": null,
    "BaseValueScaleConstant": 1.0
  },
  "AttributeSlotMaxActivated": 19,
  "LootBeamColorOverride": { "B": 0, "G": 0, "R": 0, "A": 0 },
  "AttributeSlotEffects": [
    {
      "SlotName": "WeaponDamage",
      "bExternalSlot": false,
      "bRunEffectsAsSkill": false,
      "AttributeToModify": "D_Attributes.Weapon.WeaponDamage",
      "ConstraintAttribute": null,
      "ModifierType": "MT_Scale",
      "BaseModifierValue": {
        "BaseValueConstant": 0.0,
        "BaseValueAttribute": null,
        "InitializationDefinition": null,
        "BaseValueScaleConstant": 1.0
      },
      "PerGradeUpgrade": {
        "BaseValueConstant": 0.03,
        "BaseValueAttribute": null,
        "InitializationDefinition": null,
        "BaseValueScaleConstant": 1.0
      },
      "bIncludeInFunStats": false,
      "bIncludeAlliesAsTarget": false,
      "bEnforceMinimumGrade": false,
      "bEnforceMaximumGrade": false,
      "MinimumGrade": 0,
      "MaximumGrade": 0,
      "TargetInstanceDataName": null
    },
    {
      "SlotName": "WeaponFireRate",
      "bExternalSlot": false,
      "bRunEffectsAsSkill": false,
      "AttributeToModify": "D_Attributes.Weapon.WeaponFireInterval",
      "ConstraintAttribute": null,
      "ModifierType": "MT_Scale",
      "BaseModifierValue": {
        "BaseValueConstant": 0.0,
        "BaseValueAttribute": null,
        "InitializationDefinition": null,
        "BaseValueScaleConstant": 1.0
      },
      "PerGradeUpgrade": {
        "BaseValueConstant": -0.03,
        "BaseValueAttribute": null,
        "InitializationDefinition": null,
        "BaseValueScaleConstant": 1.0
      },
      "bIncludeInFunStats": false,
      "bIncludeAlliesAsTarget": false,
      "bEnforceMinimumGrade": false,
      "bEnforceMaximumGrade": false,
      "MinimumGrade": 0,
      "MaximumGrade": 0,
      "TargetInstanceDataName": null
    },
    {
      "SlotName": "WeaponMagSize",
      "bExternalSlot": false,
      "bRunEffectsAsSkill": false,
      "AttributeToModify": "D_Attributes.Weapon.WeaponClipSize",
      "ConstraintAttribute": null,
      "ModifierType": "MT_Scale",
      "BaseModifierValue": {
        "BaseValueConstant": 0.0,
        "BaseValueAttribute": null,
        "InitializationDefinition": null,
        "BaseValueScaleConstant": 1.0
      },
      "PerGradeUpgrade": {
        "BaseValueConstant": 0.05,
        "BaseValueAttribute": null,
        "InitializationDefinition": null,
        "BaseValueScaleConstant": 1.0
      },
      "bIncludeInFunStats": false,
      "bIncludeAlliesAsTarget": false,
      "bEnforceMinimumGrade": false,
      "bEnforceMaximumGrade": false,
      "MinimumGrade": 0,
      "MaximumGrade": 0,
      "TargetInstanceDataName": null
    },
    {
      "SlotName": "WeaponReloadSpeed",
      "bExternalSlot": false,
      "bRunEffectsAsSkill": false,
      "AttributeToModify": "D_Attributes.Weapon.WeaponReloadSpeed",
      "ConstraintAttribute": null,
      "ModifierType": "MT_Scale",
      "BaseModifierValue": {
        "BaseValueConstant": 0.0,
        "BaseValueAttribute": null,
        "InitializationDefinition": null,
        "BaseValueScaleConstant": 1.0
      },
      "PerGradeUpgrade": {
        "BaseValueConstant": -0.05,
        "BaseValueAttribute": null,
        "InitializationDefinition": null,
        "BaseValueScaleConstant": 1.0
      },
      "bIncludeInFunStats": false,
      "bIncludeAlliesAsTarget": false,
      "bEnforceMinimumGrade": false,
      "bEnforceMaximumGrade": false,
      "MinimumGrade": 0,
      "MaximumGrade": 0,
      "TargetInstanceDataName": null
    },
    {
      "SlotName": "WeaponSpread",
      "bExternalSlot": false,
      "bRunEffectsAsSkill": false,
      "AttributeToModify": "D_Attributes.Weapon.WeaponSpread",
      "ConstraintAttribute": null,
      "ModifierType": "MT_Scale",
      "BaseModifierValue": {
        "BaseValueConstant": 0.0,
        "BaseValueAttribute": null,
        "InitializationDefinition": null,
        "BaseValueScaleConstant": 1.0
      },
      "PerGradeUpgrade": {
        "BaseValueConstant": -0.05,
        "BaseValueAttribute": null,
        "InitializationDefinition": null,
        "BaseValueScaleConstant": 1.0
      },
      "bIncludeInFunStats": false,
      "bIncludeAlliesAsTarget": false,
      "bEnforceMinimumGrade": false,
      "bEnforceMaximumGrade": false,
      "MinimumGrade": 0,
      "MaximumGrade": 0,
      "TargetInstanceDataName": null
    },
    {
      "SlotName": "AccuracyMin",
      "bExternalSlot": true,
      "bRunEffectsAsSkill": false,
      "AttributeToModify":
        "D_Attributes.AccuracyResourcePool.AccuracyMinValue",
      "ConstraintAttribute": null,
      "ModifierType": "MT_Scale",
      "BaseModifierValue": {
        "BaseValueConstant": 0.0,
        "BaseValueAttribute": null,
        "InitializationDefinition": null,
        "BaseValueScaleConstant": 1.0
      },
      "PerGradeUpgrade": {
        "BaseValueConstant": -0.05,
        "BaseValueAttribute": null,
        "InitializationDefinition": null,
        "BaseValueScaleConstant": 1.0
      },
      "bIncludeInFunStats": false,
      "bIncludeAlliesAsTarget": false,
      "bEnforceMinimumGrade": false,
      "bEnforceMaximumGrade": false,
      "MinimumGrade": 0,
      "MaximumGrade": 0,
      "TargetInstanceDataName": null
    },
    {
      "SlotName": "AccuracyMax",
      "bExternalSlot": true,
      "bRunEffectsAsSkill": false,
      "AttributeToModify":
        "D_Attributes.AccuracyResourcePool.AccuracyMaxValue",
      "ConstraintAttribute": null,
      "ModifierType": "MT_Scale",
      "BaseModifierValue": {
        "BaseValueConstant": 0.0,
        "BaseValueAttribute": null,
        "InitializationDefinition": null,
        "BaseValueScaleConstant": 1.0
      },
      "PerGradeUpgrade": {
        "BaseValueConstant": -0.05,
        "BaseValueAttribute": null,
        "InitializationDefinition": null,
        "BaseValueScaleConstant": 1.0
      },
      "bIncludeInFunStats": false,
      "bIncludeAlliesAsTarget": false,
      "bEnforceMinimumGrade": false,
      "bEnforceMaximumGrade": false,
      "MinimumGrade": 0,
      "MaximumGrade": 0,
      "TargetInstanceDataName": null
    },
    {
      "SlotName": "AccuracyRegen",
      "bExternalSlot": true,
      "bRunEffectsAsSkill": false,
      "AttributeToModify":
        "D_Attributes.AccuracyResourcePool.AccuracyOnIdleRegenerationRate",
      "ConstraintAttribute": null,
      "ModifierType": "MT_Scale",
      "BaseModifierValue": {
        "BaseValueConstant": 0.0,
        "BaseValueAttribute": null,
        "InitializationDefinition": null,
        "BaseValueScaleConstant": 1.0
      },
      "PerGradeUpgrade": {
        "BaseValueConstant": 0.05,
        "BaseValueAttribute": null,
        "InitializationDefinition": null,
        "BaseValueScaleConstant": 1.0
      },
      "bIncludeInFunStats": false,
      "bIncludeAlliesAsTarget": false,
      "bEnforceMinimumGrade": false,
      "bEnforceMaximumGrade": false,
      "MinimumGrade": 0,
      "MaximumGrade": 0,
      "TargetInstanceDataName": null
    },
    {
      "SlotName": "WeaponAccuracyImpulse",
      "bExternalSlot": false,
      "bRunEffectsAsSkill": false,
      "AttributeToModify": "D_Attributes.Weapon.WeaponPerShotAccuracyImpulse",
      "ConstraintAttribute": null,
      "ModifierType": "MT_Scale",
      "BaseModifierValue": {
        "BaseValueConstant": 0.0,
        "BaseValueAttribute": null,
        "InitializationDefinition": null,
        "BaseValueScaleConstant": 1.0
      },
      "PerGradeUpgrade": {
        "BaseValueConstant": -0.05,
        "BaseValueAttribute": null,
        "InitializationDefinition": null,
        "BaseValueScaleConstant": 1.0
      },
      "bIncludeInFunStats": false,
      "bIncludeAlliesAsTarget": false,
      "bEnforceMinimumGrade": false,
      "bEnforceMaximumGrade": false,
      "MinimumGrade": 0,
      "MaximumGrade": 0,
      "TargetInstanceDataName": null
    },
    {
      "SlotName": "WeaponBurstImpulse",
      "bExternalSlot": false,
      "bRunEffectsAsSkill": false,
      "AttributeToModify":
        "D_Attributes.Weapon.WeaponBurstShotAccuracyImpulseScale",
      "ConstraintAttribute": null,
      "ModifierType": "MT_Scale",
      "BaseModifierValue": {
        "BaseValueConstant": 0.0,
        "BaseValueAttribute": null,
        "InitializationDefinition": null,
        "BaseValueScaleConstant": 1.0
      },
      "PerGradeUpgrade": {
        "BaseValueConstant": -0.05,
        "BaseValueAttribute": null,
        "InitializationDefinition": null,
        "BaseValueScaleConstant": 1.0
      },
      "bIncludeInFunStats": false,
      "bIncludeAlliesAsTarget": false,
      "bEnforceMinimumGrade": false,
      "bEnforceMaximumGrade": false,
      "MinimumGrade": 0,
      "MaximumGrade": 0,
      "TargetInstanceDataName": null
    },
    {
      "SlotName": "WeaponZoomFOV",
      "bExternalSlot": false,
      "bRunEffectsAsSkill": false,
      "AttributeToModify": "D_Attributes.Weapon.WeaponZoomEndFOV",
      "ConstraintAttribute": null,
      "ModifierType": "MT_Scale",
      "BaseModifierValue": {
        "BaseValueConstant": 0.0,
        "BaseValueAttribute": null,
        "InitializationDefinition": null,
        "BaseValueScaleConstant": 1.0
      },
      "PerGradeUpgrade": {
        "BaseValueConstant": -0.13,
        "BaseValueAttribute": null,
        "InitializationDefinition": null,
        "BaseValueScaleConstant": 1.0
      },
      "bIncludeInFunStats": false,
      "bIncludeAlliesAsTarget": false,
      "bEnforceMinimumGrade": true,
      "bEnforceMaximumGrade": false,
      "MinimumGrade": 0,
      "MaximumGrade": 0,
      "TargetInstanceDataName": null
    }
  ],
  "UIStatList": [
    {
      "bDisplayAsModifierOnly": false,
      "AttributeStyle": "ATTRSTYLE_JustNumber",
      "SupplementalAttributeStyle": "ATTRSTYLE_JustNumber",
      "StatCombinationMethod": "SCM_Multiply",
      "Attribute": "D_Attributes.Weapon.WeaponDamage",
      "ConstraintAttribute": null,
      "SupplementalAttributeExpression": {
        "AttributeOperand1": "D_Attributes.Weapon.WeaponProjectilesPerShot",
        "ComparisonOperator": "OPERATOR_GreaterThan",
        "Operand2Usage": "OPERAND_PreferAttribute",
        "AttributeOperand2": null,
        "ConstantOperand2": 1.0
      },
      "SupplementalAttributeToAppend":
        "D_Attributes.Weapon.WeaponProjectilesPerShot"
    },
    {
      "bDisplayAsModifierOnly": false,
      "AttributeStyle": "ATTRSTYLE_JustNumber",
      "SupplementalAttributeStyle": "ATTRSTYLE_JustNumber",
      "StatCombinationMethod": "SCM_Multiply",
      "Attribute": "D_Attributes.Weapon.WeaponSpread",
      "ConstraintAttribute": null,
      "SupplementalAttributeExpression": {
        "AttributeOperand1": null,
        "ComparisonOperator": "OPERATOR_EqualTo",
        "Operand2Usage": "OPERAND_PreferAttribute",
        "AttributeOperand2": null,
        "ConstantOperand2": 0.0
      },
      "SupplementalAttributeToAppend": null
    },
    {
      "bDisplayAsModifierOnly": false,
      "AttributeStyle": "ATTRSTYLE_JustNumber",
      "SupplementalAttributeStyle": "ATTRSTYLE_JustNumber",
      "StatCombinationMethod": "SCM_Multiply",
      "Attribute": "D_Attributes.Weapon.WeaponFireInterval",
      "ConstraintAttribute": null,
      "SupplementalAttributeExpression": {
        "AttributeOperand1": null,
        "ComparisonOperator": "OPERATOR_EqualTo",
        "Operand2Usage": "OPERAND_PreferAttribute",
        "AttributeOperand2": null,
        "ConstantOperand2": 0.0
      },
      "SupplementalAttributeToAppend": null
    },
    {
      "bDisplayAsModifierOnly": false,
      "AttributeStyle": "ATTRSTYLE_JustNumber",
      "SupplementalAttributeStyle": "ATTRSTYLE_JustNumber",
      "StatCombinationMethod": "SCM_Multiply",
      "Attribute": "D_Attributes.Weapon.WeaponReloadSpeed",
      "ConstraintAttribute": null,
      "SupplementalAttributeExpression": {
        "AttributeOperand1": null,
        "ComparisonOperator": "OPERATOR_EqualTo",
        "Operand2Usage": "OPERAND_PreferAttribute",
        "AttributeOperand2": null,
        "ConstantOperand2": 0.0
      },
      "SupplementalAttributeToAppend": null
    },
    {
      "bDisplayAsModifierOnly": false,
      "AttributeStyle": "ATTRSTYLE_JustNumber",
      "SupplementalAttributeStyle": "ATTRSTYLE_JustNumber",
      "StatCombinationMethod": "SCM_Multiply",
      "Attribute": "D_Attributes.Weapon.WeaponClipSize",
      "ConstraintAttribute": null,
      "SupplementalAttributeExpression": {
        "AttributeOperand1": null,
        "ComparisonOperator": "OPERATOR_EqualTo",
        "Operand2Usage": "OPERAND_PreferAttribute",
        "AttributeOperand2": null,
        "ConstantOperand2": 0.0
      },
      "SupplementalAttributeToAppend": null
    },
    {
      "bDisplayAsModifierOnly": false,
      "AttributeStyle": "ATTRSTYLE_JustNumber",
      "SupplementalAttributeStyle": "ATTRSTYLE_JustNumber",
      "StatCombinationMethod": "SCM_Multiply",
      "Attribute": "D_Attributes.Weapon.WeaponStatusEffectDamage",
      "ConstraintAttribute": null,
      "SupplementalAttributeExpression": {
        "AttributeOperand1": null,
        "ComparisonOperator": "OPERATOR_EqualTo",
        "Operand2Usage": "OPERAND_PreferAttribute",
        "AttributeOperand2": null,
        "ConstantOperand2": 0.0
      },
      "SupplementalAttributeToAppend": null
    },
    {
      "bDisplayAsModifierOnly": false,
      "AttributeStyle": "ATTRSTYLE_JustNumber",
      "SupplementalAttributeStyle": "ATTRSTYLE_JustNumber",
      "StatCombinationMethod": "SCM_Multiply",
      "Attribute":
        "D_Attributes.Weapon.WeaponCombinedStatusEffectChanceModifier",
      "ConstraintAttribute": null,
      "SupplementalAttributeExpression": {
        "AttributeOperand1": null,
        "ComparisonOperator": "OPERATOR_EqualTo",
        "Operand2Usage": "OPERAND_PreferAttribute",
        "AttributeOperand2": null,
        "ConstantOperand2": 0.0
      },
      "SupplementalAttributeToAppend": null
    }
  ],
  "PickupAndEquipSounds": [
    {
      "Event": "Ake_Obj_Pickup.Obj_Pickup_Equip.Ak_Play_Obj_Pickup_Equip_SMG",
      "Cue": null,
      "Expressions": null
    }
  ],
  "PickupSounds": [
    {
      "Event": "Ake_Obj_Pickup.Obj_Pickup.Ak_Play_Obj_Pickup_SMG",
      "Cue": null,
      "Expressions": null
    }
  ],
  "VfTableObject": "",
  "HashNext": "",
  "ObjectFlags": "",
  "HashOuterNext": "",
  "StateFrame": "",
  "Linker": null,
  "LinkerIndex": "",
  "ObjectInternalInteger": 108720,
  "NetIndex": 1408,
  "Outer": "GD_Weap_SMG.A_Weapons",
  "Name": "WT_SMG_Bandit",
  "Class": "WillowGame.WeaponTypeDefinition",
  "ObjectArchetype": "WillowGame.Default__WeaponTypeDefinition"
}