{
  "Resource": "D_Resources.MeleeSkillCooldown",
  "NetRelevancy": "NETRELEVANT_Everyone",
  "RegenerationResource": null,
  "BaseMinValue": 0.0,
  "BaseMaxValue": {
    "BaseValueConstant": 2.0,
    "BaseValueAttribute":
      "GD_Mercenary_Skills.Misc.Att_FistFullOfHurt_Cooldown",
    "InitializationDefinition": null,
    "BaseValueScaleConstant": 1.0
  },
  "StartingValue": 0.0,
  "StartWithMinValue": false,
  "StartWithMaxValue": false,
  "bUpdateCurrentValueOnExtremaChange": true,
  "bPulseBasedOnRegenRate": false,
  "bPulseWhenLow": false,
  "BaseConsumptionRate": 1.0,
  "BaseActiveRegenerationRate": 0.0,
  "BasePassiveRegenerationRate": 0.0,
  "BaseOnIdleRegenerationRate": 0.0,
  "BaseOnIdleRegenerationDelay": 0.0,
  "RecentImpulseTimer": 5.0,
  "PercBarPulseSpeed": 0.0,
  "PercPulseResourceLow": 0.15,
  "UpgradeLevelAttribute": null,
  "TotalUpgradeCount": 0,
  "MaxValueUpgrade": {
    "BaseValueConstant": 0.0,
    "BaseValueAttribute": null,
    "InitializationDefinition": null,
    "BaseValueScaleConstant": 1.0
  },
  "VfTableObject": "",
  "HashNext": "",
  "ObjectFlags": "",
  "HashOuterNext": "",
  "StateFrame": "",
  "Linker": null,
  "LinkerIndex": "",
  "ObjectInternalInteger": 151438,
  "NetIndex": 27,
  "Outer": "D_Resourcepools.PlayerPools",
  "Name": "MeleeSkillCooldownPool_Mercenary",
  "Class": "Engine.ResourcePoolDefinition",
  "ObjectArchetype": "Engine.Default__ResourcePoolDefinition"
}