{
  "Resource": "D_Resources.Health",
  "NetRelevancy": "NETRELEVANT_Everyone",
  "RegenerationResource": null,
  "BaseMinValue": 0.0,
  "BaseMaxValue": {
    "BaseValueConstant": 1.0,
    "BaseValueAttribute": null,
    "InitializationDefinition":
      "GD_BanditTechnical.HealthMultipliers.Init_EnemyVehicleHealth",
    "BaseValueScaleConstant": 0.75
  },
  "StartingValue": 0.0,
  "StartWithMinValue": false,
  "StartWithMaxValue": true,
  "bUpdateCurrentValueOnExtremaChange": true,
  "bPulseBasedOnRegenRate": false,
  "bPulseWhenLow": true,
  "BaseConsumptionRate": 0.0,
  "BaseActiveRegenerationRate": 0.0,
  "BasePassiveRegenerationRate": 0.0,
  "BaseOnIdleRegenerationRate": 0.0,
  "BaseOnIdleRegenerationDelay": 0.0,
  "RecentImpulseTimer": 0.0,
  "PercBarPulseSpeed": 0.8,
  "PercPulseResourceLow": 0.2,
  "UpgradeLevelAttribute": null,
  "TotalUpgradeCount": 0,
  "MaxValueUpgrade": {
    "BaseValueConstant": 0.0,
    "BaseValueAttribute": null,
    "InitializationDefinition": null,
    "BaseValueScaleConstant": 1.0
  },
  "VfTableObject": "",
  "HashNext": "",
  "ObjectFlags": "",
  "HashOuterNext": "",
  "StateFrame": "",
  "Linker": null,
  "LinkerIndex": "",
  "ObjectInternalInteger": 184924,
  "NetIndex": 127,
  "Outer": "GD_Iris_RocketTurret.ResourcePools",
  "Name": "HealthPool_Iris_RocketTurret",
  "Class": "Engine.ResourcePoolDefinition",
  "ObjectArchetype": "Engine.Default__ResourcePoolDefinition"
}