{
  "Resource": "D_Resources.Afterburner",
  "NetRelevancy": "NETRELEVANT_Everyone",
  "RegenerationResource": null,
  "BaseMinValue": 0.0,
  "BaseMaxValue": {
    "BaseValueConstant": 100.0,
    "BaseValueAttribute": null,
    "InitializationDefinition": null,
    "BaseValueScaleConstant": 1.0
  },
  "StartingValue": 0.0,
  "StartWithMinValue": false,
  "StartWithMaxValue": true,
  "bUpdateCurrentValueOnExtremaChange": true,
  "bPulseBasedOnRegenRate": true,
  "bPulseWhenLow": false,
  "BaseConsumptionRate": 0.0,
  "BaseActiveRegenerationRate": 0.0,
  "BasePassiveRegenerationRate": 0.0,
  "BaseOnIdleRegenerationRate": 20.0,
  "BaseOnIdleRegenerationDelay": 5.0,
  "RecentImpulseTimer": 5.0,
  "PercBarPulseSpeed": 0.1,
  "PercPulseResourceLow": 0.15,
  "UpgradeLevelAttribute": null,
  "TotalUpgradeCount": 0,
  "MaxValueUpgrade": {
    "BaseValueConstant": 0.0,
    "BaseValueAttribute": null,
    "InitializationDefinition": null,
    "BaseValueScaleConstant": 1.0
  },
  "VfTableObject": "",
  "HashNext": "",
  "ObjectFlags": "",
  "HashOuterNext": "",
  "StateFrame": "",
  "Linker": null,
  "LinkerIndex": "",
  "ObjectInternalInteger": 181464,
  "NetIndex": 338,
  "Outer": "GD_Runner_Streaming.ResourcePools",
  "Name": "AfterburnerPool_LightRunner",
  "Class": "Engine.ResourcePoolDefinition",
  "ObjectArchetype": "Engine.Default__ResourcePoolDefinition"
}