{
  "VfTable_IIConstructObject": "",
  "DefaultVehicle":
    "GD_Orchid_Hovercraft.Vehicle.Archetypes.Pawn_Hovercraft_AIOnly",
  "Champion": false,
  "DefaultExpLevel": {
    "BaseValueConstant": 0.0,
    "BaseValueAttribute": "D_Attributes.Balance.GameStage",
    "InitializationDefinition": null,
    "BaseValueScaleConstant": 1.0
  },
  "Grades": [
    {
      "GradeModifiers": {
        "CustomVehicle": null,
        "DisplayName": "Raider Skiff",
        "ExpLevel": 0,
        "OnSpawnCustomizations": null
      },
      "GameStageRequirement": { "MinGameStage": 1, "MaxGameStage": 100 },
      "MinSpawnProbabilityModifier": {
        "BaseValueConstant": 1.0,
        "BaseValueAttribute": null,
        "InitializationDefinition": null,
        "BaseValueScaleConstant": 1.0
      },
      "MaxSpawnProbabilityModifier": {
        "BaseValueConstant": 1.0,
        "BaseValueAttribute": null,
        "InitializationDefinition": null,
        "BaseValueScaleConstant": 1.0
      }
    }
  ],
  "VfTableObject": "",
  "HashNext": "",
  "ObjectFlags": "",
  "HashOuterNext": "",
  "StateFrame": "",
  "Linker": null,
  "LinkerIndex": "",
  "ObjectInternalInteger": 202069,
  "NetIndex": 7,
  "Outer": "GD_Orchid_PopulationVehicles.Hovercraft",
  "Name": "PawnBalance_RaiderSkiff",
  "Class": "WillowGame.VehicleBalanceDefinition",
  "ObjectArchetype": "WillowGame.Default__VehicleBalanceDefinition"
}