{
  "bInitiallyActive": false,
  "bSendOnly": false,
  "StationDescription": "Mines of Avarice",
  "StationSign": "Mines of Avarice",
  "InaccessibleObjective": null,
  "AccessibleObjective": null,
  "AccessibilityTime": "FTAT_Always",
  "StationLevelName": "Mines_P",
  "PreviousStation": "GD_Aster_LevelTravel.MinesToDeadForest",
  "DlcExpansion": "GD_AsterPackageDef.ExpansionDef_Aster",
  "StationLocation": { "X": 0.0, "Y": 0.0, "Z": 0.0 },
  "StationDisplayImage": null,
  "StationDisplayName": "Mines of Avarice",
  "MissionDependencies": [
    {
      "MissionDefinition": "GD_Aster_Plot_Mission03.M_Aster_PlotMission03",
      "MissionStatus": "MS_RequiredObjectivesComplete",
      "bIsObjectiveSpecific": true,
      "MissionObjective":
        "GD_Aster_Plot_Mission03.M_Aster_PlotMission03:HeadToTheDwarvenMines",
      "ObjectiveStatus": "EODS_Complete"
    }
  ],
  "VfTableObject": "",
  "HashNext": "",
  "ObjectFlags": "",
  "HashOuterNext": "",
  "StateFrame": "",
  "Linker": null,
  "LinkerIndex": "",
  "ObjectInternalInteger": 165226,
  "NetIndex": 6,
  "Outer": "Package'GD_Aster_FastTravel'",
  "Name": "Mines",
  "Class": "WillowGame.FastTravelStationDefinition",
  "ObjectArchetype": "WillowGame.Default__FastTravelStationDefinition"
}