{
  "bInitiallyActive": true,
  "bSendOnly": false,
  "StationDescription": "No Description",
  "StationSign": "Wildlife Exploitation Preserve",
  "InaccessibleObjective": null,
  "AccessibleObjective": null,
  "AccessibilityTime": "FTAT_Always",
  "StationLevelName": "PandoraPark_P",
  "PreviousStation": "GD_LevelTravelStations.Zone2.PandoraParkToGrass",
  "DlcExpansion": null,
  "StationLocation": { "X": 0.0, "Y": 0.0, "Z": 0.0 },
  "StationDisplayImage": null,
  "StationDisplayName": "Wildlife Exploitation Preserve",
  "VfTableObject": "",
  "HashNext": "",
  "ObjectFlags": "",
  "HashOuterNext": "",
  "StateFrame": "",
  "Linker": null,
  "LinkerIndex": "",
  "ObjectInternalInteger": 124627,
  "NetIndex": 25,
  "Outer": "GD_FastTravelStations.Zone2",
  "Name": "PandoraPark",
  "Class": "WillowGame.FastTravelStationDefinition",
  "ObjectArchetype": "WillowGame.Default__FastTravelStationDefinition"
}