{
  "bInitiallyActive": false,
  "bSendOnly": false,
  "StationDescription": "No Description",
  "StationSign": "Tundra Express",
  "InaccessibleObjective": null,
  "AccessibleObjective": null,
  "AccessibilityTime": "FTAT_Always",
  "StationLevelName": "tundraexpress_p",
  "PreviousStation": "GD_LevelTravelStations.Zone1.TundraExpressToIce",
  "DlcExpansion": null,
  "StationLocation": { "X": 0.0, "Y": 0.0, "Z": 0.0 },
  "StationDisplayImage": null,
  "StationDisplayName": "Tundra Express",
  "VfTableObject": "",
  "HashNext": "",
  "ObjectFlags": "",
  "HashOuterNext": "",
  "StateFrame": "",
  "Linker": null,
  "LinkerIndex": "",
  "ObjectInternalInteger": 124613,
  "NetIndex": 16,
  "Outer": "GD_FastTravelStations.Zone1",
  "Name": "TundraExpress",
  "Class": "WillowGame.FastTravelStationDefinition",
  "ObjectArchetype": "WillowGame.Default__FastTravelStationDefinition"
}