{
  "bInitiallyActive": true,
  "bSendOnly": true,
  "StationDescription": "Bloodshot Ramparts",
  "StationSign": "Bloodshot Ramparts",
  "InaccessibleObjective": null,
  "AccessibleObjective": null,
  "AccessibilityTime": "FTAT_Always",
  "StationLevelName": "damtop_p",
  "PreviousStation": "GD_LevelTravelStations.Zone1.DamTopToDam",
  "DlcExpansion": null,
  "StationLocation": { "X": 0.0, "Y": 0.0, "Z": 0.0 },
  "StationDisplayImage": null,
  "StationDisplayName": "Bloodshot Ramparts",
  "VfTableObject": "",
  "HashNext": "",
  "ObjectFlags": "",
  "HashOuterNext": "",
  "StateFrame": "",
  "Linker": null,
  "LinkerIndex": "",
  "ObjectInternalInteger": 124598,
  "NetIndex": 7,
  "Outer": "GD_FastTravelStations.Zone1",
  "Name": "DamTop",
  "Class": "WillowGame.FastTravelStationDefinition",
  "ObjectArchetype": "WillowGame.Default__FastTravelStationDefinition"
}