{
  "bInitiallyActive": false,
  "bSendOnly": true,
  "StationDescription": "No Description",
  "StationSign": "Talon of God - The Altar",
  "InaccessibleObjective": null,
  "AccessibleObjective": null,
  "AccessibilityTime": "FTAT_Always",
  "StationLevelName": "Boss_Volcano_P",
  "PreviousStation": "GD_LevelTravelStations.Zone3.VolcanoToFinalBossAscent",
  "DlcExpansion": null,
  "StationLocation": { "X": 0.0, "Y": 0.0, "Z": 0.0 },
  "StationDisplayImage": null,
  "StationDisplayName": "Talon of God",
  "VfTableObject": "",
  "HashNext": "",
  "ObjectFlags": "",
  "HashOuterNext": "",
  "StateFrame": "",
  "Linker": null,
  "LinkerIndex": "",
  "ObjectInternalInteger": 154935,
  "NetIndex": 32,
  "Outer": "GD_FastTravelStations.Zone3",
  "Name": "Volcano_Boss_B",
  "Class": "WillowGame.FastTravelStationDefinition",
  "ObjectArchetype": "WillowGame.Default__FastTravelStationDefinition"
}