{
  "bInitiallyActive": true,
  "bSendOnly": false,
  "StationDescription": "",
  "StationSign": "Badass Crater of Badassitude",
  "InaccessibleObjective": null,
  "AccessibleObjective": null,
  "AccessibilityTime": "FTAT_Always",
  "StationLevelName": "Iris_Hub_P",
  "PreviousStation": null,
  "DlcExpansion": "GD_IrisPackageDef.Expansions.ExpansionDef_Iris",
  "StationLocation": { "X": 0.0, "Y": 0.0, "Z": 0.0 },
  "StationDisplayImage": null,
  "StationDisplayName": "Badass Crater of Badassitude",
  "VfTableObject": "",
  "HashNext": "",
  "ObjectFlags": "",
  "HashOuterNext": "",
  "StateFrame": "",
  "Linker": null,
  "LinkerIndex": "",
  "ObjectInternalInteger": 170785,
  "NetIndex": 3,
  "Outer": "GD_Iris_FastTravelStations.Hub",
  "Name": "IrisCrater",
  "Class": "WillowGame.FastTravelStationDefinition",
  "ObjectArchetype": "WillowGame.Default__FastTravelStationDefinition"
}