{
  "bInitiallyActive": false,
  "bSendOnly": false,
  "StationDescription": "",
  "StationSign": "Candlerakk's Crag",
  "InaccessibleObjective": null,
  "AccessibleObjective": null,
  "AccessibilityTime": "FTAT_Always",
  "StationLevelName": "Sage_Cliffs_P",
  "PreviousStation": "GD_Sage_LevelTravel.Sage_Travel_CliffsToUnderground",
  "DlcExpansion": "GD_SagePackageDef.ExpansionDef_Sage",
  "StationLocation": { "X": 0.0, "Y": 0.0, "Z": 0.0 },
  "StationDisplayImage": null,
  "StationDisplayName": "Candlerakk's Crag",
  "MissionDependencies": [
    {
      "MissionDefinition": "GD_Sage_Ep5.M_Sage_Mission05",
      "MissionStatus": "MS_Active",
      "bIsObjectiveSpecific": true,
      "MissionObjective": "GD_Sage_Ep5.M_Sage_Mission05:GoToCliffs",
      "ObjectiveStatus": "EODS_Complete"
    }
  ],
  "VfTableObject": "",
  "HashNext": "",
  "ObjectFlags": "",
  "HashOuterNext": "",
  "StateFrame": "",
  "Linker": null,
  "LinkerIndex": "",
  "ObjectInternalInteger": 178719,
  "NetIndex": 4,
  "Outer": "Package'GD_Sage_FastTravel'",
  "Name": "SageCliffs",
  "Class": "WillowGame.FastTravelStationDefinition",
  "ObjectArchetype": "WillowGame.Default__FastTravelStationDefinition"
}