{
  "InventoryDefinition": null,
  "bOnlyConsiderEquippedItems": false,
  "VfTableObject": "",
  "HashNext": "",
  "ObjectFlags": "",
  "HashOuterNext": "",
  "StateFrame": "",
  "Linker": null,
  "LinkerIndex": "",
  "ObjectInternalInteger": 107329,
  "NetIndex": 741,
  "Outer": "D_Attributes.ClassMod.ClassMod_SlotRank_Skill2",
  "Name": "InventoryAttributeContextResolver_1",
  "Class": "WillowGame.InventoryAttributeContextResolver",
  "ObjectArchetype": "WillowGame.Default__InventoryAttributeContextResolver"
}