{
  "InventoryDefinition": null,
  "bOnlyConsiderEquippedItems": false,
  "VfTableObject": "",
  "HashNext": "",
  "ObjectFlags": "",
  "HashOuterNext": "",
  "StateFrame": "",
  "Linker": null,
  "LinkerIndex": "",
  "ObjectInternalInteger": 107902,
  "NetIndex": 281,
  "Outer": "GD_Artifacts.BalanceAttributes.Attribute_SlotGrade_Effect1",
  "Name": "InventoryAttributeContextResolver_1",
  "Class": "WillowGame.InventoryAttributeContextResolver",
  "ObjectArchetype": "WillowGame.Default__InventoryAttributeContextResolver"
}