{
  "InventoryDefinition": null,
  "bOnlyConsiderEquippedItems": false,
  "VfTableObject": "",
  "HashNext": "",
  "ObjectFlags": "",
  "HashOuterNext": "",
  "StateFrame": "",
  "Linker": null,
  "LinkerIndex": "",
  "ObjectInternalInteger": 108462,
  "NetIndex": 73,
  "Outer": "GD_StorageDeckUpgrade.MiscData.AttrSlotGrade_Shotgun",
  "Name": "InventoryAttributeContextResolver_0",
  "Class": "WillowGame.InventoryAttributeContextResolver",
  "ObjectArchetype": "WillowGame.Default__InventoryAttributeContextResolver"
}