{
  "InventoryDefinition": null,
  "bOnlyConsiderEquippedItems": false,
  "VfTableObject": "",
  "HashNext": "",
  "ObjectFlags": "",
  "HashOuterNext": "",
  "StateFrame": "",
  "Linker": null,
  "LinkerIndex": "",
  "ObjectInternalInteger": 3993,
  "NetIndex": 25817,
  "Outer": "Package'WillowGame'",
  "Name": "Default__InventoryAttributeContextResolver",
  "Class": "WillowGame.InventoryAttributeContextResolver",
  "ObjectArchetype": "Engine.Default__AttributeContextResolver"
}