{
  "Expression": {
    "AttributeOperand1": "GD_Attributes_AI.Health.Attribute_Health_Injured",
    "ComparisonOperator": "OPERATOR_EqualTo",
    "Operand2Usage": "OPERAND_PreferAttribute",
    "AttributeOperand2": null,
    "ConstantOperand2": 1.0
  },
  "VfTableObject": "",
  "HashNext": "",
  "ObjectFlags": "",
  "HashOuterNext": "",
  "StateFrame": "",
  "Linker": null,
  "LinkerIndex": "",
  "ObjectInternalInteger": 217486,
  "NetIndex": 56,
  "Outer":
    "GD_Allium_PsychoKitchen.Character.BodyClass_Allium_PsychoKitchen:ExpressionTree_137",
  "Name": "AttributeExpressionEvaluator_163",
  "Class": "GearboxFramework.AttributeExpressionEvaluator",
  "ObjectArchetype": "GearboxFramework.Default__AttributeExpressionEvaluator"
}