{
  "Expression": {
    "AttributeOperand1": "D_Attributes.Currency.SeraphCrystalsOnHand",
    "ComparisonOperator": "OPERATOR_LessThanOrEqual",
    "Operand2Usage": "OPERAND_PreferAttribute",
    "AttributeOperand2": null,
    "ConstantOperand2": 0.0
  },
  "VfTableObject": "",
  "HashNext": "",
  "ObjectFlags": "",
  "HashOuterNext": "",
  "StateFrame": "",
  "Linker": null,
  "LinkerIndex": "",
  "ObjectInternalInteger": 238557,
  "NetIndex": 1,
  "Outer":
    "GD_Aster_SeraphCrystalVendor.VendingMachine.VendingMachine_SeraphCrystal:BehaviorProviderDefinition_0.Behavior_Conditional_12",
  "Name": "AttributeExpressionEvaluator_20",
  "Class": "GearboxFramework.AttributeExpressionEvaluator",
  "ObjectArchetype": "GearboxFramework.Default__AttributeExpressionEvaluator"
}