{
  "Expression": {
    "AttributeOperand1":
      "D_Attributes.WeaponDamageType.WeaponDamage_Is_Shock",
    "ComparisonOperator": "OPERATOR_EqualTo",
    "Operand2Usage": "OPERAND_PreferAttribute",
    "AttributeOperand2": null,
    "ConstantOperand2": 1.0
  },
  "VfTableObject": "",
  "HashNext": "",
  "ObjectFlags": "",
  "HashOuterNext": "",
  "StateFrame": "",
  "Linker": null,
  "LinkerIndex": "",
  "ObjectInternalInteger": 163175,
  "NetIndex": 2,
  "Outer": "GD_Aster_RaidWeapons.Effects.SG_Omen_Tracers",
  "Name": "AttributeExpressionEvaluator_79",
  "Class": "GearboxFramework.AttributeExpressionEvaluator",
  "ObjectArchetype": "GearboxFramework.Default__AttributeExpressionEvaluator"
}