{
  "Expression": {
    "AttributeOperand1": "GD_Attributes_AI.Health.Attribute_Health_Injured",
    "ComparisonOperator": "OPERATOR_EqualTo",
    "Operand2Usage": "OPERAND_PreferAttribute",
    "AttributeOperand2": null,
    "ConstantOperand2": 1.0
  },
  "VfTableObject": "",
  "HashNext": "",
  "ObjectFlags": "",
  "HashOuterNext": "",
  "StateFrame": "",
  "Linker": null,
  "LinkerIndex": "",
  "ObjectInternalInteger": 223701,
  "NetIndex": 4,
  "Outer":
    "GD_Allium_Badass_SnowMarauder.Character.BodyClass_Allium_Badass_SnowMarauder:ExpressionTree_94",
  "Name": "AttributeExpressionEvaluator_105",
  "Class": "GearboxFramework.AttributeExpressionEvaluator",
  "ObjectArchetype": "GearboxFramework.Default__AttributeExpressionEvaluator"
}