{
  "Expression": {
    "AttributeOperand1": "GD_Attributes_AI.Spawn.Attribute_Spawn_ChildNumber",
    "ComparisonOperator": "OPERATOR_LessThan",
    "Operand2Usage": "OPERAND_PreferAttribute",
    "AttributeOperand2": null,
    "ConstantOperand2": 4.0
  },
  "VfTableObject": "",
  "HashNext": "",
  "ObjectFlags": "",
  "HashOuterNext": "",
  "StateFrame": "",
  "Linker": null,
  "LinkerIndex": "",
  "ObjectInternalInteger": 200859,
  "NetIndex": 71,
  "Outer":
    "GD_DragonBridgeBoss.Flags.Flag_BridgeDragon_CanSpawnAdds:ExpressionTree_5",
  "Name": "AttributeExpressionEvaluator_45",
  "Class": "GearboxFramework.AttributeExpressionEvaluator",
  "ObjectArchetype": "GearboxFramework.Default__AttributeExpressionEvaluator"
}