{
  "Expression": {
    "AttributeOperand1":
      "GD_Attributes_AI.Target.Attribute_Target_Distance2D",
    "ComparisonOperator": "OPERATOR_LessThanOrEqual",
    "Operand2Usage": "OPERAND_PreferAttribute",
    "AttributeOperand2": null,
    "ConstantOperand2": 512.0
  },
  "VfTableObject": "",
  "HashNext": "",
  "ObjectFlags": "",
  "HashOuterNext": "",
  "StateFrame": "",
  "Linker": null,
  "LinkerIndex": "",
  "ObjectInternalInteger": 204056,
  "NetIndex": 116,
  "Outer": "GD_EngineerMale.Character.AIDef_EngineerMale",
  "Name": "AttributeExpressionEvaluator_23",
  "Class": "GearboxFramework.AttributeExpressionEvaluator",
  "ObjectArchetype": "GearboxFramework.Default__AttributeExpressionEvaluator"
}