{
  "Expression": {
    "AttributeOperand1": "D_Attributes.Projectile.ProjectileDamageRadius",
    "ComparisonOperator": "OPERATOR_GreaterThanOrEqual",
    "Operand2Usage": "OPERAND_PreferAttribute",
    "AttributeOperand2": null,
    "ConstantOperand2": 650.0
  },
  "VfTableObject": "",
  "HashNext": "",
  "ObjectFlags": "",
  "HashOuterNext": "",
  "StateFrame": "",
  "Linker": null,
  "LinkerIndex": "",
  "ObjectInternalInteger": 108490,
  "NetIndex": 21,
  "Outer":
    "GD_GrenadeMods.Projectiles.Grenade_AreaEffectChild:BehaviorProviderDefinition_1.Behavior_Conditional_45",
  "Name": "AttributeExpressionEvaluator_20",
  "Class": "GearboxFramework.AttributeExpressionEvaluator",
  "ObjectArchetype": "GearboxFramework.Default__AttributeExpressionEvaluator"
}