{
  "Expression": {
    "AttributeOperand1": "D_Attributes.GrenadeMod.GrenadeModIsSlag",
    "ComparisonOperator": "OPERATOR_EqualTo",
    "Operand2Usage": "OPERAND_PreferAttribute",
    "AttributeOperand2": null,
    "ConstantOperand2": 1.0
  },
  "VfTableObject": "",
  "HashNext": "",
  "ObjectFlags": "",
  "HashOuterNext": "",
  "StateFrame": "",
  "Linker": null,
  "LinkerIndex": "",
  "ObjectInternalInteger": 108501,
  "NetIndex": 37,
  "Outer":
    "GD_GrenadeMods.Projectiles.Grenade_Homing:BehaviorProviderDefinition_1.Behavior_Conditional_147",
  "Name": "AttributeExpressionEvaluator_24",
  "Class": "GearboxFramework.AttributeExpressionEvaluator",
  "ObjectArchetype": "GearboxFramework.Default__AttributeExpressionEvaluator"
}