{
  "Expression": {
    "AttributeOperand1":
      "GD_Attributes_AI.Target.Attribute_Target_Distance2D",
    "ComparisonOperator": "OPERATOR_LessThanOrEqual",
    "Operand2Usage": "OPERAND_PreferAttribute",
    "AttributeOperand2": null,
    "ConstantOperand2": 1500.0
  },
  "VfTableObject": "",
  "HashNext": "",
  "ObjectFlags": "",
  "HashOuterNext": "",
  "StateFrame": "",
  "Linker": null,
  "LinkerIndex": "",
  "ObjectInternalInteger": 233674,
  "NetIndex": 178,
  "Outer":
    "GD_Iris_Pyro_Pete.Character.AIDef_Iris_Pyro_Pete:CompoundExpressionEvaluator_108",
  "Name": "AttributeExpressionEvaluator_311",
  "Class": "GearboxFramework.AttributeExpressionEvaluator",
  "ObjectArchetype": "GearboxFramework.Default__AttributeExpressionEvaluator"
}