{
  "Expression": {
    "AttributeOperand1":
      "GD_Attributes_AI.Target.Attribute_Target_Distance2D",
    "ComparisonOperator": "OPERATOR_GreaterThan",
    "Operand2Usage": "OPERAND_PreferAttribute",
    "AttributeOperand2": null,
    "ConstantOperand2": 2560.0
  },
  "VfTableObject": "",
  "HashNext": "",
  "ObjectFlags": "",
  "HashOuterNext": "",
  "StateFrame": "",
  "Linker": null,
  "LinkerIndex": "",
  "ObjectInternalInteger": 233678,
  "NetIndex": 175,
  "Outer": "GD_Iris_Pyro_Pete.Character.AIDef_Iris_Pyro_Pete",
  "Name": "AttributeExpressionEvaluator_396",
  "Class": "GearboxFramework.AttributeExpressionEvaluator",
  "ObjectArchetype": "GearboxFramework.Default__AttributeExpressionEvaluator"
}