{
  "Expression": {
    "AttributeOperand1": "D_Attributes.Movement.PawnSpeed",
    "ComparisonOperator": "OPERATOR_GreaterThan",
    "Operand2Usage": "OPERAND_PreferAttribute",
    "AttributeOperand2": null,
    "ConstantOperand2": 400.0
  },
  "VfTableObject": "",
  "HashNext": "",
  "ObjectFlags": "",
  "HashOuterNext": "",
  "StateFrame": "",
  "Linker": null,
  "LinkerIndex": "",
  "ObjectInternalInteger": 212626,
  "NetIndex": 220,
  "Outer":
    "GD_Iris_Bike.Character.CharClass_Iris_Bike:BehaviorProviderDefinition_37.Behavior_Conditional_981",
  "Name": "AttributeExpressionEvaluator_28",
  "Class": "GearboxFramework.AttributeExpressionEvaluator",
  "ObjectArchetype": "GearboxFramework.Default__AttributeExpressionEvaluator"
}