{
  "Expression": {
    "AttributeOperand1":
      "GD_Attributes_AI.Target.Attribute_Target_Distance2D",
    "ComparisonOperator": "OPERATOR_GreaterThan",
    "Operand2Usage": "OPERAND_PreferAttribute",
    "AttributeOperand2": null,
    "ConstantOperand2": 300.0
  },
  "VfTableObject": "",
  "HashNext": "",
  "ObjectFlags": "",
  "HashOuterNext": "",
  "StateFrame": "",
  "Linker": null,
  "LinkerIndex": "",
  "ObjectInternalInteger": 218111,
  "NetIndex": 477,
  "Outer": "GD_Iris_Raid_PyroPete.Character.AIDef_Iris_Raid_PyroPete",
  "Name": "AttributeExpressionEvaluator_7",
  "Class": "GearboxFramework.AttributeExpressionEvaluator",
  "ObjectArchetype": "GearboxFramework.Default__AttributeExpressionEvaluator"
}