{
  "Expression": {
    "AttributeOperand1": "D_Attributes.Movement.PawnSpeed",
    "ComparisonOperator": "OPERATOR_LessThan",
    "Operand2Usage": "OPERAND_PreferAttribute",
    "AttributeOperand2": null,
    "ConstantOperand2": 50.0
  },
  "VfTableObject": "",
  "HashNext": "",
  "ObjectFlags": "",
  "HashOuterNext": "",
  "StateFrame": "",
  "Linker": null,
  "LinkerIndex": "",
  "ObjectInternalInteger": 225818,
  "NetIndex": 163,
  "Outer":
    "GD_Iris_MotorMama.Character.CharClass_Iris_MotorMamaBike:BehaviorProviderDefinition_37.Behavior_Conditional_4",
  "Name": "AttributeExpressionEvaluator_0",
  "Class": "GearboxFramework.AttributeExpressionEvaluator",
  "ObjectArchetype": "GearboxFramework.Default__AttributeExpressionEvaluator"
}