{
  "Expression": {
    "AttributeOperand1": "D_Attributes.Balance.PlayThroughCount",
    "ComparisonOperator": "OPERATOR_GreaterThan",
    "Operand2Usage": "OPERAND_PreferAttribute",
    "AttributeOperand2": null,
    "ConstantOperand2": 1.0
  },
  "VfTableObject": "",
  "HashNext": "",
  "ObjectFlags": "",
  "HashOuterNext": "",
  "StateFrame": "",
  "Linker": null,
  "LinkerIndex": "",
  "ObjectInternalInteger": 198023,
  "NetIndex": 286,
  "Outer": "GD_JackWarlock.Character.AIDef_JackWarlock",
  "Name": "AttributeExpressionEvaluator_247",
  "Class": "GearboxFramework.AttributeExpressionEvaluator",
  "ObjectArchetype": "GearboxFramework.Default__AttributeExpressionEvaluator"
}