{
  "Expression": {
    "AttributeOperand1": "GD_Attributes_AI.Spawn.Attribute_Spawn_ChildNumber",
    "ComparisonOperator": "OPERATOR_LessThan",
    "Operand2Usage": "OPERAND_PreferAttribute",
    "AttributeOperand2": null,
    "ConstantOperand2": 1.0
  },
  "VfTableObject": "",
  "HashNext": "",
  "ObjectFlags": "",
  "HashOuterNext": "",
  "StateFrame": "",
  "Linker": null,
  "LinkerIndex": "",
  "ObjectInternalInteger": 198017,
  "NetIndex": 292,
  "Outer": "GD_JackWarlock.Flags.Flag_CanJackSpawnSkeletons:ExpressionTree_5",
  "Name": "AttributeExpressionEvaluator_347",
  "Class": "GearboxFramework.AttributeExpressionEvaluator",
  "ObjectArchetype": "GearboxFramework.Default__AttributeExpressionEvaluator"
}