{
  "Expression": {
    "AttributeOperand1": "D_Attributes.WeaponManufacturer.Weapon_Is_Tediore",
    "ComparisonOperator": "OPERATOR_EqualTo",
    "Operand2Usage": "OPERAND_PreferAttribute",
    "AttributeOperand2": null,
    "ConstantOperand2": 1.0
  },
  "VfTableObject": "",
  "HashNext": "",
  "ObjectFlags": "",
  "HashOuterNext": "",
  "StateFrame": "",
  "Linker": null,
  "LinkerIndex": "",
  "ObjectInternalInteger": 221193,
  "NetIndex": 84,
  "Outer":
    "GD_Lilac_Psycho_Streaming.WeaponHolds.WeaponHold_LilacPlayerClass_Pistol",
  "Name": "AttributeExpressionEvaluator_28",
  "Class": "GearboxFramework.AttributeExpressionEvaluator",
  "ObjectArchetype": "GearboxFramework.Default__AttributeExpressionEvaluator"
}