{
  "Expression": {
    "AttributeOperand1": "D_Attributes.GameplayAttributes.FallDuration",
    "ComparisonOperator": "OPERATOR_LessThan",
    "Operand2Usage": "OPERAND_PreferAttribute",
    "AttributeOperand2": null,
    "ConstantOperand2": 0.3
  },
  "VfTableObject": "",
  "HashNext": "",
  "ObjectFlags": "",
  "HashOuterNext": "",
  "StateFrame": "",
  "Linker": null,
  "LinkerIndex": "",
  "ObjectInternalInteger": 221141,
  "NetIndex": 6,
  "Outer":
    "GD_Lilac_SkillsBase.ActionSkill.Skill_SprintDuringAction:ExpressionTree_3",
  "Name": "AttributeExpressionEvaluator_23",
  "Class": "GearboxFramework.AttributeExpressionEvaluator",
  "ObjectArchetype": "GearboxFramework.Default__AttributeExpressionEvaluator"
}