{
  "Expression": {
    "AttributeOperand1": "D_Attributes.Weapon.UseWeaponMelee",
    "ComparisonOperator": "OPERATOR_EqualTo",
    "Operand2Usage": "OPERAND_PreferAttribute",
    "AttributeOperand2": null,
    "ConstantOperand2": 1.0
  },
  "VfTableObject": "",
  "HashNext": "",
  "ObjectFlags": "",
  "HashOuterNext": "",
  "StateFrame": "",
  "Linker": null,
  "LinkerIndex": "",
  "ObjectInternalInteger": 221199,
  "NetIndex": 81,
  "Outer":
    "GD_Lilac_Psycho_Streaming.WeaponHolds.WeaponHold_LilacPlayerClass_Badass",
  "Name": "AttributeExpressionEvaluator_0",
  "Class": "GearboxFramework.AttributeExpressionEvaluator",
  "ObjectArchetype": "GearboxFramework.Default__AttributeExpressionEvaluator"
}