{
  "Expression": {
    "AttributeOperand1": "D_Attributes.WeaponManufacturer.Weapon_Is_Torgue",
    "ComparisonOperator": "OPERATOR_EqualTo",
    "Operand2Usage": "OPERAND_PreferAttribute",
    "AttributeOperand2": null,
    "ConstantOperand2": 1.0
  },
  "VfTableObject": "",
  "HashNext": "",
  "ObjectFlags": "",
  "HashOuterNext": "",
  "StateFrame": "",
  "Linker": null,
  "LinkerIndex": "",
  "ObjectInternalInteger": 217294,
  "NetIndex": 190,
  "Outer":
    "GD_Mercenary_Streaming.WeaponHolds1st.WeaponHold_Merc_Pistol:ExpressionTree_1",
  "Name": "AttributeExpressionEvaluator_22",
  "Class": "GearboxFramework.AttributeExpressionEvaluator",
  "ObjectArchetype": "GearboxFramework.Default__AttributeExpressionEvaluator"
}