{
  "Expression": {
    "AttributeOperand1": "D_Attributes.Weapon.OffHandWeapon",
    "ComparisonOperator": "OPERATOR_EqualTo",
    "Operand2Usage": "OPERAND_PreferAttribute",
    "AttributeOperand2": null,
    "ConstantOperand2": 1.0
  },
  "VfTableObject": "",
  "HashNext": "",
  "ObjectFlags": "",
  "HashOuterNext": "",
  "StateFrame": "",
  "Linker": null,
  "LinkerIndex": "",
  "ObjectInternalInteger": 217267,
  "NetIndex": 169,
  "Outer": "GD_Mercenary_Streaming.WeaponHolds.WeaponHold_Merc_SMG",
  "Name": "AttributeExpressionEvaluator_21",
  "Class": "GearboxFramework.AttributeExpressionEvaluator",
  "ObjectArchetype": "GearboxFramework.Default__AttributeExpressionEvaluator"
}