{
  "Expression": {
    "AttributeOperand1": "D_Attributes.Weapon.OffHandWeapon",
    "ComparisonOperator": "OPERATOR_EqualTo",
    "Operand2Usage": "OPERAND_PreferAttribute",
    "AttributeOperand2": null,
    "ConstantOperand2": 1.0
  },
  "VfTableObject": "",
  "HashNext": "",
  "ObjectFlags": "",
  "HashOuterNext": "",
  "StateFrame": "",
  "Linker": null,
  "LinkerIndex": "",
  "ObjectInternalInteger": 217239,
  "NetIndex": 150,
  "Outer":
    "GD_Mercenary_Streaming.WeaponHolds.WeaponHold_Merc_Default:CompoundExpressionEvaluator_0",
  "Name": "AttributeExpressionEvaluator_26",
  "Class": "GearboxFramework.AttributeExpressionEvaluator",
  "ObjectArchetype": "GearboxFramework.Default__AttributeExpressionEvaluator"
}