{
  "Expression": {
    "AttributeOperand1": "GD_SkagShared.Skills.Att_PlayerIsSlowed",
    "ComparisonOperator": "OPERATOR_LessThan",
    "Operand2Usage": "OPERAND_PreferAttribute",
    "AttributeOperand2": null,
    "ConstantOperand2": 1.0
  },
  "VfTableObject": "",
  "HashNext": "",
  "ObjectFlags": "",
  "HashOuterNext": "",
  "StateFrame": "",
  "Linker": null,
  "LinkerIndex": "",
  "ObjectInternalInteger": 216521,
  "NetIndex": 10,
  "Outer": "GD_Nast_Native_WithcDoctorShared.Skills.Skill_Slow",
  "Name": "AttributeExpressionEvaluator_89",
  "Class": "GearboxFramework.AttributeExpressionEvaluator",
  "ObjectArchetype": "GearboxFramework.Default__AttributeExpressionEvaluator"
}