{
  "Expression": {
    "AttributeOperand1": "GD_Attributes_AI.Health.Attribute_Health_Injured",
    "ComparisonOperator": "OPERATOR_EqualTo",
    "Operand2Usage": "OPERAND_PreferAttribute",
    "AttributeOperand2": null,
    "ConstantOperand2": 1.0
  },
  "VfTableObject": "",
  "HashNext": "",
  "ObjectFlags": "",
  "HashOuterNext": "",
  "StateFrame": "",
  "Linker": null,
  "LinkerIndex": "",
  "ObjectInternalInteger": 222804,
  "NetIndex": 99,
  "Outer":
    "GD_Orchid_PirateMarauder.Character.BodyClass_Orchid_PirateMarauder:ExpressionTree_140",
  "Name": "AttributeExpressionEvaluator_166",
  "Class": "GearboxFramework.AttributeExpressionEvaluator",
  "ObjectArchetype": "GearboxFramework.Default__AttributeExpressionEvaluator"
}