{
  "Expression": {
    "AttributeOperand1": "GD_Attributes_AI.Health.Attribute_Health_Injured",
    "ComparisonOperator": "OPERATOR_EqualTo",
    "Operand2Usage": "OPERAND_PreferAttribute",
    "AttributeOperand2": null,
    "ConstantOperand2": 1.0
  },
  "VfTableObject": "",
  "HashNext": "",
  "ObjectFlags": "",
  "HashOuterNext": "",
  "StateFrame": "",
  "Linker": null,
  "LinkerIndex": "",
  "ObjectInternalInteger": 222857,
  "NetIndex": 77,
  "Outer":
    "GD_Orchid_Deserter2.Character.BodyClass_Orchid_Deserter_Deckhand:ExpressionTree_0",
  "Name": "AttributeExpressionEvaluator_20",
  "Class": "GearboxFramework.AttributeExpressionEvaluator",
  "ObjectArchetype": "GearboxFramework.Default__AttributeExpressionEvaluator"
}