{
  "Expression": {
    "AttributeOperand1": "D_Attributes.AITarget.DotToTarget",
    "ComparisonOperator": "OPERATOR_GreaterThan",
    "Operand2Usage": "OPERAND_PreferAttribute",
    "AttributeOperand2": null,
    "ConstantOperand2": 0.35
  },
  "VfTableObject": "",
  "HashNext": "",
  "ObjectFlags": "",
  "HashOuterNext": "",
  "StateFrame": "",
  "Linker": null,
  "LinkerIndex": "",
  "ObjectInternalInteger": 222863,
  "NetIndex": 126,
  "Outer":
    "GD_Orchid_CrystaliskAqua.Character.AIDef_Orchid_CrystaliskAqua:ExpressionTree_140",
  "Name": "AttributeExpressionEvaluator_23",
  "Class": "GearboxFramework.AttributeExpressionEvaluator",
  "ObjectArchetype": "GearboxFramework.Default__AttributeExpressionEvaluator"
}