{
  "Expression": {
    "AttributeOperand1":
      "D_Attributes.ShieldResourcePool.ShieldCurrentPercentOfMaxValue",
    "ComparisonOperator": "OPERATOR_LessThan",
    "Operand2Usage": "OPERAND_PreferAttribute",
    "AttributeOperand2": null,
    "ConstantOperand2": 0.99
  },
  "VfTableObject": "",
  "HashNext": "",
  "ObjectFlags": "",
  "HashOuterNext": "",
  "StateFrame": "",
  "Linker": null,
  "LinkerIndex": "",
  "ObjectInternalInteger": 204211,
  "NetIndex": 22,
  "Outer":
    "GD_ProbeShared.Flags.Flag_ProbeShared_CanTargetFriendly_Shield:ExpressionTree_0",
  "Name": "AttributeExpressionEvaluator_22",
  "Class": "GearboxFramework.AttributeExpressionEvaluator",
  "ObjectArchetype": "GearboxFramework.Default__AttributeExpressionEvaluator"
}