{
  "Expression": {
    "AttributeOperand1": "D_Attributes.WeaponManufacturer.Weapon_Is_Dahl",
    "ComparisonOperator": "OPERATOR_EqualTo",
    "Operand2Usage": "OPERAND_PreferAttribute",
    "AttributeOperand2": null,
    "ConstantOperand2": 1.0
  },
  "VfTableObject": "",
  "HashNext": "",
  "ObjectFlags": "",
  "HashOuterNext": "",
  "StateFrame": "",
  "Linker": null,
  "LinkerIndex": "",
  "ObjectInternalInteger": 217328,
  "NetIndex": 100,
  "Outer": "GD_PlayerShared.WeaponHolds1st.WeaponHold_Player_Default",
  "Name": "AttributeExpressionEvaluator_37",
  "Class": "GearboxFramework.AttributeExpressionEvaluator",
  "ObjectArchetype": "GearboxFramework.Default__AttributeExpressionEvaluator"
}