{
  "Expression": {
    "AttributeOperand1": "D_Attributes.WeaponManufacturer.Weapon_Is_Maliwan",
    "ComparisonOperator": "OPERATOR_EqualTo",
    "Operand2Usage": "OPERAND_PreferAttribute",
    "AttributeOperand2": null,
    "ConstantOperand2": 1.0
  },
  "VfTableObject": "",
  "HashNext": "",
  "ObjectFlags": "",
  "HashOuterNext": "",
  "StateFrame": "",
  "Linker": null,
  "LinkerIndex": "",
  "ObjectInternalInteger": 217347,
  "NetIndex": 115,
  "Outer":
    "GD_PlayerShared.WeaponHolds1st.WeaponHold_Player_Pistol:ExpressionTree_3",
  "Name": "AttributeExpressionEvaluator_20",
  "Class": "GearboxFramework.AttributeExpressionEvaluator",
  "ObjectArchetype": "GearboxFramework.Default__AttributeExpressionEvaluator"
}