{
  "Expression": {
    "AttributeOperand1": "GD_Attributes_AI.Target.Attribute_Target_DotTo",
    "ComparisonOperator": "OPERATOR_GreaterThan",
    "Operand2Usage": "OPERAND_PreferAttribute",
    "AttributeOperand2": null,
    "ConstantOperand2": 0.0
  },
  "VfTableObject": "",
  "HashNext": "",
  "ObjectFlags": "",
  "HashOuterNext": "",
  "StateFrame": "",
  "Linker": null,
  "LinkerIndex": "",
  "ObjectInternalInteger": 201560,
  "NetIndex": 63,
  "Outer":
    "GD_PrimalBeast_BedrockBadass.Character.AIDef_PrimalBeast_BedrockBadass",
  "Name": "AttributeExpressionEvaluator_35",
  "Class": "GearboxFramework.AttributeExpressionEvaluator",
  "ObjectArchetype": "GearboxFramework.Default__AttributeExpressionEvaluator"
}