{
  "Expression": {
    "AttributeOperand1": "D_Attributes.Weapon.WeaponReloadSpeed",
    "ComparisonOperator": "OPERATOR_LessThanOrEqual",
    "Operand2Usage": "OPERAND_PreferAttribute",
    "AttributeOperand2": "D_Attributes.Weapon.WeaponMaxReloadAnimTime",
    "ConstantOperand2": 0.0
  },
  "VfTableObject": "",
  "HashNext": "",
  "ObjectFlags": "",
  "HashOuterNext": "",
  "StateFrame": "",
  "Linker": null,
  "LinkerIndex": "",
  "ObjectInternalInteger": 217364,
  "NetIndex": 126,
  "Outer": "GD_PlayerShared.WeaponHolds1st.WeaponHold_Player_SMG",
  "Name": "AttributeExpressionEvaluator_21",
  "Class": "GearboxFramework.AttributeExpressionEvaluator",
  "ObjectArchetype": "GearboxFramework.Default__AttributeExpressionEvaluator"
}