{
  "Expression": {
    "AttributeOperand1":
      "GD_ProbeShared.AIParameters.Attribute_NumProbesHealing",
    "ComparisonOperator": "OPERATOR_EqualTo",
    "Operand2Usage": "OPERAND_PreferAttribute",
    "AttributeOperand2": null,
    "ConstantOperand2": 1.0
  },
  "VfTableObject": "",
  "HashNext": "",
  "ObjectFlags": "",
  "HashOuterNext": "",
  "StateFrame": "",
  "Linker": null,
  "LinkerIndex": "",
  "ObjectInternalInteger": 225616,
  "NetIndex": 65,
  "Outer":
    "GD_Probe_Digi.Character.AIDef_ProbeRepair_Digi:AIBehaviorProviderDefinition_0.Behavior_Conditional_217",
  "Name": "AttributeExpressionEvaluator_20",
  "Class": "GearboxFramework.AttributeExpressionEvaluator",
  "ObjectArchetype": "GearboxFramework.Default__AttributeExpressionEvaluator"
}