{
  "Expression": {
    "AttributeOperand1": "D_Attributes.HealthResourcePool.HealthCurrentValue",
    "ComparisonOperator": "OPERATOR_LessThanOrEqual",
    "Operand2Usage": "OPERAND_PreferAttribute",
    "AttributeOperand2": null,
    "ConstantOperand2": 0.0
  },
  "VfTableObject": "",
  "HashNext": "",
  "ObjectFlags": "",
  "HashOuterNext": "",
  "StateFrame": "",
  "Linker": null,
  "LinkerIndex": "",
  "ObjectInternalInteger": 219112,
  "NetIndex": 90,
  "Outer":
    "GD_PumpkinMinion.Character.AIDef_PumpkinMinion:AIBehaviorProviderDefinition_1.Behavior_Conditional_33",
  "Name": "AttributeExpressionEvaluator_21",
  "Class": "GearboxFramework.AttributeExpressionEvaluator",
  "ObjectArchetype": "GearboxFramework.Default__AttributeExpressionEvaluator"
}