{
  "Expression": {
    "AttributeOperand1": "D_Attributes.Weapon.WeaponBodyVariation",
    "ComparisonOperator": "OPERATOR_EqualTo",
    "Operand2Usage": "OPERAND_PreferAttribute",
    "AttributeOperand2":
      "D_Attributes.WeaponConstants.Const_WeaponPartVariation_Default",
    "ConstantOperand2": 0.0
  },
  "VfTableObject": "",
  "HashNext": "",
  "ObjectFlags": "",
  "HashOuterNext": "",
  "StateFrame": "",
  "Linker": null,
  "LinkerIndex": "",
  "ObjectInternalInteger": 217375,
  "NetIndex": 133,
  "Outer":
    "GD_PlayerShared.WeaponHolds1st.WeaponHold_Player_SniperRifle:ExpressionTree_1",
  "Name": "AttributeExpressionEvaluator_23",
  "Class": "GearboxFramework.AttributeExpressionEvaluator",
  "ObjectArchetype": "GearboxFramework.Default__AttributeExpressionEvaluator"
}