{
  "Expression": {
    "AttributeOperand1": "D_Attributes.Balance.PlayThroughCount",
    "ComparisonOperator": "OPERATOR_GreaterThanOrEqual",
    "Operand2Usage": "OPERAND_PreferAttribute",
    "AttributeOperand2": null,
    "ConstantOperand2": 2.0
  },
  "VfTableObject": "",
  "HashNext": "",
  "ObjectFlags": "",
  "HashOuterNext": "",
  "StateFrame": "",
  "Linker": null,
  "LinkerIndex": "",
  "ObjectInternalInteger": 224892,
  "NetIndex": 120,
  "Outer":
    "GD_RakkMan.Character.AIDef_RakkMan:AIBehaviorProviderDefinition_1.Behavior_Conditional_1",
  "Name": "AttributeExpressionEvaluator_153",
  "Class": "GearboxFramework.AttributeExpressionEvaluator",
  "ObjectArchetype": "GearboxFramework.Default__AttributeExpressionEvaluator"
}