{
  "Expression": {
    "AttributeOperand1": "D_Attributes.AITarget.DotToTarget",
    "ComparisonOperator": "OPERATOR_GreaterThan",
    "Operand2Usage": "OPERAND_PreferAttribute",
    "AttributeOperand2": null,
    "ConstantOperand2": 0.35
  },
  "VfTableObject": "",
  "HashNext": "",
  "ObjectFlags": "",
  "HashOuterNext": "",
  "StateFrame": "",
  "Linker": null,
  "LinkerIndex": "",
  "ObjectInternalInteger": 197853,
  "NetIndex": 90,
  "Outer":
    "GD_Sage_SM_BigFeetData.Creature.Character.AIDef_Sage_BigFeet_Creature:ExpressionTree_1",
  "Name": "AttributeExpressionEvaluator_23",
  "Class": "GearboxFramework.AttributeExpressionEvaluator",
  "ObjectArchetype": "GearboxFramework.Default__AttributeExpressionEvaluator"
}