{
  "Expression": {
    "AttributeOperand1":
      "D_Attributes.HealthResourcePool.HealthCurrentPercentOfMaxValue",
    "ComparisonOperator": "OPERATOR_LessThanOrEqual",
    "Operand2Usage": "OPERAND_PreferAttribute",
    "AttributeOperand2": null,
    "ConstantOperand2": 0.75
  },
  "VfTableObject": "",
  "HashNext": "",
  "ObjectFlags": "",
  "HashOuterNext": "",
  "StateFrame": "",
  "Linker": null,
  "LinkerIndex": "",
  "ObjectInternalInteger": 225551,
  "NetIndex": 98,
  "Outer":
    "GD_SpiderantBlackQueen_Digi.Character.AIDef_SpiderantBlackQueen_Digi:ExpressionTree_4",
  "Name": "AttributeExpressionEvaluator_22",
  "Class": "GearboxFramework.AttributeExpressionEvaluator",
  "ObjectArchetype": "GearboxFramework.Default__AttributeExpressionEvaluator"
}