{
  "Expression": {
    "AttributeOperand1": "GD_Attributes_AI.Health.Attribute_Health_Injured",
    "ComparisonOperator": "OPERATOR_EqualTo",
    "Operand2Usage": "OPERAND_PreferAttribute",
    "AttributeOperand2": null,
    "ConstantOperand2": 1.0
  },
  "VfTableObject": "",
  "HashNext": "",
  "ObjectFlags": "",
  "HashOuterNext": "",
  "StateFrame": "",
  "Linker": null,
  "LinkerIndex": "",
  "ObjectInternalInteger": 228862,
  "NetIndex": 9,
  "Outer":
    "GD_Sage_DrNakayama.Character.BodyClass_Sage_DrNakayama:ExpressionTree_25",
  "Name": "AttributeExpressionEvaluator_47",
  "Class": "GearboxFramework.AttributeExpressionEvaluator",
  "ObjectArchetype": "GearboxFramework.Default__AttributeExpressionEvaluator"
}