{
  "Expression": {
    "AttributeOperand1":
      "GD_Attributes_AI.Target.Attribute_Target_Distance2D",
    "ComparisonOperator": "OPERATOR_GreaterThanOrEqual",
    "Operand2Usage": "OPERAND_PreferAttribute",
    "AttributeOperand2": null,
    "ConstantOperand2": 1500.0
  },
  "VfTableObject": "",
  "HashNext": "",
  "ObjectFlags": "",
  "HashOuterNext": "",
  "StateFrame": "",
  "Linker": null,
  "LinkerIndex": "",
  "ObjectInternalInteger": 203119,
  "NetIndex": 112,
  "Outer": "GD_SpiderantScorch.Character.AIDef_SpiderantScorch",
  "Name": "AttributeExpressionEvaluator_32",
  "Class": "GearboxFramework.AttributeExpressionEvaluator",
  "ObjectArchetype": "GearboxFramework.Default__AttributeExpressionEvaluator"
}