{
  "Expression": {
    "AttributeOperand1": "GD_Attributes_AI.Spawn.Attribute_Spawn_ChildNumber",
    "ComparisonOperator": "OPERATOR_LessThan",
    "Operand2Usage": "OPERAND_PreferAttribute",
    "AttributeOperand2": null,
    "ConstantOperand2": 7.0
  },
  "VfTableObject": "",
  "HashNext": "",
  "ObjectFlags": "",
  "HashOuterNext": "",
  "StateFrame": "",
  "Linker": null,
  "LinkerIndex": "",
  "ObjectInternalInteger": 190691,
  "NetIndex": 79,
  "Outer": "GD_SafeCrystalisk.Character.AIDef_SafeCrystalisk",
  "Name": "AttributeExpressionEvaluator_22",
  "Class": "GearboxFramework.AttributeExpressionEvaluator",
  "ObjectArchetype": "GearboxFramework.Default__AttributeExpressionEvaluator"
}