{
  "Expression": {
    "AttributeOperand1": "GD_Attributes_AI.Spawn.Attribute_Spawn_ChildNumber",
    "ComparisonOperator": "OPERATOR_LessThan",
    "Operand2Usage": "OPERAND_PreferAttribute",
    "AttributeOperand2": null,
    "ConstantOperand2": 3.0
  },
  "VfTableObject": "",
  "HashNext": "",
  "ObjectFlags": "",
  "HashOuterNext": "",
  "StateFrame": "",
  "Linker": null,
  "LinkerIndex": "",
  "ObjectInternalInteger": 225550,
  "NetIndex": 99,
  "Outer":
    "GD_SpiderantBlackQueen_Digi.Character.AIDef_SpiderantBlackQueen_Digi:ExpressionTree_5",
  "Name": "AttributeExpressionEvaluator_207",
  "Class": "GearboxFramework.AttributeExpressionEvaluator",
  "ObjectArchetype": "GearboxFramework.Default__AttributeExpressionEvaluator"
}