{
  "Expression": {
    "AttributeOperand1": "GD_Attributes_AI.Target.Attribute_Target_DotTo",
    "ComparisonOperator": "OPERATOR_GreaterThan",
    "Operand2Usage": "OPERAND_PreferAttribute",
    "AttributeOperand2": null,
    "ConstantOperand2": 0.0
  },
  "VfTableObject": "",
  "HashNext": "",
  "ObjectFlags": "",
  "HashOuterNext": "",
  "StateFrame": "",
  "Linker": null,
  "LinkerIndex": "",
  "ObjectInternalInteger": 231876,
  "NetIndex": 87,
  "Outer":
    "gd_spiderantsoldier.Character.AIDef_SpiderantSoldier:Action_AttackLoop_25",
  "Name": "AttributeExpressionEvaluator_32",
  "Class": "GearboxFramework.AttributeExpressionEvaluator",
  "ObjectArchetype": "GearboxFramework.Default__AttributeExpressionEvaluator"
}