{
  "Expression": {
    "AttributeOperand1": "D_Attributes.Weapon.WeaponBodyVariation",
    "ComparisonOperator": "OPERATOR_GreaterThanOrEqual",
    "Operand2Usage": "OPERAND_PreferAttribute",
    "AttributeOperand2":
      "D_Attributes.WeaponConstants.Const_WeaponPartVariation_1",
    "ConstantOperand2": 0.0
  },
  "VfTableObject": "",
  "HashNext": "",
  "ObjectFlags": "",
  "HashOuterNext": "",
  "StateFrame": "",
  "Linker": null,
  "LinkerIndex": "",
  "ObjectInternalInteger": 108626,
  "NetIndex": 4,
  "Outer": "GD_Weap_Pistol.A_Weapons.WeaponType_Jakobs_Pistol",
  "Name": "AttributeExpressionEvaluator_21",
  "Class": "GearboxFramework.AttributeExpressionEvaluator",
  "ObjectArchetype": "GearboxFramework.Default__AttributeExpressionEvaluator"
}