{
  "Expression": {
    "AttributeOperand1": "GD_Attributes_AI.Spawn.Attribute_Spawn_ChildNumber",
    "ComparisonOperator": "OPERATOR_LessThan",
    "Operand2Usage": "OPERAND_PreferAttribute",
    "AttributeOperand2": "GD_WizardShared.Attributes.ChildNumber_FireMage",
    "ConstantOperand2": 0.0
  },
  "VfTableObject": "",
  "HashNext": "",
  "ObjectFlags": "",
  "HashOuterNext": "",
  "StateFrame": "",
  "Linker": null,
  "LinkerIndex": "",
  "ObjectInternalInteger": 221073,
  "NetIndex": 17,
  "Outer": "GD_WizardShared.Flags.Flag_CanSpawnPhoenix:ExpressionTree_5",
  "Name": "AttributeExpressionEvaluator_20",
  "Class": "GearboxFramework.AttributeExpressionEvaluator",
  "ObjectArchetype": "GearboxFramework.Default__AttributeExpressionEvaluator"
}