{
  "Expression": {
    "AttributeOperand1":
      "D_Attributes.WeaponDamageType.WeaponDamage_Is_Corrosive",
    "ComparisonOperator": "OPERATOR_EqualTo",
    "Operand2Usage": "OPERAND_PreferAttribute",
    "AttributeOperand2": null,
    "ConstantOperand2": 1.0
  },
  "VfTableObject": "",
  "HashNext": "",
  "ObjectFlags": "",
  "HashOuterNext": "",
  "StateFrame": "",
  "Linker": null,
  "LinkerIndex": "",
  "ObjectInternalInteger": 108768,
  "NetIndex": 5,
  "Outer": "GD_Weap_SniperRifles.Effects.SR_Default_MuzzleFlashes",
  "Name": "AttributeExpressionEvaluator_20",
  "Class": "GearboxFramework.AttributeExpressionEvaluator",
  "ObjectArchetype": "GearboxFramework.Default__AttributeExpressionEvaluator"
}