{
  "Expression": {
    "AttributeOperand1": "D_Attributes.Weapon.OffHandWeapon",
    "ComparisonOperator": "OPERATOR_EqualTo",
    "Operand2Usage": "OPERAND_PreferAttribute",
    "AttributeOperand2": null,
    "ConstantOperand2": 0.0
  },
  "VfTableObject": "",
  "HashNext": "",
  "ObjectFlags": "",
  "HashOuterNext": "",
  "StateFrame": "",
  "Linker": null,
  "LinkerIndex": "",
  "ObjectInternalInteger": 108736,
  "NetIndex": 9,
  "Outer":
    "GD_Weap_SMG.A_Weapons.WT_SMG_Tediore:BehaviorProviderDefinition_0.Behavior_Conditional_5",
  "Name": "AttributeExpressionEvaluator_20",
  "Class": "GearboxFramework.AttributeExpressionEvaluator",
  "ObjectArchetype": "GearboxFramework.Default__AttributeExpressionEvaluator"
}