{
  "Expression": {
    "AttributeOperand1":
      "D_Attributes.WeaponDamageType.WeaponDamage_Is_Incendiary",
    "ComparisonOperator": "OPERATOR_EqualTo",
    "Operand2Usage": "OPERAND_PreferAttribute",
    "AttributeOperand2": null,
    "ConstantOperand2": 1.0
  },
  "VfTableObject": "",
  "HashNext": "",
  "ObjectFlags": "",
  "HashOuterNext": "",
  "StateFrame": "",
  "Linker": null,
  "LinkerIndex": "",
  "ObjectInternalInteger": 108567,
  "NetIndex": 14,
  "Outer":
    "GD_Weap_AssaultRifle.Barrel.AR_Barrel_Torgue_Bandit:BehaviorProviderDefinition_15.Behavior_Conditional_0",
  "Name": "AttributeExpressionEvaluator_22",
  "Class": "GearboxFramework.AttributeExpressionEvaluator",
  "ObjectArchetype": "GearboxFramework.Default__AttributeExpressionEvaluator"
}