{
  "Expression": {
    "AttributeOperand1":
      "D_Attributes.WeaponDamageType.WeaponDamage_Is_Incendiary",
    "ComparisonOperator": "OPERATOR_EqualTo",
    "Operand2Usage": "OPERAND_PreferAttribute",
    "AttributeOperand2": null,
    "ConstantOperand2": 1.0
  },
  "VfTableObject": "",
  "HashNext": "",
  "ObjectFlags": "",
  "HashOuterNext": "",
  "StateFrame": "",
  "Linker": null,
  "LinkerIndex": "",
  "ObjectInternalInteger": 108674,
  "NetIndex": 1,
  "Outer": "GD_Weap_Shared_Effects.Default_Elemental_Explosions",
  "Name": "AttributeExpressionEvaluator_21",
  "Class": "GearboxFramework.AttributeExpressionEvaluator",
  "ObjectArchetype": "GearboxFramework.Default__AttributeExpressionEvaluator"
}