{
  "PhysicsState": "PHYS_Walking",
  "bIsInState": true,
  "VfTableObject": "",
  "HashNext": "",
  "ObjectFlags": "",
  "HashOuterNext": "",
  "StateFrame": "",
  "Linker": null,
  "LinkerIndex": "",
  "ObjectInternalInteger": 212667,
  "NetIndex": 250,
  "Outer":
    "GD_Iris_ArenaGoliath.Character.AIDef_ArenaGoliath:ExpressionTree_37",
  "Name": "PhysicsStateExpressionEvaluator_2",
  "Class": "GearboxFramework.PhysicsStateExpressionEvaluator",
  "ObjectArchetype":
    "GearboxFramework.Default__PhysicsStateExpressionEvaluator"
}