{
  "PhysicsState": "PHYS_NavMeshWalking",
  "bIsInState": true,
  "VfTableObject": "",
  "HashNext": "",
  "ObjectFlags": "",
  "HashOuterNext": "",
  "StateFrame": "",
  "Linker": null,
  "LinkerIndex": "",
  "ObjectInternalInteger": 215108,
  "NetIndex": 269,
  "Outer":
    "GD_ProspectorGoliath.Character.AIDef_GoliathProspector:ExpressionTree_61",
  "Name": "PhysicsStateExpressionEvaluator_3",
  "Class": "GearboxFramework.PhysicsStateExpressionEvaluator",
  "ObjectArchetype":
    "GearboxFramework.Default__PhysicsStateExpressionEvaluator"
}