{
  "PhysicsState": "PHYS_Walking",
  "bIsInState": true,
  "VfTableObject": "",
  "HashNext": "",
  "ObjectFlags": "",
  "HashOuterNext": "",
  "StateFrame": "",
  "Linker": null,
  "LinkerIndex": "",
  "ObjectInternalInteger": 196041,
  "NetIndex": 143,
  "Outer":
    "GD_PrimalBeast_Bedrock.Character.CharClass_PrimalBeast_Bedrock:BehaviorProviderDefinition_23.Behavior_Conditional_3.ExpressionTree_1",
  "Name": "PhysicsStateExpressionEvaluator_0",
  "Class": "GearboxFramework.PhysicsStateExpressionEvaluator",
  "ObjectArchetype":
    "GearboxFramework.Default__PhysicsStateExpressionEvaluator"
}