{
  "SequencesWithPersistentData": [
    "Transient.PersistentSequenceData_110",
    "Transient.PersistentSequenceData_111",
    "Transient.PersistentSequenceData_112",
    "Transient.PersistentSequenceData_113",
    "Transient.PersistentSequenceData_114",
    "Transient.PersistentSequenceData_115",
    "Transient.PersistentSequenceData_116",
    "Transient.PersistentSequenceData_117"
  ],
  "VfTableObject": "",
  "HashNext": "",
  "ObjectFlags": "",
  "HashOuterNext": "",
  "StateFrame": "",
  "Linker": null,
  "LinkerIndex": "",
  "ObjectInternalInteger": 241615,
  "NetIndex": -1,
  "Outer": "Package'Transient'",
  "Name": "PersistentGameDataManager_28",
  "Class": "Engine.PersistentGameDataManager",
  "ObjectArchetype": "Engine.Default__PersistentGameDataManager"
}