{
  "Resource": "D_Resources.OffHandAccuracy",
  "VfTableObject": "",
  "HashNext": "",
  "ObjectFlags": "",
  "HashOuterNext": "",
  "StateFrame": "",
  "Linker": null,
  "LinkerIndex": "",
  "ObjectInternalInteger": 151639,
  "NetIndex": 1722,
  "Outer":
    "D_Attributes.OffHandAccuracyResourcePool.OffHandAccuracyOnIdleRegenerationRate",
  "Name": "ResourcePoolAttributeContextResolver_0",
  "Class": "Engine.ResourcePoolAttributeContextResolver",
  "ObjectArchetype": "Engine.Default__ResourcePoolAttributeContextResolver"
}