{
  "Resource": "D_Resources.MeleeSkillCooldown",
  "VfTableObject": "",
  "HashNext": "",
  "ObjectFlags": "",
  "HashOuterNext": "",
  "StateFrame": "",
  "Linker": null,
  "LinkerIndex": "",
  "ObjectInternalInteger": 107561,
  "NetIndex": 1709,
  "Outer":
    "D_Attributes.MeleeSkillCooldownResource.MeleeSkillCooldownConsumptionRate",
  "Name": "ResourcePoolAttributeContextResolver_4",
  "Class": "Engine.ResourcePoolAttributeContextResolver",
  "ObjectArchetype": "Engine.Default__ResourcePoolAttributeContextResolver"
}