{
  "Resource": "D_Resources.AmmoResources.Ammo_Grenade_Protean",
  "VfTableObject": "",
  "HashNext": "",
  "ObjectFlags": "",
  "HashOuterNext": "",
  "StateFrame": "",
  "Linker": null,
  "LinkerIndex": "",
  "ObjectInternalInteger": 151602,
  "NetIndex": 1637,
  "Outer":
    "D_Attributes.Ammo_Grenade_Protean.Ammo_Grenade_ProteanCurrentValue",
  "Name": "ResourcePoolAttributeContextResolver_12",
  "Class": "Engine.ResourcePoolAttributeContextResolver",
  "ObjectArchetype": "Engine.Default__ResourcePoolAttributeContextResolver"
}