{
  "Resource": "D_Resources.AmmoResources.Ammo_Combat_Shotgun",
  "VfTableObject": "",
  "HashNext": "",
  "ObjectFlags": "",
  "HashOuterNext": "",
  "StateFrame": "",
  "Linker": null,
  "LinkerIndex": "",
  "ObjectInternalInteger": 151610,
  "NetIndex": 1652,
  "Outer":
    "D_Attributes.AmmoResource_Combat_Shotgun.Ammo_Combat_Shotgun_IsFilled",
  "Name": "ResourcePoolAttributeContextResolver_33",
  "Class": "Engine.ResourcePoolAttributeContextResolver",
  "ObjectArchetype": "Engine.Default__ResourcePoolAttributeContextResolver"
}