{
  "Resource": "D_Resources.Shield",
  "VfTableObject": "",
  "HashNext": "",
  "ObjectFlags": "",
  "HashOuterNext": "",
  "StateFrame": "",
  "Linker": null,
  "LinkerIndex": "",
  "ObjectInternalInteger": 151643,
  "NetIndex": 1729,
  "Outer": "D_Attributes.ShieldResourcePool.ShieldOnIdleRegenerationDelay",
  "Name": "ResourcePoolAttributeContextResolver_27",
  "Class": "Engine.ResourcePoolAttributeContextResolver",
  "ObjectArchetype": "Engine.Default__ResourcePoolAttributeContextResolver"
}