{
  "Resource": "D_Resources.Experience",
  "VfTableObject": "",
  "HashNext": "",
  "ObjectFlags": "",
  "HashOuterNext": "",
  "StateFrame": "",
  "Linker": null,
  "LinkerIndex": "",
  "ObjectInternalInteger": 151629,
  "NetIndex": 1684,
  "Outer":
    "D_Attributes.ExperienceResourcePool.ExperiencePointsFromCombatScale",
  "Name": "ResourcePoolAttributeContextResolver_17",
  "Class": "Engine.ResourcePoolAttributeContextResolver",
  "ObjectArchetype": "Engine.Default__ResourcePoolAttributeContextResolver"
}