{
  "Resource": null,
  "VfTableObject": "",
  "HashNext": "",
  "ObjectFlags": "",
  "HashOuterNext": "",
  "StateFrame": "",
  "Linker": null,
  "LinkerIndex": "",
  "ObjectInternalInteger": 2728,
  "NetIndex": 26248,
  "Outer": "Package'Engine'",
  "Name": "Default__ResourcePoolAttributeContextResolver",
  "Class": "Engine.ResourcePoolAttributeContextResolver",
  "ObjectArchetype": "Engine.Default__AttributeContextResolver"
}