{
  "bPlayerUseItemOnPickup": true,
  "bAIUseItemOnPickup": false,
  "bUseCoopRange": true,
  "UsedStatId": null,
  "VfTable_IIBehaviorProvider": "",
  "VfTable_IIConstructObject": "",
  "DroppedImpact": "GD_Impacts.Loot.Loot_Drop_Cash",
  "UseFailureCharacterMessage": "You must be a %s to use this item.",
  "ItemName": "Eridium",
  "bItemNameIsFullName": true,
  "bUseMeshCompositing": false,
  "NonCompositeStaticMesh": "Prop_Pickups.Meshes.EridiumContainer",
  "NonCompositeSkeletalMesh": null,
  "OverrideMaterial": null,
  "GestaltMesh": null,
  "AlphaParts": "GD_Currency.BigMoney.BigMoneyParts",
  "BetaParts": "GD_Currency.LittleMoney.LittleMoneyParts",
  "GammaParts": null,
  "DeltaParts": null,
  "EpsilonParts": null,
  "ZetaParts": null,
  "EtaParts": null,
  "ThetaParts": null,
  "MaterialParts": null,
  "BehaviorProviderDefinition": null,
  "Behaviors": { "OnUsed": null },
  "RequiredPlayerClass": null,
  "PickupIconOverride": null,
  "CustomPresentations": [
    "GD_Currency.A_Item.EridiumStick:AttributePresentationDefinition_1"
  ],
  "ExternalAttributeEffects": [
    {
      "AttributeToModify": "D_Attributes.Currency.EridiumOnHand",
      "ModifierType": "MT_PreAdd",
      "BaseModifierValue": {
        "BaseValueConstant": 1.0,
        "BaseValueAttribute": null,
        "InitializationDefinition": null,
        "BaseValueScaleConstant": 1.0
      }
    }
  ],
  "InventoryClass": "WillowGame.WillowUsableItem",
  "bAutomaticallyPickup": false,
  "bPickupInBulk": true,
  "bDisallowAIFromGrabbingPickup": false,
  "bDuplicatePickupJustAddsQuantity": false,
  "bSuppressPickupCard": false,
  "bTorque": false,
  "bNeverDisplayPickupMessage": true,
  "bShopsHaveInfiniteQuantity": false,
  "bCanCompare": true,
  "bUsesPlayerLevelRequirement": false,
  "bUIMeshRotationNeedsTransformFixup": false,
  "bIsConsumable": false,
  "bAllowInventoryDefToModifyPartWeight": false,
  "PlayerDroppability": "EPD_Droppable",
  "FormOfCurrency": "CURRENCY_Eridium",
  "OnUseConstraintsMode": "EXPRMODE_And",
  "AttributeSlotEffectMode": "ATTRSLOTEFFECTMODE_Custom",
  "PickupLifeSpan": 0.0,
  "PickupFlagScale": 0.6,
  "PickupFlagIcon": "fx_shared_items.Textures.ItemCards.Eridium_Currency",
  "PickupFlagOffset": { "X": 0.0, "Y": 0.0, "Z": 0.0 },
  "Torque": { "X": 0.0, "Y": 0.0, "Z": 0.0 },
  "ThirdPersonMeshScale": 1.0,
  "MaterialClass": "Engine.MaterialInstanceConstant",
  "PhysicsAsset": null,
  "PickupMessage": "You got %s",
  "UseFailureLevelMessage": "You must be at least level %d to use this item.",
  "UseFailureConstraintsMessage": "Eridium at Maximum",
  "NoManufacturerName": "Generic",
  "BaseRarity": {
    "BaseValueConstant": 503.0,
    "BaseValueAttribute": null,
    "InitializationDefinition": null,
    "BaseValueScaleConstant": 1.0
  },
  "MonetaryValue": {
    "BaseValueConstant": 1.0,
    "BaseValueAttribute": null,
    "InitializationDefinition": null,
    "BaseValueScaleConstant": 1.0
  },
  "BaseMonetaryValueModifier": 1.0,
  "PlayerUseLevelBonus": {
    "BaseValueConstant": 0.0,
    "BaseValueAttribute": null,
    "InitializationDefinition": null,
    "BaseValueScaleConstant": 1.0
  },
  "UIMeshRotation": { "Pitch": 0, "Yaw": 20936, "Roll": 3644 },
  "Presentation": "GD_InventoryPresentations.Definitions.Credits",
  "CalloutDefinition": null,
  "PickedUpStatID": null,
  "PurchasedStatID": null,
  "FocusRadius": 55.0,
  "FocusOffset": { "X": -0.4, "Y": -0.075, "Z": 0.0 },
  "AttributeSlotEffectSkillDuration": {
    "BaseValueConstant": 0.0,
    "BaseValueAttribute": null,
    "InitializationDefinition": null,
    "BaseValueScaleConstant": 1.0
  },
  "AttributeSlotBaseGrade": {
    "BaseValueConstant": 1.0,
    "BaseValueAttribute": null,
    "InitializationDefinition": null,
    "BaseValueScaleConstant": 1.0
  },
  "AttributeSlotMaxActivated": 19,
  "LootBeamColorOverride": { "B": 0, "G": 0, "R": 0, "A": 0 },
  "AttributeSlotUpgrades": [
    { "SlotName": "BaseCredits", "GradeIncrease": 0, "bActivateSlot": true }
  ],
  "AttributeSlotEffects": [
    {
      "SlotName": "BaseCredits",
      "bExternalSlot": true,
      "bRunEffectsAsSkill": false,
      "AttributeToModify": "D_Attributes.Currency.EridiumOnHand",
      "ConstraintAttribute": null,
      "ModifierType": "MT_PreAdd",
      "BaseModifierValue": {
        "BaseValueConstant": 0.0,
        "BaseValueAttribute": null,
        "InitializationDefinition": null,
        "BaseValueScaleConstant": 1.0
      },
      "PerGradeUpgrade": {
        "BaseValueConstant": 0.0,
        "BaseValueAttribute": null,
        "InitializationDefinition": null,
        "BaseValueScaleConstant": 1.0
      },
      "bIncludeInFunStats": false,
      "bIncludeAlliesAsTarget": false,
      "bEnforceMinimumGrade": false,
      "bEnforceMaximumGrade": false,
      "MinimumGrade": 0,
      "MaximumGrade": 0,
      "TargetInstanceDataName": null
    }
  ],
  "PickupSounds": [
    {
      "Event": "Ake_Obj_Pickup.Obj_Pickup.Ak_Play_Obj_Pickup_Eridium",
      "Cue": null,
      "Expressions": null
    }
  ],
  "VfTableObject": "",
  "HashNext": "",
  "ObjectFlags": "",
  "HashOuterNext": "",
  "StateFrame": "",
  "Linker": null,
  "LinkerIndex": "",
  "ObjectInternalInteger": 109702,
  "NetIndex": 74,
  "Outer": "GD_Currency.A_Item",
  "Name": "EridiumStick",
  "Class": "WillowGame.UsableItemDefinition",
  "ObjectArchetype": "WillowGame.Default__UsableItemDefinition"
}