{
  "bPlayerUseItemOnPickup": true,
  "bAIUseItemOnPickup": false,
  "bUseCoopRange": true,
  "UsedStatId": null,
  "VfTable_IIBehaviorProvider": "",
  "VfTable_IIConstructObject": "",
  "DroppedImpact": "GD_Impacts.Loot.Loot_Drop_Cash",
  "UseFailureCharacterMessage": "You must be a %s to use this item.",
  "ItemName": "Seraph Crystal",
  "bItemNameIsFullName": true,
  "bUseMeshCompositing": false,
  "NonCompositeStaticMesh":
    "Prop_Iris_Pickups.Meshes.Crystalisk_Crystal_Main_Pink",
  "NonCompositeSkeletalMesh": null,
  "OverrideMaterial": null,
  "GestaltMesh": null,
  "AlphaParts": null,
  "BetaParts": null,
  "GammaParts": null,
  "DeltaParts": null,
  "EpsilonParts": null,
  "ZetaParts": null,
  "EtaParts": null,
  "ThetaParts": null,
  "MaterialParts": null,
  "BehaviorProviderDefinition": null,
  "Behaviors": { "OnUsed": null },
  "RequiredPlayerClass": null,
  "PickupIconOverride": null,
  "CustomPresentations": [
    "GD_Iris_SeraphCrystal.UsableItems.Pickup_SeraphCrystal:AttributePresentationDefinition_6",
    "GD_Iris_SeraphCrystal.UsableItems.Pickup_SeraphCrystal:AttributePresentationDefinition_4"
  ],
  "ExternalAttributeEffects": [
    {
      "AttributeToModify": "D_Attributes.Currency.SeraphCrystalsOnHand",
      "ModifierType": "MT_PreAdd",
      "BaseModifierValue": {
        "BaseValueConstant": 1.0,
        "BaseValueAttribute": null,
        "InitializationDefinition": null,
        "BaseValueScaleConstant": 1.0
      }
    }
  ],
  "InventoryClass": "WillowGame.WillowUsableItem",
  "bAutomaticallyPickup": false,
  "bPickupInBulk": true,
  "bDisallowAIFromGrabbingPickup": false,
  "bDuplicatePickupJustAddsQuantity": false,
  "bSuppressPickupCard": false,
  "bTorque": false,
  "bNeverDisplayPickupMessage": true,
  "bShopsHaveInfiniteQuantity": false,
  "bCanCompare": false,
  "bUsesPlayerLevelRequirement": false,
  "bUIMeshRotationNeedsTransformFixup": false,
  "bIsConsumable": false,
  "bAllowInventoryDefToModifyPartWeight": false,
  "PlayerDroppability": "EPD_Droppable",
  "FormOfCurrency": "CURRENCY_SeraphCrystals",
  "OnUseConstraintsMode": "EXPRMODE_And",
  "AttributeSlotEffectMode": "ATTRSLOTEFFECTMODE_Custom",
  "PickupLifeSpan": 0.0,
  "PickupFlagScale": 0.6,
  "PickupFlagIcon": "GD_Iris_SeraphCrystal.Textures.ItemCard_SeraphCrystal",
  "PickupFlagOffset": { "X": 0.0, "Y": 0.0, "Z": 0.0 },
  "Torque": { "X": 0.0, "Y": 0.0, "Z": 0.0 },
  "ThirdPersonMeshScale": 0.25,
  "MaterialClass": "Engine.MaterialInstanceConstant",
  "PhysicsAsset": null,
  "PickupMessage": "You got %s",
  "UseFailureLevelMessage": "You must be at least level %d to use this item.",
  "UseFailureConstraintsMessage": "Seraph Crystals at Maxmium",
  "NoManufacturerName": "Generic",
  "BaseRarity": {
    "BaseValueConstant": 0.0,
    "BaseValueAttribute":
      "GD_Iris_RaidWeapons.Rarity_Item.Iris_ItemRarity6_Seraph",
    "InitializationDefinition": null,
    "BaseValueScaleConstant": 1.0
  },
  "MonetaryValue": {
    "BaseValueConstant": 1.0,
    "BaseValueAttribute": null,
    "InitializationDefinition": null,
    "BaseValueScaleConstant": 1.0
  },
  "BaseMonetaryValueModifier": 0.0,
  "PlayerUseLevelBonus": {
    "BaseValueConstant": 0.0,
    "BaseValueAttribute": null,
    "InitializationDefinition": null,
    "BaseValueScaleConstant": 1.0
  },
  "UIMeshRotation": { "Pitch": 0, "Yaw": 20936, "Roll": 3644 },
  "Presentation": "GD_InventoryPresentations.Definitions.Credits",
  "CalloutDefinition": null,
  "PickedUpStatID": null,
  "PurchasedStatID": null,
  "FocusRadius": 55.0,
  "FocusOffset": { "X": -0.4, "Y": -0.075, "Z": 0.0 },
  "AttributeSlotEffectSkillDuration": {
    "BaseValueConstant": 0.0,
    "BaseValueAttribute": null,
    "InitializationDefinition": null,
    "BaseValueScaleConstant": 1.0
  },
  "AttributeSlotBaseGrade": {
    "BaseValueConstant": 1.0,
    "BaseValueAttribute": null,
    "InitializationDefinition": null,
    "BaseValueScaleConstant": 1.0
  },
  "AttributeSlotMaxActivated": 19,
  "LootBeamColorOverride": { "B": 0, "G": 0, "R": 0, "A": 0 },
  "PickupSounds": [
    {
      "Event": "Ake_Obj_Pickup.Obj_Pickup.Ak_Play_Obj_Pickup_Crystal",
      "Cue": null,
      "Expressions": null
    }
  ],
  "VfTableObject": "",
  "HashNext": "",
  "ObjectFlags": "",
  "HashOuterNext": "",
  "StateFrame": "",
  "Linker": null,
  "LinkerIndex": "",
  "ObjectInternalInteger": 168629,
  "NetIndex": 13,
  "Outer": "GD_Iris_SeraphCrystal.UsableItems",
  "Name": "Pickup_SeraphCrystal",
  "Class": "WillowGame.UsableItemDefinition",
  "ObjectArchetype": "WillowGame.Default__UsableItemDefinition"
}