{
  "bPlayerUseItemOnPickup": true,
  "bAIUseItemOnPickup": false,
  "bUseCoopRange": false,
  "UsedStatId": null,
  "VfTable_IIBehaviorProvider": "",
  "VfTable_IIConstructObject": "",
  "DroppedImpact": "GD_Impacts.Loot.Loot_Drop_Ammo",
  "UseFailureCharacterMessage": "You must be a %s to use this item.",
  "ItemName": "SDU Weapon Equip Slot",
  "bItemNameIsFullName": true,
  "bUseMeshCompositing": false,
  "NonCompositeStaticMesh": "Prop_Pickups.Meshes.DataModule",
  "NonCompositeSkeletalMesh": null,
  "OverrideMaterial": null,
  "GestaltMesh": null,
  "AlphaParts": null,
  "BetaParts": null,
  "GammaParts": null,
  "DeltaParts": null,
  "EpsilonParts": null,
  "ZetaParts": null,
  "EtaParts": null,
  "ThetaParts": null,
  "MaterialParts": null,
  "BehaviorProviderDefinition": null,
  "Behaviors": { "OnUsed": null },
  "RequiredPlayerClass": null,
  "PickupIconOverride": null,
  "CustomPresentations": [
    "GD_StorageDeckUpgrade.A_Item.INV_SDU_WeaponEquipSlot:AttributePresentationDefinition_4"
  ],
  "ExternalAttributeEffects": [
    {
      "AttributeToModify":
        "D_Attributes.Inventory.InventoryWeaponEquipMaxBase",
      "ModifierType": "MT_PostAdd",
      "BaseModifierValue": {
        "BaseValueConstant": 1.0,
        "BaseValueAttribute": null,
        "InitializationDefinition": null,
        "BaseValueScaleConstant": 1.0
      }
    }
  ],
  "InventoryClass": "WillowGame.WillowUsableItem",
  "bAutomaticallyPickup": true,
  "bPickupInBulk": true,
  "bDisallowAIFromGrabbingPickup": false,
  "bDuplicatePickupJustAddsQuantity": false,
  "bSuppressPickupCard": true,
  "bTorque": false,
  "bNeverDisplayPickupMessage": false,
  "bShopsHaveInfiniteQuantity": true,
  "bCanCompare": false,
  "bUsesPlayerLevelRequirement": false,
  "bUIMeshRotationNeedsTransformFixup": false,
  "bIsConsumable": false,
  "bAllowInventoryDefToModifyPartWeight": false,
  "PlayerDroppability": "EPD_CannotDropOrSell",
  "FormOfCurrency": "CURRENCY_Credits",
  "OnUseConstraintsMode": "EXPRMODE_And",
  "AttributeSlotEffectMode": "ATTRSLOTEFFECTMODE_Default",
  "PickupLifeSpan": 0.0,
  "PickupFlagScale": 0.6,
  "PickupFlagIcon": "fx_shared_items.Textures.ItemCards.Ammo_Repeater",
  "PickupFlagOffset": { "X": 0.0, "Y": 0.0, "Z": 0.0 },
  "Torque": { "X": 0.0, "Y": 0.0, "Z": 0.0 },
  "ThirdPersonMeshScale": 1.0,
  "MaterialClass": "Engine.MaterialInstanceConstant",
  "PhysicsAsset": null,
  "PickupMessage": "SDU Weapon Equip Slot",
  "UseFailureLevelMessage": "You must be at least level %d to use this item.",
  "UseFailureConstraintsMessage": "Repeater Ammo at Maximum",
  "NoManufacturerName": "Generic",
  "BaseRarity": {
    "BaseValueConstant": 4.0,
    "BaseValueAttribute": null,
    "InitializationDefinition": null,
    "BaseValueScaleConstant": 1.0
  },
  "MonetaryValue": {
    "BaseValueConstant": 0.0,
    "BaseValueAttribute": null,
    "InitializationDefinition": null,
    "BaseValueScaleConstant": 1.0
  },
  "BaseMonetaryValueModifier": 0.0,
  "PlayerUseLevelBonus": {
    "BaseValueConstant": 0.0,
    "BaseValueAttribute": null,
    "InitializationDefinition": null,
    "BaseValueScaleConstant": 1.0
  },
  "UIMeshRotation": { "Pitch": 0, "Yaw": 20936, "Roll": 3644 },
  "Presentation": "GD_InventoryPresentations.Definitions.sdu",
  "CalloutDefinition": null,
  "PickedUpStatID": null,
  "PurchasedStatID": null,
  "FocusRadius": 55.0,
  "FocusOffset": { "X": -0.4, "Y": -0.075, "Z": 0.0 },
  "AttributeSlotEffectSkillDuration": {
    "BaseValueConstant": 0.0,
    "BaseValueAttribute": null,
    "InitializationDefinition": null,
    "BaseValueScaleConstant": 1.0
  },
  "AttributeSlotBaseGrade": {
    "BaseValueConstant": 1.0,
    "BaseValueAttribute": null,
    "InitializationDefinition": null,
    "BaseValueScaleConstant": 1.0
  },
  "AttributeSlotMaxActivated": 19,
  "LootBeamColorOverride": { "B": 0, "G": 0, "R": 0, "A": 0 },
  "AttributeSlotUpgrades": [
    { "SlotName": "sdu", "GradeIncrease": 0, "bActivateSlot": true }
  ],
  "AttributeSlotEffects": [
    {
      "SlotName": "sdu",
      "bExternalSlot": false,
      "bRunEffectsAsSkill": false,
      "AttributeToModify":
        "GD_BlackMarket.Misc.Att_BlackMarketUpgrade_TopStat",
      "ConstraintAttribute": null,
      "ModifierType": "MT_PreAdd",
      "BaseModifierValue": {
        "BaseValueConstant": 1.0,
        "BaseValueAttribute": null,
        "InitializationDefinition": null,
        "BaseValueScaleConstant": 1.0
      },
      "PerGradeUpgrade": {
        "BaseValueConstant": 1.0,
        "BaseValueAttribute": null,
        "InitializationDefinition": null,
        "BaseValueScaleConstant": 1.0
      },
      "bIncludeInFunStats": false,
      "bIncludeAlliesAsTarget": false,
      "bEnforceMinimumGrade": false,
      "bEnforceMaximumGrade": false,
      "MinimumGrade": 0,
      "MaximumGrade": 0,
      "TargetInstanceDataName": null
    }
  ],
  "UIStatList": [
    {
      "bDisplayAsModifierOnly": false,
      "AttributeStyle": "ATTRSTYLE_LeaveBlank",
      "SupplementalAttributeStyle": "ATTRSTYLE_JustNumber",
      "StatCombinationMethod": "SCM_Multiply",
      "Attribute": "GD_BlackMarket.Misc.Att_BlackMarketUpgrade_TopStat",
      "ConstraintAttribute": null,
      "SupplementalAttributeExpression": {
        "AttributeOperand1": null,
        "ComparisonOperator": "OPERATOR_EqualTo",
        "Operand2Usage": "OPERAND_PreferAttribute",
        "AttributeOperand2": null,
        "ConstantOperand2": 0.0
      },
      "SupplementalAttributeToAppend": null
    }
  ],
  "OnUseConstraints": [
    {
      "AttributeOperand1":
        "D_Attributes.Inventory.InventoryWeaponEquipMaxBase",
      "ComparisonOperator": "OPERATOR_LessThanOrEqual",
      "Operand2Usage": "OPERAND_PreferAttribute",
      "AttributeOperand2": null,
      "ConstantOperand2": 3.0
    }
  ],
  "PickupSounds": [
    {
      "Event": "Ake_Obj_Pickup.Obj_Pickup.Ak_Play_Obj_Pickup_Ammo",
      "Cue": null,
      "Expressions": null
    }
  ],
  "VfTableObject": "",
  "HashNext": "",
  "ObjectFlags": "",
  "HashOuterNext": "",
  "StateFrame": "",
  "Linker": null,
  "LinkerIndex": "",
  "ObjectInternalInteger": 110336,
  "NetIndex": 121,
  "Outer": "GD_StorageDeckUpgrade.A_Item",
  "Name": "INV_SDU_WeaponEquipSlot",
  "Class": "WillowGame.UsableItemDefinition",
  "ObjectArchetype": "WillowGame.Default__UsableItemDefinition"
}