{
  "BaseValueMode": "BASEVALUE_InitializationDefScalesBaseValue",
  "RoundingMode": "ATTRROUNDING_Float",
  "ValueFormula": {
    "bEnabled": false,
    "Multiplier": {
      "BaseValueConstant": 0.0,
      "BaseValueAttribute": null,
      "InitializationDefinition": null,
      "BaseValueScaleConstant": 1.0
    },
    "Level": {
      "BaseValueConstant": 0.0,
      "BaseValueAttribute": null,
      "InitializationDefinition": null,
      "BaseValueScaleConstant": 1.0
    },
    "Power": {
      "BaseValueConstant": 0.0,
      "BaseValueAttribute": null,
      "InitializationDefinition": null,
      "BaseValueScaleConstant": 1.0
    },
    "Offset": {
      "BaseValueConstant": 0.0,
      "BaseValueAttribute": null,
      "InitializationDefinition": null,
      "BaseValueScaleConstant": 1.0
    }
  },
  "ConditionalInitialization": {
    "bEnabled": true,
    "ConditionalExpressionList": null,
    "DefaultBaseValue": {
      "BaseValueConstant": 0.0,
      "BaseValueAttribute": "GD_BlackMarket.Misc.Att_RocketAmmoPerUpgrade",
      "InitializationDefinition": null,
      "BaseValueScaleConstant": 1.0
    }
  },
  "RandomVariance": {
    "bEnabled": false,
    "bUseIntegerRandomization": false,
    "LowerBound": {
      "BaseValueConstant": 0.0,
      "BaseValueAttribute": null,
      "InitializationDefinition": null,
      "BaseValueScaleConstant": 1.0
    },
    "UpperBound": {
      "BaseValueConstant": 0.0,
      "BaseValueAttribute": null,
      "InitializationDefinition": null,
      "BaseValueScaleConstant": 1.0
    }
  },
  "RangeRestriction": {
    "bEnableMinValueRestriction": false,
    "MinValue": {
      "BaseValueConstant": 0.0,
      "BaseValueAttribute": null,
      "InitializationDefinition": null,
      "BaseValueScaleConstant": 1.0
    },
    "bEnableMaxValueRestriction": false,
    "MaxValue": {
      "BaseValueConstant": 0.0,
      "BaseValueAttribute": null,
      "InitializationDefinition": null,
      "BaseValueScaleConstant": 1.0
    }
  },
  "VfTableObject": "",
  "HashNext": "",
  "ObjectFlags": "",
  "HashOuterNext": "",
  "StateFrame": "",
  "Linker": null,
  "LinkerIndex": "",
  "ObjectInternalInteger": 108794,
  "NetIndex": 4,
  "Outer": "D_Resourcepools.MiscData",
  "Name": "AmmoUpgrade_RocketLauncher",
  "Class": "Engine.AttributeInitializationDefinition",
  "ObjectArchetype": "Engine.Default__AttributeInitializationDefinition"
}