{
  "BaseValueMode": "BASEVALUE_InitializationDefSetsBaseValue",
  "RoundingMode": "ATTRROUNDING_Float",
  "ValueFormula": {
    "bEnabled": true,
    "Multiplier": {
      "BaseValueConstant": 0.0,
      "BaseValueAttribute":
        "GD_Assassin_Skills.Misc.Att_RisingShot_GunDamagePerLevel",
      "InitializationDefinition": null,
      "BaseValueScaleConstant": 1.0
    },
    "Level": {
      "BaseValueConstant": 0.0,
      "BaseValueAttribute":
        "GD_Assassin_Skills.SkillGradeModifiers.RisingShot",
      "InitializationDefinition": null,
      "BaseValueScaleConstant": 1.0
    },
    "Power": {
      "BaseValueConstant": 1.0,
      "BaseValueAttribute": null,
      "InitializationDefinition": null,
      "BaseValueScaleConstant": 1.0
    },
    "Offset": {
      "BaseValueConstant": 0.0,
      "BaseValueAttribute": null,
      "InitializationDefinition": null,
      "BaseValueScaleConstant": 1.0
    }
  },
  "ConditionalInitialization": {
    "bEnabled": false,
    "ConditionalExpressionList": null,
    "DefaultBaseValue": {
      "BaseValueConstant": 0.0,
      "BaseValueAttribute": null,
      "InitializationDefinition": null,
      "BaseValueScaleConstant": 1.0
    }
  },
  "RandomVariance": {
    "bEnabled": false,
    "bUseIntegerRandomization": false,
    "LowerBound": {
      "BaseValueConstant": 0.0,
      "BaseValueAttribute": null,
      "InitializationDefinition": null,
      "BaseValueScaleConstant": 1.0
    },
    "UpperBound": {
      "BaseValueConstant": 0.0,
      "BaseValueAttribute": null,
      "InitializationDefinition": null,
      "BaseValueScaleConstant": 1.0
    }
  },
  "RangeRestriction": {
    "bEnableMinValueRestriction": false,
    "MinValue": {
      "BaseValueConstant": 0.0,
      "BaseValueAttribute": null,
      "InitializationDefinition": null,
      "BaseValueScaleConstant": 1.0
    },
    "bEnableMaxValueRestriction": false,
    "MaxValue": {
      "BaseValueConstant": 0.0,
      "BaseValueAttribute": null,
      "InitializationDefinition": null,
      "BaseValueScaleConstant": 1.0
    }
  },
  "VfTableObject": "",
  "HashNext": "",
  "ObjectFlags": "",
  "HashOuterNext": "",
  "StateFrame": "",
  "Linker": null,
  "LinkerIndex": "",
  "ObjectInternalInteger": 211131,
  "NetIndex": 29,
  "Outer": "GD_Assassin_Skills.Misc",
  "Name": "Init_RisingShot_GunDamage",
  "Class": "Engine.AttributeInitializationDefinition",
  "ObjectArchetype": "Engine.Default__AttributeInitializationDefinition"
}