{
  "BaseValueMode": "BASEVALUE_InitializationDefScalesBaseValue",
  "RoundingMode": "ATTRROUNDING_Float",
  "ValueFormula": {
    "bEnabled": false,
    "Multiplier": {
      "BaseValueConstant": 0.0,
      "BaseValueAttribute": null,
      "InitializationDefinition": null,
      "BaseValueScaleConstant": 1.0
    },
    "Level": {
      "BaseValueConstant": 0.0,
      "BaseValueAttribute": null,
      "InitializationDefinition": null,
      "BaseValueScaleConstant": 1.0
    },
    "Power": {
      "BaseValueConstant": 0.0,
      "BaseValueAttribute": null,
      "InitializationDefinition": null,
      "BaseValueScaleConstant": 1.0
    },
    "Offset": {
      "BaseValueConstant": 0.0,
      "BaseValueAttribute": null,
      "InitializationDefinition": null,
      "BaseValueScaleConstant": 1.0
    }
  },
  "ConditionalInitialization": {
    "bEnabled": true,
    "ConditionalExpressionList": [
      {
        "BaseValueIfTrue": {
          "BaseValueConstant": 1.0,
          "BaseValueAttribute": null,
          "InitializationDefinition": null,
          "BaseValueScaleConstant": 1.0
        },
        "Expressions": [
          {
            "AttributeOperand1": "D_Attributes.Balance.PlayThroughCount",
            "ComparisonOperator": "OPERATOR_EqualTo",
            "Operand2Usage": "OPERAND_PreferAttribute",
            "AttributeOperand2": null,
            "ConstantOperand2": 1.0
          }
        ]
      },
      {
        "BaseValueIfTrue": {
          "BaseValueConstant": 1.0,
          "BaseValueAttribute": null,
          "InitializationDefinition": null,
          "BaseValueScaleConstant": 1.0
        },
        "Expressions": [
          {
            "AttributeOperand1": "D_Attributes.Balance.PlayThroughCount",
            "ComparisonOperator": "OPERATOR_EqualTo",
            "Operand2Usage": "OPERAND_PreferAttribute",
            "AttributeOperand2": null,
            "ConstantOperand2": 2.0
          }
        ]
      }
    ],
    "DefaultBaseValue": {
      "BaseValueConstant": 0.0,
      "BaseValueAttribute": null,
      "InitializationDefinition": null,
      "BaseValueScaleConstant": 1.0
    }
  },
  "RandomVariance": {
    "bEnabled": false,
    "bUseIntegerRandomization": false,
    "LowerBound": {
      "BaseValueConstant": 0.0,
      "BaseValueAttribute": null,
      "InitializationDefinition": null,
      "BaseValueScaleConstant": 1.0
    },
    "UpperBound": {
      "BaseValueConstant": 0.0,
      "BaseValueAttribute": null,
      "InitializationDefinition": null,
      "BaseValueScaleConstant": 1.0
    }
  },
  "RangeRestriction": {
    "bEnableMinValueRestriction": false,
    "MinValue": {
      "BaseValueConstant": 0.0,
      "BaseValueAttribute": null,
      "InitializationDefinition": null,
      "BaseValueScaleConstant": 1.0
    },
    "bEnableMaxValueRestriction": false,
    "MaxValue": {
      "BaseValueConstant": 0.0,
      "BaseValueAttribute": null,
      "InitializationDefinition": null,
      "BaseValueScaleConstant": 1.0
    }
  },
  "VfTableObject": "",
  "HashNext": "",
  "ObjectFlags": "",
  "HashOuterNext": "",
  "StateFrame": "",
  "Linker": null,
  "LinkerIndex": "",
  "ObjectInternalInteger": 167493,
  "NetIndex": 56,
  "Outer": "GD_Balance_HealthAndDamage.HealthMultipliers",
  "Name": "Init_EnemyHealth_ByPlaythroughGlobal",
  "Class": "Engine.AttributeInitializationDefinition",
  "ObjectArchetype": "Engine.Default__AttributeInitializationDefinition"
}