{
  "BaseValueMode": "BASEVALUE_InitializationDefSetsBaseValue",
  "RoundingMode": "ATTRROUNDING_Float",
  "ValueFormula": {
    "bEnabled": true,
    "Multiplier": {
      "BaseValueConstant": 0.0,
      "BaseValueAttribute":
        "GD_Economy.BaseCost.Att_BaseCost_Ammo_SniperRifleAmmo",
      "InitializationDefinition": null,
      "BaseValueScaleConstant": 1.0
    },
    "Level": {
      "BaseValueConstant": 0.0,
      "BaseValueAttribute":
        "GD_Economy.Universal.Att_UniversalPriceIncreasePerLevelScaler",
      "InitializationDefinition": null,
      "BaseValueScaleConstant": 1.0
    },
    "Power": {
      "BaseValueConstant": 1.0,
      "BaseValueAttribute": "D_Attributes.Inventory.UnownedItemLevel",
      "InitializationDefinition": null,
      "BaseValueScaleConstant": 1.0
    },
    "Offset": {
      "BaseValueConstant": 0.0,
      "BaseValueAttribute": null,
      "InitializationDefinition": null,
      "BaseValueScaleConstant": 1.0
    }
  },
  "ConditionalInitialization": {
    "bEnabled": false,
    "ConditionalExpressionList": null,
    "DefaultBaseValue": {
      "BaseValueConstant": 0.0,
      "BaseValueAttribute": null,
      "InitializationDefinition": null,
      "BaseValueScaleConstant": 1.0
    }
  },
  "RandomVariance": {
    "bEnabled": false,
    "bUseIntegerRandomization": false,
    "LowerBound": {
      "BaseValueConstant": 0.0,
      "BaseValueAttribute": null,
      "InitializationDefinition": null,
      "BaseValueScaleConstant": 1.0
    },
    "UpperBound": {
      "BaseValueConstant": 0.0,
      "BaseValueAttribute": null,
      "InitializationDefinition": null,
      "BaseValueScaleConstant": 1.0
    }
  },
  "RangeRestriction": {
    "bEnableMinValueRestriction": false,
    "MinValue": {
      "BaseValueConstant": 0.0,
      "BaseValueAttribute": null,
      "InitializationDefinition": null,
      "BaseValueScaleConstant": 1.0
    },
    "bEnableMaxValueRestriction": false,
    "MaxValue": {
      "BaseValueConstant": 0.0,
      "BaseValueAttribute": null,
      "InitializationDefinition": null,
      "BaseValueScaleConstant": 1.0
    }
  },
  "VfTableObject": "",
  "HashNext": "",
  "ObjectFlags": "",
  "HashOuterNext": "",
  "StateFrame": "",
  "Linker": null,
  "LinkerIndex": "",
  "ObjectInternalInteger": 237550,
  "NetIndex": 70,
  "Outer": "GD_Economy.PriceCalc",
  "Name": "Init_Ammo_SniperRifle_PriceCalculator",
  "Class": "Engine.AttributeInitializationDefinition",
  "ObjectArchetype": "Engine.Default__AttributeInitializationDefinition"
}