{
  "BaseValueMode": "BASEVALUE_InitializationDefSetsBaseValue",
  "RoundingMode": "ATTRROUNDING_Float",
  "ValueFormula": {
    "bEnabled": true,
    "Multiplier": {
      "BaseValueConstant": 1.0,
      "BaseValueAttribute": null,
      "InitializationDefinition":
        "GD_Balance_HealthAndDamage.HealthAndDamage.Init_PlayerSkillStatusEffectDamage",
      "BaseValueScaleConstant": 0.5
    },
    "Level": {
      "BaseValueConstant": 1.0,
      "BaseValueAttribute":
        "GD_Siren_Skills.SkillGradeModifiers.BlightPhoenix",
      "InitializationDefinition": null,
      "BaseValueScaleConstant": 1.0
    },
    "Power": {
      "BaseValueConstant": 1.0,
      "BaseValueAttribute": null,
      "InitializationDefinition": null,
      "BaseValueScaleConstant": 1.0
    },
    "Offset": {
      "BaseValueConstant": 0.0,
      "BaseValueAttribute": null,
      "InitializationDefinition": null,
      "BaseValueScaleConstant": 1.0
    }
  },
  "ConditionalInitialization": {
    "bEnabled": false,
    "ConditionalExpressionList": null,
    "DefaultBaseValue": {
      "BaseValueConstant": 0.0,
      "BaseValueAttribute": null,
      "InitializationDefinition": null,
      "BaseValueScaleConstant": 1.0
    }
  },
  "RandomVariance": {
    "bEnabled": false,
    "bUseIntegerRandomization": false,
    "LowerBound": {
      "BaseValueConstant": 0.0,
      "BaseValueAttribute": null,
      "InitializationDefinition": null,
      "BaseValueScaleConstant": 1.0
    },
    "UpperBound": {
      "BaseValueConstant": 0.0,
      "BaseValueAttribute": null,
      "InitializationDefinition": null,
      "BaseValueScaleConstant": 1.0
    }
  },
  "RangeRestriction": {
    "bEnableMinValueRestriction": false,
    "MinValue": {
      "BaseValueConstant": 0.0,
      "BaseValueAttribute": null,
      "InitializationDefinition": null,
      "BaseValueScaleConstant": 1.0
    },
    "bEnableMaxValueRestriction": false,
    "MaxValue": {
      "BaseValueConstant": 0.0,
      "BaseValueAttribute": null,
      "InitializationDefinition": null,
      "BaseValueScaleConstant": 1.0
    }
  },
  "VfTableObject": "",
  "HashNext": "",
  "ObjectFlags": "",
  "HashOuterNext": "",
  "StateFrame": "",
  "Linker": null,
  "LinkerIndex": "",
  "ObjectInternalInteger": 181946,
  "NetIndex": 19,
  "Outer": "GD_Siren_Skills.Misc",
  "Name": "Init_BlightPhoenix_DamageCalc_StatusEffect_Corrosive",
  "Class": "Engine.AttributeInitializationDefinition",
  "ObjectArchetype": "Engine.Default__AttributeInitializationDefinition"
}