{
  "BaseValueMode": "BASEVALUE_InitializationDefOffsetByBaseValue",
  "RoundingMode": "ATTRROUNDING_Float",
  "ValueFormula": {
    "bEnabled": false,
    "Multiplier": {
      "BaseValueConstant": 0.0,
      "BaseValueAttribute": null,
      "InitializationDefinition": null,
      "BaseValueScaleConstant": 1.0
    },
    "Level": {
      "BaseValueConstant": 0.0,
      "BaseValueAttribute": null,
      "InitializationDefinition": null,
      "BaseValueScaleConstant": 1.0
    },
    "Power": {
      "BaseValueConstant": 0.0,
      "BaseValueAttribute": null,
      "InitializationDefinition": null,
      "BaseValueScaleConstant": 1.0
    },
    "Offset": {
      "BaseValueConstant": 0.0,
      "BaseValueAttribute": null,
      "InitializationDefinition": null,
      "BaseValueScaleConstant": 1.0
    }
  },
  "ConditionalInitialization": {
    "bEnabled": true,
    "ConditionalExpressionList": [
      {
        "BaseValueIfTrue": {
          "BaseValueConstant": 0.0,
          "BaseValueAttribute":
            "GD_StorageDeckUpgrade.MiscData.AttrSlotGrade_Shotgun",
          "InitializationDefinition": null,
          "BaseValueScaleConstant": 1.0
        },
        "Expressions": [
          {
            "AttributeOperand1":
              "GD_StorageDeckUpgrade.MiscData.AttrSlotGrade_Shotgun",
            "ComparisonOperator": "OPERATOR_GreaterThanOrEqual",
            "Operand2Usage": "OPERAND_PreferAttribute",
            "AttributeOperand2": null,
            "ConstantOperand2": 1.0
          }
        ]
      }
    ],
    "DefaultBaseValue": {
      "BaseValueConstant": 0.0,
      "BaseValueAttribute": null,
      "InitializationDefinition": null,
      "BaseValueScaleConstant": 1.0
    }
  },
  "RandomVariance": {
    "bEnabled": false,
    "bUseIntegerRandomization": false,
    "LowerBound": {
      "BaseValueConstant": 0.0,
      "BaseValueAttribute": null,
      "InitializationDefinition": null,
      "BaseValueScaleConstant": 1.0
    },
    "UpperBound": {
      "BaseValueConstant": 0.0,
      "BaseValueAttribute": null,
      "InitializationDefinition": null,
      "BaseValueScaleConstant": 1.0
    }
  },
  "RangeRestriction": {
    "bEnableMinValueRestriction": true,
    "MinValue": {
      "BaseValueConstant": 0.0,
      "BaseValueAttribute": null,
      "InitializationDefinition": null,
      "BaseValueScaleConstant": 1.0
    },
    "bEnableMaxValueRestriction": true,
    "MaxValue": {
      "BaseValueConstant": 6.0,
      "BaseValueAttribute": null,
      "InitializationDefinition": null,
      "BaseValueScaleConstant": 1.0
    }
  },
  "VfTableObject": "",
  "HashNext": "",
  "ObjectFlags": "",
  "HashOuterNext": "",
  "StateFrame": "",
  "Linker": null,
  "LinkerIndex": "",
  "ObjectInternalInteger": 108952,
  "NetIndex": 11,
  "Outer": "GD_StorageDeckUpgrade.MiscData",
  "Name": "INI_SDU_Ammo_Shotgun",
  "Class": "Engine.AttributeInitializationDefinition",
  "ObjectArchetype": "Engine.Default__AttributeInitializationDefinition"
}