{
  "SwitchLevelMessage": "Switching Levels",
  "LeftMessage": " left the game.",
  "FailedTeamMessage": "Could not find team for player",
  "FailedPlaceMessage": "Could not find a starting spot",
  "FailedSpawnMessage": "Could not spawn player",
  "EnteredMessage": " entered the game.",
  "MaxedOutMessage": "Server is already at capacity.",
  "ArbitrationMessage": "The session has already started.",
  "OvertimeMessage":
    "Score tied at the end of regulation. Sudden Death Overtime!!!",
  "GlobalNameChange": "changed name to",
  "NewTeamMessage": "is now on",
  "NewTeamMessageTrailer": "",
  "NoNameChange": "Name is already in use.",
  "VoteStarted": "started a vote.",
  "VotePassed": "Vote passed.",
  "MustHaveStats": "Must have stats enabled to join this server.",
  "CantBeSpectator": "Sorry, you cannot become a spectator at this time.",
  "CantBePlayer": "Sorry, you cannot become an active player at this time.",
  "BecameSpectator": "became a spectator.",
  "NewPlayerMessage": "A new player entered the game.",
  "KickWarning": "You are about to be kicked for idling!",
  "NewSpecMessage": "A spectator entered the game/",
  "SpecEnteredMessage": " joined as a spectator.",
  "bIsSpecial": true,
  "bIsUnique": false,
  "bIsPartiallyUnique": false,
  "bIsConsoleMessage": true,
  "bBeep": false,
  "bCountInstances": false,
  "Lifetime": 3.0,
  "DrawColor": { "B": 255, "G": 255, "R": 255, "A": 255 },
  "MsgType": "LMT_System",
  "VfTableObject": "",
  "HashNext": "",
  "ObjectFlags": "",
  "HashOuterNext": "",
  "StateFrame": "",
  "Linker": null,
  "LinkerIndex": "",
  "ObjectInternalInteger": 22678,
  "NetIndex": 14871,
  "Outer": "Package'Engine'",
  "Name": "Default__GameMessage",
  "Class": "Engine.GameMessage",
  "ObjectArchetype": "Engine.Default__LocalMessage"
}