{
  "ValueName": null,
  "BaseValue": {
    "BaseValueConstant": 0.0,
    "BaseValueAttribute": null,
    "InitializationDefinition": null,
    "BaseValueScaleConstant": 1.0
  },
  "Scope": "DASCOPE_Global",
  "GlobalScopeResolverClass": "Engine.GameInfoAttributeContextResolver",
  "DesignerAttributeResolverClass":
    "WillowGame.DesignerAttributeContextResolver",
  "bIsSimpleAttribute": false,
  "AttributeDataType": "ADT_Float",
  "ValueResolverChain": [
    "WillowGame.Default__DesignerAttributeDefinition:ValueResolver"
  ],
  "ContextResolverChain": [
    "WillowGame.Default__DesignerAttributeDefinition:GameInfoResolver",
    "WillowGame.Default__DesignerAttributeDefinition:DesignerAttributeResolver"
  ],
  "VfTableObject": "",
  "HashNext": "",
  "ObjectFlags": "",
  "HashOuterNext": "",
  "StateFrame": "",
  "Linker": null,
  "LinkerIndex": "",
  "ObjectInternalInteger": 168613,
  "NetIndex": 213,
  "Outer": "GD_Iris_SeraphItems.Attributes",
  "Name": "Attr_HopliteEquipped",
  "Class": "WillowGame.DesignerAttributeDefinition",
  "ObjectArchetype": "WillowGame.Default__DesignerAttributeDefinition"
}