{
  "ValueName": "Fire Rate bonus for Wound Class mod",
  "BaseValue": {
    "BaseValueConstant": 0.0,
    "BaseValueAttribute": null,
    "InitializationDefinition": null,
    "BaseValueScaleConstant": 1.0
  },
  "Scope": "DASCOPE_Local",
  "GlobalScopeResolverClass": "Engine.GameInfoAttributeContextResolver",
  "DesignerAttributeResolverClass":
    "WillowGame.DesignerAttributeContextResolver",
  "bIsSimpleAttribute": false,
  "AttributeDataType": "ADT_Float",
  "ValueResolverChain": [
    "WillowGame.Default__DesignerAttributeDefinition:ValueResolver"
  ],
  "ContextResolverChain": [
    "GD_Lilac_ClassMods.Attributes.Att_WoundModFireRate:DesignerAttributeContextResolver_0"
  ],
  "VfTableObject": "",
  "HashNext": "",
  "ObjectFlags": "",
  "HashOuterNext": "",
  "StateFrame": "",
  "Linker": null,
  "LinkerIndex": "",
  "ObjectInternalInteger": 171612,
  "NetIndex": 120,
  "Outer": "GD_Lilac_ClassMods.Attributes",
  "Name": "Att_WoundModFireRate",
  "Class": "WillowGame.DesignerAttributeDefinition",
  "ObjectArchetype": "WillowGame.Default__DesignerAttributeDefinition"
}