{
  "ValueName": "Blood Trance Per-Stack Time Modifier",
  "BaseValue": {
    "BaseValueConstant": 0.0,
    "BaseValueAttribute": null,
    "InitializationDefinition": null,
    "BaseValueScaleConstant": 1.0
  },
  "Scope": "DASCOPE_Local",
  "GlobalScopeResolverClass": "Engine.GameInfoAttributeContextResolver",
  "DesignerAttributeResolverClass":
    "WillowGame.DesignerAttributeContextResolver",
  "bIsSimpleAttribute": false,
  "AttributeDataType": "ADT_Float",
  "ValueResolverChain": [
    "WillowGame.Default__DesignerAttributeDefinition:ValueResolver"
  ],
  "ContextResolverChain": [
    "GD_Lilac_Skills_Bloodlust.Attributes.Att_BloodTrance_PerStackTimeModifier:DesignerAttributeContextResolver_0"
  ],
  "VfTableObject": "",
  "HashNext": "",
  "ObjectFlags": "",
  "HashOuterNext": "",
  "StateFrame": "",
  "Linker": null,
  "LinkerIndex": "",
  "ObjectInternalInteger": 192877,
  "NetIndex": 448,
  "Outer": "GD_Lilac_Skills_Bloodlust.Attributes",
  "Name": "Att_BloodTrance_PerStackTimeModifier",
  "Class": "WillowGame.DesignerAttributeDefinition",
  "ObjectArchetype": "WillowGame.Default__DesignerAttributeDefinition"
}