{
  "ValueName": null,
  "BaseValue": {
    "BaseValueConstant": 0.8,
    "BaseValueAttribute": null,
    "InitializationDefinition": null,
    "BaseValueScaleConstant": 1.0
  },
  "Scope": "DASCOPE_Local",
  "GlobalScopeResolverClass": "Engine.GameInfoAttributeContextResolver",
  "DesignerAttributeResolverClass":
    "WillowGame.DesignerAttributeContextResolver",
  "bIsSimpleAttribute": false,
  "AttributeDataType": "ADT_Float",
  "ValueResolverChain": [
    "WillowGame.Default__DesignerAttributeDefinition:ValueResolver"
  ],
  "ContextResolverChain": [
    "GD_Mercenary_Skills.Misc.Att_MoneyShot_DamagePerLevel:DesignerAttributeContextResolver_0"
  ],
  "VfTableObject": "",
  "HashNext": "",
  "ObjectFlags": "",
  "HashOuterNext": "",
  "StateFrame": "",
  "Linker": null,
  "LinkerIndex": "",
  "ObjectInternalInteger": 197663,
  "NetIndex": 473,
  "Outer": "GD_Mercenary_Skills.Misc",
  "Name": "Att_MoneyShot_DamagePerLevel",
  "Class": "WillowGame.DesignerAttributeDefinition",
  "ObjectArchetype": "WillowGame.Default__DesignerAttributeDefinition"
}