{
  "ValueName": null,
  "BaseValue": {
    "BaseValueConstant": 42.0,
    "BaseValueAttribute": null,
    "InitializationDefinition": null,
    "BaseValueScaleConstant": 1.0
  },
  "Scope": "DASCOPE_Local",
  "GlobalScopeResolverClass": "Engine.GameInfoAttributeContextResolver",
  "DesignerAttributeResolverClass":
    "WillowGame.DesignerAttributeContextResolver",
  "bIsSimpleAttribute": false,
  "AttributeDataType": "ADT_Float",
  "ValueResolverChain": [
    "WillowGame.Default__DesignerAttributeDefinition:ValueResolver"
  ],
  "ContextResolverChain": [
    "GD_Soldier_Skills.Misc.Cooldown_Turret:DesignerAttributeContextResolver_0"
  ],
  "VfTableObject": "",
  "HashNext": "",
  "ObjectFlags": "",
  "HashOuterNext": "",
  "StateFrame": "",
  "Linker": null,
  "LinkerIndex": "",
  "ObjectInternalInteger": 123612,
  "NetIndex": 245,
  "Outer": "GD_Soldier_Skills.Misc",
  "Name": "Cooldown_Turret",
  "Class": "WillowGame.DesignerAttributeDefinition",
  "ObjectArchetype": "WillowGame.Default__DesignerAttributeDefinition"
}