{
  "ValueIfNotMatched": {
    "BaseValueConstant": 0.0,
    "BaseValueAttribute": null,
    "InitializationDefinition": null,
    "BaseValueScaleConstant": 1.0
  },
  "DamageTypes": [
    {
      "AssociatedDamageTypeName": "DmgType_Explosive_Impact",
      "ValueIfMatched": {
        "BaseValueConstant": 1.0,
        "BaseValueAttribute": null,
        "InitializationDefinition": null,
        "BaseValueScaleConstant": 1.0
      }
    },
    {
      "AssociatedDamageTypeName": "DmgType_Explosive_Impact_ForceFlinch",
      "ValueIfMatched": {
        "BaseValueConstant": 1.0,
        "BaseValueAttribute": null,
        "InitializationDefinition": null,
        "BaseValueScaleConstant": 1.0
      }
    }
  ],
  "VfTableObject": "",
  "HashNext": "",
  "ObjectFlags": "",
  "HashOuterNext": "",
  "StateFrame": "",
  "Linker": null,
  "LinkerIndex": "",
  "ObjectInternalInteger": 107810,
  "NetIndex": 676,
  "Outer": "D_Attributes.WeaponDamageType.WeaponDamage_Is_Explosive",
  "Name": "DamageTypeAttributeValueResolver_2",
  "Class": "WillowGame.DamageTypeAttributeValueResolver",
  "ObjectArchetype": "WillowGame.Default__DamageTypeAttributeValueResolver"
}