{
  "VfTable_IIBehaviorProvider": "",
  "MovementStyle": "MOVE_Forward",
  "SpeedScale": 0.4,
  "RotationScale": 0.5,
  "bCanUseAimOffsets": true,
  "bCanUseTurns": true,
  "bCanUseJumps": false,
  "bCanUseCringes": false,
  "bCanUseFlinches": false,
  "bAllowLeftHandIK": false,
  "bCanDodge": false,
  "bAllowMovementDodges": false,
  "bOverrideFlinches": false,
  "JumpNodeCostMultiplier": 1.0,
  "Turns": "GD_NPCShared.SpecialMoves.TurnDef_NPCShared",
  "AimOffsetName": null,
  "BehaviorProviderDefinition":
    "GD_Aster_RolandNPC.Anims.Stance_RelaxedIdle:BehaviorProviderDefinition_1",
  "VfTableObject": "",
  "HashNext": "",
  "ObjectFlags": "",
  "HashOuterNext": "",
  "StateFrame": "",
  "Linker": null,
  "LinkerIndex": "",
  "ObjectInternalInteger": 203114,
  "NetIndex": 1012,
  "Outer": "GD_Aster_RolandNPC.Anims",
  "Name": "Stance_RelaxedIdle",
  "Class": "WillowGame.StanceTypeDefinition",
  "ObjectArchetype": "WillowGame.Default__StanceTypeDefinition"
}