{
  "VfTable_IIBehaviorProvider": "",
  "MovementStyle": "MOVE_Strafe",
  "SpeedScale": 0.5,
  "RotationScale": 1.0,
  "bCanUseAimOffsets": true,
  "bCanUseTurns": true,
  "bCanUseJumps": true,
  "bCanUseCringes": true,
  "bCanUseFlinches": true,
  "bAllowLeftHandIK": true,
  "bCanDodge": true,
  "bAllowMovementDodges": false,
  "bOverrideFlinches": false,
  "JumpNodeCostMultiplier": 1.0,
  "Turns": null,
  "AimOffsetName": null,
  "BehaviorProviderDefinition": null,
  "VfTableObject": "",
  "HashNext": "",
  "ObjectFlags": "",
  "HashOuterNext": "",
  "StateFrame": "",
  "Linker": null,
  "LinkerIndex": "",
  "ObjectInternalInteger": 231072,
  "NetIndex": 131,
  "Outer": "GD_Aster_Moxxie.Character.BodyClass_Aster_Moxxi",
  "Name": "CrouchStance0",
  "Class": "WillowGame.StanceTypeDefinition",
  "ObjectArchetype": "WillowGame.Default__BodyClassDefinition:CrouchStance0"
}