{
  "VfTable_IIBehaviorProvider": "",
  "MovementStyle": "MOVE_Forward",
  "SpeedScale": 2.2,
  "RotationScale": 1.0,
  "bCanUseAimOffsets": true,
  "bCanUseTurns": false,
  "bCanUseJumps": true,
  "bCanUseCringes": false,
  "bCanUseFlinches": true,
  "bAllowLeftHandIK": false,
  "bCanDodge": true,
  "bAllowMovementDodges": false,
  "bOverrideFlinches": false,
  "JumpNodeCostMultiplier": 1.0,
  "Turns": null,
  "AimOffsetName": null,
  "BehaviorProviderDefinition": null,
  "VfTableObject": "",
  "HashNext": "",
  "ObjectFlags": "",
  "HashOuterNext": "",
  "StateFrame": "",
  "Linker": null,
  "LinkerIndex": "",
  "ObjectInternalInteger": 198786,
  "NetIndex": 734,
  "Outer": "GD_BruiserShared.Anims",
  "Name": "Stance_SprintCharge",
  "Class": "WillowGame.StanceTypeDefinition",
  "ObjectArchetype": "WillowGame.Default__StanceTypeDefinition"
}