{
  "VfTable_IIBehaviorProvider": "",
  "MovementStyle": "MOVE_Strafe",
  "SpeedScale": 1.0,
  "RotationScale": 1.0,
  "bCanUseAimOffsets": false,
  "bCanUseTurns": true,
  "bCanUseJumps": true,
  "bCanUseCringes": true,
  "bCanUseFlinches": true,
  "bAllowLeftHandIK": true,
  "bCanDodge": true,
  "bAllowMovementDodges": false,
  "bOverrideFlinches": false,
  "JumpNodeCostMultiplier": 1.0,
  "Turns": null,
  "AimOffsetName": null,
  "BehaviorProviderDefinition":
    "GD_ConstructorRoland.Character.BodyClass_ConstructorRoland:RunStance0.BehaviorProviderDefinition_1",
  "VfTableObject": "",
  "HashNext": "",
  "ObjectFlags": "",
  "HashOuterNext": "",
  "StateFrame": "",
  "Linker": null,
  "LinkerIndex": "",
  "ObjectInternalInteger": 200963,
  "NetIndex": 1320,
  "Outer": "GD_ConstructorRoland.Character.BodyClass_ConstructorRoland",
  "Name": "RunStance0",
  "Class": "WillowGame.StanceTypeDefinition",
  "ObjectArchetype": "WillowGame.Default__BodyClassDefinition:RunStance0"
}