{
  "VfTable_IIBehaviorProvider": "",
  "MovementStyle": "MOVE_Strafe",
  "SpeedScale": 0.0,
  "RotationScale": 0.0,
  "bCanUseAimOffsets": true,
  "bCanUseTurns": false,
  "bCanUseJumps": false,
  "bCanUseCringes": true,
  "bCanUseFlinches": true,
  "bAllowLeftHandIK": false,
  "bCanDodge": false,
  "bAllowMovementDodges": false,
  "bOverrideFlinches": false,
  "JumpNodeCostMultiplier": 1.0,
  "Turns": null,
  "AimOffsetName": "AimOffset",
  "BehaviorProviderDefinition":
    "GD_ConstructorLaserStatue.Anims.Stance_Dormant:BehaviorProviderDefinition_0",
  "VfTableObject": "",
  "HashNext": "",
  "ObjectFlags": "",
  "HashOuterNext": "",
  "StateFrame": "",
  "Linker": null,
  "LinkerIndex": "",
  "ObjectInternalInteger": 187135,
  "NetIndex": 668,
  "Outer": "GD_ConstructorLaserStatue.Anims",
  "Name": "Stance_Dormant",
  "Class": "WillowGame.StanceTypeDefinition",
  "ObjectArchetype": "WillowGame.Default__StanceTypeDefinition"
}