{
  "VfTable_IIBehaviorProvider": "",
  "MovementStyle": "MOVE_Forward",
  "SpeedScale": 0.3,
  "RotationScale": 0.25,
  "bCanUseAimOffsets": false,
  "bCanUseTurns": true,
  "bCanUseJumps": true,
  "bCanUseCringes": false,
  "bCanUseFlinches": false,
  "bAllowLeftHandIK": false,
  "bCanDodge": false,
  "bAllowMovementDodges": false,
  "bOverrideFlinches": false,
  "JumpNodeCostMultiplier": 1.0,
  "Turns": "GD_DragonShared.Anims.TurnDef_Patrol",
  "AimOffsetName": null,
  "BehaviorProviderDefinition": null,
  "VfTableObject": "",
  "HashNext": "",
  "ObjectFlags": "",
  "HashOuterNext": "",
  "StateFrame": "",
  "Linker": null,
  "LinkerIndex": "",
  "ObjectInternalInteger": 214188,
  "NetIndex": 109,
  "Outer":
    "GD_GreenBasilisk_GroundOnly.Character.BodyClass_GreenBasilisk_GroundOnly",
  "Name": "StanceTypeDefinition_1",
  "Class": "WillowGame.StanceTypeDefinition",
  "ObjectArchetype": "WillowGame.Default__StanceTypeDefinition"
}