{
  "VfTable_IIBehaviorProvider": "",
  "MovementStyle": "MOVE_Strafe",
  "SpeedScale": 1.0,
  "RotationScale": 1.0,
  "bCanUseAimOffsets": true,
  "bCanUseTurns": true,
  "bCanUseJumps": true,
  "bCanUseCringes": true,
  "bCanUseFlinches": true,
  "bAllowLeftHandIK": false,
  "bCanDodge": true,
  "bAllowMovementDodges": true,
  "bOverrideFlinches": false,
  "JumpNodeCostMultiplier": 1.0,
  "Turns": null,
  "AimOffsetName": null,
  "BehaviorProviderDefinition": null,
  "VfTableObject": "",
  "HashNext": "",
  "ObjectFlags": "",
  "HashOuterNext": "",
  "StateFrame": "",
  "Linker": null,
  "LinkerIndex": "",
  "ObjectInternalInteger": 207591,
  "NetIndex": 968,
  "Outer": "GD_Iris_Piston_Boss.Character.BodyClass_Iris_Piston_Boss",
  "Name": "RunStance0",
  "Class": "WillowGame.StanceTypeDefinition",
  "ObjectArchetype": "WillowGame.Default__BodyClassDefinition:RunStance0"
}