{
  "VfTable_IIBehaviorProvider": "",
  "MovementStyle": "MOVE_Forward",
  "SpeedScale": 0.4,
  "RotationScale": 0.6,
  "bCanUseAimOffsets": false,
  "bCanUseTurns": false,
  "bCanUseJumps": false,
  "bCanUseCringes": false,
  "bCanUseFlinches": false,
  "bAllowLeftHandIK": false,
  "bCanDodge": true,
  "bAllowMovementDodges": false,
  "bOverrideFlinches": false,
  "JumpNodeCostMultiplier": 1.0,
  "Turns": null,
  "AimOffsetName": null,
  "BehaviorProviderDefinition":
    "GD_Iris_BlimpBoss.Character.Stance_BlimpBossPhase01:BehaviorProviderDefinition_1",
  "VfTableObject": "",
  "HashNext": "",
  "ObjectFlags": "",
  "HashOuterNext": "",
  "StateFrame": "",
  "Linker": null,
  "LinkerIndex": "",
  "ObjectInternalInteger": 197140,
  "NetIndex": 1817,
  "Outer": "GD_Iris_BlimpBoss.Character",
  "Name": "Stance_BlimpBossPhase01",
  "Class": "WillowGame.StanceTypeDefinition",
  "ObjectArchetype": "WillowGame.Default__StanceTypeDefinition"
}