{
  "VfTable_IIBehaviorProvider": "",
  "MovementStyle": "MOVE_Strafe",
  "SpeedScale": 0.5,
  "RotationScale": 1.0,
  "bCanUseAimOffsets": true,
  "bCanUseTurns": true,
  "bCanUseJumps": true,
  "bCanUseCringes": true,
  "bCanUseFlinches": true,
  "bAllowLeftHandIK": false,
  "bCanDodge": true,
  "bAllowMovementDodges": false,
  "bOverrideFlinches": false,
  "JumpNodeCostMultiplier": 1.0,
  "Turns": null,
  "AimOffsetName": null,
  "BehaviorProviderDefinition": null,
  "VfTableObject": "",
  "HashNext": "",
  "ObjectFlags": "",
  "HashOuterNext": "",
  "StateFrame": "",
  "Linker": null,
  "LinkerIndex": "",
  "ObjectInternalInteger": 191718,
  "NetIndex": 348,
  "Outer": "GD_LoaderRPG.Character.BodyClass_LoaderRPG",
  "Name": "InjuredStance0",
  "Class": "WillowGame.StanceTypeDefinition",
  "ObjectArchetype": "WillowGame.Default__BodyClassDefinition:InjuredStance0"
}