{
  "VfTable_IIBehaviorProvider": "",
  "MovementStyle": "MOVE_Strafe",
  "SpeedScale": 0.7,
  "RotationScale": 1.0,
  "bCanUseAimOffsets": true,
  "bCanUseTurns": true,
  "bCanUseJumps": true,
  "bCanUseCringes": true,
  "bCanUseFlinches": true,
  "bAllowLeftHandIK": true,
  "bCanDodge": true,
  "bAllowMovementDodges": false,
  "bOverrideFlinches": false,
  "JumpNodeCostMultiplier": 1.0,
  "Turns": null,
  "AimOffsetName": null,
  "BehaviorProviderDefinition":
    "GD_LootMidget_LoaderWAR.Character.BodyClass_LootMidget_LoaderWAR:RunStance0_2.BehaviorProviderDefinition_2",
  "VfTableObject": "",
  "HashNext": "",
  "ObjectFlags": "",
  "HashOuterNext": "",
  "StateFrame": "",
  "Linker": null,
  "LinkerIndex": "",
  "ObjectInternalInteger": 192713,
  "NetIndex": 560,
  "Outer": "GD_LootMidget_LoaderWAR.Character.BodyClass_LootMidget_LoaderWAR",
  "Name": "RunStance0_2",
  "Class": "WillowGame.StanceTypeDefinition",
  "ObjectArchetype": "WillowGame.Default__BodyClassDefinition:RunStance0"
}