{
  "VfTable_IIBehaviorProvider": "",
  "MovementStyle": "MOVE_Forward",
  "SpeedScale": 0.2,
  "RotationScale": 0.3,
  "bCanUseAimOffsets": false,
  "bCanUseTurns": true,
  "bCanUseJumps": true,
  "bCanUseCringes": true,
  "bCanUseFlinches": true,
  "bAllowLeftHandIK": false,
  "bCanDodge": false,
  "bAllowMovementDodges": false,
  "bOverrideFlinches": false,
  "JumpNodeCostMultiplier": 100.0,
  "Turns": null,
  "AimOffsetName": null,
  "BehaviorProviderDefinition": null,
  "VfTableObject": "",
  "HashNext": "",
  "ObjectFlags": "",
  "HashOuterNext": "",
  "StateFrame": "",
  "Linker": null,
  "LinkerIndex": "",
  "ObjectInternalInteger": 201490,
  "NetIndex": 921,
  "Outer":
    "GD_Nast_Native_WithcDoctorShared.Character.BodyClass_NastWitchDoctor_Shared",
  "Name": "PatrolStance0",
  "Class": "WillowGame.StanceTypeDefinition",
  "ObjectArchetype": "WillowGame.Default__BodyClassDefinition:PatrolStance0"
}