{
  "VfTable_IIBehaviorProvider": "",
  "MovementStyle": "MOVE_Forward",
  "SpeedScale": 0.2,
  "RotationScale": 0.3,
  "bCanUseAimOffsets": true,
  "bCanUseTurns": false,
  "bCanUseJumps": true,
  "bCanUseCringes": false,
  "bCanUseFlinches": false,
  "bAllowLeftHandIK": false,
  "bCanDodge": false,
  "bAllowMovementDodges": false,
  "bOverrideFlinches": false,
  "JumpNodeCostMultiplier": 100.0,
  "Turns": null,
  "AimOffsetName": null,
  "BehaviorProviderDefinition": null,
  "VfTableObject": "",
  "HashNext": "",
  "ObjectFlags": "",
  "HashOuterNext": "",
  "StateFrame": "",
  "Linker": null,
  "LinkerIndex": "",
  "ObjectInternalInteger": 210601,
  "NetIndex": 1044,
  "Outer": "GD_Native_Shared.Character.BodyClass_NativeShared",
  "Name": "PatrolStance0",
  "Class": "WillowGame.StanceTypeDefinition",
  "ObjectArchetype": "WillowGame.Default__BodyClassDefinition:PatrolStance0"
}