{
  "VfTable_IIBehaviorProvider": "",
  "MovementStyle": "MOVE_Forward",
  "SpeedScale": 1.0,
  "RotationScale": 1.0,
  "bCanUseAimOffsets": false,
  "bCanUseTurns": true,
  "bCanUseJumps": true,
  "bCanUseCringes": true,
  "bCanUseFlinches": true,
  "bAllowLeftHandIK": false,
  "bCanDodge": false,
  "bAllowMovementDodges": false,
  "bOverrideFlinches": false,
  "JumpNodeCostMultiplier": 1.0,
  "Turns": null,
  "AimOffsetName": null,
  "BehaviorProviderDefinition": null,
  "VfTableObject": "",
  "HashNext": "",
  "ObjectFlags": "",
  "HashOuterNext": "",
  "StateFrame": "",
  "Linker": null,
  "LinkerIndex": "",
  "ObjectInternalInteger": 210409,
  "NetIndex": 331,
  "Outer": "GD_Native_WitchDoctorSlow.Character.BodyClass_WitchDoctorSlow",
  "Name": "StanceTypeDefinition_1",
  "Class": "WillowGame.StanceTypeDefinition",
  "ObjectArchetype": "WillowGame.Default__StanceTypeDefinition"
}