{
  "VfTable_IIBehaviorProvider": "",
  "MovementStyle": "MOVE_Strafe",
  "SpeedScale": 2.0,
  "RotationScale": 0.2,
  "bCanUseAimOffsets": true,
  "bCanUseTurns": true,
  "bCanUseJumps": true,
  "bCanUseCringes": true,
  "bCanUseFlinches": true,
  "bAllowLeftHandIK": false,
  "bCanDodge": true,
  "bAllowMovementDodges": false,
  "bOverrideFlinches": false,
  "JumpNodeCostMultiplier": 1.0,
  "Turns": null,
  "AimOffsetName": null,
  "BehaviorProviderDefinition":
    "GD_Orchid_SandWormGrub.Character.BodyClass_Orchid_SandWormGrub:StanceTypeDefinition_7.BehaviorProviderDefinition_2",
  "VfTableObject": "",
  "HashNext": "",
  "ObjectFlags": "",
  "HashOuterNext": "",
  "StateFrame": "",
  "Linker": null,
  "LinkerIndex": "",
  "ObjectInternalInteger": 196954,
  "NetIndex": 186,
  "Outer": "GD_Orchid_SandWormGrub.Character.BodyClass_Orchid_SandWormGrub",
  "Name": "StanceTypeDefinition_7",
  "Class": "WillowGame.StanceTypeDefinition",
  "ObjectArchetype": "WillowGame.Default__BodyClassDefinition:SprintStance0"
}