{
  "VfTable_IIBehaviorProvider": "",
  "MovementStyle": "MOVE_Strafe",
  "SpeedScale": 0.5,
  "RotationScale": 1.0,
  "bCanUseAimOffsets": true,
  "bCanUseTurns": true,
  "bCanUseJumps": true,
  "bCanUseCringes": true,
  "bCanUseFlinches": true,
  "bAllowLeftHandIK": false,
  "bCanDodge": false,
  "bAllowMovementDodges": false,
  "bOverrideFlinches": false,
  "JumpNodeCostMultiplier": 1.0,
  "Turns": "GD_PrimalBeastShared.Anims.TurnDef_PrimalBeastShared_Injured",
  "AimOffsetName": null,
  "BehaviorProviderDefinition":
    "GD_PrimalBeastBaby.Character.BodyClass_PrimalBeastBaby:InjuredStance0.BehaviorProviderDefinition_7",
  "VfTableObject": "",
  "HashNext": "",
  "ObjectFlags": "",
  "HashOuterNext": "",
  "StateFrame": "",
  "Linker": null,
  "LinkerIndex": "",
  "ObjectInternalInteger": 202532,
  "NetIndex": 265,
  "Outer": "GD_PrimalBeastBaby.Character.BodyClass_PrimalBeastBaby",
  "Name": "InjuredStance0",
  "Class": "WillowGame.StanceTypeDefinition",
  "ObjectArchetype": "WillowGame.Default__BodyClassDefinition:InjuredStance0"
}