{
  "VfTable_IIBehaviorProvider": "",
  "MovementStyle": "MOVE_Forward",
  "SpeedScale": 0.1,
  "RotationScale": 0.5,
  "bCanUseAimOffsets": true,
  "bCanUseTurns": true,
  "bCanUseJumps": true,
  "bCanUseCringes": true,
  "bCanUseFlinches": true,
  "bAllowLeftHandIK": false,
  "bCanDodge": true,
  "bAllowMovementDodges": false,
  "bOverrideFlinches": false,
  "JumpNodeCostMultiplier": 100.0,
  "Turns": "GD_SpiderantShared.Anims.TurnDef_Spiderant_Patrol",
  "AimOffsetName": null,
  "BehaviorProviderDefinition": null,
  "VfTableObject": "",
  "HashNext": "",
  "ObjectFlags": "",
  "HashOuterNext": "",
  "StateFrame": "",
  "Linker": null,
  "LinkerIndex": "",
  "ObjectInternalInteger": 198267,
  "NetIndex": 189,
  "Outer":
    "GD_SpiderantRoyalGuard_Digi.Character.BodyClass_SpiderantRoyalGuard_Digi",
  "Name": "PatrolStance0",
  "Class": "WillowGame.StanceTypeDefinition",
  "ObjectArchetype": "WillowGame.Default__BodyClassDefinition:PatrolStance0"
}