{
  "VfTable_IIBehaviorProvider": "",
  "MovementStyle": "MOVE_Forward",
  "SpeedScale": 0.2,
  "RotationScale": 0.5,
  "bCanUseAimOffsets": true,
  "bCanUseTurns": true,
  "bCanUseJumps": true,
  "bCanUseCringes": true,
  "bCanUseFlinches": true,
  "bAllowLeftHandIK": false,
  "bCanDodge": true,
  "bAllowMovementDodges": false,
  "bOverrideFlinches": false,
  "JumpNodeCostMultiplier": 100.0,
  "Turns": null,
  "AimOffsetName": null,
  "BehaviorProviderDefinition": null,
  "VfTableObject": "",
  "HashNext": "",
  "ObjectFlags": "",
  "HashOuterNext": "",
  "StateFrame": "",
  "Linker": null,
  "LinkerIndex": "",
  "ObjectInternalInteger": 209971,
  "NetIndex": 131,
  "Outer": "GD_StalkerChubby.Character.BodyClass_StalkerChubby",
  "Name": "PatrolStance0",
  "Class": "WillowGame.StanceTypeDefinition",
  "ObjectArchetype": "WillowGame.Default__BodyClassDefinition:PatrolStance0"
}