{
  "VfTable_IIBehaviorProvider": "",
  "MovementStyle": "MOVE_Forward",
  "SpeedScale": 0.75,
  "RotationScale": 0.5,
  "bCanUseAimOffsets": false,
  "bCanUseTurns": true,
  "bCanUseJumps": false,
  "bCanUseCringes": false,
  "bCanUseFlinches": false,
  "bAllowLeftHandIK": false,
  "bCanDodge": false,
  "bAllowMovementDodges": false,
  "bOverrideFlinches": false,
  "JumpNodeCostMultiplier": 100.0,
  "Turns": null,
  "AimOffsetName": null,
  "BehaviorProviderDefinition": null,
  "VfTableObject": "",
  "HashNext": "",
  "ObjectFlags": "",
  "HashOuterNext": "",
  "StateFrame": "",
  "Linker": null,
  "LinkerIndex": "",
  "ObjectInternalInteger": 217962,
  "NetIndex": 448,
  "Outer": "GD_Treant.Character.BodyClass_Treant",
  "Name": "StanceTypeDefinition_6",
  "Class": "WillowGame.StanceTypeDefinition",
  "ObjectArchetype": "WillowGame.Default__BodyClassDefinition:PatrolStance0"
}