{
  "FunctionCall": "GetNumSpawnChildren",
  "VfTableObject": "",
  "HashNext": "",
  "ObjectFlags": "",
  "HashOuterNext": "",
  "StateFrame": "",
  "Linker": null,
  "LinkerIndex": "",
  "ObjectInternalInteger": 204386,
  "NetIndex": 39,
  "Outer": "GD_Attributes_AI.Spawn.Attribute_Spawn_ChildNumber",
  "Name": "ObjectFunctionAttributeValueResolver_0",
  "Class": "GearboxFramework.ObjectFunctionAttributeValueResolver",
  "ObjectArchetype":
    "GearboxFramework.Default__ObjectFunctionAttributeValueResolver"
}