{
  "FunctionCall": "GetIsRegistered",
  "VfTableObject": "",
  "HashNext": "",
  "ObjectFlags": "",
  "HashOuterNext": "",
  "StateFrame": "",
  "Linker": null,
  "LinkerIndex": "",
  "ObjectInternalInteger": 213154,
  "NetIndex": 1192,
  "Outer": "GD_GameSystemMachines.Attributes.FastTravel_IsRegistered",
  "Name": "ObjectFunctionAttributeValueResolver_0",
  "Class": "GearboxFramework.ObjectFunctionAttributeValueResolver",
  "ObjectArchetype":
    "GearboxFramework.Default__ObjectFunctionAttributeValueResolver"
}