{
  "bSomeoneJustJoined": false,
  "Teams": [
    "Loader.TheWorld:PersistentLevel.TeamInfo_143",
    "Loader.TheWorld:PersistentLevel.TeamInfo_144"
  ],
  "VfTable_IIDesignerAttributeProvider": "",
  "VfTable_IIAIInterface": "",
  "bWeaponStay": false,
  "bDemoMode": false,
  "bPIESpawnInVehicle": false,
  "bConsoleServer": false,
  "bResurrectAllPlayersWhenOneDies": false,
  "bBossesRegenHealthOnReset": true,
  "bEnemiesForgetDownedPlayers": false,
  "bEnemiesCannotDoCloseAttacksOnDownedPlayers": true,
  "bDlcTravelFailureReceived": false,
  "HardcoreMode": false,
  "bIgnoreFriendlyFire": true,
  "bIgnoreNPCFriendlyFire": true,
  "bFromSeamlessTravel": false,
  "AdjustedDifficulty": 1.0,
  "PIESpawnInVehicleName": "",
  "LastPlayerStartSpot":
    "Loader.TheWorld:PersistentLevel.WillowCoopPlayerStart_2",
  "LastStartSpot": "Loader.TheWorld:PersistentLevel.WillowCoopPlayerStart_2",
  "VehicleList": null,
  "MyGlobals": "GD_Globals.General.Globals",
  "GlobalSkillManager":
    "Loader.TheWorld:PersistentLevel.SkillEffectManager_71",
  "GlobalPlayerInteractionManager": null,
  "GlobalChallengeManager":
    "Loader.TheWorld:PersistentLevel.ChallengeManager_70",
  "GlobalCombatMusicManager":
    "Loader.TheWorld:PersistentLevel.WillowCoopGameInfo_71.CombatMusicManager_69",
  "GlobalPlayerStatsNotifier":
    "Loader.TheWorld:PersistentLevel.WillowCoopGameInfo_71.PlayerStatsNotifier_70",
  "GlobalBlackMarketUpgradeManager":
    "Loader.TheWorld:PersistentLevel.BlackMarketUpgradeManager_70",
  "ReturnTeleporter": null,
  "PersonalTeleporter": null,
  "TeleporterDestinationName": "Refinary",
  "MapChangeInitiated": "%s initiated travel.",
  "MapChangePlayerDown": "%s tried to initiate travel, but %t is down!",
  "MapChangePlayerInMenu":
    "%s tried to initiate travel, but %t is in a menu.",
  "MapChangeYouAreInMenu":
    "%s tried to initiate travel, but you are in a menu!",
  "MapChangeMissingDLC":
    "A member of your party does not have the downloadable content needed to travel to %t.",
  "MapChangeNeedInstallMissingDLC":
    "You can not travel to %t because you do not have the associated downloadable content installed.",
  "MapChangeUpsellMissingDLC":
    "You can not travel to %t because you do not own it. Download it today!",
  "MapChangeCountdown": "Travel commencing in %i...",
  "MapChangeCanceledPlayerDown": "Travel canceled, %s is down!",
  "MapChangeCanceledPlayerMenu": "Travel canceled, %s is in a menu.",
  "MapChangePlayerIsSaving": "%s tried to initiate travel, but %t is saving.",
  "MapChangeCanceledPlayerIsSaving": "Travel canceled, %s is saving.",
  "MapChangePlayerJoining":
    "%s tried to initiate travel, but %t is still joining the game.",
  "MapChangeUnknownPlayerJoining":
    "%s tried to initiate travel, but a player is still joining the game.",
  "MapChangeCanceledPlayerJoining":
    "Travel canceled, %s is joining the game.",
  "MapChangeCanceledUnknownPlayerJoining":
    "Travel canceled, a player is joining the game.",
  "MapChangePlayerDueling":
    "%s tried to initiate travel, but %1 and %2 are dueling.",
  "MapChangeCanceledPlayerDueling": "Travel canceled, %1 and %2 are dueling.",
  "MapChangePlayerRespawn":
    "%s tried to initiate travel, but %t is respawning!",
  "MapChangeCanceledPlayerRespawn": "Travel canceled, %s is respawning!",
  "TravelCountdownTime": 0,
  "TravelPostCountdownTime": 0,
  "TravelBehavior": null,
  "TravelEventInterface": null,
  "TravelStationDef": null,
  "TravelInstigator": null,
  "NewShopInventory": "Shops have new inventory!",
  "SecondsUntilShopsReset": 1184.105713,
  "ShopTimerRate": 1.0,
  "ShopTimerRateBaseValue": 1.0,
  "LastShopResetTime": 0.0,
  "SecondsUntilShopTimerResend": 4.096447,
  "NewShopInventoryDisplayTime": 5.0,
  "NewShopInventoryDisplayColor": { "B": 255, "G": 255, "R": 255, "A": 255 },
  "StartGameTimer": 0,
  "StartGameState": "SGS_None",
  "CharacterSelectTimeInSeconds": 120,
  "CharacterSelectQuickStartTimeInSeconds": 5,
  "NextNameListIndex": 0,
  "AIBlackboards": [
    "Loader.TheWorld:PersistentLevel.WillowCoopGameInfo_71.WillowAIBlackboardComponent_176",
    "Loader.TheWorld:PersistentLevel.WillowCoopGameInfo_71.WillowAIBlackboardComponent_177",
    "Loader.TheWorld:PersistentLevel.WillowCoopGameInfo_71.WillowAIBlackboardComponent_178",
    "Loader.TheWorld:PersistentLevel.WillowCoopGameInfo_71.WillowAIBlackboardComponent_179",
    "Loader.TheWorld:PersistentLevel.WillowCoopGameInfo_71.WillowAIBlackboardComponent_180",
    "Loader.TheWorld:PersistentLevel.WillowCoopGameInfo_71.WillowAIBlackboardComponent_181",
    "Loader.TheWorld:PersistentLevel.WillowCoopGameInfo_71.WillowAIBlackboardComponent_182",
    "Loader.TheWorld:PersistentLevel.WillowCoopGameInfo_71.WillowAIBlackboardComponent_183"
  ],
  "CachedColiseumStats": [
    {
      "WPC": "Loader.TheWorld:PersistentLevel.WillowPlayerController_71",
      "Stats": [ { "StatType": "ECSTAT_Kills", "StatValue": 60241 } ]
    },
    { "WPC": null, "Stats": null },
    { "WPC": null, "Stats": null },
    { "WPC": null, "Stats": null }
  ],
  "AreaWaypoints": [
    { "WaypointActor": null, "WaypointRadius": 0, "WaypointObjective": null },
    { "WaypointActor": null, "WaypointRadius": 0, "WaypointObjective": null },
    { "WaypointActor": null, "WaypointRadius": 0, "WaypointObjective": null },
    { "WaypointActor": null, "WaypointRadius": 0, "WaypointObjective": null }
  ],
  "WaypointActors": [
    { "WaypointActor": null, "WaypointObjective": null, "Waypoints": null },
    { "WaypointActor": null, "WaypointObjective": null, "Waypoints": null },
    { "WaypointActor": null, "WaypointObjective": null, "Waypoints": null },
    { "WaypointActor": null, "WaypointObjective": null, "Waypoints": null },
    { "WaypointActor": null, "WaypointObjective": null, "Waypoints": null },
    {
      "WaypointActor":
        "PandoraPark_P.TheWorld:PersistentLevel.FastTravelStation_0",
      "WaypointObjective": null,
      "Waypoints": [
        "PandoraPark_P.TheWorld:PersistentLevel.FastTravelStation_0.LevelTransitionWaypointComponent_72"
      ]
    }
  ],
  "DesignerAttributes": [
    "Loader.TheWorld:PersistentLevel.WillowCoopGameInfo_71.InstancedDesignerAttribute_680",
    "Loader.TheWorld:PersistentLevel.WillowCoopGameInfo_71.InstancedDesignerAttribute_681",
    "Loader.TheWorld:PersistentLevel.WillowCoopGameInfo_71.InstancedDesignerAttribute_684",
    "Loader.TheWorld:PersistentLevel.WillowCoopGameInfo_71.InstancedDesignerAttribute_685"
  ],
  "bRestartLevel": false,
  "bPauseable": false,
  "bTeamGame": true,
  "bGameEnded": false,
  "bOverTime": false,
  "bDelayedStart": true,
  "bWaitingToStartMatch": false,
  "bChangeLevels": true,
  "bAlreadyChanged": false,
  "bAdminCanPause": false,
  "bGameRestarted": false,
  "bLevelChange": false,
  "bKickLiveIdlers": false,
  "bShutdownAIWhenIrrelevant": true,
  "bUsingArbitration": false,
  "bHasArbitratedHandshakeBegun": false,
  "bNeedsEndGameHandshake": false,
  "bIsEndGameHandshakeComplete": false,
  "bHasEndGameHandshakeBegun": false,
  "bFixedPlayerStart": false,
  "bUseSeamlessTravel": true,
  "bHasNetworkError": false,
  "bRequiresPushToTalk": false,
  "bIsStandbyCheckingEnabled": false,
  "bIsStandbyCheckingOn": false,
  "bHasStandbyCheatTriggered": false,
  "bNewOnlineSessionOnTravel": false,
  "CauseEventCommand": "",
  "BugLocString": "",
  "BugRotString": "",
  "ArbitrationHandshakeTimeout": 0.0,
  "GameDifficulty": 1.0,
  "GoreLevel": 0,
  "GameSpeed": 1.0,
  "DefaultPawnClass": "WillowGame.WillowPlayerPawn",
  "HUDType": "WillowGame.WillowHUD",
  "MaxSpectators": 0,
  "MaxSpectatorsAllowed": 0,
  "NumSpectators": 0,
  "MaxPlayers": 4,
  "MaxPlayersAllowed": 4,
  "NumPlayers": 1,
  "EffectiveNumPlayers": 1,
  "NumBots": 0,
  "NumTravellingPlayers": 0,
  "CurrentID": 1,
  "DefaultPlayerName": "Player",
  "GameName": "Game",
  "GoalScore": -1,
  "MaxLives": 0,
  "TimeLimit": 10,
  "DeathMessageClass": "Engine.LocalMessage",
  "GameMessageClass": "Engine.GameMessage",
  "BaseMutator": null,
  "AccessControlClass": "WillowGame.WillowAccessControl",
  "AccessControl": null,
  "BroadcastHandlerClass": "Engine.BroadcastHandler",
  "BroadcastHandler": "Loader.TheWorld:PersistentLevel.BroadcastHandler_71",
  "AutoTestManagerClass": "WillowGame.WillowAutoTestManager",
  "MyAutoTestManager": null,
  "PlayerControllerClass": "WillowGame.WillowPlayerController",
  "PlayerReplicationInfoClass": "WillowGame.WillowPlayerReplicationInfo",
  "GameReplicationInfoClass": "WillowGame.WillowGameReplicationInfo",
  "GameReplicationInfo":
    "Loader.TheWorld:PersistentLevel.WillowGameReplicationInfo_72",
  "MaxIdleTime": 0.0,
  "MaxTimeMargin": 0.0,
  "TimeMarginSlack": 1.35,
  "MinTimeMargin": -1.0,
  "OnlineSub": "Transient.OnlineSubsystemSteamworks_0",
  "GameInterface":
    "Transient.OnlineSubsystemSteamworks_0:OnlineGameInterfaceSteamworks_0",
  "OnlineStatsWriteClass": null,
  "LeaderboardId": -131072,
  "ArbitratedLeaderboardId": -65536,
  "CoverReplicatorBase": null,
  "OnlineGameSettingsClass": "WillowGame.WillowOnlineGameSettings",
  "ServerOptions": "",
  "AdjustedNetSpeed": 7000,
  "LastNetSpeedUpdateTime": 0.0,
  "TotalNetBandwidth": 32000,
  "MinDynamicBandwidth": 4000,
  "MaxDynamicBandwidth": 7000,
  "StandbyRxCheatTime": 0.0,
  "StandbyTxCheatTime": 0.0,
  "BadPingThreshold": 0,
  "PercentMissingForRxStandby": 0.0,
  "PercentMissingForTxStandby": 0.0,
  "PercentForBadPing": 0.0,
  "JoinInProgressStandbyWaitTime": 0.0,
  "DefaultGameType": "",
  "AnimTreePoolSize": 0,
  "__CanUnpause__Delegate": "(null).None",
  "VfTable_IIWorldBody": "",
  "VfTable_IISpawnActor": "",
  "VfTable_IIDamageCauser": "",
  "Location": { "X": 0.0, "Y": 0.0, "Z": 0.0 },
  "Rotation": { "Pitch": 0, "Yaw": 0, "Roll": 0 },
  "DrawScale": 1.0,
  "DrawScale3D": { "X": 1.0, "Y": 1.0, "Z": 1.0 },
  "PrePivot": { "X": 0.0, "Y": 0.0, "Z": 0.0 },
  "DetachFence": "",
  "CustomTimeDilation": 1.0,
  "Physics": "PHYS_None",
  "RemoteRole": "ROLE_None",
  "Role": "ROLE_Authority",
  "CollisionType": "COLLIDE_NoCollision",
  "ReplicatedCollisionType": [ "INVALID" ],
  "TickGroup": "TG_PreAsyncWork",
  "Owner": null,
  "Base": null,
  "bUseOrthonormalizedLighting": false,
  "bStatic": false,
  "bHidden": true,
  "bNoDelete": false,
  "bDeleteMe": false,
  "bTicked": true,
  "bOnlyOwnerSee": false,
  "bTickIsDisabled": false,
  "bWorldGeometry": false,
  "bIgnoreRigidBodyPawns": false,
  "bOrientOnSlope": false,
  "bIgnoreEncroachers": false,
  "bPushedByEncroachers": true,
  "bRouteBeginPlayEvenIfStatic": true,
  "bIsMoving": false,
  "bAlwaysEncroachCheck": false,
  "bCanStepUpOn": true,
  "bNetTemporary": false,
  "bOnlyRelevantToOwner": false,
  "bNetDirty": false,
  "bAlwaysRelevant": false,
  "bReplicateInstigator": false,
  "bReplicateMovement": true,
  "bSkipRotationReplication": false,
  "bForceRotationReplication": false,
  "bSkipActorPropertyReplication": true,
  "bUpdateSimulatedPosition": false,
  "bTearOff": false,
  "bOnlyDirtyReplication": true,
  "bSkipHiddenReplication": false,
  "bAllowFluidSurfaceInteraction": true,
  "bDemoRecording": false,
  "bDemoOwner": false,
  "bForceDemoRelevant": false,
  "bNetInitialRotation": false,
  "bReplicateRigidBodyLocation": false,
  "bKillDuringLevelTransition": false,
  "bExchangedRoles": false,
  "bConsiderAllStaticMeshComponentsForStreaming": false,
  "bPostRenderIfNotVisible": false,
  "bForceNetUpdate": false,
  "bPendingNetUpdate": false,
  "bHardAttach": false,
  "bIgnoreBaseRotation": false,
  "bSkipAttachedMoves": true,
  "bHurtEntry": false,
  "bGameRelevant": false,
  "bMovable": true,
  "bDestroyInPainVolume": false,
  "bCanBeDamaged": false,
  "bShouldBaseAtStartup": false,
  "bPendingDelete": false,
  "bCanTeleport": false,
  "bAlwaysTick": false,
  "bBlocksNavigation": false,
  "bCanTarget": false,
  "bCanTargetCheat": false,
  "BlockRigidBody": false,
  "bCollideWhenPlacing": false,
  "bCollideActors": false,
  "bCollideWorld": false,
  "bCollideComplex": false,
  "bBlockActors": false,
  "bProjTarget": false,
  "bBlocksTeleport": false,
  "bProjectileMoveSingleBlocking": false,
  "bTraceListeners": false,
  "bIsBlockingMesh": false,
  "bIsWillowInteractiveObject": false,
  "bIgnoreRadiusDamageCheck": false,
  "bNoEncroachCheck": false,
  "bCollideAsEncroacher": false,
  "bPhysRigidBodyOutOfWorldCheck": false,
  "bComponentOutsideWorld": false,
  "bForceOctreeSNFilter": false,
  "bRigidBodyWasAwake": false,
  "bCallRigidBodyWakeEvents": false,
  "bBounce": false,
  "bJustTeleported": true,
  "bNetInitial": false,
  "bNetOwner": false,
  "bHiddenEd": false,
  "bEditable": true,
  "bHiddenEdLayer": false,
  "bHiddenEdTemporary": false,
  "bHiddenEdLevel": false,
  "bEdShouldSnap": false,
  "bTempEditor": false,
  "bPathColliding": false,
  "bPathTemp": false,
  "bScriptInitialized": true,
  "bLockLocation": false,
  "bForceAllowKismetModification": false,
  "bTraceIgnoreRigidBodyForPawns": false,
  "bAutoMovePlayerOnInterpActor": false,
  "bMoveActorDoZeroExtentTrace": false,
  "bDebugEffectIsRelevant": false,
  "bLoadIfPhysXLevel0": true,
  "bLoadIfPhysXLevel1": true,
  "bLoadIfPhysXLevel2": true,
  "NetTag": 0,
  "NetUpdateTime": 0.0,
  "NetUpdateFrequency": 10.0,
  "NetPriority": 1.0,
  "LastNetUpdateTime": 0.0,
  "Instigator": null,
  "WorldInfo": "Loader.TheWorld:PersistentLevel.WorldInfo_1",
  "LifeSpan": 0.0,
  "CreationTime": 0.0,
  "LastRenderTime": -3.4028234663852886e+38,
  "LatentFloat": 0.0,
  "PhysicsVolume": "Loader.TheWorld:PersistentLevel.DefaultPhysicsVolume_71",
  "Velocity": { "X": 0.0, "Y": 0.0, "Z": 0.0 },
  "Acceleration": { "X": 0.0, "Y": 0.0, "Z": 0.0 },
  "AngularVelocity": { "X": 0.0, "Y": 0.0, "Z": 0.0 },
  "BaseSkelComponent": null,
  "BaseBoneName": null,
  "RelativeLocation": { "X": 0.0, "Y": 0.0, "Z": 0.0 },
  "RelativeRotation": { "Pitch": 0, "Yaw": 0, "Roll": 0 },
  "CollisionComponent": null,
  "OverlapTag": 0,
  "RotationRate": { "Pitch": 0, "Yaw": 0, "Roll": 0 },
  "MostRecentDamageTaken": 0.0,
  "Timers": [
    {
      "bLoop": true,
      "bPaused": false,
      "FuncName": "Timer",
      "Rate": 1.0,
      "Count": 0.906554,
      "TimerTimeDilation": 1.0,
      "TimerObj": "Loader.TheWorld:PersistentLevel.WillowCoopGameInfo_71"
    }
  ],
  "AllComponents": [
    "Loader.TheWorld:PersistentLevel.WillowCoopGameInfo_71.WillowAIBlackboardComponent_176",
    "Loader.TheWorld:PersistentLevel.WillowCoopGameInfo_71.WillowAIBlackboardComponent_177",
    "Loader.TheWorld:PersistentLevel.WillowCoopGameInfo_71.WillowAIBlackboardComponent_178",
    "Loader.TheWorld:PersistentLevel.WillowCoopGameInfo_71.WillowAIBlackboardComponent_179",
    "Loader.TheWorld:PersistentLevel.WillowCoopGameInfo_71.WillowAIBlackboardComponent_180",
    "Loader.TheWorld:PersistentLevel.WillowCoopGameInfo_71.WillowAIBlackboardComponent_181",
    "Loader.TheWorld:PersistentLevel.WillowCoopGameInfo_71.WillowAIBlackboardComponent_182",
    "Loader.TheWorld:PersistentLevel.WillowCoopGameInfo_71.WillowAIBlackboardComponent_183"
  ],
  "Components": [
    "Loader.TheWorld:PersistentLevel.WillowCoopGameInfo_71.WillowAIBlackboardComponent_176",
    "Loader.TheWorld:PersistentLevel.WillowCoopGameInfo_71.WillowAIBlackboardComponent_177",
    "Loader.TheWorld:PersistentLevel.WillowCoopGameInfo_71.WillowAIBlackboardComponent_178",
    "Loader.TheWorld:PersistentLevel.WillowCoopGameInfo_71.WillowAIBlackboardComponent_179",
    "Loader.TheWorld:PersistentLevel.WillowCoopGameInfo_71.WillowAIBlackboardComponent_180",
    "Loader.TheWorld:PersistentLevel.WillowCoopGameInfo_71.WillowAIBlackboardComponent_181",
    "Loader.TheWorld:PersistentLevel.WillowCoopGameInfo_71.WillowAIBlackboardComponent_182",
    "Loader.TheWorld:PersistentLevel.WillowCoopGameInfo_71.WillowAIBlackboardComponent_183"
  ],
  "VfTableObject": "",
  "HashNext": "",
  "ObjectFlags": "",
  "HashOuterNext": "",
  "StateFrame": "",
  "Linker": null,
  "LinkerIndex": "",
  "ObjectInternalInteger": 242873,
  "NetIndex": -1,
  "Outer": "Loader.TheWorld:PersistentLevel",
  "Name": "WillowCoopGameInfo_71",
  "Class": "WillowGame.WillowCoopGameInfo",
  "ObjectArchetype": "WillowGame.Default__WillowCoopGameInfo"
}