{
  "PlayerClassId": "GD_LilacPackageDef.PlayerClassId.Psycho",
  "VfTableObject": "",
  "HashNext": "",
  "ObjectFlags": "",
  "HashOuterNext": "",
  "StateFrame": "",
  "Linker": null,
  "LinkerIndex": "",
  "ObjectInternalInteger": 236889,
  "NetIndex": -1,
  "Outer":
    "Transient.AttributeInitializationDefinition_56:AttributeDefinition_114",
  "Name": "ClassDropWeightValueResolver_56",
  "Class": "WillowGame.ClassDropWeightValueResolver",
  "ObjectArchetype": "WillowGame.Default__ClassDropWeightValueResolver"
}