{
  "PlayerClassId": "GD_PlayerClassId.Mercenary",
  "VfTableObject": "",
  "HashNext": "",
  "ObjectFlags": "",
  "HashOuterNext": "",
  "StateFrame": "",
  "Linker": null,
  "LinkerIndex": "",
  "ObjectInternalInteger": 238532,
  "NetIndex": -1,
  "Outer":
    "Transient.AttributeInitializationDefinition_219:AttributeDefinition_432",
  "Name": "ClassDropWeightValueResolver_215",
  "Class": "WillowGame.ClassDropWeightValueResolver",
  "ObjectArchetype": "WillowGame.Default__ClassDropWeightValueResolver"
}