{
  "PlayerClassId": "GD_PlayerClassId.Assassin",
  "VfTableObject": "",
  "HashNext": "",
  "ObjectFlags": "",
  "HashOuterNext": "",
  "StateFrame": "",
  "Linker": null,
  "LinkerIndex": "",
  "ObjectInternalInteger": 238572,
  "NetIndex": -1,
  "Outer":
    "Transient.AttributeInitializationDefinition_224:AttributeDefinition_442",
  "Name": "ClassDropWeightValueResolver_220",
  "Class": "WillowGame.ClassDropWeightValueResolver",
  "ObjectArchetype": "WillowGame.Default__ClassDropWeightValueResolver"
}