{
  "PlayerClassId": "GD_LilacPackageDef.PlayerClassId.Psycho",
  "VfTableObject": "",
  "HashNext": "",
  "ObjectFlags": "",
  "HashOuterNext": "",
  "StateFrame": "",
  "Linker": null,
  "LinkerIndex": "",
  "ObjectInternalInteger": 238511,
  "NetIndex": -1,
  "Outer":
    "Transient.AttributeInitializationDefinition_318:AttributeDefinition_630",
  "Name": "ClassDropWeightValueResolver_314",
  "Class": "WillowGame.ClassDropWeightValueResolver",
  "ObjectArchetype": "WillowGame.Default__ClassDropWeightValueResolver"
}