{
  "PlayerClassId": "GD_TulipPackageDef.PlayerClassId.Mechromancer",
  "VfTableObject": "",
  "HashNext": "",
  "ObjectFlags": "",
  "HashOuterNext": "",
  "StateFrame": "",
  "Linker": null,
  "LinkerIndex": "",
  "ObjectInternalInteger": 238504,
  "NetIndex": -1,
  "Outer":
    "Transient.AttributeInitializationDefinition_159:AttributeDefinition_320",
  "Name": "ClassDropWeightValueResolver_159",
  "Class": "WillowGame.ClassDropWeightValueResolver",
  "ObjectArchetype": "WillowGame.Default__ClassDropWeightValueResolver"
}