{
  "PlayerClassId": "GD_TulipPackageDef.PlayerClassId.Mechromancer",
  "VfTableObject": "",
  "HashNext": "",
  "ObjectFlags": "",
  "HashOuterNext": "",
  "StateFrame": "",
  "Linker": null,
  "LinkerIndex": "",
  "ObjectInternalInteger": 238502,
  "NetIndex": -1,
  "Outer":
    "Transient.AttributeInitializationDefinition_253:AttributeDefinition_500",
  "Name": "ClassDropWeightValueResolver_249",
  "Class": "WillowGame.ClassDropWeightValueResolver",
  "ObjectArchetype": "WillowGame.Default__ClassDropWeightValueResolver"
}