{
  "PlayerClassId": "GD_PlayerClassId.Assassin",
  "VfTableObject": "",
  "HashNext": "",
  "ObjectFlags": "",
  "HashOuterNext": "",
  "StateFrame": "",
  "Linker": null,
  "LinkerIndex": "",
  "ObjectInternalInteger": 242864,
  "NetIndex": -1,
  "Outer":
    "Transient.AttributeInitializationDefinition_416:AttributeDefinition_826",
  "Name": "ClassDropWeightValueResolver_412",
  "Class": "WillowGame.ClassDropWeightValueResolver",
  "ObjectArchetype": "WillowGame.Default__ClassDropWeightValueResolver"
}