{
  "PlayerClassId": "GD_PlayerClassId.Soldier",
  "VfTableObject": "",
  "HashNext": "",
  "ObjectFlags": "",
  "HashOuterNext": "",
  "StateFrame": "",
  "Linker": null,
  "LinkerIndex": "",
  "ObjectInternalInteger": 238520,
  "NetIndex": -1,
  "Outer":
    "Transient.AttributeInitializationDefinition_293:AttributeDefinition_580",
  "Name": "ClassDropWeightValueResolver_289",
  "Class": "WillowGame.ClassDropWeightValueResolver",
  "ObjectArchetype": "WillowGame.Default__ClassDropWeightValueResolver"
}