{
  "PlayerClassId": "GD_PlayerClassId.Mercenary",
  "VfTableObject": "",
  "HashNext": "",
  "ObjectFlags": "",
  "HashOuterNext": "",
  "StateFrame": "",
  "Linker": null,
  "LinkerIndex": "",
  "ObjectInternalInteger": 242899,
  "NetIndex": -1,
  "Outer":
    "Transient.AttributeInitializationDefinition_439:AttributeDefinition_864",
  "Name": "ClassDropWeightValueResolver_431",
  "Class": "WillowGame.ClassDropWeightValueResolver",
  "ObjectArchetype": "WillowGame.Default__ClassDropWeightValueResolver"
}