{
  "PlayerClassId": "GD_TulipPackageDef.PlayerClassId.Mechromancer",
  "VfTableObject": "",
  "HashNext": "",
  "ObjectFlags": "",
  "HashOuterNext": "",
  "StateFrame": "",
  "Linker": null,
  "LinkerIndex": "",
  "ObjectInternalInteger": 238506,
  "NetIndex": -1,
  "Outer":
    "Transient.AttributeInitializationDefinition_283:AttributeDefinition_560",
  "Name": "ClassDropWeightValueResolver_279",
  "Class": "WillowGame.ClassDropWeightValueResolver",
  "ObjectArchetype": "WillowGame.Default__ClassDropWeightValueResolver"
}