{
  "ProductID": 303,
  "NumCustomizations": 9,
  "VfTable_IIDlcLicenseObject": "",
  "PackageDef": "GD_Gardenia05PackageDef.PackageDef_Gardenia05",
  "ContentId": 1,
  "LicenseMask": 1,
  "ContentDisplayName": "Mechromancer Beatmaster Pack",
  "VfTableObject": "",
  "HashNext": "",
  "ObjectFlags": "",
  "HashOuterNext": "",
  "StateFrame": "",
  "Linker": null,
  "LinkerIndex": "",
  "ObjectInternalInteger": 167357,
  "NetIndex": 0,
  "Outer": "GD_Gardenia05PackageDef.Customization",
  "Name": "CustomizationSet_Gardenia05_MechroHP05",
  "Class": "WillowGame.DownloadableCustomizationSetDefinition",
  "ObjectArchetype":
    "WillowGame.Default__DownloadableCustomizationSetDefinition"
}