{
  "ProductID": 305,
  "NumCustomizations": 5,
  "VfTable_IIDlcLicenseObject": "",
  "PackageDef": "GD_Gardenia01PackageDef.PackageDef_Gardenia01",
  "ContentId": 5,
  "LicenseMask": 16,
  "ContentDisplayName": "Siren Supremacy Pack",
  "VfTableObject": "",
  "HashNext": "",
  "ObjectFlags": "",
  "HashOuterNext": "",
  "StateFrame": "",
  "Linker": null,
  "LinkerIndex": "",
  "ObjectInternalInteger": 167276,
  "NetIndex": 10,
  "Outer": "GD_Gardenia01PackageDef.Customization",
  "Name": "CustomizationSet_Gardenia01_SirenPower",
  "Class": "WillowGame.DownloadableCustomizationSetDefinition",
  "ObjectArchetype":
    "WillowGame.Default__DownloadableCustomizationSetDefinition"
}