{
  "ProductID": 0,
  "NumCustomizations": 0,
  "VfTable_IIDlcLicenseObject": "",
  "PackageDef": "GD_NasturtiumPackageDef.PackageDef_Nasturtium",
  "ContentId": 6,
  "LicenseMask": 8,
  "ContentDisplayName": "Son of Crawmerax",
  "VfTableObject": "",
  "HashNext": "",
  "ObjectFlags": "",
  "HashOuterNext": "",
  "StateFrame": "",
  "Linker": null,
  "LinkerIndex": "",
  "ObjectInternalInteger": 173382,
  "NetIndex": 6,
  "Outer": "Package'GD_NasturtiumPackageDef'",
  "Name": "CustomizationSet_Nasturtium_Easter",
  "Class": "WillowGame.DownloadableCustomizationSetDefinition",
  "ObjectArchetype":
    "WillowGame.Default__DownloadableCustomizationSetDefinition"
}