{
  "ProductID": 301,
  "NumCustomizations": 100,
  "VfTable_IIDlcLicenseObject": "",
  "PackageDef": "GD_TulipPackageDef.PackageDef_Tulip",
  "ContentId": 2,
  "LicenseMask": 1,
  "ContentDisplayName": "Mechromancer Customizations",
  "VfTableObject": "",
  "HashNext": "",
  "ObjectFlags": "",
  "HashOuterNext": "",
  "StateFrame": "",
  "Linker": null,
  "LinkerIndex": "",
  "ObjectInternalInteger": 179805,
  "NetIndex": 1,
  "Outer": "Package'GD_TulipPackageDef'",
  "Name": "CustomizationSet_Tulip",
  "Class": "WillowGame.DownloadableCustomizationSetDefinition",
  "ObjectArchetype":
    "WillowGame.Default__DownloadableCustomizationSetDefinition"
}