{
  "Tiers": [
    { "bCellIsOccupied": [ true, false, true ] },
    { "bCellIsOccupied": [ true, false, true ] },
    { "bCellIsOccupied": [ true, true, true ] },
    { "bCellIsOccupied": [ true, true, false ] },
    { "bCellIsOccupied": [ false, true, false ] },
    { "bCellIsOccupied": [ false, true, false ] }
  ],
  "VfTableObject": "",
  "HashNext": "",
  "ObjectFlags": "",
  "HashOuterNext": "",
  "StateFrame": "",
  "Linker": null,
  "LinkerIndex": "",
  "ObjectInternalInteger": 212851,
  "NetIndex": 501,
  "Outer": "GD_Soldier_Skills.SkillTree",
  "Name": "Layout_Gunpowder",
  "Class": "WillowGame.SkillTreeBranchLayoutDefinition",
  "ObjectArchetype": "WillowGame.Default__SkillTreeBranchLayoutDefinition"
}