{
  "PlayThroughThree": [
    {
      "AIPawnBalanceDefinitionFullObjectName":
        "GD_Population_PrimalBeast.Balance.PawnBalance_PrimalBeastAdult",
      "DisplayName": "Ruthless Bullymong",
      "TransformedNames": [
        {
          "Type": "EAIT_Fire",
          "TransformedName": "Ruthless Primal Beast",
          "TransformedKillStat": null
        },
        {
          "Type": "EAIT_Shock",
          "TransformedName": "Ruthless Ferovore",
          "TransformedKillStat": null
        },
        {
          "Type": "EAIT_Corrosive",
          "TransformedName": "Ruthless Bonerfart",
          "TransformedKillStat": null
        },
        {
          "Type": "EAIT_Slagged",
          "TransformedName": "Ruthless Bullymong",
          "TransformedKillStat": null
        }
      ]
    },
    {
      "AIPawnBalanceDefinitionFullObjectName":
        "GD_Population_PrimalBeast.Balance.Unique.PawnBalance_PrimalBeast_Bullyrott",
      "DisplayName": "Ruthless Bullyrott",
      "TransformedNames": null
    },
    {
      "AIPawnBalanceDefinitionFullObjectName":
        "GD_BloodwingShared.Balance.PawnBalance_SkagAdult_MinusTwo_Bloodwing",
      "DisplayName": "Barbed Skag",
      "TransformedNames": [
        {
          "Type": "EAIT_Fire",
          "TransformedName": "Barbed Fire Skag",
          "TransformedKillStat": null
        },
        {
          "Type": "EAIT_Shock",
          "TransformedName": "Barbed Shock Skag",
          "TransformedKillStat": null
        },
        {
          "Type": "EAIT_Corrosive",
          "TransformedName": "Barbed Corrosive Skag",
          "TransformedKillStat": null
        },
        {
          "Type": "EAIT_Slagged",
          "TransformedName": "Barbed Slag Skag",
          "TransformedKillStat": null
        }
      ]
    },
    {
      "AIPawnBalanceDefinitionFullObjectName":
        "GD_Population_Skag.Balance.PawnBalance_SkagAdult",
      "DisplayName": "Barbed Skag",
      "TransformedNames": [
        {
          "Type": "EAIT_Fire",
          "TransformedName": "Barbed Fire Skag",
          "TransformedKillStat": null
        },
        {
          "Type": "EAIT_Shock",
          "TransformedName": "Barbed Shock Skag",
          "TransformedKillStat": null
        },
        {
          "Type": "EAIT_Corrosive",
          "TransformedName": "Barbed Corrosive Skag",
          "TransformedKillStat": null
        },
        {
          "Type": "EAIT_Slagged",
          "TransformedName": "Barbed Slag Skag",
          "TransformedKillStat": null
        }
      ]
    },
    {
      "AIPawnBalanceDefinitionFullObjectName":
        "GD_BloodwingShared.Balance.PawnBalance_SkagAlpha_MinusTwo_Bloodwing",
      "DisplayName": "Fossil Skag",
      "TransformedNames": null
    },
    {
      "AIPawnBalanceDefinitionFullObjectName":
        "GD_Population_Skag.Balance.PawnBalance_SkagAlpha",
      "DisplayName": "Fossil Skag",
      "TransformedNames": null
    },
    {
      "AIPawnBalanceDefinitionFullObjectName":
        "GD_Population_Stalker.Balance.PawnBalance_StalkerAmbush",
      "DisplayName": "Blitz Stalker",
      "TransformedNames": null
    },
    {
      "AIPawnBalanceDefinitionFullObjectName":
        "GD_Population_Midget.Balance.PawnBalance_MidgetShield",
      "DisplayName": "Raging Midget",
      "TransformedNames": null
    },
    {
      "AIPawnBalanceDefinitionFullObjectName":
        "GD_Population_Psycho.Balance.PawnBalance_PsychoArmored",
      "DisplayName": "Ironclad Lunatic",
      "TransformedNames": null
    },
    {
      "AIPawnBalanceDefinitionFullObjectName":
        "GD_Population_Skag.Balance.PawnBalance_SkagRider",
      "DisplayName": "Ironclad Skag Rider",
      "TransformedNames": [
        {
          "Type": "EAIT_Custom",
          "TransformedName": "Ironclad Skag",
          "TransformedKillStat": null
        }
      ]
    },
    {
      "AIPawnBalanceDefinitionFullObjectName":
        "GD_Population_PrimalBeast.Balance.PawnBalance_PrimalBeast_BedrockBadass",
      "DisplayName": "Ultimate Badass Rockwall Bullymong",
      "TransformedNames": [
        {
          "Type": "EAIT_Fire",
          "TransformedName": "Ultimate Badass Rockwall Primal Beast",
          "TransformedKillStat": null
        },
        {
          "Type": "EAIT_Shock",
          "TransformedName": "Ultimate Badass Rockwall Ferovore",
          "TransformedKillStat": null
        },
        {
          "Type": "EAIT_Corrosive",
          "TransformedName": "Ultimate Badass Rockwall Bonerfart",
          "TransformedKillStat": null
        },
        {
          "Type": "EAIT_Slagged",
          "TransformedName": "Ultimate Badass Rockwall Bullymong",
          "TransformedKillStat": null
        }
      ]
    },
    {
      "AIPawnBalanceDefinitionFullObjectName":
        "GD_Population_PrimalBeast.Balance.PawnBalance_PrimalBeast_Badass",
      "DisplayName": "Ultimate Badass Bullymong",
      "TransformedNames": [
        {
          "Type": "EAIT_Fire",
          "TransformedName": "Ultimate Badass Primal Beast",
          "TransformedKillStat": null
        },
        {
          "Type": "EAIT_Shock",
          "TransformedName": "Ultimate Badass Ferovore",
          "TransformedKillStat": null
        },
        {
          "Type": "EAIT_Corrosive",
          "TransformedName": "Ultimate Badass Bonerfart",
          "TransformedKillStat": null
        },
        {
          "Type": "EAIT_Slagged",
          "TransformedName": "Ultimate Badass Bullymong",
          "TransformedKillStat": null
        }
      ]
    },
    {
      "AIPawnBalanceDefinitionFullObjectName":
        "GD_Population_Constructor.Balance.PawnBalance_ConstructorBadass",
      "DisplayName": "Super Badass Constructor v3.0",
      "TransformedNames": null
    },
    {
      "AIPawnBalanceDefinitionFullObjectName":
        "GD_BloodwingShared.Balance.PawnBalance_SkagBadassCorrosive_MinusOne_Bloodwing",
      "DisplayName": "Ultimate Badass Corrosive Skag",
      "TransformedNames": null
    },
    {
      "AIPawnBalanceDefinitionFullObjectName":
        "GD_Population_Skag.Balance.PawnBalance_SkagBadassCorrosive",
      "DisplayName": "Ultimate Badass Corrosive Skag",
      "TransformedNames": null
    },
    {
      "AIPawnBalanceDefinitionFullObjectName":
        "GD_BloodwingShared.Balance.PawnBalance_SkagBadassFire_MinusOne_Bloodwing",
      "DisplayName": "Ultimate Badass Fire Skag",
      "TransformedNames": null
    },
    {
      "AIPawnBalanceDefinitionFullObjectName":
        "GD_Population_Skag.Balance.PawnBalance_SkagBadassFire",
      "DisplayName": "Ultimate Badass Fire Skag",
      "TransformedNames": null
    },
    {
      "AIPawnBalanceDefinitionFullObjectName":
        "GD_Population_Loader.Balance.PawnBalance_LoaderBadass",
      "DisplayName": "Super Badass Loader",
      "TransformedNames": null
    },
    {
      "AIPawnBalanceDefinitionFullObjectName":
        "GD_Population_Loader.Balance.PawnBalance_LoaderBadass_HealthCashAmmoOnly",
      "DisplayName": "Super Badass Loader",
      "TransformedNames": null
    },
    {
      "AIPawnBalanceDefinitionFullObjectName":
        "GD_Population_Marauder.Balance.PawnBalance_MarauderBadass",
      "DisplayName": "Ultimate Badass Marauder",
      "TransformedNames": null
    },
    {
      "AIPawnBalanceDefinitionFullObjectName":
        "GD_Population_Midget.Balance.PawnBalance_MidgetBadass",
      "DisplayName": "Super Duper Badass Midget",
      "TransformedNames": [
        {
          "Type": "EAIT_Custom",
          "TransformedName": "Super Duper Raging Midget Goliath",
          "TransformedKillStat": null
        },
        {
          "Type": "EAIT_Fire",
          "TransformedName": "Super Duper Badass Midget Goliath",
          "TransformedKillStat": null
        },
        {
          "Type": "EAIT_Shock",
          "TransformedName": "Super Duper Badass Midget Goliath",
          "TransformedKillStat": null
        },
        {
          "Type": "EAIT_Corrosive",
          "TransformedName": "Super Duper Badass Midget Goliath",
          "TransformedKillStat": null
        },
        {
          "Type": "EAIT_Slagged",
          "TransformedName": "Super Duper Giant Midget of Death",
          "TransformedKillStat": null
        }
      ]
    },
    {
      "AIPawnBalanceDefinitionFullObjectName":
        "GD_Population_Nomad.Balance.PawnBalance_NomadBadass",
      "DisplayName": "Ultimate Badass Nomad",
      "TransformedNames": null
    },
    {
      "AIPawnBalanceDefinitionFullObjectName":
        "GD_Population_Psycho.Balance.PawnBalance_PsychoBadass",
      "DisplayName": "Ultimate Badass Lunatic",
      "TransformedNames": null
    },
    {
      "AIPawnBalanceDefinitionFullObjectName":
        "GD_Population_Thresher.Balance.PawnBalance_ThresherBadassFire",
      "DisplayName": "Ultimate Badass Pyre Thresher",
      "TransformedNames": null
    },
    {
      "AIPawnBalanceDefinitionFullObjectName":
        "GD_BloodwingShared.Balance.PawnBalance_SkagBadassShock_MinusOne_Bloodwing",
      "DisplayName": "Ultimate Badass Shock Skag",
      "TransformedNames": null
    },
    {
      "AIPawnBalanceDefinitionFullObjectName":
        "GD_Population_Skag.Balance.PawnBalance_SkagBadassShock",
      "DisplayName": "Ultimate Badass Shock Skag",
      "TransformedNames": null
    },
    {
      "AIPawnBalanceDefinitionFullObjectName":
        "GD_BloodwingShared.Balance.PawnBalance_SkagBadassSlag_MinusOne_Bloodwing",
      "DisplayName": "Ultimate Badass Slag Skag",
      "TransformedNames": null
    },
    {
      "AIPawnBalanceDefinitionFullObjectName":
        "GD_Population_Skag.Balance.PawnBalance_SkagBadassSlag",
      "DisplayName": "Ultimate Badass Slag Skag",
      "TransformedNames": null
    },
    {
      "AIPawnBalanceDefinitionFullObjectName":
        "GD_Population_Stalker.Balance.PawnBalance_StalkerBadass",
      "DisplayName": "Ultimate Badass Stalker",
      "TransformedNames": null
    },
    {
      "AIPawnBalanceDefinitionFullObjectName":
        "GD_BloodwingShared.Balance.PawnBalance_SkagBarfer_MinusTwo_Bloodwing",
      "DisplayName": "Yack Skag",
      "TransformedNames": [
        {
          "Type": "EAIT_Fire",
          "TransformedName": "Fire Yacker",
          "TransformedKillStat": null
        },
        {
          "Type": "EAIT_Shock",
          "TransformedName": "Shock Yacker",
          "TransformedKillStat": null
        },
        {
          "Type": "EAIT_Corrosive",
          "TransformedName": "Corrosive Yacker",
          "TransformedKillStat": null
        },
        {
          "Type": "EAIT_Slagged",
          "TransformedName": "Slagged Yacker",
          "TransformedKillStat": null
        }
      ]
    },
    {
      "AIPawnBalanceDefinitionFullObjectName":
        "GD_Population_Skag.Balance.PawnBalance_SkagBarfer",
      "DisplayName": "Yack Skag",
      "TransformedNames": [
        {
          "Type": "EAIT_Fire",
          "TransformedName": "Fire Yacker",
          "TransformedKillStat": null
        },
        {
          "Type": "EAIT_Shock",
          "TransformedName": "Shock Yacker",
          "TransformedKillStat": null
        },
        {
          "Type": "EAIT_Corrosive",
          "TransformedName": "Corrosive Yacker",
          "TransformedKillStat": null
        },
        {
          "Type": "EAIT_Slagged",
          "TransformedName": "Slagged Yacker",
          "TransformedKillStat": null
        }
      ]
    },
    {
      "AIPawnBalanceDefinitionFullObjectName":
        "GD_Population_PrimalBeast.Balance.PawnBalance_PrimalBeast_Bedrock",
      "DisplayName": "Mineral Bullymong",
      "TransformedNames": [
        {
          "Type": "EAIT_Fire",
          "TransformedName": "Mineral Primal Beast",
          "TransformedKillStat": null
        },
        {
          "Type": "EAIT_Shock",
          "TransformedName": "Mineral Ferovore",
          "TransformedKillStat": null
        },
        {
          "Type": "EAIT_Corrosive",
          "TransformedName": "Mineral Bonerfart",
          "TransformedKillStat": null
        },
        {
          "Type": "EAIT_Slagged",
          "TransformedName": "Mineral Bullymong",
          "TransformedKillStat": null
        }
      ]
    },
    {
      "AIPawnBalanceDefinitionFullObjectName":
        "GD_Population_PrimalBeast.Balance.PawnBalance_PrimalBeast",
      "DisplayName": "Ruthless Bullymong Brat",
      "TransformedNames": [
        {
          "Type": "EAIT_Fire",
          "TransformedName": "Ruthless Primal Beast Brat",
          "TransformedKillStat": null
        },
        {
          "Type": "EAIT_Shock",
          "TransformedName": "Ruthless Ferovore Brat",
          "TransformedKillStat": null
        },
        {
          "Type": "EAIT_Corrosive",
          "TransformedName": "Ruthless Bonerfart Brat",
          "TransformedKillStat": null
        },
        {
          "Type": "EAIT_Slagged",
          "TransformedName": "Ruthless Bullymong Brat",
          "TransformedKillStat": null
        }
      ]
    },
    {
      "AIPawnBalanceDefinitionFullObjectName":
        "GD_Population_Bruiser.Balance.PawnBalance_Bruiser",
      "DisplayName": "Bone Crusher",
      "TransformedNames": null
    },
    {
      "AIPawnBalanceDefinitionFullObjectName":
        "GD_Population_Bruiser.Balance.PawnBalance_Bruiser_LilithIntro",
      "DisplayName": "Bone Crusher",
      "TransformedNames": null
    },
    {
      "AIPawnBalanceDefinitionFullObjectName":
        "GD_Population_PrimalBeast.Balance.PawnBalance_PrimalBeast_Slinger",
      "DisplayName": "Hardball Bullymong",
      "TransformedNames": [
        {
          "Type": "EAIT_Fire",
          "TransformedName": "Hardball Primal Beast",
          "TransformedKillStat": null
        },
        {
          "Type": "EAIT_Shock",
          "TransformedName": "Hardball Ferovore",
          "TransformedKillStat": null
        },
        {
          "Type": "EAIT_Corrosive",
          "TransformedName": "Hardball Bonerfart",
          "TransformedKillStat": null
        },
        {
          "Type": "EAIT_Slagged",
          "TransformedName": "Hardball Bullymong",
          "TransformedKillStat": null
        }
      ]
    },
    {
      "AIPawnBalanceDefinitionFullObjectName":
        "GD_Population_Psycho.Balance.PawnBalance_PsychoBurning",
      "DisplayName": "Flaming Lunatic",
      "TransformedNames": null
    },
    {
      "AIPawnBalanceDefinitionFullObjectName":
        "GD_Population_Engineer.Balance.PawnBalance_Engineer",
      "DisplayName": "Advanced Combat Engineer",
      "TransformedNames": null
    },
    {
      "AIPawnBalanceDefinitionFullObjectName":
        "GD_Population_Constructor.Balance.PawnBalance_Constructor",
      "DisplayName": "Constructor v3.0",
      "TransformedNames": null
    },
    {
      "AIPawnBalanceDefinitionFullObjectName":
        "GD_Population_Marauder.Balance.PawnBalance_MarauderPsycho",
      "DisplayName": "Frenzied Marauder",
      "TransformedNames": null
    },
    {
      "AIPawnBalanceDefinitionFullObjectName":
        "GD_Population_Stalker.Balance.PawnBalance_StalkerCyclone",
      "DisplayName": "Typhoon Stalker",
      "TransformedNames": null
    },
    {
      "AIPawnBalanceDefinitionFullObjectName":
        "GD_Population_Marauder.Balance.PawnBalance_MarauderElite",
      "DisplayName": "Rugged Marauder",
      "TransformedNames": null
    },
    {
      "AIPawnBalanceDefinitionFullObjectName":
        "GD_Population_Engineer.Balance.PawnBalance_EngineerArms",
      "DisplayName": "Advanced Engineer",
      "TransformedNames": null
    },
    {
      "AIPawnBalanceDefinitionFullObjectName":
        "GD_Population_Thresher.Balance.PawnBalance_ThresherFeeler",
      "DisplayName": "Clutch Thresher",
      "TransformedNames": null
    },
    {
      "AIPawnBalanceDefinitionFullObjectName":
        "GD_Population_SpiderAnt.Balance.PawnBalance_SpiderantFire",
      "DisplayName": "Blazing Spiderant",
      "TransformedNames": null
    },
    {
      "AIPawnBalanceDefinitionFullObjectName":
        "GD_Population_Psycho.Balance.PawnBalance_PsychoSnow",
      "DisplayName": "Frosty Lunatic",
      "TransformedNames": null
    },
    {
      "AIPawnBalanceDefinitionFullObjectName":
        "GD_Population_Engineer.Balance.PawnBalance_HyperionHawk",
      "DisplayName": "Hyperion Predator",
      "TransformedNames": null
    },
    {
      "AIPawnBalanceDefinitionFullObjectName":
        "GD_Population_Engineer.Balance.PawnBalance_HyperionInfiltrator",
      "DisplayName": "Hyperion Spook",
      "TransformedNames": null
    },
    {
      "AIPawnBalanceDefinitionFullObjectName":
        "GD_Population_Engineer.Balance.PawnBalance_BlackOps",
      "DisplayName": "Hyperion Marksman",
      "TransformedNames": null
    },
    {
      "AIPawnBalanceDefinitionFullObjectName":
        "GD_Population_Engineer.Balance.PawnBalance_HyperionSoldier",
      "DisplayName": "Hyperion Anti-Freedom Fighter",
      "TransformedNames": null
    },
    {
      "AIPawnBalanceDefinitionFullObjectName":
        "GD_Population_Marauder.Balance.PawnBalance_MarauderRegular",
      "DisplayName": "Murdering Marauder",
      "TransformedNames": null
    },
    {
      "AIPawnBalanceDefinitionFullObjectName":
        "GD_Population_Rat.Balance.PawnBalance_RatLab",
      "DisplayName": "Mutated Lab Rat",
      "TransformedNames": null
    },
    {
      "AIPawnBalanceDefinitionFullObjectName":
        "GD_Population_Marauder.Balance.PawnBalance_MarauderGrunt",
      "DisplayName": "Outlaw",
      "TransformedNames": null
    },
    {
      "AIPawnBalanceDefinitionFullObjectName":
        "GD_Population_Marauder.Balance.PawnBalance_MarauderIntro",
      "DisplayName": "Outlaw",
      "TransformedNames": null
    },
    {
      "AIPawnBalanceDefinitionFullObjectName":
        "GD_Population_Midget.Balance.PawnBalance_MidgetNomad",
      "DisplayName": "Knee-High Nomad",
      "TransformedNames": null
    },
    {
      "AIPawnBalanceDefinitionFullObjectName":
        "GD_Population_Midget.Balance.PawnBalance_MidgetRat",
      "DisplayName": "Wee Rat",
      "TransformedNames": null
    },
    {
      "AIPawnBalanceDefinitionFullObjectName":
        "GD_Population_Rat.Balance.Unique.PawnBalance_ProspectorRat",
      "DisplayName": "Mole Rat",
      "TransformedNames": null
    },
    {
      "AIPawnBalanceDefinitionFullObjectName":
        "GD_Population_PrimalBeast.Balance.PawnBalance_PrimalBeast_Monglet",
      "DisplayName": "Ruthless Monglet",
      "TransformedNames": [
        {
          "Type": "EAIT_Fire",
          "TransformedName": "Ruthless Primalet",
          "TransformedKillStat": null
        },
        {
          "Type": "EAIT_Shock",
          "TransformedName": "Ruthless Ferovolet",
          "TransformedKillStat": null
        },
        {
          "Type": "EAIT_Corrosive",
          "TransformedName": "Ruthless Bonertoot",
          "TransformedKillStat": null
        },
        {
          "Type": "EAIT_Slagged",
          "TransformedName": "Ruthless Monglet",
          "TransformedKillStat": null
        }
      ]
    },
    {
      "AIPawnBalanceDefinitionFullObjectName":
        "GD_Population_Stalker.Balance.PawnBalance_StalkerNeedle",
      "DisplayName": "Clash Stalker",
      "TransformedNames": null
    },
    {
      "AIPawnBalanceDefinitionFullObjectName":
        "GD_Population_Nomad.Balance.PawnBalance_NomadPyro",
      "DisplayName": "Nomad Arsonist",
      "TransformedNames": null
    },
    {
      "AIPawnBalanceDefinitionFullObjectName":
        "GD_Population_Nomad.Balance.PawnBalance_Nomad_Taskmaster",
      "DisplayName": "Nomad Tyrant",
      "TransformedNames": null
    },
    {
      "AIPawnBalanceDefinitionFullObjectName":
        "GD_Population_Nomad.Balance.PawnBalance_NomadShieldwMidget",
      "DisplayName": "Nomad Head Crusher",
      "TransformedNames": null
    },
    {
      "AIPawnBalanceDefinitionFullObjectName":
        "GD_Population_Nomad.Balance.PawnBalance_Nomad",
      "DisplayName": "Nomad Plunderer",
      "TransformedNames": null
    },
    {
      "AIPawnBalanceDefinitionFullObjectName":
        "GD_Population_SpiderAnt.Balance.PawnBalance_SpiderantPoison",
      "DisplayName": "Diseased Spiderant",
      "TransformedNames": null
    },
    {
      "AIPawnBalanceDefinitionFullObjectName":
        "GD_Population_Midget.Balance.PawnBalance_PsychoMidget",
      "DisplayName": "Lil' Lunatic",
      "TransformedNames": null
    },
    {
      "AIPawnBalanceDefinitionFullObjectName":
        "GD_Population_Psycho.Balance.Unique.PawnBalance_ProspectorPsycho",
      "DisplayName": "Lunatic Miner",
      "TransformedNames": null
    },
    {
      "AIPawnBalanceDefinitionFullObjectName":
        "GD_Population_Psycho.Balance.PawnBalance_Psycho",
      "DisplayName": "Lunatic",
      "TransformedNames": null
    },
    {
      "AIPawnBalanceDefinitionFullObjectName":
        "GD_Population_Psycho.Balance.PawnBalance_TargetDummy",
      "DisplayName": "Lunatic",
      "TransformedNames": null
    },
    {
      "AIPawnBalanceDefinitionFullObjectName":
        "GD_Population_Psycho.Balance.PawnBalance_TargetDummy_Shield",
      "DisplayName": "Lunatic",
      "TransformedNames": null
    },
    {
      "AIPawnBalanceDefinitionFullObjectName":
        "GD_Population_Psycho.Balance.Unique.PawnBalance_HangMan",
      "DisplayName": "Lunatic",
      "TransformedNames": null
    },
    {
      "AIPawnBalanceDefinitionFullObjectName":
        "GD_Population_Skag.Balance.PawnBalance_SkagPup",
      "DisplayName": "Barbed Pup Skag",
      "TransformedNames": [
        {
          "Type": "EAIT_Fire",
          "TransformedName": "Barbed Fire Pup",
          "TransformedKillStat": null
        },
        {
          "Type": "EAIT_Shock",
          "TransformedName": "Barbed Shock Pup",
          "TransformedKillStat": null
        },
        {
          "Type": "EAIT_Corrosive",
          "TransformedName": "Barbed Corrosive Pup",
          "TransformedKillStat": null
        },
        {
          "Type": "EAIT_Slagged",
          "TransformedName": "Barbed Slag Pup",
          "TransformedKillStat": null
        }
      ]
    },
    {
      "AIPawnBalanceDefinitionFullObjectName":
        "GD_Population_SpiderAnt.Balance.PawnBalance_SpiderantQueen",
      "DisplayName": "Spiderant Procreator",
      "TransformedNames": null
    },
    {
      "AIPawnBalanceDefinitionFullObjectName":
        "GD_Population_Rat.Balance.PawnBalance_RatThief",
      "DisplayName": "Despicable Rat Bastard",
      "TransformedNames": null
    },
    {
      "AIPawnBalanceDefinitionFullObjectName":
        "GD_Population_Nomad.Balance.PawnBalance_NomadShock",
      "DisplayName": "Electrified Nomad",
      "TransformedNames": null
    },
    {
      "AIPawnBalanceDefinitionFullObjectName":
        "GD_Population_Midget.Balance.PawnBalance_MidgetShotgun",
      "DisplayName": "Boomstick Midget",
      "TransformedNames": null
    },
    {
      "AIPawnBalanceDefinitionFullObjectName":
        "GD_Population_Psycho.Balance.PawnBalance_PsychoSlag",
      "DisplayName": "Slagged Lunatic",
      "TransformedNames": null
    },
    {
      "AIPawnBalanceDefinitionFullObjectName":
        "GD_Population_SpiderAnt.Balance.PawnBalance_Spiderantking",
      "DisplayName": "Monarch Spiderant",
      "TransformedNames": null
    },
    {
      "AIPawnBalanceDefinitionFullObjectName":
        "GD_Population_SpiderAnt.Balance.PawnBalance_SpiderantKnight",
      "DisplayName": "Gallant Spiderant",
      "TransformedNames": null
    },
    {
      "AIPawnBalanceDefinitionFullObjectName":
        "GD_Population_SpiderAnt.Balance.PawnBalance_SpiderantRoyalGuard",
      "DisplayName": "Spiderant Sentry",
      "TransformedNames": null
    },
    {
      "AIPawnBalanceDefinitionFullObjectName":
        "GD_Population_SpiderAnt.Balance.PawnBalance_SpiderantSoldier",
      "DisplayName": "Spiderant Brawler",
      "TransformedNames": null
    },
    {
      "AIPawnBalanceDefinitionFullObjectName":
        "GD_Population_SpiderAnt.Balance.PawnBalance_SpiderantWarrior",
      "DisplayName": "Spiderant Slugger",
      "TransformedNames": null
    },
    {
      "AIPawnBalanceDefinitionFullObjectName":
        "GD_Population_SpiderAnt.Balance.PawnBalance_SpiderantWorker",
      "DisplayName": "Spiderant Slave",
      "TransformedNames": null
    },
    {
      "AIPawnBalanceDefinitionFullObjectName":
        "GD_BloodwingShared.Balance.PawnBalance_SkagSpitter_MinusTwo_Bloodwing",
      "DisplayName": "Salivating Skag",
      "TransformedNames": [
        {
          "Type": "EAIT_Fire",
          "TransformedName": "Salivating Fire Skag",
          "TransformedKillStat": null
        },
        {
          "Type": "EAIT_Shock",
          "TransformedName": "Salivating Shock Skag",
          "TransformedKillStat": null
        },
        {
          "Type": "EAIT_Corrosive",
          "TransformedName": "Salivating Corrosive Skag",
          "TransformedKillStat": null
        },
        {
          "Type": "EAIT_Slagged",
          "TransformedName": "Salivating Slagged Skag",
          "TransformedKillStat": null
        }
      ]
    },
    {
      "AIPawnBalanceDefinitionFullObjectName":
        "GD_Population_Skag.Balance.PawnBalance_SkagSpitter",
      "DisplayName": "Salivating Skag",
      "TransformedNames": [
        {
          "Type": "EAIT_Fire",
          "TransformedName": "Salivating Fire Skag",
          "TransformedKillStat": null
        },
        {
          "Type": "EAIT_Shock",
          "TransformedName": "Salivating Shock Skag",
          "TransformedKillStat": null
        },
        {
          "Type": "EAIT_Corrosive",
          "TransformedName": "Salivating Corrosive Skag",
          "TransformedKillStat": null
        },
        {
          "Type": "EAIT_Slagged",
          "TransformedName": "Salivating Slagged Skag",
          "TransformedKillStat": null
        }
      ]
    },
    {
      "AIPawnBalanceDefinitionFullObjectName":
        "GD_Population_Stalker.Balance.PawnBalance_StalkerSpring",
      "DisplayName": "Pestilent Stalker",
      "TransformedNames": null
    },
    {
      "AIPawnBalanceDefinitionFullObjectName":
        "GD_Population_Midget.Balance.PawnBalance_MidgetSuicide",
      "DisplayName": "Bitsy Bomber",
      "TransformedNames": null
    },
    {
      "AIPawnBalanceDefinitionFullObjectName":
        "GD_Population_Psycho.Balance.PawnBalance_PsychoSuicide",
      "DisplayName": "Lunatic Bomber",
      "TransformedNames": null
    },
    {
      "AIPawnBalanceDefinitionFullObjectName":
        "GD_Population_Loader.Balance.PawnBalance_LoaderSuperBadass",
      "DisplayName": "Ultimate Badass Loader",
      "TransformedNames": null
    },
    {
      "AIPawnBalanceDefinitionFullObjectName":
        "GD_Population_Thresher.Balance.PawnBalance_ThresherSmall",
      "DisplayName": "Young Thresher",
      "TransformedNames": null
    },
    {
      "AIPawnBalanceDefinitionFullObjectName":
        "GD_Population_Thresher.Balance.PawnBalance_Thresher",
      "DisplayName": "Tremor Thresher",
      "TransformedNames": null
    },
    {
      "AIPawnBalanceDefinitionFullObjectName":
        "GD_Population_Rat.Balance.PawnBalance_RatTunnel",
      "DisplayName": "Flesh-Eating Rat",
      "TransformedNames": null
    },
    {
      "AIPawnBalanceDefinitionFullObjectName":
        "GD_Population_Thresher.Balance.PawnBalance_ThresherTurf",
      "DisplayName": "Landscape Thresher",
      "TransformedNames": null
    },
    {
      "AIPawnBalanceDefinitionFullObjectName":
        "GD_Population_Thresher.Balance.PawnBalance_ThresherWormHole",
      "DisplayName": "Rift Thresher",
      "TransformedNames": null
    },
    {
      "AIPawnBalanceDefinitionFullObjectName":
        "GD_Population_Midget.Balance.PawnBalance_MidgetChubby",
      "DisplayName": "Tubby Midget",
      "TransformedNames": null
    },
    {
      "AIPawnBalanceDefinitionFullObjectName":
        "GD_Population_Rakk.Balance.PawnBalance_RakkChubby",
      "DisplayName": "Tubby Rakk",
      "TransformedNames": null
    },
    {
      "AIPawnBalanceDefinitionFullObjectName":
        "GD_Population_SpiderAnt.Balance.PawnBalance_SpiderantChubby",
      "DisplayName": "Tubby Spiderant",
      "TransformedNames": null
    },
    {
      "AIPawnBalanceDefinitionFullObjectName":
        "GD_Population_Stalker.Balance.PawnBalance_StalkerChubby",
      "DisplayName": "Tubby Stalker",
      "TransformedNames": null
    },
    {
      "AIPawnBalanceDefinitionFullObjectName":
        "GD_Population_BugMorph.Balance.PawnBalance_BugMorphChubby",
      "DisplayName": "Tubby Varkid",
      "TransformedNames": null
    },
    {
      "AIPawnBalanceDefinitionFullObjectName":
        "GD_Population_Midget.Balance.LootMidget.PawnBalance_LootMidget_CombatEngineer",
      "DisplayName": "Legendary Loot Midget Engineer",
      "TransformedNames": null
    },
    {
      "AIPawnBalanceDefinitionFullObjectName":
        "GD_Population_Midget.Balance.LootMidget.PawnBalance_LootMidget_Engineer",
      "DisplayName": "Legendary Loot Midget Engineer",
      "TransformedNames": null
    },
    {
      "AIPawnBalanceDefinitionFullObjectName":
        "GD_Population_Midget.Balance.LootMidget.PawnBalance_LootMidget_Goliath",
      "DisplayName": "Legendary Loot Midget Goliath",
      "TransformedNames": [
        {
          "Type": "EAIT_Custom",
          "TransformedName": "Legendary Raging Loot Midget Goliath",
          "TransformedKillStat": null
        },
        {
          "Type": "EAIT_Fire",
          "TransformedName": "Legendary Badass Loot Midget Goliath",
          "TransformedKillStat": null
        },
        {
          "Type": "EAIT_Shock",
          "TransformedName": "Legendary Super Badass Loot Midget Goliath",
          "TransformedKillStat": null
        },
        {
          "Type": "EAIT_Corrosive",
          "TransformedName": "Legendary Ultimate Badass Loot Midget Goliath",
          "TransformedKillStat": null
        },
        {
          "Type": "EAIT_Slagged",
          "TransformedName": "Legendary Midget GOD-liath",
          "TransformedKillStat": null
        }
      ]
    },
    {
      "AIPawnBalanceDefinitionFullObjectName":
        "GD_Population_Midget.Balance.LootMidget.PawnBalance_LootMidget_Marauder",
      "DisplayName": "Legendary Loot Midget Marauder",
      "TransformedNames": null
    },
    {
      "AIPawnBalanceDefinitionFullObjectName":
        "GD_Population_Midget.Balance.LootMidget.PawnBalance_LootMidget_Nomad",
      "DisplayName": "Legendary Loot Midget Nomad",
      "TransformedNames": null
    },
    {
      "AIPawnBalanceDefinitionFullObjectName":
        "GD_Population_Midget.Balance.LootMidget.PawnBalance_LootMidget_Psycho",
      "DisplayName": "Legendary Loot Midget Psycho",
      "TransformedNames": null
    },
    {
      "AIPawnBalanceDefinitionFullObjectName":
        "GD_Population_Midget.Balance.LootMidget.PawnBalance_LootMidget_Rat",
      "DisplayName": "Legendary Loot Midget Rat",
      "TransformedNames": null
    },
    {
      "AIPawnBalanceDefinitionFullObjectName":
        "GD_Population_Midget.Balance.LootMidget.PawnBalance_LootMidget_LoaderGUN",
      "DisplayName": "Legendary Loot Wee GUN Loader",
      "TransformedNames": null
    },
    {
      "AIPawnBalanceDefinitionFullObjectName":
        "GD_Population_Midget.Balance.LootMidget.PawnBalance_LootMidget_LoaderJET",
      "DisplayName": "Legendary Loot Wee JET Loader",
      "TransformedNames": null
    },
    {
      "AIPawnBalanceDefinitionFullObjectName":
        "GD_Orchid_Pop_Pirates.Balance.PawnBalance_Orchid_PirateCaptain",
      "DisplayName": "Super Badass Pirate",
      "TransformedNames": null
    },
    {
      "AIPawnBalanceDefinitionFullObjectName":
        "GD_Orchid_Pop_Pirates.Balance.PawnBalance_Orchid_PirateMidgetShotgun",
      "DisplayName": "Furious Cabin Boy",
      "TransformedNames": null
    },
    {
      "AIPawnBalanceDefinitionFullObjectName":
        "GD_Orchid_Pop_Pirates.Balance.PawnBalance_Orchid_PirateNinja",
      "DisplayName": "Pirate Mercenary",
      "TransformedNames": null
    },
    {
      "AIPawnBalanceDefinitionFullObjectName":
        "GD_Orchid_Pop_Pirates.Balance.PawnBalance_Orchid_PiratePyro",
      "DisplayName": "Crazed Grogmaster",
      "TransformedNames": null
    },
    {
      "AIPawnBalanceDefinitionFullObjectName":
        "GD_Orchid_Pop_Pirates.Balance.PawnBalance_Orchid_PirateHunter",
      "DisplayName": "Pirate Gunner",
      "TransformedNames": null
    },
    {
      "AIPawnBalanceDefinitionFullObjectName":
        "GD_Orchid_Pop_Pirates.Balance.PawnBalance_Orchid_SpearMan",
      "DisplayName": "Deep Sea Whaler",
      "TransformedNames": null
    },
    {
      "AIPawnBalanceDefinitionFullObjectName":
        "GD_Orchid_Pop_Pirates.Balance.PawnBalance_Orchid_MineMan",
      "DisplayName": "Sapper",
      "TransformedNames": null
    },
    {
      "AIPawnBalanceDefinitionFullObjectName":
        "GD_Orchid_Pop_Pirates.Balance.PawnBalance_Orchid_PirateAssassin",
      "DisplayName": "Sadistic Pirate Assassin",
      "TransformedNames": null
    },
    {
      "AIPawnBalanceDefinitionFullObjectName":
        "GD_Orchid_Pop_Pirates.Balance.PawnBalance_Orchid_PirateMarauder",
      "DisplayName": "Sadistic Pirate",
      "TransformedNames": null
    },
    {
      "AIPawnBalanceDefinitionFullObjectName":
        "GD_Orchid_SM_JockoLegUp_Data.PawnBalance_Orchid_PiratePegLeg",
      "DisplayName": "Sadistic Pirate",
      "TransformedNames": null
    },
    {
      "AIPawnBalanceDefinitionFullObjectName":
        "GD_Orchid_Pop_Pirates.Balance.PawnBalance_Orchid_PiratePsycho",
      "DisplayName": "Plunderer",
      "TransformedNames": null
    },
    {
      "AIPawnBalanceDefinitionFullObjectName":
        "GD_Orchid_Pop_Pirates.Balance.PawnBalance_Orchid_PirateMarauderSMG",
      "DisplayName": "Scoundrel",
      "TransformedNames": null
    },
    {
      "AIPawnBalanceDefinitionFullObjectName":
        "GD_Orchid_Pop_SandWorm.Balance.PawnBalance_Orchid_SandWormGrub",
      "DisplayName": "Toxic Sand Worm Grub",
      "TransformedNames": null
    },
    {
      "AIPawnBalanceDefinitionFullObjectName":
        "GD_Orchid_Pop_SandWorm.Balance.PawnBalance_Orchid_SandWorm",
      "DisplayName": "Toxic Sand Worm",
      "TransformedNames": null
    },
    {
      "AIPawnBalanceDefinitionFullObjectName":
        "GD_Orchid_Pop_SandWorm.Balance.PawnBalance_Orchid_SandWormRaid",
      "DisplayName": "Toxic Sand Worm",
      "TransformedNames": null
    },
    {
      "AIPawnBalanceDefinitionFullObjectName":
        "GD_Orchid_Pop_ScarlettCrew.Balance.PawnBalance_Orchid_ScarlettNinja",
      "DisplayName": "Scarlett Mercenary",
      "TransformedNames": null
    },
    {
      "AIPawnBalanceDefinitionFullObjectName":
        "GD_Orchid_Pop_Pirates.Balance.PawnBalance_Orchid_PiratePsychoMidget",
      "DisplayName": "Crazed Swabbie",
      "TransformedNames": null
    },
    {
      "AIPawnBalanceDefinitionFullObjectName":
        "GD_Orchid_Pop_Skag.Balance.PawnBalance_SkagAdult_Orchid",
      "DisplayName": "Barbed Skag",
      "TransformedNames": [
        {
          "Type": "EAIT_Fire",
          "TransformedName": "Barbed Fire Skag",
          "TransformedKillStat": null
        },
        {
          "Type": "EAIT_Shock",
          "TransformedName": "Barbed Shock Skag",
          "TransformedKillStat": null
        },
        {
          "Type": "EAIT_Corrosive",
          "TransformedName": "Barbed Corrosive Skag",
          "TransformedKillStat": null
        },
        {
          "Type": "EAIT_Slagged",
          "TransformedName": "Barbed Slag Skag",
          "TransformedKillStat": null
        }
      ]
    },
    {
      "AIPawnBalanceDefinitionFullObjectName":
        "GD_Orchid_Pop_Skag.Balance.PawnBalance_SkagAlpha_Orchid",
      "DisplayName": "Fossil Skag",
      "TransformedNames": null
    },
    {
      "AIPawnBalanceDefinitionFullObjectName":
        "GD_Orchid_Pop_Loader.Balance.PawnBalance_OrchidLoaderBadass",
      "DisplayName": "Super Badass Loader",
      "TransformedNames": null
    },
    {
      "AIPawnBalanceDefinitionFullObjectName":
        "GD_Orchid_Pop_Loader.Disabled.PawnBalance_Orchid_LoaderBadass_Disabled",
      "DisplayName": "Super Badass Loader",
      "TransformedNames": null
    },
    {
      "AIPawnBalanceDefinitionFullObjectName":
        "GD_Orchid_Pop_Skag.Balance.PawnBalance_SkagBadassShock_Orchid",
      "DisplayName": "Ultimate Badass Shock Skag",
      "TransformedNames": null
    },
    {
      "AIPawnBalanceDefinitionFullObjectName":
        "GD_Orchid_Pop_Skag.Balance.PawnBalance_SkagBadassSlag_Orchid",
      "DisplayName": "Ultimate Badass Slag Skag",
      "TransformedNames": null
    },
    {
      "AIPawnBalanceDefinitionFullObjectName":
        "GD_Orchid_Pop_Stalker.Balance.PawnBalance_Orchid_StalkerBadass",
      "DisplayName": "Ultimate Badass Stalker",
      "TransformedNames": null
    },
    {
      "AIPawnBalanceDefinitionFullObjectName":
        "GD_Orchid_Pop_SpiderAnt.Balance.PawnBalance_SpiderantChubby_Orchid",
      "DisplayName": "Tubby Spiderant",
      "TransformedNames": null
    },
    {
      "AIPawnBalanceDefinitionFullObjectName":
        "GD_Orchid_Pop_Stalker.Balance.PawnBalance_Orchid_StalkerChubby",
      "DisplayName": "Tubby Stalker",
      "TransformedNames": null
    },
    {
      "AIPawnBalanceDefinitionFullObjectName":
        "GD_Orchid_Pop_SpiderAnt.Balance.PawnBalance_SpiderantFire_Orchid",
      "DisplayName": "Blazing Spiderant",
      "TransformedNames": null
    },
    {
      "AIPawnBalanceDefinitionFullObjectName":
        "GD_Orchid_Pop_Skag.Balance.PawnBalance_SkagPup_Orchid",
      "DisplayName": "Barbed Pup Skag",
      "TransformedNames": [
        {
          "Type": "EAIT_Fire",
          "TransformedName": "Barbed Fire Pup",
          "TransformedKillStat": null
        },
        {
          "Type": "EAIT_Shock",
          "TransformedName": "Barbed Shock Pup",
          "TransformedKillStat": null
        },
        {
          "Type": "EAIT_Corrosive",
          "TransformedName": "Barbed Corrosive Pup",
          "TransformedKillStat": null
        },
        {
          "Type": "EAIT_Slagged",
          "TransformedName": "Barbed Slag Pup",
          "TransformedKillStat": null
        }
      ]
    },
    {
      "AIPawnBalanceDefinitionFullObjectName":
        "GD_Orchid_Pop_SpiderAnt.Balance.PawnBalance_SpiderantQueen_Orchid",
      "DisplayName": "Spiderant Procreator",
      "TransformedNames": null
    },
    {
      "AIPawnBalanceDefinitionFullObjectName":
        "GD_Orchid_Pop_SpiderAnt.Balance.PawnBalance_SpiderantKnight_Orchid",
      "DisplayName": "Gallant Spiderant",
      "TransformedNames": null
    },
    {
      "AIPawnBalanceDefinitionFullObjectName":
        "GD_Orchid_Pop_SpiderAnt.Balance.PawnBalance_SpiderantRoyalGuard_Orchid",
      "DisplayName": "Spiderant Sentry",
      "TransformedNames": null
    },
    {
      "AIPawnBalanceDefinitionFullObjectName":
        "GD_Orchid_Pop_SpiderAnt.Balance.PawnBalance_SpiderantSoldier_Orchid",
      "DisplayName": "Spiderant Brawler",
      "TransformedNames": null
    },
    {
      "AIPawnBalanceDefinitionFullObjectName":
        "GD_Orchid_Pop_SpiderAnt.Balance.PawnBalance_SpiderantWorker_Orchid",
      "DisplayName": "Spiderant Slave",
      "TransformedNames": null
    },
    {
      "AIPawnBalanceDefinitionFullObjectName":
        "GD_Orchid_Pop_Skag.Balance.PawnBalance_SkagSpitter_Orchid",
      "DisplayName": "Salivating Skag",
      "TransformedNames": [
        {
          "Type": "EAIT_Fire",
          "TransformedName": "Salivating Fire Skag",
          "TransformedKillStat": null
        },
        {
          "Type": "EAIT_Shock",
          "TransformedName": "Salivating Shock Skag",
          "TransformedKillStat": null
        },
        {
          "Type": "EAIT_Corrosive",
          "TransformedName": "Salivating Corrosive Skag",
          "TransformedKillStat": null
        },
        {
          "Type": "EAIT_Slagged",
          "TransformedName": "Salivating Slagged Skag",
          "TransformedKillStat": null
        }
      ]
    },
    {
      "AIPawnBalanceDefinitionFullObjectName":
        "GD_Orchid_Pop_PirateRat.Population.PawnBalance_Orchid_PirateRat",
      "DisplayName": "Flesh-Eating Rat",
      "TransformedNames": null
    },
    {
      "AIPawnBalanceDefinitionFullObjectName":
        "GD_Iris_Population_BikeRider.Balance.PawnBalance_Iris_BikeRiderMarauderBadass",
      "DisplayName": "Ultimate Badass Biker",
      "TransformedNames": null
    },
    {
      "AIPawnBalanceDefinitionFullObjectName":
        "GD_Iris_Population_Biker.Balance.Iris_PawnBalance_BigBikerBadass",
      "DisplayName": "Ultimate Badass Enforcer",
      "TransformedNames": [
        {
          "Type": "EAIT_Corrosive",
          "TransformedName": "Ultimate Badass Momma's Enforcer",
          "TransformedKillStat": null
        },
        {
          "Type": "EAIT_Fire",
          "TransformedName": "Ultimate Badass Burner Enforcer",
          "TransformedKillStat": null
        },
        {
          "Type": "EAIT_Shock",
          "TransformedName": "Ultimate Badass Torgue Enforcer",
          "TransformedKillStat": null
        }
      ]
    },
    {
      "AIPawnBalanceDefinitionFullObjectName":
        "GD_Iris_Population_Loader.Balance.Iris_PawnBalance_LoaderBadass",
      "DisplayName": "Ultimate Badass Torgue Eliminator",
      "TransformedNames": null
    },
    {
      "AIPawnBalanceDefinitionFullObjectName":
        "GD_Iris_Population_BikeRider.Balance.PawnBalance_Iris_BikeRiderMarauder",
      "DisplayName": "Gas Guzzler",
      "TransformedNames": null
    },
    {
      "AIPawnBalanceDefinitionFullObjectName":
        "GD_Iris_Population_Bruiser.Balance.Iris_PawnBalance_BikerBruiser",
      "DisplayName": "Burner Bone Crusher",
      "TransformedNames": null
    },
    {
      "AIPawnBalanceDefinitionFullObjectName":
        "GD_Iris_Population_Biker.Balance.Iris_PawnBalance_BigBiker",
      "DisplayName": "Lieutenant Enforcer",
      "TransformedNames": [
        {
          "Type": "EAIT_Corrosive",
          "TransformedName": "Momma's Lieutenant Enforcer",
          "TransformedKillStat": null
        },
        {
          "Type": "EAIT_Fire",
          "TransformedName": "Burner Lieutenant Enforcer",
          "TransformedKillStat": null
        },
        {
          "Type": "EAIT_Shock",
          "TransformedName": "Torgue Lieutenant Enforcer",
          "TransformedKillStat": null
        }
      ]
    },
    {
      "AIPawnBalanceDefinitionFullObjectName":
        "GD_Iris_Population_BikeRider.Balance.PawnBalance_Iris_Bike",
      "DisplayName": "Road Warrior",
      "TransformedNames": null
    },
    {
      "AIPawnBalanceDefinitionFullObjectName":
        "GD_Iris_Population_Loader.Balance.Iris_PawnBalance_LoaderJET",
      "DisplayName": "Torgue Punisher",
      "TransformedNames": null
    },
    {
      "AIPawnBalanceDefinitionFullObjectName":
        "GD_Iris_Population_Loader.Balance.Iris_PawnBalance_LoaderHOT",
      "DisplayName": "Torgue Flamer",
      "TransformedNames": null
    },
    {
      "AIPawnBalanceDefinitionFullObjectName":
        "GD_Iris_Population_Loader.Balance.Iris_PawnBalance_LoaderBUL",
      "DisplayName": "Torgue Kill Dozer",
      "TransformedNames": null
    },
    {
      "AIPawnBalanceDefinitionFullObjectName":
        "GD_Iris_Population_Loader.Balance.Iris_PawnBalance_LoaderEXP",
      "DisplayName": "Torgue Boomer",
      "TransformedNames": null
    },
    {
      "AIPawnBalanceDefinitionFullObjectName":
        "GD_Iris_Population_Loader.Balance.Iris_PawnBalance_LoaderGUN",
      "DisplayName": "Torgue Bulletstormer",
      "TransformedNames": null
    },
    {
      "AIPawnBalanceDefinitionFullObjectName":
        "GD_Iris_Population_Loader.Balance.Iris_PawnBalance_LoaderPWR",
      "DisplayName": "Torgue Dust Devil",
      "TransformedNames": null
    },
    {
      "AIPawnBalanceDefinitionFullObjectName":
        "GD_Iris_Population_Loader.Balance.Iris_PawnBalance_LoaderRPG",
      "DisplayName": "Torgue Destroyer",
      "TransformedNames": null
    },
    {
      "AIPawnBalanceDefinitionFullObjectName":
        "GD_Iris_Population_Skag.Balance.Iris_PawnBalance_SkagAdult",
      "DisplayName": "Barbed Skag",
      "TransformedNames": [
        {
          "Type": "EAIT_Fire",
          "TransformedName": "Barbed Fire Skag",
          "TransformedKillStat": null
        },
        {
          "Type": "EAIT_Shock",
          "TransformedName": "Barbed Shock Skag",
          "TransformedKillStat": null
        },
        {
          "Type": "EAIT_Corrosive",
          "TransformedName": "Barbed Corrosive Skag",
          "TransformedKillStat": null
        },
        {
          "Type": "EAIT_Slagged",
          "TransformedName": "Barbed Slag Skag",
          "TransformedKillStat": null
        }
      ]
    },
    {
      "AIPawnBalanceDefinitionFullObjectName":
        "GD_Iris_Population_Skag.Balance.Iris_PawnBalance_SkagBadassCorrosive",
      "DisplayName": "Ultimate Badass Corrosive Skag",
      "TransformedNames": null
    },
    {
      "AIPawnBalanceDefinitionFullObjectName":
        "GD_Iris_Population_Skag.Balance.Iris_PawnBalance_SkagBadassFire",
      "DisplayName": "Ultimate Badass Fire Skag",
      "TransformedNames": null
    },
    {
      "AIPawnBalanceDefinitionFullObjectName":
        "GD_Iris_Population_Nomad.Balance.Iris_PawnBalance_NomadBadass",
      "DisplayName": "Ultimate Badass Nomad",
      "TransformedNames": null
    },
    {
      "AIPawnBalanceDefinitionFullObjectName":
        "GD_Iris_Population_Psycho.Balance.Iris_PawnBalance_PsychoBadassBiker",
      "DisplayName": "Ultimate Badass Lunatic",
      "TransformedNames": null
    },
    {
      "AIPawnBalanceDefinitionFullObjectName":
        "GD_Iris_Population_Skag.Balance.Iris_PawnBalance_SkagBadassShock",
      "DisplayName": "Ultimate Badass Shock Skag",
      "TransformedNames": null
    },
    {
      "AIPawnBalanceDefinitionFullObjectName":
        "GD_Iris_Population_Skag.Balance.Iris_PawnBalance_SkagBarfer",
      "DisplayName": "Yack Skag",
      "TransformedNames": [
        {
          "Type": "EAIT_Fire",
          "TransformedName": "Fire Yacker",
          "TransformedKillStat": null
        },
        {
          "Type": "EAIT_Shock",
          "TransformedName": "Shock Yacker",
          "TransformedKillStat": null
        },
        {
          "Type": "EAIT_Corrosive",
          "TransformedName": "Corrosive Yacker",
          "TransformedKillStat": null
        },
        {
          "Type": "EAIT_Slagged",
          "TransformedName": "Slagged Yacker",
          "TransformedKillStat": null
        }
      ]
    },
    {
      "AIPawnBalanceDefinitionFullObjectName":
        "GD_Iris_Population_Rakk.Balance.Iris_PawnBalance_RakkChubby",
      "DisplayName": "Chubby Rakk",
      "TransformedNames": null
    },
    {
      "AIPawnBalanceDefinitionFullObjectName":
        "GD_Iris_Population_Spiderant.Balance.Iris_PawnBalance_SpiderantChubby",
      "DisplayName": "Tubby Spiderant",
      "TransformedNames": null
    },
    {
      "AIPawnBalanceDefinitionFullObjectName":
        "GD_Iris_Population_Spiderant.Balance.Iris_PawnBalance_SpiderantFire",
      "DisplayName": "Blazing Spiderant",
      "TransformedNames": null
    },
    {
      "AIPawnBalanceDefinitionFullObjectName":
        "GD_Iris_Population_Engineer.Balance.Iris_PawnBalance_EngineerRifle",
      "DisplayName": "Hyperion Predator",
      "TransformedNames": null
    },
    {
      "AIPawnBalanceDefinitionFullObjectName":
        "GD_Iris_Population_Engineer.Balance.Iris_PawnBalance_BlackOps",
      "DisplayName": "Hyperion Marksman",
      "TransformedNames": null
    },
    {
      "AIPawnBalanceDefinitionFullObjectName":
        "GD_Iris_Population_Midget.Balance.Iris_PawnBalance_RatBikerMidget",
      "DisplayName": "Wee Rat",
      "TransformedNames": null
    },
    {
      "AIPawnBalanceDefinitionFullObjectName":
        "GD_Iris_Population_Nomad.Balance.Iris_PawnBalance_NomadFireBadass",
      "DisplayName": "Nomad Arsonist",
      "TransformedNames": null
    },
    {
      "AIPawnBalanceDefinitionFullObjectName":
        "GD_Iris_Population_Spiderant.Balance.Iris_PawnBalance_SpiderantPoison",
      "DisplayName": "Diseased Spiderant",
      "TransformedNames": null
    },
    {
      "AIPawnBalanceDefinitionFullObjectName":
        "GD_Iris_Population_Midget.Balance.Iris_PawnBalance_PsychoBikerMidget",
      "DisplayName": "Lil' Lunatic",
      "TransformedNames": null
    },
    {
      "AIPawnBalanceDefinitionFullObjectName":
        "GD_Iris_Population_Psycho.Balance.Iris_PawnBalance_PsychoBiker",
      "DisplayName": "Lunatic",
      "TransformedNames": null
    },
    {
      "AIPawnBalanceDefinitionFullObjectName":
        "GD_Iris_Population_Skag.Balance.Iris_PawnBalance_SkagPup",
      "DisplayName": "Barbed Pup Skag",
      "TransformedNames": [
        {
          "Type": "EAIT_Fire",
          "TransformedName": "Barbed Fire Pup",
          "TransformedKillStat": null
        },
        {
          "Type": "EAIT_Shock",
          "TransformedName": "Barbed Shock Pup",
          "TransformedKillStat": null
        },
        {
          "Type": "EAIT_Corrosive",
          "TransformedName": "Barbed Corrosive Pup",
          "TransformedKillStat": null
        },
        {
          "Type": "EAIT_Slagged",
          "TransformedName": "Barbed Slag Pup",
          "TransformedKillStat": null
        }
      ]
    },
    {
      "AIPawnBalanceDefinitionFullObjectName":
        "GD_Iris_Population_Spiderant.Balance.Iris_PawnBalance_SpiderantQueen",
      "DisplayName": "Spiderant Procreator",
      "TransformedNames": null
    },
    {
      "AIPawnBalanceDefinitionFullObjectName":
        "GD_Iris_Population_Rat.Balance.Iris_PawnBalance_RatThief",
      "DisplayName": "Despicable Rat Bastard",
      "TransformedNames": null
    },
    {
      "AIPawnBalanceDefinitionFullObjectName":
        "GD_Iris_Population_Nomad.Balance.Iris_PawnBalance_NomadShockBadass",
      "DisplayName": "Electrified Nomad",
      "TransformedNames": null
    },
    {
      "AIPawnBalanceDefinitionFullObjectName":
        "GD_Iris_Population_Spiderant.Balance.Iris_PawnBalance_SpiderantKnight",
      "DisplayName": "Gallant Spiderant",
      "TransformedNames": null
    },
    {
      "AIPawnBalanceDefinitionFullObjectName":
        "GD_Iris_Population_Spiderant.Balance.Iris_PawnBalance_SpiderantRoyalGuard",
      "DisplayName": "Spiderant Sentry",
      "TransformedNames": null
    },
    {
      "AIPawnBalanceDefinitionFullObjectName":
        "GD_Iris_Population_Spiderant.Balance.Iris_PawnBalance_SpiderantSoldier",
      "DisplayName": "Spiderant Brawler",
      "TransformedNames": null
    },
    {
      "AIPawnBalanceDefinitionFullObjectName":
        "GD_Iris_Population_Spiderant.Balance.Iris_PawnBalance_SpiderantWarrior",
      "DisplayName": "Spiderant Slugger",
      "TransformedNames": null
    },
    {
      "AIPawnBalanceDefinitionFullObjectName":
        "GD_Iris_Population_Spiderant.Balance.Iris_PawnBalance_Spiderantking",
      "DisplayName": "Monarch Spiderant",
      "TransformedNames": null
    },
    {
      "AIPawnBalanceDefinitionFullObjectName":
        "GD_Iris_Population_Spiderant.Balance.Iris_PawnBalance_SpiderantWorker",
      "DisplayName": "Spiderant Slave",
      "TransformedNames": null
    },
    {
      "AIPawnBalanceDefinitionFullObjectName":
        "GD_Iris_Population_Skag.Balance.Iris_PawnBalance_SkagSpitter",
      "DisplayName": "Salivating Skag",
      "TransformedNames": [
        {
          "Type": "EAIT_Fire",
          "TransformedName": "Salivating Fire Skag",
          "TransformedKillStat": null
        },
        {
          "Type": "EAIT_Shock",
          "TransformedName": "Salivating Shock Skag",
          "TransformedKillStat": null
        },
        {
          "Type": "EAIT_Corrosive",
          "TransformedName": "Salivating Corrosive Skag",
          "TransformedKillStat": null
        },
        {
          "Type": "EAIT_Slagged",
          "TransformedName": "Salivating Slagged Skag",
          "TransformedKillStat": null
        }
      ]
    },
    {
      "AIPawnBalanceDefinitionFullObjectName":
        "GD_Iris_Population_Midget.Balance.Iris_PawnBalance_SuicideBikerMidget",
      "DisplayName": "Bitsy Bomber",
      "TransformedNames": null
    },
    {
      "AIPawnBalanceDefinitionFullObjectName":
        "GD_Iris_Population_Psycho.Balance.Iris_PawnBalance_SuiPsychoBiker",
      "DisplayName": "Lunatic Bomber",
      "TransformedNames": null
    },
    {
      "AIPawnBalanceDefinitionFullObjectName":
        "GD_Iris_Population_Rat.Balance.Iris_PawnBalance_RatTunnel",
      "DisplayName": "Flesh-Eating Rat",
      "TransformedNames": null
    },
    {
      "AIPawnBalanceDefinitionFullObjectName":
        "GD_Sage_Pop_Rhino.Balance.PawnBalance_Sage_RhinoCharger",
      "DisplayName": "Ironclad Borok",
      "TransformedNames": null
    },
    {
      "AIPawnBalanceDefinitionFullObjectName":
        "GD_Sage_Pop_Rhino.Balance.PawnBalance_Sage_RhinoBadassCorrosive",
      "DisplayName": "Ultimate Badass Corrosive Borok",
      "TransformedNames": null
    },
    {
      "AIPawnBalanceDefinitionFullObjectName":
        "GD_Sage_Pop_Drifter.Balance.PawnBalance_DrifterBadass",
      "DisplayName": "Ultimate Badass Drifter",
      "TransformedNames": null
    },
    {
      "AIPawnBalanceDefinitionFullObjectName":
        "GD_Sage_Pop_Rhino.Balance.PawnBalance_Sage_RhinoBadassFire",
      "DisplayName": "Ultimate Badass Fire Borok",
      "TransformedNames": null
    },
    {
      "AIPawnBalanceDefinitionFullObjectName":
        "GD_Sage_Pop_Rhino.Balance.PawnBalance_Sage_RhinoBadassShock",
      "DisplayName": "Ultimate Badass Shock Borok",
      "TransformedNames": null
    },
    {
      "AIPawnBalanceDefinitionFullObjectName":
        "GD_Sage_Pop_Rhino.Balance.PawnBalance_Sage_RhinoBadassSlag",
      "DisplayName": "Ultimate Badass Slag Borok",
      "TransformedNames": null
    },
    {
      "AIPawnBalanceDefinitionFullObjectName":
        "GD_Sage_Pop_Natives.Balance.PawnBalance_WitchDoctorBadass",
      "DisplayName": "Ultimate Badass Witch Doctor",
      "TransformedNames": [
        {
          "Type": "EAIT_Fire",
          "TransformedName": "Skilled Warrior",
          "TransformedKillStat": null
        },
        {
          "Type": "EAIT_Shock",
          "TransformedName": "Blood Warrior",
          "TransformedKillStat": null
        },
        {
          "Type": "EAIT_Corrosive",
          "TransformedName": "Animal Warrior",
          "TransformedKillStat": null
        },
        {
          "Type": "EAIT_Custom",
          "TransformedName": "Demon Warrior",
          "TransformedKillStat": null
        },
        {
          "Type": "EAIT_Slagged",
          "TransformedName": "Spirit Warrior",
          "TransformedKillStat": null
        }
      ]
    },
    {
      "AIPawnBalanceDefinitionFullObjectName":
        "GD_Sage_Pop_Rhino.Balance.PawnBalance_Sage_Rhino",
      "DisplayName": "Foul Borok",
      "TransformedNames": null
    },
    {
      "AIPawnBalanceDefinitionFullObjectName":
        "GD_Sage_Pop_Rhino.Balance.PawnBalance_Sage_RhinoBaby",
      "DisplayName": "Foul Borok Pygmy",
      "TransformedNames": null
    },
    {
      "AIPawnBalanceDefinitionFullObjectName":
        "GD_Sage_Pop_Natives.Balance.PawnBalance_WitchDoctorFire",
      "DisplayName": "Demon Witch Doctor",
      "TransformedNames": null
    },
    {
      "AIPawnBalanceDefinitionFullObjectName":
        "GD_Sage_Pop_Natives.Balance.PawnBalance_WitchDoctorSlow",
      "DisplayName": "Neutralizing Witch Doctor",
      "TransformedNames": null
    },
    {
      "AIPawnBalanceDefinitionFullObjectName":
        "GD_Sage_Pop_Scaylion.Balance.PawnBalance_Sage_DiseasedScaylion",
      "DisplayName": "Infected Scaylion",
      "TransformedNames": null
    },
    {
      "AIPawnBalanceDefinitionFullObjectName":
        "GD_Sage_Pop_Rhino.Balance.PawnBalance_Sage_RhinoLeaper",
      "DisplayName": "Surging Borok",
      "TransformedNames": null
    },
    {
      "AIPawnBalanceDefinitionFullObjectName":
        "GD_Sage_Pop_Drifter.Balance.PawnBalance_DrifterBaby",
      "DisplayName": "Bog Drifter",
      "TransformedNames": null
    },
    {
      "AIPawnBalanceDefinitionFullObjectName":
        "GD_Sage_Pop_Scaylion.Balance.PawnBalance_Sage_ScaylionBerzerker",
      "DisplayName": "Scaylion Mutilator",
      "TransformedNames": null
    },
    {
      "AIPawnBalanceDefinitionFullObjectName":
        "GD_Sage_Pop_Scaylion.Balance.PawnBalance_Sage_ScaylionBug",
      "DisplayName": "Scaylion Slave",
      "TransformedNames": null
    },
    {
      "AIPawnBalanceDefinitionFullObjectName":
        "GD_Sage_Pop_Scaylion.Balance.PawnBalance_Sage_ScaylionQueen",
      "DisplayName": "Scaylion Empress",
      "TransformedNames": null
    },
    {
      "AIPawnBalanceDefinitionFullObjectName":
        "GD_Sage_Pop_Scaylion.Balance.PawnBalance_Sage_ScaylionWarrior",
      "DisplayName": "Gallant Scaylion",
      "TransformedNames": null
    },
    {
      "AIPawnBalanceDefinitionFullObjectName":
        "GD_Sage_Pop_Scaylion.Balance.PawnBalance_Sage_ScaylionWorker",
      "DisplayName": "Scaylion Weaver",
      "TransformedNames": null
    },
    {
      "AIPawnBalanceDefinitionFullObjectName":
        "GD_Sage_Pop_Natives.Balance.PawnBalance_WitchDoctorShock",
      "DisplayName": "Electrified Witch Doctor",
      "TransformedNames": null
    },
    {
      "AIPawnBalanceDefinitionFullObjectName":
        "GD_Sage_Pop_Natives.Balance.PawnBalance_WitchDoctorSlag",
      "DisplayName": "Diseased Witch Doctor",
      "TransformedNames": null
    },
    {
      "AIPawnBalanceDefinitionFullObjectName":
        "GD_Sage_Pop_Scaylion.Balance.PawnBalance_Sage_ScaylionSlag",
      "DisplayName": "Super Slagged Scaylion",
      "TransformedNames": null
    },
    {
      "AIPawnBalanceDefinitionFullObjectName":
        "GD_Sage_Pop_Natives.Balance.PawnBalance_WitchDoctorVampire",
      "DisplayName": "Blood Witch Doctor",
      "TransformedNames": null
    },
    {
      "AIPawnBalanceDefinitionFullObjectName":
        "GD_Sage_Pop_Drifter.Balance.PawnBalance_Drifter",
      "DisplayName": "Swamp Drifter",
      "TransformedNames": null
    },
    {
      "AIPawnBalanceDefinitionFullObjectName":
        "GD_Sage_Pop_PrimalBeast.Balance.PawnBalance_Sage_PrimalBeast_Bedrock",
      "DisplayName": "Mineral Bullymong",
      "TransformedNames": [
        {
          "Type": "EAIT_Fire",
          "TransformedName": "Mineral Primal Beast",
          "TransformedKillStat": null
        },
        {
          "Type": "EAIT_Shock",
          "TransformedName": "Mineral Ferovore",
          "TransformedKillStat": null
        },
        {
          "Type": "EAIT_Corrosive",
          "TransformedName": "Mineral Bonerfart",
          "TransformedKillStat": null
        },
        {
          "Type": "EAIT_Slagged",
          "TransformedName": "Mineral Bullymong",
          "TransformedKillStat": null
        }
      ]
    },
    {
      "AIPawnBalanceDefinitionFullObjectName":
        "GD_Population_Midget.Balance.LootMidget.PawnBalance_LootMidget_LoaderWAR",
      "DisplayName": "Legendary Loot Wee WAR Loader",
      "TransformedNames": null
    },
    {
      "AIPawnBalanceDefinitionFullObjectName":
        "GD_ConstructorTurret.Balance.Pawn_Balance_ConstructorTurret",
      "DisplayName": "Constructor Turret v3.0",
      "TransformedNames": null
    },
    {
      "AIPawnBalanceDefinitionFullObjectName":
        "GD_Population_Skag.Balance.PawnBalance_SkagChubby",
      "DisplayName": "Tubby Skag",
      "TransformedNames": null
    },
    {
      "AIPawnBalanceDefinitionFullObjectName":
        "GD_Orchid_Pop_Skag.Balance.PawnBalance_SkagPup_Orchid",
      "DisplayName": "Tubby Skag",
      "TransformedNames": null
    }
  ],
  "VfTableObject": "",
  "HashNext": "",
  "ObjectFlags": "",
  "HashOuterNext": "",
  "StateFrame": "",
  "Linker": null,
  "LinkerIndex": "",
  "ObjectInternalInteger": 167640,
  "NetIndex": 0,
  "Outer": "Package'GD_GladiolusEnemyNames'",
  "Name": "FixupEnemyNames",
  "Class": "WillowGame.DownloadableFixupAIPawnNamesDefinition",
  "ObjectArchetype":
    "WillowGame.Default__DownloadableFixupAIPawnNamesDefinition"
}