{
  "WillowDamageTypeDef": null,
  "WillowImpactDefinition": null,
  "DamageInstigator": null,
  "HitLocation": { "X": 0.0, "Y": 0.0, "Z": 0.0 },
  "HitMomentum": { "X": 0.0, "Y": 0.0, "Z": 0.0 },
  "HitInfo": {
    "Material": null,
    "PhysMaterial": null,
    "Item": 0,
    "LevelIndex": 0,
    "BoneName": null,
    "HitComponent": null
  },
  "DamageSource": null,
  "Globals": null,
  "GlobalsDef": null,
  "WorldInfo": null,
  "WGRI": null,
  "DamagedActor": null,
  "DamagedPawnBase": null,
  "DamagedIO": null,
  "DamagedPawn": null,
  "DamagedAIPawn": null,
  "DamageInstigatorWPC": null,
  "HitRegionDef": null,
  "DamageableInt": null,
  "HitRegionConsumerInt": null,
  "ProtectableInt": null,
  "DamagedReflectableInt": null,
  "InstigatorReflectableInt": null,
  "DamagedTargetableInt": null,
  "InstigatorTargetableInt": null,
  "bCanReflect": false,
  "BulletFromClipType": "BFC_Other",
  "ResistDamageReductionThreshold": 0.5,
  "bInUse": false,
  "bCanHitFriendly": false,
  "bOvercharged": false,
  "DamageTypeDef": "GD_Explosive.DamageType.DmgType_Explosive_Impact",
  "ImpactDefinition": null,
  "DirectHitObject":
    "TundraTrain_P.TheWorld:PersistentLevel.WillowAIPawn_58.SkeletalMeshComponent_5855",
  "PenetrationCount": 0,
  "DamageSummary":
    "(InitialDamage=0.000000,AIDamageScaleReduction=0.000000,DamageSourceReduction=0.000000,InstigatorDamageTypeReduction=0.000000,ExpLevelDifferenceReduction=0.000000,RecipientDamageTypeReduction=0.000000,HitRegionReduction=0.000000,ShieldReduction=0.000000,IntrinsicArmorReduction=0.000000,DamageSurfaceReduction=0.000000,HitRegionCapReduction=0.000000,ProtectionTimerReduction=0.000000,ProjectileReflectionReduction=0.000000,DamageSeverityPercent=0.000000,DamageDealtToShields=0.000000,ExtraDamageDealtDueToAmplify=0.000000,FinalDamage=0.000000,PreviousHealth=0.000000,HitRegion=None,bWasCrit=False,bWasInjured=False,bWasMaxShield=False,bWasMaxHealth=False,bWasOneShotKill=False,ReflectionData=(ReflectionType=REFLT_None,ReflectedDamageScale=0.000000,ReflectedDamageToReflector=0.000000,bReflectTowardAttacker=False,ReflectedInaccuracyModifier=0.000000,bReflectProjectiles=False),DamageTakenSkillEventsTriggered[0]=0,DamageTakenSkillEventsTriggered[1]=0,DamageTakenSkillEventsTriggered[2]=0,DamageTakenSkillEventsTriggered[3]=0,DamageTakenSkillEventsTriggered[4]=0,DamageTakenSkillEventsTriggered[5]=0,DamageTakenSkillEventsTriggered[6]=0,DamageTakenSkillEventsTriggered[7]=0,DamageDealtSkillEventsTriggered[0]=0,DamageDealtSkillEventsTriggered[1]=0,DamageDealtSkillEventsTriggered[2]=0,DamageDealtSkillEventsTriggered[3]=0,DamageDealtSkillEventsTriggered[4]=0,DamageDealtSkillEventsTriggered[5]=0,DamageDealtSkillEventsTriggered[6]=0,DamageDealtSkillEventsTriggered[7]=0)",
  "BarrelSourceTime": -1.0,
  "PlantSourceTime": -1.0,
  "VfTableObject": "",
  "HashNext": "",
  "ObjectFlags": "",
  "HashOuterNext": "",
  "StateFrame": "",
  "Linker": null,
  "LinkerIndex": "",
  "ObjectInternalInteger": 228019,
  "NetIndex": -1,
  "Outer": "Package'Transient'",
  "Name": "WillowDamagePipeline_20",
  "Class": "WillowGame.WillowDamagePipeline",
  "ObjectArchetype": "WillowGame.Default__WillowDamagePipeline"
}