{
  "AssociatedSkill": null,
  "AssociatedSkillPathName":
    "(PathComponentNames[0]=,PathComponentNames[1]=,PathComponentNames[2]=,PathComponentNames[3]=\"GD_Assassin_Skills\",PathComponentNames[4]=\"Bloodshed\",PathComponentNames[5]=\"ImpossibleReach\",IsSubobjectMask=0)",
  "VfTableObject": "",
  "HashNext": "",
  "ObjectFlags": "",
  "HashOuterNext": "",
  "StateFrame": "",
  "Linker": null,
  "LinkerIndex": "",
  "ObjectInternalInteger": 129500,
  "NetIndex": 1460,
  "Outer": "GD_Assassin_Skills.SkillGradeModifiers.ImpossibleReach",
  "Name": "SkillAttributeContextResolver_0",
  "Class": "WillowGame.SkillAttributeContextResolver",
  "ObjectArchetype": "WillowGame.Default__SkillAttributeContextResolver"
}