{
  "AssociatedSkill": null,
  "AssociatedSkillPathName":
    "(PathComponentNames[0]=,PathComponentNames[1]=,PathComponentNames[2]=,PathComponentNames[3]=\"GD_Lilac_Skills_Bloodlust\",PathComponentNames[4]=\"Skills\",PathComponentNames[5]=\"TasteOfBlood\",IsSubobjectMask=0)",
  "VfTableObject": "",
  "HashNext": "",
  "ObjectFlags": "",
  "HashOuterNext": "",
  "StateFrame": "",
  "Linker": null,
  "LinkerIndex": "",
  "ObjectInternalInteger": 168000,
  "NetIndex": 320,
  "Outer": "GD_Lobelia_ClassMods.SkillGradeModifiers.Lobelia_TasteOfBlood",
  "Name": "SkillAttributeContextResolver_0",
  "Class": "WillowGame.SkillAttributeContextResolver",
  "ObjectArchetype": "WillowGame.Default__SkillAttributeContextResolver"
}