{
  "AssociatedSkill": null,
  "AssociatedSkillPathName":
    "(PathComponentNames[0]=,PathComponentNames[1]=,PathComponentNames[2]=,PathComponentNames[3]=\"GD_Lilac_Skills_Hellborn\",PathComponentNames[4]=\"Skills\",PathComponentNames[5]=\"PainIsPower\",IsSubobjectMask=0)",
  "VfTableObject": "",
  "HashNext": "",
  "ObjectFlags": "",
  "HashOuterNext": "",
  "StateFrame": "",
  "Linker": null,
  "LinkerIndex": "",
  "ObjectInternalInteger": 167985,
  "NetIndex": 315,
  "Outer": "GD_Lobelia_ClassMods.SkillGradeModifiers.Lobelia_PainIsPower",
  "Name": "SkillAttributeContextResolver_0",
  "Class": "WillowGame.SkillAttributeContextResolver",
  "ObjectArchetype": "WillowGame.Default__SkillAttributeContextResolver"
}