{
  "AssociatedSkill": null,
  "AssociatedSkillPathName":
    "(PathComponentNames[0]=,PathComponentNames[1]=,PathComponentNames[2]=,PathComponentNames[3]=\"GD_Mercenary_Skills\",PathComponentNames[4]=\"Rampage\",PathComponentNames[5]=\"LastLonger\",IsSubobjectMask=0)",
  "VfTableObject": "",
  "HashNext": "",
  "ObjectFlags": "",
  "HashOuterNext": "",
  "StateFrame": "",
  "Linker": null,
  "LinkerIndex": "",
  "ObjectInternalInteger": 129590,
  "NetIndex": 814,
  "Outer": "GD_Mercenary_Skills.SkillGradeModifiers.LastLonger",
  "Name": "SkillAttributeContextResolver_0",
  "Class": "WillowGame.SkillAttributeContextResolver",
  "ObjectArchetype": "WillowGame.Default__SkillAttributeContextResolver"
}