{
  "AssociatedSkill": null,
  "AssociatedSkillPathName":
    "(PathComponentNames[0]=,PathComponentNames[1]=,PathComponentNames[2]=,PathComponentNames[3]=\"GD_Tulip_Mechromancer_Skills\",PathComponentNames[4]=\"EmbraceChaos\",PathComponentNames[5]=\"SprayAndPray\",IsSubobjectMask=0)",
  "VfTableObject": "",
  "HashNext": "",
  "ObjectFlags": "",
  "HashOuterNext": "",
  "StateFrame": "",
  "Linker": null,
  "LinkerIndex": "",
  "ObjectInternalInteger": 179980,
  "NetIndex": 1812,
  "Outer": "GD_Tulip_Mechromancer_Skills.SkillGradeModifiers.SprayAndPray",
  "Name": "SkillAttributeContextResolver_0",
  "Class": "WillowGame.SkillAttributeContextResolver",
  "ObjectArchetype": "WillowGame.Default__SkillAttributeContextResolver"
}