{
  "AssociatedItem": "GD_Aster_GrenadeMods.A_Item.GrenadeMod_MagicSpell",
  "AlphaPartData": { "bEnabled": false, "WeightedParts": null },
  "BetaPartData": {
    "bEnabled": true,
    "WeightedParts": [
      {
        "Part": "GD_Aster_GrenadeMods.Delivery.Delivery_MagicMissileRare",
        "Manufacturers": null,
        "MinGameStageIndex": 0,
        "MaxGameStageIndex": 1,
        "DefaultWeightIndex": 2
      }
    ]
  },
  "GammaPartData": {
    "bEnabled": true,
    "WeightedParts": [
      {
        "Part": "GD_GrenadeMods.Trigger.Trigger_Grade0",
        "Manufacturers": null,
        "MinGameStageIndex": 0,
        "MaxGameStageIndex": 1,
        "DefaultWeightIndex": 2
      }
    ]
  },
  "DeltaPartData": {
    "bEnabled": true,
    "WeightedParts": [
      {
        "Part": "GD_GrenadeMods.Accessory.Accessory_Slag_Grade4",
        "Manufacturers": null,
        "MinGameStageIndex": 0,
        "MaxGameStageIndex": 1,
        "DefaultWeightIndex": 2
      }
    ]
  },
  "EpsilonPartData": {
    "bEnabled": true,
    "WeightedParts": [
      {
        "Part": "GD_GrenadeMods.Damage.Damage_Grade4",
        "Manufacturers": null,
        "MinGameStageIndex": 0,
        "MaxGameStageIndex": 1,
        "DefaultWeightIndex": 2
      },
      {
        "Part": "GD_GrenadeMods.Damage.Damage_Grade5",
        "Manufacturers": null,
        "MinGameStageIndex": 0,
        "MaxGameStageIndex": 1,
        "DefaultWeightIndex": 2
      }
    ]
  },
  "ZetaPartData": {
    "bEnabled": true,
    "WeightedParts": [
      {
        "Part": "GD_GrenadeMods.DamageRadius.DamageRadius_Normal",
        "Manufacturers": null,
        "MinGameStageIndex": 0,
        "MaxGameStageIndex": 1,
        "DefaultWeightIndex": 2
      }
    ]
  },
  "EtaPartData": {
    "bEnabled": true,
    "WeightedParts": [
      {
        "Part": "GD_GrenadeMods.ChildCount.ChildCount_Grade2",
        "Manufacturers": [
          { "Manufacturer": null, "DefaultWeightIndex": 1 }
        ],
        "MinGameStageIndex": 0,
        "MaxGameStageIndex": 1,
        "DefaultWeightIndex": 3
      }
    ]
  },
  "ThetaPartData": {
    "bEnabled": true,
    "WeightedParts": [
      {
        "Part": "GD_GrenadeMods.StatusDamage.StatusDamage_Grade2",
        "Manufacturers": null,
        "MinGameStageIndex": 0,
        "MaxGameStageIndex": 1,
        "DefaultWeightIndex": 2
      },
      {
        "Part": "GD_GrenadeMods.StatusDamage.StatusDamage_Grade3",
        "Manufacturers": null,
        "MinGameStageIndex": 0,
        "MaxGameStageIndex": 1,
        "DefaultWeightIndex": 2
      },
      {
        "Part": "GD_GrenadeMods.StatusDamage.StatusDamage_Grade4",
        "Manufacturers": null,
        "MinGameStageIndex": 0,
        "MaxGameStageIndex": 1,
        "DefaultWeightIndex": 2
      }
    ]
  },
  "MaterialPartData": {
    "bEnabled": true,
    "WeightedParts": [
      {
        "Part": "GD_GrenadeMods.Material.Material_Maliwan_4_VeryRare",
        "Manufacturers": null,
        "MinGameStageIndex": 0,
        "MaxGameStageIndex": 1,
        "DefaultWeightIndex": 2
      }
    ]
  },
  "PartReplacementMode": "EPRM_Complete",
  "ConsolidatedAttributeInitData": [
    {
      "BaseValueConstant": 1.0,
      "BaseValueAttribute": null,
      "InitializationDefinition": null,
      "BaseValueScaleConstant": 1.0
    },
    {
      "BaseValueConstant": 100.0,
      "BaseValueAttribute": null,
      "InitializationDefinition": null,
      "BaseValueScaleConstant": 1.0
    },
    {
      "BaseValueConstant": 0.0,
      "BaseValueAttribute": null,
      "InitializationDefinition": null,
      "BaseValueScaleConstant": 1.0
    },
    {
      "BaseValueConstant": 0.0,
      "BaseValueAttribute": null,
      "InitializationDefinition": "GD_Balance.Weighting.Weight_1_Common",
      "BaseValueScaleConstant": 1.0
    }
  ],
  "VfTableObject": "",
  "HashNext": "",
  "ObjectFlags": "",
  "HashOuterNext": "",
  "StateFrame": "",
  "Linker": null,
  "LinkerIndex": "",
  "ObjectInternalInteger": 165378,
  "NetIndex": 684,
  "Outer": "GD_Aster_GrenadeMods.PartLists",
  "Name": "Parts_MagicMissileRare",
  "Class": "WillowGame.ItemPartListCollectionDefinition",
  "ObjectArchetype": "WillowGame.Default__ItemPartListCollectionDefinition"
}