{
  "AssociatedItem": "GD_Artifacts.A_Item_Unique.Artifact_Afterburner",
  "AlphaPartData": {
    "bEnabled": true,
    "WeightedParts": [
      {
        "Part": "GD_Artifacts.Enable1st.EnableFirst_Effect1",
        "Manufacturers": [
          {
            "Manufacturer": "GD_Manufacturers.Artifacts.Artifact_TypeA",
            "DefaultWeightIndex": 1
          }
        ],
        "MinGameStageIndex": 0,
        "MaxGameStageIndex": 1,
        "DefaultWeightIndex": 2
      }
    ]
  },
  "BetaPartData": {
    "bEnabled": true,
    "WeightedParts": [
      {
        "Part": "GD_Artifacts.Enable2nd.EnableSecond_Effect2",
        "Manufacturers": [
          {
            "Manufacturer": "GD_Manufacturers.Artifacts.Artifact_TypeA",
            "DefaultWeightIndex": 1
          }
        ],
        "MinGameStageIndex": 0,
        "MaxGameStageIndex": 1,
        "DefaultWeightIndex": 2
      }
    ]
  },
  "GammaPartData": { "bEnabled": false, "WeightedParts": null },
  "DeltaPartData": {
    "bEnabled": true,
    "WeightedParts": [
      {
        "Part": "GD_Artifacts.Enable3rd.EnableThird_Effect3",
        "Manufacturers": [
          {
            "Manufacturer": "GD_Manufacturers.Artifacts.Artifact_TypeA",
            "DefaultWeightIndex": 1
          }
        ],
        "MinGameStageIndex": 0,
        "MaxGameStageIndex": 1,
        "DefaultWeightIndex": 2
      }
    ]
  },
  "EpsilonPartData": { "bEnabled": false, "WeightedParts": null },
  "ZetaPartData": { "bEnabled": false, "WeightedParts": null },
  "EtaPartData": {
    "bEnabled": true,
    "WeightedParts": [
      {
        "Part": "GD_Artifacts.Body.Body_Afterburner",
        "Manufacturers": null,
        "MinGameStageIndex": 0,
        "MaxGameStageIndex": 1,
        "DefaultWeightIndex": 2
      }
    ]
  },
  "ThetaPartData": {
    "bEnabled": true,
    "WeightedParts": [
      {
        "Part": "GD_Artifacts.Upgrade.Upgrade_Grade8",
        "Manufacturers": [
          { "Manufacturer": null, "DefaultWeightIndex": 1 }
        ],
        "MinGameStageIndex": 0,
        "MaxGameStageIndex": 1,
        "DefaultWeightIndex": 3
      },
      {
        "Part": "GD_Artifacts.Upgrade.Upgrade_Grade9",
        "Manufacturers": [
          { "Manufacturer": null, "DefaultWeightIndex": 1 }
        ],
        "MinGameStageIndex": 0,
        "MaxGameStageIndex": 1,
        "DefaultWeightIndex": 3
      },
      {
        "Part": "GD_Artifacts.Upgrade.Upgrade_Grade10",
        "Manufacturers": [
          { "Manufacturer": null, "DefaultWeightIndex": 1 }
        ],
        "MinGameStageIndex": 0,
        "MaxGameStageIndex": 1,
        "DefaultWeightIndex": 3
      },
      {
        "Part": "GD_Artifacts.Upgrade.Upgrade_Grade11",
        "Manufacturers": [
          { "Manufacturer": null, "DefaultWeightIndex": 1 }
        ],
        "MinGameStageIndex": 0,
        "MaxGameStageIndex": 1,
        "DefaultWeightIndex": 3
      }
    ]
  },
  "MaterialPartData": { "bEnabled": false, "WeightedParts": null },
  "PartReplacementMode": "EPRM_Complete",
  "ConsolidatedAttributeInitData": [
    {
      "BaseValueConstant": 1.0,
      "BaseValueAttribute": null,
      "InitializationDefinition": null,
      "BaseValueScaleConstant": 1.0
    },
    {
      "BaseValueConstant": 100.0,
      "BaseValueAttribute": null,
      "InitializationDefinition": null,
      "BaseValueScaleConstant": 1.0
    },
    {
      "BaseValueConstant": 0.0,
      "BaseValueAttribute": null,
      "InitializationDefinition": null,
      "BaseValueScaleConstant": 1.0
    },
    {
      "BaseValueConstant": 0.0,
      "BaseValueAttribute": null,
      "InitializationDefinition": "GD_Balance.Weighting.Weight_4_Rare",
      "BaseValueScaleConstant": 1.0
    }
  ],
  "VfTableObject": "",
  "HashNext": "",
  "ObjectFlags": "",
  "HashOuterNext": "",
  "StateFrame": "",
  "Linker": null,
  "LinkerIndex": "",
  "ObjectInternalInteger": 129851,
  "NetIndex": 385,
  "Outer": "GD_Artifacts.PartLists_Unique",
  "Name": "Parts_Afterburner",
  "Class": "WillowGame.ItemPartListCollectionDefinition",
  "ObjectArchetype": "WillowGame.Default__ItemPartListCollectionDefinition"
}