{
  "AssociatedItem": "GD_Artifacts.A_Item.Artifact_AllegianceG",
  "AlphaPartData": {
    "bEnabled": true,
    "WeightedParts": [
      {
        "Part": "GD_Artifacts.Enable1st.EnableFirst_Effect1",
        "Manufacturers": [
          {
            "Manufacturer": "GD_Manufacturers.Artifacts.Artifact_TypeA",
            "DefaultWeightIndex": 1
          },
          {
            "Manufacturer": "GD_Manufacturers.Artifacts.Artifact_TypeD",
            "DefaultWeightIndex": 1
          },
          {
            "Manufacturer": "GD_Manufacturers.Artifacts.Artifact_TypeE",
            "DefaultWeightIndex": 1
          }
        ],
        "MinGameStageIndex": 0,
        "MaxGameStageIndex": 1,
        "DefaultWeightIndex": 2
      }
    ]
  },
  "BetaPartData": { "bEnabled": false, "WeightedParts": null },
  "GammaPartData": {
    "bEnabled": true,
    "WeightedParts": [
      {
        "Part": "GD_Artifacts.Enable3rd.EnableThird_Effect3",
        "Manufacturers": [
          {
            "Manufacturer": "GD_Manufacturers.Artifacts.Artifact_TypeC",
            "DefaultWeightIndex": 1
          },
          {
            "Manufacturer": "GD_Manufacturers.Artifacts.Artifact_TypeE",
            "DefaultWeightIndex": 1
          },
          {
            "Manufacturer": "GD_Manufacturers.Artifacts.Artifact_TypeF",
            "DefaultWeightIndex": 1
          }
        ],
        "MinGameStageIndex": 0,
        "MaxGameStageIndex": 1,
        "DefaultWeightIndex": 2
      }
    ]
  },
  "DeltaPartData": {
    "bEnabled": true,
    "WeightedParts": [
      {
        "Part": "GD_Artifacts.Enable2nd.EnableSecond_Effect2",
        "Manufacturers": [
          {
            "Manufacturer": "GD_Manufacturers.Artifacts.Artifact_TypeB",
            "DefaultWeightIndex": 1
          },
          {
            "Manufacturer": "GD_Manufacturers.Artifacts.Artifact_TypeD",
            "DefaultWeightIndex": 1
          },
          {
            "Manufacturer": "GD_Manufacturers.Artifacts.Artifact_TypeF",
            "DefaultWeightIndex": 1
          }
        ],
        "MinGameStageIndex": 0,
        "MaxGameStageIndex": 1,
        "DefaultWeightIndex": 2
      }
    ]
  },
  "EpsilonPartData": {
    "bEnabled": true,
    "WeightedParts": [
      {
        "Part": "GD_Artifacts.Enable2nd.EnableSecond_Effect5",
        "Manufacturers": [
          {
            "Manufacturer": "GD_Manufacturers.Artifacts.Artifact_TypeB",
            "DefaultWeightIndex": 1
          },
          {
            "Manufacturer": "GD_Manufacturers.Artifacts.Artifact_TypeD",
            "DefaultWeightIndex": 1
          },
          {
            "Manufacturer": "GD_Manufacturers.Artifacts.Artifact_TypeF",
            "DefaultWeightIndex": 1
          }
        ],
        "MinGameStageIndex": 0,
        "MaxGameStageIndex": 1,
        "DefaultWeightIndex": 2
      }
    ]
  },
  "ZetaPartData": {
    "bEnabled": true,
    "WeightedParts": [
      {
        "Part": "GD_Artifacts.Enable3rd.EnableThird_Effect6",
        "Manufacturers": [
          {
            "Manufacturer": "GD_Manufacturers.Artifacts.Artifact_TypeC",
            "DefaultWeightIndex": 1
          },
          {
            "Manufacturer": "GD_Manufacturers.Artifacts.Artifact_TypeE",
            "DefaultWeightIndex": 1
          },
          {
            "Manufacturer": "GD_Manufacturers.Artifacts.Artifact_TypeF",
            "DefaultWeightIndex": 1
          }
        ],
        "MinGameStageIndex": 0,
        "MaxGameStageIndex": 1,
        "DefaultWeightIndex": 2
      }
    ]
  },
  "EtaPartData": {
    "bEnabled": true,
    "WeightedParts": [
      {
        "Part": "GD_Artifacts.Body.Body_Allegiance",
        "Manufacturers": null,
        "MinGameStageIndex": 0,
        "MaxGameStageIndex": 1,
        "DefaultWeightIndex": 2
      }
    ]
  },
  "ThetaPartData": {
    "bEnabled": true,
    "WeightedParts": [
      {
        "Part": "GD_Artifacts.Upgrade.Upgrade_Grade8",
        "Manufacturers": [
          { "Manufacturer": null, "DefaultWeightIndex": 1 }
        ],
        "MinGameStageIndex": 0,
        "MaxGameStageIndex": 1,
        "DefaultWeightIndex": 3
      },
      {
        "Part": "GD_Artifacts.Upgrade.Upgrade_Grade9",
        "Manufacturers": [
          { "Manufacturer": null, "DefaultWeightIndex": 1 }
        ],
        "MinGameStageIndex": 0,
        "MaxGameStageIndex": 1,
        "DefaultWeightIndex": 3
      },
      {
        "Part": "GD_Artifacts.Upgrade.Upgrade_Grade10",
        "Manufacturers": [
          { "Manufacturer": null, "DefaultWeightIndex": 1 }
        ],
        "MinGameStageIndex": 0,
        "MaxGameStageIndex": 1,
        "DefaultWeightIndex": 3
      },
      {
        "Part": "GD_Artifacts.Upgrade.Upgrade_Grade11",
        "Manufacturers": [
          { "Manufacturer": null, "DefaultWeightIndex": 1 }
        ],
        "MinGameStageIndex": 0,
        "MaxGameStageIndex": 1,
        "DefaultWeightIndex": 3
      },
      {
        "Part": "GD_Artifacts.Upgrade.Upgrade_Grade12",
        "Manufacturers": [
          { "Manufacturer": null, "DefaultWeightIndex": 1 }
        ],
        "MinGameStageIndex": 0,
        "MaxGameStageIndex": 1,
        "DefaultWeightIndex": 4
      },
      {
        "Part": "GD_Artifacts.Upgrade.Upgrade_Grade13",
        "Manufacturers": [
          { "Manufacturer": null, "DefaultWeightIndex": 1 }
        ],
        "MinGameStageIndex": 0,
        "MaxGameStageIndex": 1,
        "DefaultWeightIndex": 4
      },
      {
        "Part": "GD_Artifacts.Upgrade.Upgrade_Grade14",
        "Manufacturers": [
          { "Manufacturer": null, "DefaultWeightIndex": 1 }
        ],
        "MinGameStageIndex": 0,
        "MaxGameStageIndex": 1,
        "DefaultWeightIndex": 4
      },
      {
        "Part": "GD_Artifacts.Upgrade.Upgrade_Grade15",
        "Manufacturers": [
          { "Manufacturer": null, "DefaultWeightIndex": 1 }
        ],
        "MinGameStageIndex": 0,
        "MaxGameStageIndex": 1,
        "DefaultWeightIndex": 4
      }
    ]
  },
  "MaterialPartData": { "bEnabled": false, "WeightedParts": null },
  "PartReplacementMode": "EPRM_Complete",
  "ConsolidatedAttributeInitData": [
    {
      "BaseValueConstant": 1.0,
      "BaseValueAttribute": null,
      "InitializationDefinition": null,
      "BaseValueScaleConstant": 1.0
    },
    {
      "BaseValueConstant": 100.0,
      "BaseValueAttribute": null,
      "InitializationDefinition": null,
      "BaseValueScaleConstant": 1.0
    },
    {
      "BaseValueConstant": 0.0,
      "BaseValueAttribute": null,
      "InitializationDefinition": null,
      "BaseValueScaleConstant": 1.0
    },
    {
      "BaseValueConstant": 0.0,
      "BaseValueAttribute": null,
      "InitializationDefinition": "GD_Balance.Weighting.Weight_4_Rare",
      "BaseValueScaleConstant": 1.0
    },
    {
      "BaseValueConstant": 0.0,
      "BaseValueAttribute": null,
      "InitializationDefinition": "GD_Balance.Weighting.Weight_5_VeryRare",
      "BaseValueScaleConstant": 1.0
    }
  ],
  "VfTableObject": "",
  "HashNext": "",
  "ObjectFlags": "",
  "HashOuterNext": "",
  "StateFrame": "",
  "Linker": null,
  "LinkerIndex": "",
  "ObjectInternalInteger": 129808,
  "NetIndex": 364,
  "Outer": "GD_Artifacts.PartLists",
  "Name": "Parts_AllegianceG_Rare",
  "Class": "WillowGame.ItemPartListCollectionDefinition",
  "ObjectArchetype": "WillowGame.Default__ItemPartListCollectionDefinition"
}