{
  "AssociatedItem": "GD_StorageDeckUpgrade.A_Item.INV_SDU_Ammo",
  "AlphaPartData": {
    "bEnabled": false,
    "WeightedParts": [
      {
        "Part": "GD_StorageDeckUpgrade.RightSide.RightSide_Grenade",
        "Manufacturers": null,
        "MinGameStageIndex": 0,
        "MaxGameStageIndex": 1,
        "DefaultWeightIndex": 0
      }
    ]
  },
  "BetaPartData": { "bEnabled": false, "WeightedParts": null },
  "GammaPartData": { "bEnabled": false, "WeightedParts": null },
  "DeltaPartData": { "bEnabled": false, "WeightedParts": null },
  "EpsilonPartData": { "bEnabled": false, "WeightedParts": null },
  "ZetaPartData": { "bEnabled": false, "WeightedParts": null },
  "EtaPartData": { "bEnabled": false, "WeightedParts": null },
  "ThetaPartData": { "bEnabled": false, "WeightedParts": null },
  "MaterialPartData": {
    "bEnabled": true,
    "WeightedParts": [
      {
        "Part": "GD_StorageDeckUpgrade.RightSide.RightSide_Grenade",
        "Manufacturers": null,
        "MinGameStageIndex": 0,
        "MaxGameStageIndex": 1,
        "DefaultWeightIndex": 0
      }
    ]
  },
  "PartReplacementMode": "EPRM_Complete",
  "ConsolidatedAttributeInitData": [
    {
      "BaseValueConstant": 1.0,
      "BaseValueAttribute": null,
      "InitializationDefinition": null,
      "BaseValueScaleConstant": 1.0
    },
    {
      "BaseValueConstant": 100.0,
      "BaseValueAttribute": null,
      "InitializationDefinition": null,
      "BaseValueScaleConstant": 1.0
    }
  ],
  "VfTableObject": "",
  "HashNext": "",
  "ObjectFlags": "",
  "HashOuterNext": "",
  "StateFrame": "",
  "Linker": null,
  "LinkerIndex": "",
  "ObjectInternalInteger": 130217,
  "NetIndex": 17,
  "Outer": "GD_CustomItems.PartCollections",
  "Name": "PartCollection_AmmoSDU_Grenades",
  "Class": "WillowGame.ItemPartListCollectionDefinition",
  "ObjectArchetype": "WillowGame.Default__ItemPartListCollectionDefinition"
}