{
  "AssociatedItem": "GD_GrenadeMods.A_Item_Legendary.GrenadeMod_Quasar",
  "AlphaPartData": {
    "bEnabled": true,
    "WeightedParts": [
      {
        "Part": "GD_GrenadeMods.Payload.Payload_Quasar",
        "Manufacturers": null,
        "MinGameStageIndex": 0,
        "MaxGameStageIndex": 1,
        "DefaultWeightIndex": 2
      }
    ]
  },
  "BetaPartData": {
    "bEnabled": true,
    "WeightedParts": [
      {
        "Part": "GD_GrenadeMods.Delivery.Delivery_Lob",
        "Manufacturers": [
          {
            "Manufacturer": "GD_Manufacturers.Manufacturers.Hyperion",
            "DefaultWeightIndex": 3
          }
        ],
        "MinGameStageIndex": 0,
        "MaxGameStageIndex": 1,
        "DefaultWeightIndex": 2
      },
      {
        "Part": "GD_GrenadeMods.Delivery.Delivery_Lob_Sticky",
        "Manufacturers": [
          {
            "Manufacturer": "GD_Manufacturers.Manufacturers.Hyperion",
            "DefaultWeightIndex": 3
          }
        ],
        "MinGameStageIndex": 4,
        "MaxGameStageIndex": 1,
        "DefaultWeightIndex": 2
      },
      {
        "Part": "GD_GrenadeMods.Delivery.Delivery_Rubberized",
        "Manufacturers": [
          {
            "Manufacturer": "GD_Manufacturers.Manufacturers.Hyperion",
            "DefaultWeightIndex": 3
          }
        ],
        "MinGameStageIndex": 5,
        "MaxGameStageIndex": 1,
        "DefaultWeightIndex": 2
      },
      {
        "Part": "GD_GrenadeMods.Delivery.Delivery_LongBow",
        "Manufacturers": [
          {
            "Manufacturer": "GD_Manufacturers.Manufacturers.Hyperion",
            "DefaultWeightIndex": 3
          }
        ],
        "MinGameStageIndex": 6,
        "MaxGameStageIndex": 1,
        "DefaultWeightIndex": 2
      },
      {
        "Part": "GD_GrenadeMods.Delivery.Delivery_LongBow_Sticky",
        "Manufacturers": [
          {
            "Manufacturer": "GD_Manufacturers.Manufacturers.Hyperion",
            "DefaultWeightIndex": 3
          }
        ],
        "MinGameStageIndex": 6,
        "MaxGameStageIndex": 1,
        "DefaultWeightIndex": 2
      },
      {
        "Part": "GD_GrenadeMods.Delivery.Delivery_Homing",
        "Manufacturers": [
          {
            "Manufacturer": "GD_Manufacturers.Manufacturers.Hyperion",
            "DefaultWeightIndex": 3
          }
        ],
        "MinGameStageIndex": 7,
        "MaxGameStageIndex": 1,
        "DefaultWeightIndex": 2
      },
      {
        "Part": "GD_GrenadeMods.Delivery.Delivery_Homing_Sticky",
        "Manufacturers": [
          {
            "Manufacturer": "GD_Manufacturers.Manufacturers.Hyperion",
            "DefaultWeightIndex": 3
          }
        ],
        "MinGameStageIndex": 7,
        "MaxGameStageIndex": 1,
        "DefaultWeightIndex": 2
      }
    ]
  },
  "GammaPartData": {
    "bEnabled": true,
    "WeightedParts": [
      {
        "Part": "GD_GrenadeMods.Trigger.Trigger_Grade0",
        "Manufacturers": [
          {
            "Manufacturer": "GD_Manufacturers.Manufacturers.Hyperion",
            "DefaultWeightIndex": 8
          }
        ],
        "MinGameStageIndex": 0,
        "MaxGameStageIndex": 1,
        "DefaultWeightIndex": 2
      },
      {
        "Part": "GD_GrenadeMods.Trigger.Trigger_Grade1",
        "Manufacturers": [
          {
            "Manufacturer": "GD_Manufacturers.Manufacturers.Hyperion",
            "DefaultWeightIndex": 8
          }
        ],
        "MinGameStageIndex": 0,
        "MaxGameStageIndex": 1,
        "DefaultWeightIndex": 2
      },
      {
        "Part": "GD_GrenadeMods.Trigger.Trigger_Grade2",
        "Manufacturers": [
          {
            "Manufacturer": "GD_Manufacturers.Manufacturers.Hyperion",
            "DefaultWeightIndex": 8
          }
        ],
        "MinGameStageIndex": 0,
        "MaxGameStageIndex": 1,
        "DefaultWeightIndex": 2
      },
      {
        "Part": "GD_GrenadeMods.Trigger.Trigger_Grade3",
        "Manufacturers": [
          {
            "Manufacturer": "GD_Manufacturers.Manufacturers.Hyperion",
            "DefaultWeightIndex": 8
          }
        ],
        "MinGameStageIndex": 0,
        "MaxGameStageIndex": 1,
        "DefaultWeightIndex": 2
      }
    ]
  },
  "DeltaPartData": {
    "bEnabled": true,
    "WeightedParts": [
      {
        "Part": "GD_GrenadeMods.Accessory.Accessory_Shock_Grade1",
        "Manufacturers": [
          {
            "Manufacturer": "GD_Manufacturers.Manufacturers.Hyperion",
            "DefaultWeightIndex": 8
          }
        ],
        "MinGameStageIndex": 0,
        "MaxGameStageIndex": 1,
        "DefaultWeightIndex": 2
      },
      {
        "Part": "GD_GrenadeMods.Accessory.Accessory_Shock_Grade2",
        "Manufacturers": [
          {
            "Manufacturer": "GD_Manufacturers.Manufacturers.Hyperion",
            "DefaultWeightIndex": 8
          }
        ],
        "MinGameStageIndex": 0,
        "MaxGameStageIndex": 1,
        "DefaultWeightIndex": 2
      },
      {
        "Part": "GD_GrenadeMods.Accessory.Accessory_Shock_Grade3",
        "Manufacturers": [
          {
            "Manufacturer": "GD_Manufacturers.Manufacturers.Hyperion",
            "DefaultWeightIndex": 8
          }
        ],
        "MinGameStageIndex": 0,
        "MaxGameStageIndex": 1,
        "DefaultWeightIndex": 2
      },
      {
        "Part": "GD_GrenadeMods.Accessory.Accessory_Shock_Grade4",
        "Manufacturers": [
          {
            "Manufacturer": "GD_Manufacturers.Manufacturers.Hyperion",
            "DefaultWeightIndex": 8
          }
        ],
        "MinGameStageIndex": 0,
        "MaxGameStageIndex": 1,
        "DefaultWeightIndex": 2
      }
    ]
  },
  "EpsilonPartData": {
    "bEnabled": true,
    "WeightedParts": [
      {
        "Part": "GD_GrenadeMods.Damage.Damage_Grade6",
        "Manufacturers": null,
        "MinGameStageIndex": 0,
        "MaxGameStageIndex": 1,
        "DefaultWeightIndex": 2
      },
      {
        "Part": "GD_GrenadeMods.Damage.Damage_Grade7",
        "Manufacturers": null,
        "MinGameStageIndex": 0,
        "MaxGameStageIndex": 1,
        "DefaultWeightIndex": 2
      }
    ]
  },
  "ZetaPartData": {
    "bEnabled": true,
    "WeightedParts": [
      {
        "Part": "GD_GrenadeMods.DamageRadius.DamageRadius_ExtraLarge",
        "Manufacturers": null,
        "MinGameStageIndex": 0,
        "MaxGameStageIndex": 1,
        "DefaultWeightIndex": 2
      }
    ]
  },
  "EtaPartData": { "bEnabled": false, "WeightedParts": null },
  "ThetaPartData": {
    "bEnabled": true,
    "WeightedParts": [
      {
        "Part": "GD_GrenadeMods.StatusDamage.StatusDamage_Grade2",
        "Manufacturers": null,
        "MinGameStageIndex": 0,
        "MaxGameStageIndex": 1,
        "DefaultWeightIndex": 2
      },
      {
        "Part": "GD_GrenadeMods.StatusDamage.StatusDamage_Grade3",
        "Manufacturers": null,
        "MinGameStageIndex": 0,
        "MaxGameStageIndex": 1,
        "DefaultWeightIndex": 2
      },
      {
        "Part": "GD_GrenadeMods.StatusDamage.StatusDamage_Grade4",
        "Manufacturers": null,
        "MinGameStageIndex": 0,
        "MaxGameStageIndex": 1,
        "DefaultWeightIndex": 2
      },
      {
        "Part": "GD_GrenadeMods.StatusDamage.StatusDamage_Grade5",
        "Manufacturers": null,
        "MinGameStageIndex": 0,
        "MaxGameStageIndex": 1,
        "DefaultWeightIndex": 2
      }
    ]
  },
  "MaterialPartData": {
    "bEnabled": true,
    "WeightedParts": [
      {
        "Part": "GD_GrenadeMods.Material.Material_Hyperion_5_Legendary",
        "Manufacturers": [
          {
            "Manufacturer": "GD_Manufacturers.Manufacturers.Hyperion",
            "DefaultWeightIndex": 1
          }
        ],
        "MinGameStageIndex": 0,
        "MaxGameStageIndex": 1,
        "DefaultWeightIndex": 2
      }
    ]
  },
  "PartReplacementMode": "EPRM_Complete",
  "ConsolidatedAttributeInitData": [
    {
      "BaseValueConstant": 1.0,
      "BaseValueAttribute": null,
      "InitializationDefinition": null,
      "BaseValueScaleConstant": 1.0
    },
    {
      "BaseValueConstant": 100.0,
      "BaseValueAttribute": null,
      "InitializationDefinition": null,
      "BaseValueScaleConstant": 1.0
    },
    {
      "BaseValueConstant": 0.0,
      "BaseValueAttribute": null,
      "InitializationDefinition": null,
      "BaseValueScaleConstant": 1.0
    },
    {
      "BaseValueConstant": 0.0,
      "BaseValueAttribute": null,
      "InitializationDefinition": "GD_Balance.Weighting.Weight_2_Uncommon",
      "BaseValueScaleConstant": 1.0
    },
    {
      "BaseValueConstant": 1.0,
      "BaseValueAttribute":
        "GD_GrenadeMods.BalanceAttributes.MinGameStage_Sticky",
      "InitializationDefinition": null,
      "BaseValueScaleConstant": 1.0
    },
    {
      "BaseValueConstant": 1.0,
      "BaseValueAttribute":
        "GD_GrenadeMods.BalanceAttributes.MinGameStage_Rubberized",
      "InitializationDefinition": null,
      "BaseValueScaleConstant": 1.0
    },
    {
      "BaseValueConstant": 1.0,
      "BaseValueAttribute":
        "GD_GrenadeMods.BalanceAttributes.MinGameStage_Longbow",
      "InitializationDefinition": null,
      "BaseValueScaleConstant": 1.0
    },
    {
      "BaseValueConstant": 1.0,
      "BaseValueAttribute":
        "GD_GrenadeMods.BalanceAttributes.MinGameStage_Homing",
      "InitializationDefinition": null,
      "BaseValueScaleConstant": 1.0
    },
    {
      "BaseValueConstant": 0.0,
      "BaseValueAttribute": null,
      "InitializationDefinition": "GD_Balance.Weighting.Weight_1_Common",
      "BaseValueScaleConstant": 1.0
    }
  ],
  "VfTableObject": "",
  "HashNext": "",
  "ObjectFlags": "",
  "HashOuterNext": "",
  "StateFrame": "",
  "Linker": null,
  "LinkerIndex": "",
  "ObjectInternalInteger": 130319,
  "NetIndex": 2885,
  "Outer": "GD_GrenadeMods.PartLists",
  "Name": "Parts_Quasar",
  "Class": "WillowGame.ItemPartListCollectionDefinition",
  "ObjectArchetype": "WillowGame.Default__ItemPartListCollectionDefinition"
}