{
  "AssociatedItem": "GD_GrenadeMods.A_Item.GrenadeMod_Standard",
  "AlphaPartData": {
    "bEnabled": true,
    "WeightedParts": [
      {
        "Part": "GD_GrenadeMods.Payload.Payload_Mirv",
        "Manufacturers": null,
        "MinGameStageIndex": 0,
        "MaxGameStageIndex": 1,
        "DefaultWeightIndex": 2
      }
    ]
  },
  "BetaPartData": {
    "bEnabled": true,
    "WeightedParts": [
      {
        "Part": "GD_GrenadeMods.Delivery.Delivery_Lob",
        "Manufacturers": [
          {
            "Manufacturer": "GD_Manufacturers.Manufacturers.Torgue",
            "DefaultWeightIndex": 3
          },
          {
            "Manufacturer": "GD_Manufacturers.Manufacturers.Bandit",
            "DefaultWeightIndex": 4
          }
        ],
        "MinGameStageIndex": 0,
        "MaxGameStageIndex": 1,
        "DefaultWeightIndex": 2
      },
      {
        "Part": "GD_GrenadeMods.Delivery.Delivery_Lob_Sticky",
        "Manufacturers": [
          {
            "Manufacturer": "GD_Manufacturers.Manufacturers.Torgue",
            "DefaultWeightIndex": 4
          },
          {
            "Manufacturer": "GD_Manufacturers.Manufacturers.Bandit",
            "DefaultWeightIndex": 4
          }
        ],
        "MinGameStageIndex": 5,
        "MaxGameStageIndex": 1,
        "DefaultWeightIndex": 2
      },
      {
        "Part": "GD_GrenadeMods.Delivery.Delivery_Rubberized",
        "Manufacturers": [
          {
            "Manufacturer": "GD_Manufacturers.Manufacturers.Torgue",
            "DefaultWeightIndex": 3
          },
          {
            "Manufacturer": "GD_Manufacturers.Manufacturers.Bandit",
            "DefaultWeightIndex": 4
          }
        ],
        "MinGameStageIndex": 6,
        "MaxGameStageIndex": 1,
        "DefaultWeightIndex": 2
      },
      {
        "Part": "GD_GrenadeMods.Delivery.Delivery_LongBow",
        "Manufacturers": [
          {
            "Manufacturer": "GD_Manufacturers.Manufacturers.Torgue",
            "DefaultWeightIndex": 4
          },
          {
            "Manufacturer": "GD_Manufacturers.Manufacturers.Bandit",
            "DefaultWeightIndex": 4
          }
        ],
        "MinGameStageIndex": 7,
        "MaxGameStageIndex": 1,
        "DefaultWeightIndex": 2
      },
      {
        "Part": "GD_GrenadeMods.Delivery.Delivery_LongBow_Sticky",
        "Manufacturers": [
          {
            "Manufacturer": "GD_Manufacturers.Manufacturers.Torgue",
            "DefaultWeightIndex": 8
          },
          {
            "Manufacturer": "GD_Manufacturers.Manufacturers.Bandit",
            "DefaultWeightIndex": 8
          }
        ],
        "MinGameStageIndex": 7,
        "MaxGameStageIndex": 1,
        "DefaultWeightIndex": 2
      },
      {
        "Part": "GD_GrenadeMods.Delivery.Delivery_Homing",
        "Manufacturers": [
          {
            "Manufacturer": "GD_Manufacturers.Manufacturers.Torgue",
            "DefaultWeightIndex": 4
          },
          {
            "Manufacturer": "GD_Manufacturers.Manufacturers.Bandit",
            "DefaultWeightIndex": 4
          }
        ],
        "MinGameStageIndex": 9,
        "MaxGameStageIndex": 1,
        "DefaultWeightIndex": 2
      },
      {
        "Part": "GD_GrenadeMods.Delivery.Delivery_Homing_Sticky",
        "Manufacturers": [
          {
            "Manufacturer": "GD_Manufacturers.Manufacturers.Torgue",
            "DefaultWeightIndex": 8
          },
          {
            "Manufacturer": "GD_Manufacturers.Manufacturers.Bandit",
            "DefaultWeightIndex": 8
          }
        ],
        "MinGameStageIndex": 9,
        "MaxGameStageIndex": 1,
        "DefaultWeightIndex": 2
      }
    ]
  },
  "GammaPartData": {
    "bEnabled": true,
    "WeightedParts": [
      {
        "Part": "GD_GrenadeMods.Trigger.Trigger_Grade0",
        "Manufacturers": [
          {
            "Manufacturer": "GD_Manufacturers.Manufacturers.Torgue",
            "DefaultWeightIndex": 10
          },
          {
            "Manufacturer": "GD_Manufacturers.Manufacturers.Bandit",
            "DefaultWeightIndex": 10
          }
        ],
        "MinGameStageIndex": 0,
        "MaxGameStageIndex": 1,
        "DefaultWeightIndex": 2
      },
      {
        "Part": "GD_GrenadeMods.Trigger.Trigger_Grade1",
        "Manufacturers": [
          {
            "Manufacturer": "GD_Manufacturers.Manufacturers.Torgue",
            "DefaultWeightIndex": 11
          },
          {
            "Manufacturer": "GD_Manufacturers.Manufacturers.Bandit",
            "DefaultWeightIndex": 11
          }
        ],
        "MinGameStageIndex": 0,
        "MaxGameStageIndex": 1,
        "DefaultWeightIndex": 2
      },
      {
        "Part": "GD_GrenadeMods.Trigger.Trigger_Grade2",
        "Manufacturers": [
          {
            "Manufacturer": "GD_Manufacturers.Manufacturers.Torgue",
            "DefaultWeightIndex": 11
          },
          {
            "Manufacturer": "GD_Manufacturers.Manufacturers.Bandit",
            "DefaultWeightIndex": 11
          }
        ],
        "MinGameStageIndex": 0,
        "MaxGameStageIndex": 1,
        "DefaultWeightIndex": 2
      },
      {
        "Part": "GD_GrenadeMods.Trigger.Trigger_Grade3",
        "Manufacturers": [
          {
            "Manufacturer": "GD_Manufacturers.Manufacturers.Torgue",
            "DefaultWeightIndex": 11
          },
          {
            "Manufacturer": "GD_Manufacturers.Manufacturers.Bandit",
            "DefaultWeightIndex": 11
          }
        ],
        "MinGameStageIndex": 0,
        "MaxGameStageIndex": 1,
        "DefaultWeightIndex": 2
      },
      {
        "Part": "GD_GrenadeMods.Trigger.Trigger_Grade4",
        "Manufacturers": [
          {
            "Manufacturer": "GD_Manufacturers.Manufacturers.Torgue",
            "DefaultWeightIndex": 11
          },
          {
            "Manufacturer": "GD_Manufacturers.Manufacturers.Bandit",
            "DefaultWeightIndex": 11
          }
        ],
        "MinGameStageIndex": 0,
        "MaxGameStageIndex": 1,
        "DefaultWeightIndex": 2
      },
      {
        "Part": "GD_GrenadeMods.Trigger.Trigger_Grade5",
        "Manufacturers": [
          {
            "Manufacturer": "GD_Manufacturers.Manufacturers.Torgue",
            "DefaultWeightIndex": 11
          },
          {
            "Manufacturer": "GD_Manufacturers.Manufacturers.Bandit",
            "DefaultWeightIndex": 11
          }
        ],
        "MinGameStageIndex": 0,
        "MaxGameStageIndex": 1,
        "DefaultWeightIndex": 2
      }
    ]
  },
  "DeltaPartData": {
    "bEnabled": true,
    "WeightedParts": [
      {
        "Part": "GD_GrenadeMods.Accessory.Accessory_Explosive",
        "Manufacturers": [
          {
            "Manufacturer": "GD_Manufacturers.Manufacturers.Torgue",
            "DefaultWeightIndex": 11
          },
          {
            "Manufacturer": "GD_Manufacturers.Manufacturers.Bandit",
            "DefaultWeightIndex": 12
          }
        ],
        "MinGameStageIndex": 0,
        "MaxGameStageIndex": 1,
        "DefaultWeightIndex": 2
      },
      {
        "Part": "GD_GrenadeMods.Accessory.Accessory_Incendiary",
        "Manufacturers": [
          {
            "Manufacturer": "GD_Manufacturers.Manufacturers.Bandit",
            "DefaultWeightIndex": 11
          }
        ],
        "MinGameStageIndex": 13,
        "MaxGameStageIndex": 1,
        "DefaultWeightIndex": 2
      },
      {
        "Part": "GD_GrenadeMods.Accessory.Accessory_Incendiary_Grade1",
        "Manufacturers": [
          {
            "Manufacturer": "GD_Manufacturers.Manufacturers.Bandit",
            "DefaultWeightIndex": 11
          }
        ],
        "MinGameStageIndex": 13,
        "MaxGameStageIndex": 1,
        "DefaultWeightIndex": 2
      },
      {
        "Part": "GD_GrenadeMods.Accessory.Accessory_Incendiary_Grade2",
        "Manufacturers": [
          {
            "Manufacturer": "GD_Manufacturers.Manufacturers.Bandit",
            "DefaultWeightIndex": 11
          }
        ],
        "MinGameStageIndex": 13,
        "MaxGameStageIndex": 1,
        "DefaultWeightIndex": 2
      },
      {
        "Part": "GD_GrenadeMods.Accessory.Accessory_Incendiary_Grade3",
        "Manufacturers": [
          {
            "Manufacturer": "GD_Manufacturers.Manufacturers.Bandit",
            "DefaultWeightIndex": 11
          }
        ],
        "MinGameStageIndex": 13,
        "MaxGameStageIndex": 1,
        "DefaultWeightIndex": 2
      },
      {
        "Part": "GD_GrenadeMods.Accessory.Accessory_Incendiary_Grade4",
        "Manufacturers": [
          {
            "Manufacturer": "GD_Manufacturers.Manufacturers.Bandit",
            "DefaultWeightIndex": 11
          }
        ],
        "MinGameStageIndex": 13,
        "MaxGameStageIndex": 1,
        "DefaultWeightIndex": 2
      },
      {
        "Part": "GD_GrenadeMods.Accessory.Accessory_Corrosive",
        "Manufacturers": [
          {
            "Manufacturer": "GD_Manufacturers.Manufacturers.Bandit",
            "DefaultWeightIndex": 11
          }
        ],
        "MinGameStageIndex": 14,
        "MaxGameStageIndex": 1,
        "DefaultWeightIndex": 2
      },
      {
        "Part": "GD_GrenadeMods.Accessory.Accessory_Corrosive_Grade1",
        "Manufacturers": [
          {
            "Manufacturer": "GD_Manufacturers.Manufacturers.Bandit",
            "DefaultWeightIndex": 11
          }
        ],
        "MinGameStageIndex": 14,
        "MaxGameStageIndex": 1,
        "DefaultWeightIndex": 2
      },
      {
        "Part": "GD_GrenadeMods.Accessory.Accessory_Corrosive_Grade2",
        "Manufacturers": [
          {
            "Manufacturer": "GD_Manufacturers.Manufacturers.Bandit",
            "DefaultWeightIndex": 11
          }
        ],
        "MinGameStageIndex": 14,
        "MaxGameStageIndex": 1,
        "DefaultWeightIndex": 2
      },
      {
        "Part": "GD_GrenadeMods.Accessory.Accessory_Corrosive_Grade3",
        "Manufacturers": [
          {
            "Manufacturer": "GD_Manufacturers.Manufacturers.Bandit",
            "DefaultWeightIndex": 11
          }
        ],
        "MinGameStageIndex": 14,
        "MaxGameStageIndex": 1,
        "DefaultWeightIndex": 2
      },
      {
        "Part": "GD_GrenadeMods.Accessory.Accessory_Corrosive_Grade4",
        "Manufacturers": [
          {
            "Manufacturer": "GD_Manufacturers.Manufacturers.Bandit",
            "DefaultWeightIndex": 11
          }
        ],
        "MinGameStageIndex": 14,
        "MaxGameStageIndex": 1,
        "DefaultWeightIndex": 2
      },
      {
        "Part": "GD_GrenadeMods.Accessory.Accessory_Shock",
        "Manufacturers": [
          {
            "Manufacturer": "GD_Manufacturers.Manufacturers.Bandit",
            "DefaultWeightIndex": 11
          }
        ],
        "MinGameStageIndex": 15,
        "MaxGameStageIndex": 1,
        "DefaultWeightIndex": 2
      },
      {
        "Part": "GD_GrenadeMods.Accessory.Accessory_Shock_Grade1",
        "Manufacturers": [
          {
            "Manufacturer": "GD_Manufacturers.Manufacturers.Bandit",
            "DefaultWeightIndex": 11
          }
        ],
        "MinGameStageIndex": 15,
        "MaxGameStageIndex": 1,
        "DefaultWeightIndex": 2
      },
      {
        "Part": "GD_GrenadeMods.Accessory.Accessory_Shock_Grade2",
        "Manufacturers": [
          {
            "Manufacturer": "GD_Manufacturers.Manufacturers.Bandit",
            "DefaultWeightIndex": 11
          }
        ],
        "MinGameStageIndex": 15,
        "MaxGameStageIndex": 1,
        "DefaultWeightIndex": 2
      },
      {
        "Part": "GD_GrenadeMods.Accessory.Accessory_Shock_Grade3",
        "Manufacturers": [
          {
            "Manufacturer": "GD_Manufacturers.Manufacturers.Bandit",
            "DefaultWeightIndex": 11
          }
        ],
        "MinGameStageIndex": 15,
        "MaxGameStageIndex": 1,
        "DefaultWeightIndex": 2
      },
      {
        "Part": "GD_GrenadeMods.Accessory.Accessory_Shock_Grade4",
        "Manufacturers": [
          {
            "Manufacturer": "GD_Manufacturers.Manufacturers.Bandit",
            "DefaultWeightIndex": 11
          }
        ],
        "MinGameStageIndex": 15,
        "MaxGameStageIndex": 1,
        "DefaultWeightIndex": 2
      },
      {
        "Part": "GD_GrenadeMods.Accessory.Accessory_Slag",
        "Manufacturers": [
          {
            "Manufacturer": "GD_Manufacturers.Manufacturers.Bandit",
            "DefaultWeightIndex": 11
          }
        ],
        "MinGameStageIndex": 16,
        "MaxGameStageIndex": 1,
        "DefaultWeightIndex": 2
      },
      {
        "Part": "GD_GrenadeMods.Accessory.Accessory_Slag_Grade1",
        "Manufacturers": [
          {
            "Manufacturer": "GD_Manufacturers.Manufacturers.Bandit",
            "DefaultWeightIndex": 11
          }
        ],
        "MinGameStageIndex": 16,
        "MaxGameStageIndex": 1,
        "DefaultWeightIndex": 2
      },
      {
        "Part": "GD_GrenadeMods.Accessory.Accessory_Slag_Grade2",
        "Manufacturers": [
          {
            "Manufacturer": "GD_Manufacturers.Manufacturers.Bandit",
            "DefaultWeightIndex": 11
          }
        ],
        "MinGameStageIndex": 16,
        "MaxGameStageIndex": 1,
        "DefaultWeightIndex": 2
      },
      {
        "Part": "GD_GrenadeMods.Accessory.Accessory_Slag_Grade3",
        "Manufacturers": [
          {
            "Manufacturer": "GD_Manufacturers.Manufacturers.Bandit",
            "DefaultWeightIndex": 11
          }
        ],
        "MinGameStageIndex": 16,
        "MaxGameStageIndex": 1,
        "DefaultWeightIndex": 2
      },
      {
        "Part": "GD_GrenadeMods.Accessory.Accessory_Slag_Grade4",
        "Manufacturers": [
          {
            "Manufacturer": "GD_Manufacturers.Manufacturers.Bandit",
            "DefaultWeightIndex": 11
          }
        ],
        "MinGameStageIndex": 16,
        "MaxGameStageIndex": 1,
        "DefaultWeightIndex": 2
      }
    ]
  },
  "EpsilonPartData": {
    "bEnabled": true,
    "WeightedParts": [
      {
        "Part": "GD_GrenadeMods.Damage.Damage_Grade4",
        "Manufacturers": null,
        "MinGameStageIndex": 0,
        "MaxGameStageIndex": 1,
        "DefaultWeightIndex": 2
      },
      {
        "Part": "GD_GrenadeMods.Damage.Damage_Grade5",
        "Manufacturers": null,
        "MinGameStageIndex": 0,
        "MaxGameStageIndex": 1,
        "DefaultWeightIndex": 2
      }
    ]
  },
  "ZetaPartData": {
    "bEnabled": true,
    "WeightedParts": [
      {
        "Part": "GD_GrenadeMods.DamageRadius.DamageRadius_Normal",
        "Manufacturers": null,
        "MinGameStageIndex": 0,
        "MaxGameStageIndex": 1,
        "DefaultWeightIndex": 2
      },
      {
        "Part": "GD_GrenadeMods.DamageRadius.DamageRadius_Large",
        "Manufacturers": null,
        "MinGameStageIndex": 0,
        "MaxGameStageIndex": 1,
        "DefaultWeightIndex": 2
      }
    ]
  },
  "EtaPartData": {
    "bEnabled": true,
    "WeightedParts": [
      {
        "Part": "GD_GrenadeMods.ChildCount.ChildCount_Grade2",
        "Manufacturers": [
          {
            "Manufacturer": "GD_Manufacturers.Manufacturers.Torgue",
            "DefaultWeightIndex": 11
          },
          {
            "Manufacturer": "GD_Manufacturers.Manufacturers.Bandit",
            "DefaultWeightIndex": 11
          }
        ],
        "MinGameStageIndex": 0,
        "MaxGameStageIndex": 1,
        "DefaultWeightIndex": 2
      },
      {
        "Part": "GD_GrenadeMods.ChildCount.ChildCount_Grade3",
        "Manufacturers": [
          {
            "Manufacturer": "GD_Manufacturers.Manufacturers.Torgue",
            "DefaultWeightIndex": 11
          },
          {
            "Manufacturer": "GD_Manufacturers.Manufacturers.Bandit",
            "DefaultWeightIndex": 11
          }
        ],
        "MinGameStageIndex": 0,
        "MaxGameStageIndex": 1,
        "DefaultWeightIndex": 2
      },
      {
        "Part": "GD_GrenadeMods.ChildCount.ChildCount_Grade4",
        "Manufacturers": [
          {
            "Manufacturer": "GD_Manufacturers.Manufacturers.Torgue",
            "DefaultWeightIndex": 11
          },
          {
            "Manufacturer": "GD_Manufacturers.Manufacturers.Bandit",
            "DefaultWeightIndex": 11
          }
        ],
        "MinGameStageIndex": 0,
        "MaxGameStageIndex": 1,
        "DefaultWeightIndex": 2
      }
    ]
  },
  "ThetaPartData": {
    "bEnabled": true,
    "WeightedParts": [
      {
        "Part": "GD_GrenadeMods.StatusDamage.StatusDamage_Grade1",
        "Manufacturers": null,
        "MinGameStageIndex": 13,
        "MaxGameStageIndex": 1,
        "DefaultWeightIndex": 2
      },
      {
        "Part": "GD_GrenadeMods.StatusDamage.StatusDamage_Grade2",
        "Manufacturers": null,
        "MinGameStageIndex": 13,
        "MaxGameStageIndex": 1,
        "DefaultWeightIndex": 2
      },
      {
        "Part": "GD_GrenadeMods.StatusDamage.StatusDamage_Grade3",
        "Manufacturers": null,
        "MinGameStageIndex": 13,
        "MaxGameStageIndex": 1,
        "DefaultWeightIndex": 2
      },
      {
        "Part": "GD_GrenadeMods.StatusDamage.StatusDamage_Grade4",
        "Manufacturers": null,
        "MinGameStageIndex": 13,
        "MaxGameStageIndex": 1,
        "DefaultWeightIndex": 2
      }
    ]
  },
  "MaterialPartData": {
    "bEnabled": true,
    "WeightedParts": [
      {
        "Part": "GD_GrenadeMods.Material.Material_Bandit_3_Rare",
        "Manufacturers": [
          {
            "Manufacturer": "GD_Manufacturers.Manufacturers.Bandit",
            "DefaultWeightIndex": 1
          }
        ],
        "MinGameStageIndex": 0,
        "MaxGameStageIndex": 1,
        "DefaultWeightIndex": 2
      },
      {
        "Part": "GD_GrenadeMods.Material.Material_Torgue_3_Rare",
        "Manufacturers": [
          {
            "Manufacturer": "GD_Manufacturers.Manufacturers.Torgue",
            "DefaultWeightIndex": 1
          }
        ],
        "MinGameStageIndex": 0,
        "MaxGameStageIndex": 1,
        "DefaultWeightIndex": 2
      }
    ]
  },
  "PartReplacementMode": "EPRM_Complete",
  "ConsolidatedAttributeInitData": [
    {
      "BaseValueConstant": 1.0,
      "BaseValueAttribute": null,
      "InitializationDefinition": null,
      "BaseValueScaleConstant": 1.0
    },
    {
      "BaseValueConstant": 100.0,
      "BaseValueAttribute": null,
      "InitializationDefinition": null,
      "BaseValueScaleConstant": 1.0
    },
    {
      "BaseValueConstant": 0.0,
      "BaseValueAttribute": null,
      "InitializationDefinition": null,
      "BaseValueScaleConstant": 1.0
    },
    {
      "BaseValueConstant": 0.0,
      "BaseValueAttribute": null,
      "InitializationDefinition": "GD_Balance.Weighting.Weight_2_Uncommon",
      "BaseValueScaleConstant": 1.2
    },
    {
      "BaseValueConstant": 0.0,
      "BaseValueAttribute": null,
      "InitializationDefinition": "GD_Balance.Weighting.Weight_2_Uncommon",
      "BaseValueScaleConstant": 1.0
    },
    {
      "BaseValueConstant": 1.0,
      "BaseValueAttribute":
        "GD_GrenadeMods.BalanceAttributes.MinGameStage_Sticky",
      "InitializationDefinition": null,
      "BaseValueScaleConstant": 1.0
    },
    {
      "BaseValueConstant": 1.0,
      "BaseValueAttribute":
        "GD_GrenadeMods.BalanceAttributes.MinGameStage_Rubberized",
      "InitializationDefinition": null,
      "BaseValueScaleConstant": 1.0
    },
    {
      "BaseValueConstant": 1.0,
      "BaseValueAttribute":
        "GD_GrenadeMods.BalanceAttributes.MinGameStage_Longbow",
      "InitializationDefinition": null,
      "BaseValueScaleConstant": 1.0
    },
    {
      "BaseValueConstant": 0.0,
      "BaseValueAttribute": null,
      "InitializationDefinition": "GD_Balance.Weighting.Weight_3_Uncommoner",
      "BaseValueScaleConstant": 1.0
    },
    {
      "BaseValueConstant": 1.0,
      "BaseValueAttribute":
        "GD_GrenadeMods.BalanceAttributes.MinGameStage_Homing",
      "InitializationDefinition": null,
      "BaseValueScaleConstant": 1.0
    },
    {
      "BaseValueConstant": 0.0,
      "BaseValueAttribute": null,
      "InitializationDefinition": "GD_Balance.Weighting.Weight_1_Common",
      "BaseValueScaleConstant": 0.5
    },
    {
      "BaseValueConstant": 0.0,
      "BaseValueAttribute": null,
      "InitializationDefinition": "GD_Balance.Weighting.Weight_1_Common",
      "BaseValueScaleConstant": 1.0
    },
    {
      "BaseValueConstant": 0.0,
      "BaseValueAttribute": null,
      "InitializationDefinition": "GD_Balance.Weighting.Weight_1_Common",
      "BaseValueScaleConstant": 8.0
    },
    {
      "BaseValueConstant": 1.0,
      "BaseValueAttribute":
        "GD_GrenadeMods.BalanceAttributes.MinGameStage_IncendiaryGrenade",
      "InitializationDefinition": null,
      "BaseValueScaleConstant": 1.0
    },
    {
      "BaseValueConstant": 1.0,
      "BaseValueAttribute":
        "GD_GrenadeMods.BalanceAttributes.MinGameStage_CorrosiveGrenade",
      "InitializationDefinition": null,
      "BaseValueScaleConstant": 1.0
    },
    {
      "BaseValueConstant": 1.0,
      "BaseValueAttribute":
        "GD_GrenadeMods.BalanceAttributes.MinGameStage_ShockGrenade",
      "InitializationDefinition": null,
      "BaseValueScaleConstant": 1.0
    },
    {
      "BaseValueConstant": 1.0,
      "BaseValueAttribute":
        "GD_GrenadeMods.BalanceAttributes.MinGameStage_SlagGrenade",
      "InitializationDefinition": null,
      "BaseValueScaleConstant": 1.0
    }
  ],
  "VfTableObject": "",
  "HashNext": "",
  "ObjectFlags": "",
  "HashOuterNext": "",
  "StateFrame": "",
  "Linker": null,
  "LinkerIndex": "",
  "ObjectInternalInteger": 130266,
  "NetIndex": 2881,
  "Outer": "GD_GrenadeMods.PartLists",
  "Name": "Parts_Mirv_3_Rare",
  "Class": "WillowGame.ItemPartListCollectionDefinition",
  "ObjectArchetype": "WillowGame.Default__ItemPartListCollectionDefinition"
}