{
  "AssociatedItem": null,
  "AlphaPartData": {
    "bEnabled": true,
    "WeightedParts": [
      {
        "Part": "GD_ClassMods.Specialization.Spec_NoSkill",
        "Manufacturers": null,
        "MinGameStageIndex": 0,
        "MaxGameStageIndex": 1,
        "DefaultWeightIndex": 0
      },
      {
        "Part": "GD_ClassMods.Specialization.Spec_AS1",
        "Manufacturers": null,
        "MinGameStageIndex": 0,
        "MaxGameStageIndex": 1,
        "DefaultWeightIndex": 0
      },
      {
        "Part": "GD_ClassMods.Specialization.Spec_AS1_BS2",
        "Manufacturers": null,
        "MinGameStageIndex": 0,
        "MaxGameStageIndex": 1,
        "DefaultWeightIndex": 0
      },
      {
        "Part": "GD_ClassMods.Specialization.Spec_AS1_BS3",
        "Manufacturers": null,
        "MinGameStageIndex": 0,
        "MaxGameStageIndex": 1,
        "DefaultWeightIndex": 0
      },
      {
        "Part": "GD_ClassMods.Specialization.Spec_AS2",
        "Manufacturers": null,
        "MinGameStageIndex": 0,
        "MaxGameStageIndex": 1,
        "DefaultWeightIndex": 0
      },
      {
        "Part": "GD_ClassMods.Specialization.Spec_AS2_BS1",
        "Manufacturers": null,
        "MinGameStageIndex": 0,
        "MaxGameStageIndex": 1,
        "DefaultWeightIndex": 0
      },
      {
        "Part": "GD_ClassMods.Specialization.Spec_AS2_BS3",
        "Manufacturers": null,
        "MinGameStageIndex": 0,
        "MaxGameStageIndex": 1,
        "DefaultWeightIndex": 0
      },
      {
        "Part": "GD_ClassMods.Specialization.Spec_AS3",
        "Manufacturers": null,
        "MinGameStageIndex": 0,
        "MaxGameStageIndex": 1,
        "DefaultWeightIndex": 0
      },
      {
        "Part": "GD_ClassMods.Specialization.Spec_AS3_BS1",
        "Manufacturers": null,
        "MinGameStageIndex": 0,
        "MaxGameStageIndex": 1,
        "DefaultWeightIndex": 0
      },
      {
        "Part": "GD_ClassMods.Specialization.Spec_AS3_BS2",
        "Manufacturers": null,
        "MinGameStageIndex": 0,
        "MaxGameStageIndex": 1,
        "DefaultWeightIndex": 0
      },
      {
        "Part": "GD_ClassMods.Specialization.Spec_AS1_BS2_CS3",
        "Manufacturers": null,
        "MinGameStageIndex": 0,
        "MaxGameStageIndex": 1,
        "DefaultWeightIndex": 0
      },
      {
        "Part": "GD_ClassMods.Specialization.Spec_AS2_BS1_CS3",
        "Manufacturers": null,
        "MinGameStageIndex": 0,
        "MaxGameStageIndex": 1,
        "DefaultWeightIndex": 0
      },
      {
        "Part": "GD_ClassMods.Specialization.Spec_AS3_BS1_CS2",
        "Manufacturers": null,
        "MinGameStageIndex": 0,
        "MaxGameStageIndex": 1,
        "DefaultWeightIndex": 0
      },
      {
        "Part": "GD_ClassMods.Specialization.Spec_AS1_BS2_-CS3",
        "Manufacturers": null,
        "MinGameStageIndex": 2,
        "MaxGameStageIndex": 1,
        "DefaultWeightIndex": 0
      },
      {
        "Part": "GD_ClassMods.Specialization.Spec_AS1_-BS2_CS3",
        "Manufacturers": null,
        "MinGameStageIndex": 2,
        "MaxGameStageIndex": 1,
        "DefaultWeightIndex": 0
      },
      {
        "Part": "GD_ClassMods.Specialization.Spec_AS2_BS1_-CS3",
        "Manufacturers": null,
        "MinGameStageIndex": 2,
        "MaxGameStageIndex": 1,
        "DefaultWeightIndex": 0
      },
      {
        "Part": "GD_ClassMods.Specialization.Spec_AS2_-BS1_CS3",
        "Manufacturers": null,
        "MinGameStageIndex": 2,
        "MaxGameStageIndex": 1,
        "DefaultWeightIndex": 0
      },
      {
        "Part": "GD_ClassMods.Specialization.Spec_AS3_BS1_-CS2",
        "Manufacturers": null,
        "MinGameStageIndex": 2,
        "MaxGameStageIndex": 1,
        "DefaultWeightIndex": 0
      },
      {
        "Part": "GD_ClassMods.Specialization.Spec_AS3_-BS1_CS2",
        "Manufacturers": null,
        "MinGameStageIndex": 2,
        "MaxGameStageIndex": 1,
        "DefaultWeightIndex": 0
      }
    ]
  },
  "BetaPartData": {
    "bEnabled": true,
    "WeightedParts": [
      {
        "Part": "GD_ClassMods.StatPrimary.PrimaryStat_A0_B0_C0",
        "Manufacturers": null,
        "MinGameStageIndex": 0,
        "MaxGameStageIndex": 1,
        "DefaultWeightIndex": 0
      },
      {
        "Part": "GD_ClassMods.StatPrimary.PrimaryStat_A1_B0_C0",
        "Manufacturers": null,
        "MinGameStageIndex": 0,
        "MaxGameStageIndex": 1,
        "DefaultWeightIndex": 0
      },
      {
        "Part": "GD_ClassMods.StatPrimary.PrimaryStat_A2_B0_C0",
        "Manufacturers": null,
        "MinGameStageIndex": 0,
        "MaxGameStageIndex": 1,
        "DefaultWeightIndex": 0
      },
      {
        "Part": "GD_ClassMods.StatPrimary.PrimaryStat_A3_B0_C0",
        "Manufacturers": null,
        "MinGameStageIndex": 0,
        "MaxGameStageIndex": 1,
        "DefaultWeightIndex": 0
      },
      {
        "Part": "GD_ClassMods.StatPrimary.PrimaryStat_A4_B0_C0",
        "Manufacturers": null,
        "MinGameStageIndex": 0,
        "MaxGameStageIndex": 1,
        "DefaultWeightIndex": 0
      },
      {
        "Part": "GD_ClassMods.StatPrimary.PrimaryStat_A5_B0_C0",
        "Manufacturers": null,
        "MinGameStageIndex": 0,
        "MaxGameStageIndex": 1,
        "DefaultWeightIndex": 0
      }
    ]
  },
  "GammaPartData": {
    "bEnabled": true,
    "WeightedParts": [
      {
        "Part": "GD_ClassMods.StatPrimary02.PrimaryStat02_A0_B0_C0",
        "Manufacturers": null,
        "MinGameStageIndex": 0,
        "MaxGameStageIndex": 1,
        "DefaultWeightIndex": 0
      },
      {
        "Part": "GD_ClassMods.StatPrimary02.PrimaryStat02_A0_B1_C0",
        "Manufacturers": null,
        "MinGameStageIndex": 0,
        "MaxGameStageIndex": 1,
        "DefaultWeightIndex": 0
      },
      {
        "Part": "GD_ClassMods.StatPrimary02.PrimaryStat02_A0_B2_C0",
        "Manufacturers": null,
        "MinGameStageIndex": 0,
        "MaxGameStageIndex": 1,
        "DefaultWeightIndex": 0
      },
      {
        "Part": "GD_ClassMods.StatPrimary02.PrimaryStat02_A0_B3_C0",
        "Manufacturers": null,
        "MinGameStageIndex": 0,
        "MaxGameStageIndex": 1,
        "DefaultWeightIndex": 0
      },
      {
        "Part": "GD_ClassMods.StatPrimary02.PrimaryStat02_A0_B4_C0",
        "Manufacturers": null,
        "MinGameStageIndex": 0,
        "MaxGameStageIndex": 1,
        "DefaultWeightIndex": 0
      },
      {
        "Part": "GD_ClassMods.StatPrimary02.PrimaryStat02_A0_B5_C0",
        "Manufacturers": null,
        "MinGameStageIndex": 0,
        "MaxGameStageIndex": 1,
        "DefaultWeightIndex": 0
      }
    ]
  },
  "DeltaPartData": { "bEnabled": false, "WeightedParts": null },
  "EpsilonPartData": { "bEnabled": false, "WeightedParts": null },
  "ZetaPartData": { "bEnabled": false, "WeightedParts": null },
  "EtaPartData": { "bEnabled": false, "WeightedParts": null },
  "ThetaPartData": { "bEnabled": false, "WeightedParts": null },
  "MaterialPartData": {
    "bEnabled": true,
    "WeightedParts": [
      {
        "Part": "GD_ClassMods.StatPenalty.StatPenalty_A0_B0_C0",
        "Manufacturers": null,
        "MinGameStageIndex": 0,
        "MaxGameStageIndex": 1,
        "DefaultWeightIndex": 0
      },
      {
        "Part": "GD_ClassMods.StatPenalty.StatPenalty_A0_B0_C1",
        "Manufacturers": null,
        "MinGameStageIndex": 0,
        "MaxGameStageIndex": 1,
        "DefaultWeightIndex": 0
      },
      {
        "Part": "GD_ClassMods.StatPenalty.StatPenalty_A0_B0_C2",
        "Manufacturers": null,
        "MinGameStageIndex": 0,
        "MaxGameStageIndex": 1,
        "DefaultWeightIndex": 0
      },
      {
        "Part": "GD_ClassMods.StatPenalty.StatPenalty_A0_B0_C3",
        "Manufacturers": null,
        "MinGameStageIndex": 0,
        "MaxGameStageIndex": 1,
        "DefaultWeightIndex": 0
      },
      {
        "Part": "GD_ClassMods.StatPenalty.StatPenalty_A0_B0_C4",
        "Manufacturers": null,
        "MinGameStageIndex": 0,
        "MaxGameStageIndex": 1,
        "DefaultWeightIndex": 0
      },
      {
        "Part": "GD_ClassMods.StatPenalty.StatPenalty_A0_B0_C5",
        "Manufacturers": null,
        "MinGameStageIndex": 0,
        "MaxGameStageIndex": 1,
        "DefaultWeightIndex": 0
      }
    ]
  },
  "PartReplacementMode": "EPRM_Complete",
  "ConsolidatedAttributeInitData": [
    {
      "BaseValueConstant": 1.0,
      "BaseValueAttribute": null,
      "InitializationDefinition": null,
      "BaseValueScaleConstant": 1.0
    },
    {
      "BaseValueConstant": 100.0,
      "BaseValueAttribute": null,
      "InitializationDefinition": null,
      "BaseValueScaleConstant": 1.0
    },
    {
      "BaseValueConstant": 42.0,
      "BaseValueAttribute": null,
      "InitializationDefinition": null,
      "BaseValueScaleConstant": 1.0
    }
  ],
  "VfTableObject": "",
  "HashNext": "",
  "ObjectFlags": "",
  "HashOuterNext": "",
  "StateFrame": "",
  "Linker": null,
  "LinkerIndex": "",
  "ObjectInternalInteger": 154181,
  "NetIndex": -1,
  "Outer": "GD_ItemGrades.ClassMods.BalDef_ClassMod_Siren",
  "Name": "ItemPartListCollectionDefinition_14",
  "Class": "WillowGame.ItemPartListCollectionDefinition",
  "ObjectArchetype": "WillowGame.Default__ItemPartListCollectionDefinition"
}