{
  "AssociatedItem": null,
  "AlphaPartData": {
    "bEnabled": true,
    "WeightedParts": [
      {
        "Part": "GD_ClassMods.Specialization.Spec_Legendary",
        "Manufacturers": null,
        "MinGameStageIndex": 0,
        "MaxGameStageIndex": 1,
        "DefaultWeightIndex": 0
      }
    ]
  },
  "BetaPartData": { "bEnabled": false, "WeightedParts": null },
  "GammaPartData": { "bEnabled": false, "WeightedParts": null },
  "DeltaPartData": { "bEnabled": false, "WeightedParts": null },
  "EpsilonPartData": { "bEnabled": false, "WeightedParts": null },
  "ZetaPartData": { "bEnabled": false, "WeightedParts": null },
  "EtaPartData": { "bEnabled": false, "WeightedParts": null },
  "ThetaPartData": { "bEnabled": false, "WeightedParts": null },
  "MaterialPartData": { "bEnabled": false, "WeightedParts": null },
  "PartReplacementMode": "EPRM_Selective",
  "ConsolidatedAttributeInitData": [
    {
      "BaseValueConstant": 1.0,
      "BaseValueAttribute": null,
      "InitializationDefinition": null,
      "BaseValueScaleConstant": 1.0
    },
    {
      "BaseValueConstant": 100.0,
      "BaseValueAttribute": null,
      "InitializationDefinition": null,
      "BaseValueScaleConstant": 1.0
    }
  ],
  "VfTableObject": "",
  "HashNext": "",
  "ObjectFlags": "",
  "HashOuterNext": "",
  "StateFrame": "",
  "Linker": null,
  "LinkerIndex": "",
  "ObjectInternalInteger": 167788,
  "NetIndex": 9,
  "Outer":
    "GD_Lobelia_ItemGrades.ClassMods.BalDef_ClassMod_Lobelia_Psycho_05_Legendary",
  "Name": "PartList",
  "Class": "WillowGame.ItemPartListCollectionDefinition",
  "ObjectArchetype": "WillowGame.Default__ClassModBalanceDefinition:PartList"
}