{
  "AssociatedItem":
    "GD_Orchid_Artifacts.A_Item_Unique.Artifact_SeraphBloodRelic",
  "AlphaPartData": {
    "bEnabled": true,
    "WeightedParts": [
      {
        "Part": "GD_Orchid_Artifacts.Effects.Effect_SeraphBloodRelic",
        "Manufacturers": [
          {
            "Manufacturer": "GD_Manufacturers.Artifacts.Artifact_TypeA",
            "DefaultWeightIndex": 1
          }
        ],
        "MinGameStageIndex": 0,
        "MaxGameStageIndex": 1,
        "DefaultWeightIndex": 2
      }
    ]
  },
  "BetaPartData": { "bEnabled": false, "WeightedParts": null },
  "GammaPartData": { "bEnabled": false, "WeightedParts": null },
  "DeltaPartData": { "bEnabled": false, "WeightedParts": null },
  "EpsilonPartData": { "bEnabled": false, "WeightedParts": null },
  "ZetaPartData": { "bEnabled": false, "WeightedParts": null },
  "EtaPartData": {
    "bEnabled": true,
    "WeightedParts": [
      {
        "Part": "GD_Orchid_Artifacts.Body.Body_SeraphBloodRelic",
        "Manufacturers": null,
        "MinGameStageIndex": 0,
        "MaxGameStageIndex": 1,
        "DefaultWeightIndex": 2
      }
    ]
  },
  "ThetaPartData": {
    "bEnabled": true,
    "WeightedParts": [
      {
        "Part": "GD_Orchid_Artifacts.Upgrade.Upgrade_SeraphBloodRelic",
        "Manufacturers": [
          { "Manufacturer": null, "DefaultWeightIndex": 1 }
        ],
        "MinGameStageIndex": 0,
        "MaxGameStageIndex": 1,
        "DefaultWeightIndex": 3
      }
    ]
  },
  "MaterialPartData": { "bEnabled": false, "WeightedParts": null },
  "PartReplacementMode": "EPRM_Complete",
  "ConsolidatedAttributeInitData": [
    {
      "BaseValueConstant": 1.0,
      "BaseValueAttribute": null,
      "InitializationDefinition": null,
      "BaseValueScaleConstant": 1.0
    },
    {
      "BaseValueConstant": 100.0,
      "BaseValueAttribute": null,
      "InitializationDefinition": null,
      "BaseValueScaleConstant": 1.0
    },
    {
      "BaseValueConstant": 0.0,
      "BaseValueAttribute": null,
      "InitializationDefinition": null,
      "BaseValueScaleConstant": 1.0
    },
    {
      "BaseValueConstant": 0.0,
      "BaseValueAttribute": null,
      "InitializationDefinition": "GD_Balance.Weighting.Weight_1_Common",
      "BaseValueScaleConstant": 1.0
    }
  ],
  "VfTableObject": "",
  "HashNext": "",
  "ObjectFlags": "",
  "HashOuterNext": "",
  "StateFrame": "",
  "Linker": null,
  "LinkerIndex": "",
  "ObjectInternalInteger": 176281,
  "NetIndex": 50,
  "Outer": "GD_Orchid_Artifacts.PartLists_Unique",
  "Name": "Parts_SeraphBloodRelic",
  "Class": "WillowGame.ItemPartListCollectionDefinition",
  "ObjectArchetype": "WillowGame.Default__ItemPartListCollectionDefinition"
}