{
  "AssociatedItem": "GD_Shields.A_Item.Shield_Spike_Shock",
  "AlphaPartData": { "bEnabled": false, "WeightedParts": null },
  "BetaPartData": { "bEnabled": false, "WeightedParts": null },
  "GammaPartData": { "bEnabled": false, "WeightedParts": null },
  "DeltaPartData": { "bEnabled": false, "WeightedParts": null },
  "EpsilonPartData": { "bEnabled": false, "WeightedParts": null },
  "ZetaPartData": { "bEnabled": false, "WeightedParts": null },
  "EtaPartData": { "bEnabled": false, "WeightedParts": null },
  "ThetaPartData": { "bEnabled": false, "WeightedParts": null },
  "MaterialPartData": {
    "bEnabled": true,
    "WeightedParts": [
      {
        "Part": "GD_Shields.Material.Material1_Common_NovaSpike_Maliwan",
        "Manufacturers": null,
        "MinGameStageIndex": 0,
        "MaxGameStageIndex": 1,
        "DefaultWeightIndex": 0
      }
    ]
  },
  "PartReplacementMode": "EPRM_Selective",
  "ConsolidatedAttributeInitData": [
    {
      "BaseValueConstant": 1.0,
      "BaseValueAttribute": null,
      "InitializationDefinition": null,
      "BaseValueScaleConstant": 1.0
    },
    {
      "BaseValueConstant": 100.0,
      "BaseValueAttribute": null,
      "InitializationDefinition": null,
      "BaseValueScaleConstant": 1.0
    }
  ],
  "VfTableObject": "",
  "HashNext": "",
  "ObjectFlags": "",
  "HashOuterNext": "",
  "StateFrame": "",
  "Linker": null,
  "LinkerIndex": "",
  "ObjectInternalInteger": 130506,
  "NetIndex": 2251,
  "Outer": "GD_Shields.A_Item",
  "Name": "Shield_Spike_Shock_01_Common",
  "Class": "WillowGame.ItemPartListCollectionDefinition",
  "ObjectArchetype": "WillowGame.Default__ItemPartListCollectionDefinition"
}