{
  "AssociatedItem": "GD_Sage_Shields.A_Item_Custom.Shield_Buckler",
  "AlphaPartData": {
    "bEnabled": true,
    "WeightedParts": [
      {
        "Part": "GD_Shields.Body.Body1_Tediore",
        "Manufacturers": [
          { "Manufacturer": null, "DefaultWeightIndex": 3 }
        ],
        "MinGameStageIndex": 0,
        "MaxGameStageIndex": 1,
        "DefaultWeightIndex": 2
      },
      {
        "Part": "GD_Shields.Body.Body3_Vladof",
        "Manufacturers": [
          { "Manufacturer": null, "DefaultWeightIndex": 3 }
        ],
        "MinGameStageIndex": 0,
        "MaxGameStageIndex": 1,
        "DefaultWeightIndex": 2
      },
      {
        "Part": "GD_Shields.Body.Body5_Anshin",
        "Manufacturers": [
          { "Manufacturer": null, "DefaultWeightIndex": 3 }
        ],
        "MinGameStageIndex": 0,
        "MaxGameStageIndex": 1,
        "DefaultWeightIndex": 2
      },
      {
        "Part": "GD_Shields.Body.Body5_Maliwan",
        "Manufacturers": [
          { "Manufacturer": null, "DefaultWeightIndex": 3 }
        ],
        "MinGameStageIndex": 0,
        "MaxGameStageIndex": 1,
        "DefaultWeightIndex": 2
      },
      {
        "Part": "GD_Shields.Body.Body7_Hyperion",
        "Manufacturers": [
          { "Manufacturer": null, "DefaultWeightIndex": 3 }
        ],
        "MinGameStageIndex": 0,
        "MaxGameStageIndex": 1,
        "DefaultWeightIndex": 2
      }
    ]
  },
  "BetaPartData": {
    "bEnabled": true,
    "WeightedParts": [
      {
        "Part": "GD_Shields.Battery.Battery1_Tediore",
        "Manufacturers": [
          { "Manufacturer": null, "DefaultWeightIndex": 3 }
        ],
        "MinGameStageIndex": 0,
        "MaxGameStageIndex": 1,
        "DefaultWeightIndex": 2
      },
      {
        "Part": "GD_Shields.Battery.Battery3_Vladof",
        "Manufacturers": [
          { "Manufacturer": null, "DefaultWeightIndex": 3 }
        ],
        "MinGameStageIndex": 0,
        "MaxGameStageIndex": 1,
        "DefaultWeightIndex": 2
      },
      {
        "Part": "GD_Shields.Battery.Battery5_Anshin",
        "Manufacturers": [
          { "Manufacturer": null, "DefaultWeightIndex": 3 }
        ],
        "MinGameStageIndex": 0,
        "MaxGameStageIndex": 1,
        "DefaultWeightIndex": 2
      },
      {
        "Part": "GD_Shields.Battery.Battery5_Maliwan",
        "Manufacturers": [
          { "Manufacturer": null, "DefaultWeightIndex": 3 }
        ],
        "MinGameStageIndex": 0,
        "MaxGameStageIndex": 1,
        "DefaultWeightIndex": 2
      },
      {
        "Part": "GD_Shields.Battery.Battery7_Hyperion",
        "Manufacturers": [
          { "Manufacturer": null, "DefaultWeightIndex": 3 }
        ],
        "MinGameStageIndex": 0,
        "MaxGameStageIndex": 1,
        "DefaultWeightIndex": 2
      }
    ]
  },
  "GammaPartData": {
    "bEnabled": true,
    "WeightedParts": [
      {
        "Part": "GD_Shields.Capacitor.Capacitor1_Tediore",
        "Manufacturers": [
          { "Manufacturer": null, "DefaultWeightIndex": 3 }
        ],
        "MinGameStageIndex": 0,
        "MaxGameStageIndex": 1,
        "DefaultWeightIndex": 2
      },
      {
        "Part": "GD_Shields.Capacitor.Capacitor3_Vladof",
        "Manufacturers": [
          { "Manufacturer": null, "DefaultWeightIndex": 3 }
        ],
        "MinGameStageIndex": 0,
        "MaxGameStageIndex": 1,
        "DefaultWeightIndex": 2
      },
      {
        "Part": "GD_Shields.Capacitor.Capacitor5_Anshin",
        "Manufacturers": [
          { "Manufacturer": null, "DefaultWeightIndex": 3 }
        ],
        "MinGameStageIndex": 0,
        "MaxGameStageIndex": 1,
        "DefaultWeightIndex": 2
      },
      {
        "Part": "GD_Shields.Capacitor.Capacitor7_Hyperion",
        "Manufacturers": [
          { "Manufacturer": null, "DefaultWeightIndex": 3 }
        ],
        "MinGameStageIndex": 0,
        "MaxGameStageIndex": 1,
        "DefaultWeightIndex": 2
      }
    ]
  },
  "DeltaPartData": {
    "bEnabled": true,
    "WeightedParts": [
      {
        "Part": "GD_Sage_Shields.Accessory.Accessory_Buckler",
        "Manufacturers": null,
        "MinGameStageIndex": 0,
        "MaxGameStageIndex": 1,
        "DefaultWeightIndex": 3
      }
    ]
  },
  "EpsilonPartData": { "bEnabled": false, "WeightedParts": null },
  "ZetaPartData": { "bEnabled": false, "WeightedParts": null },
  "EtaPartData": { "bEnabled": false, "WeightedParts": null },
  "ThetaPartData": { "bEnabled": false, "WeightedParts": null },
  "MaterialPartData": {
    "bEnabled": true,
    "WeightedParts": [
      {
        "Part": "GD_Sage_Shields.Material.Material3_Rare_Buckler",
        "Manufacturers": null,
        "MinGameStageIndex": 0,
        "MaxGameStageIndex": 1,
        "DefaultWeightIndex": 3
      }
    ]
  },
  "PartReplacementMode": "EPRM_Complete",
  "ConsolidatedAttributeInitData": [
    {
      "BaseValueConstant": 1.0,
      "BaseValueAttribute": null,
      "InitializationDefinition": null,
      "BaseValueScaleConstant": 1.0
    },
    {
      "BaseValueConstant": 100.0,
      "BaseValueAttribute": null,
      "InitializationDefinition": null,
      "BaseValueScaleConstant": 1.0
    },
    {
      "BaseValueConstant": 1.0,
      "BaseValueAttribute": null,
      "InitializationDefinition": "GD_Balance.Weighting.Weight_1_Common",
      "BaseValueScaleConstant": 1.0
    },
    {
      "BaseValueConstant": 0.0,
      "BaseValueAttribute": null,
      "InitializationDefinition": null,
      "BaseValueScaleConstant": 1.0
    }
  ],
  "VfTableObject": "",
  "HashNext": "",
  "ObjectFlags": "",
  "HashOuterNext": "",
  "StateFrame": "",
  "Linker": null,
  "LinkerIndex": "",
  "ObjectInternalInteger": 179183,
  "NetIndex": 14,
  "Outer": "GD_Sage_Shields.PartLists",
  "Name": "Parts_Buckler",
  "Class": "WillowGame.ItemPartListCollectionDefinition",
  "ObjectArchetype": "WillowGame.Default__ItemPartListCollectionDefinition"
}