{
  "WeaponPartListCollection":
    "GD_Aster_Weapons.Snipers.SR_Dahl_4_Emerald:PartList",
  "RuntimePartListCollection":
    "GD_Aster_Weapons.Snipers.SR_Dahl_4_Emerald:WeaponPartListCollectionDefinition_251",
  "VfTable_IIDlcLicensableObject": "",
  "bInterpolateExpLevel": true,
  "InventoryDefinition": null,
  "BaseDefinition": "GD_Weap_SniperRifles.A_Weapons.Sniper_Dahl_4_VeryRare",
  "DlcItemSet": "GD_AsterPackageDef.ItemSetDef_Aster",
  "PartListCollection": null,
  "PlayerClassId": null,
  "VfTableObject": "",
  "HashNext": "",
  "ObjectFlags": "",
  "HashOuterNext": "",
  "StateFrame": "",
  "Linker": null,
  "LinkerIndex": "",
  "ObjectInternalInteger": 165499,
  "NetIndex": 297,
  "Outer": "GD_Aster_Weapons.Snipers",
  "Name": "SR_Dahl_4_Emerald",
  "Class": "WillowGame.WeaponBalanceDefinition",
  "ObjectArchetype": "WillowGame.Default__WeaponBalanceDefinition"
}