{
  "WeaponPartListCollection":
    "GD_Aster_Weapons.AssaultRifles.AR_Jakobs_4_Citrine:PartList",
  "RuntimePartListCollection":
    "GD_Aster_Weapons.AssaultRifles.AR_Jakobs_4_Citrine:WeaponPartListCollectionDefinition_234",
  "VfTable_IIDlcLicensableObject": "",
  "bInterpolateExpLevel": true,
  "InventoryDefinition": null,
  "BaseDefinition": "GD_Weap_AssaultRifle.A_Weapons.AR_Jakobs_4_VeryRare",
  "DlcItemSet": "GD_AsterPackageDef.ItemSetDef_Aster",
  "PartListCollection": null,
  "PlayerClassId": null,
  "VfTableObject": "",
  "HashNext": "",
  "ObjectFlags": "",
  "HashOuterNext": "",
  "StateFrame": "",
  "Linker": null,
  "LinkerIndex": "",
  "ObjectInternalInteger": 165480,
  "NetIndex": 272,
  "Outer": "GD_Aster_Weapons.AssaultRifles",
  "Name": "AR_Jakobs_4_Citrine",
  "Class": "WillowGame.WeaponBalanceDefinition",
  "ObjectArchetype": "WillowGame.Default__WeaponBalanceDefinition"
}