{
  "WeaponPartListCollection":
    "GD_Gladiolus_Weapons.Pistol.Pistol_Jakobs_6_Unforgiven:PartList",
  "RuntimePartListCollection":
    "GD_Gladiolus_Weapons.Pistol.Pistol_Jakobs_6_Unforgiven:WeaponPartListCollectionDefinition_259",
  "VfTable_IIDlcLicensableObject": "",
  "bInterpolateExpLevel": true,
  "InventoryDefinition": null,
  "BaseDefinition": "GD_Weap_Pistol.A_Weapons.Pistol_Jakobs_4_VeryRare",
  "DlcItemSet": "GD_GladiolusPackageDef.ItemSetDef_Gladiolus",
  "PartListCollection": null,
  "PlayerClassId": null,
  "VfTableObject": "",
  "HashNext": "",
  "ObjectFlags": "",
  "HashOuterNext": "",
  "StateFrame": "",
  "Linker": null,
  "LinkerIndex": "",
  "ObjectInternalInteger": 168076,
  "NetIndex": 819,
  "Outer": "GD_Gladiolus_Weapons.Pistol",
  "Name": "Pistol_Jakobs_6_Unforgiven",
  "Class": "WillowGame.WeaponBalanceDefinition",
  "ObjectArchetype": "WillowGame.Default__WeaponBalanceDefinition"
}