{
  "WeaponPartListCollection":
    "GD_Gladiolus_Weapons.sniper.Sniper_Maliwan_6_Storm:PartList",
  "RuntimePartListCollection":
    "GD_Gladiolus_Weapons.sniper.Sniper_Maliwan_6_Storm:WeaponPartListCollectionDefinition_265",
  "VfTable_IIDlcLicensableObject": "",
  "bInterpolateExpLevel": true,
  "InventoryDefinition": null,
  "BaseDefinition":
    "GD_Weap_SniperRifles.A_Weapons.Sniper_Maliwan_4_VeryRare",
  "DlcItemSet": "GD_GladiolusPackageDef.ItemSetDef_Gladiolus",
  "PartListCollection": null,
  "PlayerClassId": null,
  "VfTableObject": "",
  "HashNext": "",
  "ObjectFlags": "",
  "HashOuterNext": "",
  "StateFrame": "",
  "Linker": null,
  "LinkerIndex": "",
  "ObjectInternalInteger": 168082,
  "NetIndex": 823,
  "Outer": "GD_Gladiolus_Weapons.sniper",
  "Name": "Sniper_Maliwan_6_Storm",
  "Class": "WillowGame.WeaponBalanceDefinition",
  "ObjectArchetype": "WillowGame.Default__WeaponBalanceDefinition"
}