{
  "WeaponPartListCollection": "GD_Lilac_SkillsBase.Buzzaxe.Buzzaxe:PartList",
  "RuntimePartListCollection": "GD_Lilac_SkillsBase.Buzzaxe.Buzzaxe:PartList",
  "VfTable_IIDlcLicensableObject": "",
  "bInterpolateExpLevel": true,
  "InventoryDefinition": "GD_Lilac_SkillsBase.Buzzaxe.WeaponType_Buzzaxe",
  "BaseDefinition": null,
  "DlcItemSet": "GD_LilacPackageDef.CustomItemSetDef_Lilac",
  "PartListCollection": null,
  "PlayerClassId": "GD_LilacPackageDef.PlayerClassId.Psycho",
  "Manufacturers": [
    {
      "Manufacturer": "GD_Manufacturers.Manufacturers.Bandit",
      "Grades": [
        {
          "GradeModifiers": {
            "ExpLevel": 1,
            "CustomInventoryDefinition": null
          },
          "GameStageRequirement": { "MinGameStage": 0, "MaxGameStage": 100 },
          "MinSpawnProbabilityModifier": {
            "BaseValueConstant": 1.0,
            "BaseValueAttribute": null,
            "InitializationDefinition": null,
            "BaseValueScaleConstant": 1.0
          },
          "MaxSpawnProbabilityModifier": {
            "BaseValueConstant": 1.0,
            "BaseValueAttribute": null,
            "InitializationDefinition": null,
            "BaseValueScaleConstant": 1.0
          }
        }
      ]
    }
  ],
  "VfTableObject": "",
  "HashNext": "",
  "ObjectFlags": "",
  "HashOuterNext": "",
  "StateFrame": "",
  "Linker": null,
  "LinkerIndex": "",
  "ObjectInternalInteger": 191525,
  "NetIndex": 742,
  "Outer": "GD_Lilac_SkillsBase.Buzzaxe",
  "Name": "Buzzaxe",
  "Class": "WillowGame.WeaponBalanceDefinition",
  "ObjectArchetype": "WillowGame.Default__WeaponBalanceDefinition"
}