{
  "WeaponPartListCollection":
    "GD_Sage_Weapons.Shotgun.SG_Jakobs_3_Hydra:PartList",
  "RuntimePartListCollection":
    "GD_Sage_Weapons.Shotgun.SG_Jakobs_3_Hydra:WeaponPartListCollectionDefinition_300",
  "VfTable_IIDlcLicensableObject": "",
  "bInterpolateExpLevel": true,
  "InventoryDefinition": null,
  "BaseDefinition": "GD_Weap_Shotgun.A_Weapons.SG_Jakobs_3_Rare",
  "DlcItemSet": "GD_SagePackageDef.ItemSetDef_Sage",
  "PartListCollection": null,
  "PlayerClassId": null,
  "VfTableObject": "",
  "HashNext": "",
  "ObjectFlags": "",
  "HashOuterNext": "",
  "StateFrame": "",
  "Linker": null,
  "LinkerIndex": "",
  "ObjectInternalInteger": 179239,
  "NetIndex": 145,
  "Outer": "GD_Sage_Weapons.Shotgun",
  "Name": "SG_Jakobs_3_Hydra",
  "Class": "WillowGame.WeaponBalanceDefinition",
  "ObjectArchetype": "WillowGame.Default__WeaponBalanceDefinition"
}