{
  "WeaponPartListCollection":
    "GD_Weap_Launchers.A_Weapons.RL_Vladof_4_VeryRare:PartList",
  "RuntimePartListCollection":
    "GD_Weap_Launchers.A_Weapons.RL_Vladof_4_VeryRare:WeaponPartListCollectionDefinition_216",
  "VfTable_IIDlcLicensableObject": "",
  "bInterpolateExpLevel": true,
  "InventoryDefinition": null,
  "BaseDefinition": "GD_Weap_Launchers.A_Weapons.RL_Vladof_3_Rare",
  "DlcItemSet": null,
  "PartListCollection": null,
  "PlayerClassId": null,
  "VfTableObject": "",
  "HashNext": "",
  "ObjectFlags": "",
  "HashOuterNext": "",
  "StateFrame": "",
  "Linker": null,
  "LinkerIndex": "",
  "ObjectInternalInteger": 132640,
  "NetIndex": 2116,
  "Outer": "GD_Weap_Launchers.A_Weapons",
  "Name": "RL_Vladof_4_VeryRare",
  "Class": "WillowGame.WeaponBalanceDefinition",
  "ObjectArchetype": "WillowGame.Default__WeaponBalanceDefinition"
}