{
  "WeaponPartListCollection":
    "GD_Weap_SMG.A_Weapons.SMG_Bandit_5_Alien:PartList",
  "RuntimePartListCollection":
    "GD_Weap_SMG.A_Weapons.SMG_Bandit_5_Alien:WeaponPartListCollectionDefinition_153",
  "VfTable_IIDlcLicensableObject": "",
  "bInterpolateExpLevel": true,
  "InventoryDefinition": null,
  "BaseDefinition": "GD_Weap_SMG.A_Weapons.SMG_Bandit_4_VeryRare",
  "DlcItemSet": null,
  "PartListCollection": null,
  "PlayerClassId": null,
  "VfTableObject": "",
  "HashNext": "",
  "ObjectFlags": "",
  "HashOuterNext": "",
  "StateFrame": "",
  "Linker": null,
  "LinkerIndex": "",
  "ObjectInternalInteger": 132727,
  "NetIndex": 1112,
  "Outer": "GD_Weap_SMG.A_Weapons",
  "Name": "SMG_Bandit_5_Alien",
  "Class": "WillowGame.WeaponBalanceDefinition",
  "ObjectArchetype": "WillowGame.Default__WeaponBalanceDefinition"
}