{
  "WeaponPartListCollection":
    "GD_Weap_AssaultRifle.A_Weapons.AR_Vladof:PartList",
  "RuntimePartListCollection":
    "GD_Weap_AssaultRifle.A_Weapons.AR_Vladof:PartList",
  "VfTable_IIDlcLicensableObject": "",
  "bInterpolateExpLevel": true,
  "InventoryDefinition":
    "GD_Weap_AssaultRifle.A_Weapons.WT_Vladof_AssaultRifle",
  "BaseDefinition": null,
  "DlcItemSet": null,
  "PartListCollection": null,
  "PlayerClassId": null,
  "Manufacturers": [
    {
      "Manufacturer": "GD_Manufacturers.Manufacturers.Vladof",
      "Grades": [
        {
          "GradeModifiers": {
            "ExpLevel": 0,
            "CustomInventoryDefinition": null
          },
          "GameStageRequirement": {
            "MinGameStage": 1,
            "MaxGameStage": 10000
          },
          "MinSpawnProbabilityModifier": {
            "BaseValueConstant": 1.0,
            "BaseValueAttribute": null,
            "InitializationDefinition": null,
            "BaseValueScaleConstant": 1.0
          },
          "MaxSpawnProbabilityModifier": {
            "BaseValueConstant": 1.0,
            "BaseValueAttribute": null,
            "InitializationDefinition": null,
            "BaseValueScaleConstant": 1.0
          }
        }
      ]
    }
  ],
  "VfTableObject": "",
  "HashNext": "",
  "ObjectFlags": "",
  "HashOuterNext": "",
  "StateFrame": "",
  "Linker": null,
  "LinkerIndex": "",
  "ObjectInternalInteger": 132603,
  "NetIndex": 1124,
  "Outer": "GD_Weap_AssaultRifle.A_Weapons",
  "Name": "AR_Vladof",
  "Class": "WillowGame.WeaponBalanceDefinition",
  "ObjectArchetype": "WillowGame.Default__WeaponBalanceDefinition"
}