{
  "WeaponPartListCollection":
    "GD_Weap_Shotgun.A_Weapons.SG_Hyperion_3_Rare:PartList",
  "RuntimePartListCollection":
    "GD_Weap_Shotgun.A_Weapons.SG_Hyperion_3_Rare:WeaponPartListCollectionDefinition_122",
  "VfTable_IIDlcLicensableObject": "",
  "bInterpolateExpLevel": true,
  "InventoryDefinition": null,
  "BaseDefinition": "GD_Weap_Shotgun.A_Weapons.SG_Hyperion_2_Uncommon",
  "DlcItemSet": null,
  "PartListCollection": null,
  "PlayerClassId": null,
  "VfTableObject": "",
  "HashNext": "",
  "ObjectFlags": "",
  "HashOuterNext": "",
  "StateFrame": "",
  "Linker": null,
  "LinkerIndex": "",
  "ObjectInternalInteger": 132698,
  "NetIndex": 1772,
  "Outer": "GD_Weap_Shotgun.A_Weapons",
  "Name": "SG_Hyperion_3_Rare",
  "Class": "WillowGame.WeaponBalanceDefinition",
  "ObjectArchetype": "WillowGame.Default__WeaponBalanceDefinition"
}