{
  "WeaponPartListCollection":
    "GD_Weap_AssaultRifle.A_Weapons.AR_Bandit_2_Uncommon:PartList",
  "RuntimePartListCollection":
    "GD_Weap_AssaultRifle.A_Weapons.AR_Bandit_2_Uncommon:WeaponPartListCollectionDefinition_17",
  "VfTable_IIDlcLicensableObject": "",
  "bInterpolateExpLevel": true,
  "InventoryDefinition": null,
  "BaseDefinition": "GD_Weap_AssaultRifle.A_Weapons.AR_Bandit",
  "DlcItemSet": null,
  "PartListCollection": null,
  "PlayerClassId": null,
  "VfTableObject": "",
  "HashNext": "",
  "ObjectFlags": "",
  "HashOuterNext": "",
  "StateFrame": "",
  "Linker": null,
  "LinkerIndex": "",
  "ObjectInternalInteger": 132604,
  "NetIndex": 1106,
  "Outer": "GD_Weap_AssaultRifle.A_Weapons",
  "Name": "AR_Bandit_2_Uncommon",
  "Class": "WillowGame.WeaponBalanceDefinition",
  "ObjectArchetype": "WillowGame.Default__WeaponBalanceDefinition"
}