{
  "WeaponPartListCollection":
    "GD_Weap_Pistol.A_Weapons_Unique.Pistol_Dahl_3_Teapot:PartList",
  "RuntimePartListCollection":
    "GD_Weap_Pistol.A_Weapons_Unique.Pistol_Dahl_3_Teapot:WeaponPartListCollectionDefinition_110",
  "VfTable_IIDlcLicensableObject": "",
  "bInterpolateExpLevel": true,
  "InventoryDefinition": null,
  "BaseDefinition": "GD_Weap_Pistol.A_Weapons.Pistol_Dahl_3_Rare",
  "DlcItemSet": null,
  "PartListCollection": null,
  "PlayerClassId": null,
  "VfTableObject": "",
  "HashNext": "",
  "ObjectFlags": "",
  "HashOuterNext": "",
  "StateFrame": "",
  "Linker": null,
  "LinkerIndex": "",
  "ObjectInternalInteger": 135204,
  "NetIndex": 1856,
  "Outer": "GD_Weap_Pistol.A_Weapons_Unique",
  "Name": "Pistol_Dahl_3_Teapot",
  "Class": "WillowGame.WeaponBalanceDefinition",
  "ObjectArchetype": "WillowGame.Default__WeaponBalanceDefinition"
}