{
  "WeaponPartListCollection":
    "GD_Weap_Shotgun.A_Weapons_Unique.SG_Torgue_3_Landscaper:PartList",
  "RuntimePartListCollection":
    "GD_Weap_Shotgun.A_Weapons_Unique.SG_Torgue_3_Landscaper:WeaponPartListCollectionDefinition_149",
  "VfTable_IIDlcLicensableObject": "",
  "bInterpolateExpLevel": true,
  "InventoryDefinition": null,
  "BaseDefinition": "GD_Weap_Shotgun.A_Weapons.SG_Torgue_3_Rare",
  "DlcItemSet": null,
  "PartListCollection": null,
  "PlayerClassId": null,
  "VfTableObject": "",
  "HashNext": "",
  "ObjectFlags": "",
  "HashOuterNext": "",
  "StateFrame": "",
  "Linker": null,
  "LinkerIndex": "",
  "ObjectInternalInteger": 135386,
  "NetIndex": 1802,
  "Outer": "GD_Weap_Shotgun.A_Weapons_Unique",
  "Name": "SG_Torgue_3_Landscaper",
  "Class": "WillowGame.WeaponBalanceDefinition",
  "ObjectArchetype": "WillowGame.Default__WeaponBalanceDefinition"
}