{
  "WeaponPartListCollection":
    "GD_Weap_Shotgun.A_Weapons.SG_Tediore_5_Alien:PartList",
  "RuntimePartListCollection":
    "GD_Weap_Shotgun.A_Weapons.SG_Tediore_5_Alien:WeaponPartListCollectionDefinition_131",
  "VfTable_IIDlcLicensableObject": "",
  "bInterpolateExpLevel": true,
  "InventoryDefinition": null,
  "BaseDefinition": "GD_Weap_Shotgun.A_Weapons.SG_Tediore_4_VeryRare",
  "DlcItemSet": null,
  "PartListCollection": null,
  "PlayerClassId": null,
  "VfTableObject": "",
  "HashNext": "",
  "ObjectFlags": "",
  "HashOuterNext": "",
  "StateFrame": "",
  "Linker": null,
  "LinkerIndex": "",
  "ObjectInternalInteger": 132705,
  "NetIndex": 1783,
  "Outer": "GD_Weap_Shotgun.A_Weapons",
  "Name": "SG_Tediore_5_Alien",
  "Class": "WillowGame.WeaponBalanceDefinition",
  "ObjectArchetype": "WillowGame.Default__WeaponBalanceDefinition"
}