{
  "WeaponPartListCollection":
    "GD_Weap_AssaultRifle.A_Weapons.AR_Bandit_3_Rare_Alien:PartList",
  "RuntimePartListCollection":
    "GD_Weap_AssaultRifle.A_Weapons.AR_Bandit_3_Rare_Alien:WeaponPartListCollectionDefinition_18",
  "VfTable_IIDlcLicensableObject": "",
  "bInterpolateExpLevel": true,
  "InventoryDefinition": null,
  "BaseDefinition": "GD_Weap_AssaultRifle.A_Weapons.AR_Bandit_2_Uncommon",
  "DlcItemSet": null,
  "PartListCollection": null,
  "PlayerClassId": null,
  "VfTableObject": "",
  "HashNext": "",
  "ObjectFlags": "",
  "HashOuterNext": "",
  "StateFrame": "",
  "Linker": null,
  "LinkerIndex": "",
  "ObjectInternalInteger": 135834,
  "NetIndex": 1108,
  "Outer": "GD_Weap_AssaultRifle.A_Weapons",
  "Name": "AR_Bandit_3_Rare_Alien",
  "Class": "WillowGame.WeaponBalanceDefinition",
  "ObjectArchetype": "WillowGame.Default__WeaponBalanceDefinition"
}