{
  "WeaponPartListCollection":
    "GD_Weap_AssaultRifle.A_Weapons_Legendary.AR_Jakobs_5_HammerBuster:PartList",
  "RuntimePartListCollection":
    "GD_Weap_AssaultRifle.A_Weapons_Legendary.AR_Jakobs_5_HammerBuster:WeaponPartListCollectionDefinition_37",
  "VfTable_IIDlcLicensableObject": "",
  "bInterpolateExpLevel": true,
  "InventoryDefinition": null,
  "BaseDefinition": "GD_Weap_AssaultRifle.A_Weapons.AR_Jakobs_4_VeryRare",
  "DlcItemSet": null,
  "PartListCollection": null,
  "PlayerClassId": null,
  "VfTableObject": "",
  "HashNext": "",
  "ObjectFlags": "",
  "HashOuterNext": "",
  "StateFrame": "",
  "Linker": null,
  "LinkerIndex": "",
  "ObjectInternalInteger": 132393,
  "NetIndex": 1135,
  "Outer": "GD_Weap_AssaultRifle.A_Weapons_Legendary",
  "Name": "AR_Jakobs_5_HammerBuster",
  "Class": "WillowGame.WeaponBalanceDefinition",
  "ObjectArchetype": "WillowGame.Default__WeaponBalanceDefinition"
}