{
  "WeaponPartListCollection":
    "GD_Weap_SMG.A_Weapons.SMG_Dahl_5_Alien:PartList",
  "RuntimePartListCollection":
    "GD_Weap_SMG.A_Weapons.SMG_Dahl_5_Alien:WeaponPartListCollectionDefinition_157",
  "VfTable_IIDlcLicensableObject": "",
  "bInterpolateExpLevel": true,
  "InventoryDefinition": null,
  "BaseDefinition": "GD_Weap_SMG.A_Weapons.SMG_Dahl_4_VeryRare",
  "DlcItemSet": null,
  "PartListCollection": null,
  "PlayerClassId": null,
  "VfTableObject": "",
  "HashNext": "",
  "ObjectFlags": "",
  "HashOuterNext": "",
  "StateFrame": "",
  "Linker": null,
  "LinkerIndex": "",
  "ObjectInternalInteger": 132729,
  "NetIndex": 1117,
  "Outer": "GD_Weap_SMG.A_Weapons",
  "Name": "SMG_Dahl_5_Alien",
  "Class": "WillowGame.WeaponBalanceDefinition",
  "ObjectArchetype": "WillowGame.Default__WeaponBalanceDefinition"
}