{
  "WeaponPartListCollection":
    "GD_Weap_AssaultRifle.A_Weapons_Legendary.AR_Torgue_5_KerBlaster:PartList",
  "RuntimePartListCollection":
    "GD_Weap_AssaultRifle.A_Weapons_Legendary.AR_Torgue_5_KerBlaster:WeaponPartListCollectionDefinition_38",
  "VfTable_IIDlcLicensableObject": "",
  "bInterpolateExpLevel": true,
  "InventoryDefinition": null,
  "BaseDefinition": "GD_Weap_AssaultRifle.A_Weapons.AR_Torgue_4_VeryRare",
  "DlcItemSet": null,
  "PartListCollection": null,
  "PlayerClassId": null,
  "VfTableObject": "",
  "HashNext": "",
  "ObjectFlags": "",
  "HashOuterNext": "",
  "StateFrame": "",
  "Linker": null,
  "LinkerIndex": "",
  "ObjectInternalInteger": 132449,
  "NetIndex": 1136,
  "Outer": "GD_Weap_AssaultRifle.A_Weapons_Legendary",
  "Name": "AR_Torgue_5_KerBlaster",
  "Class": "WillowGame.WeaponBalanceDefinition",
  "ObjectArchetype": "WillowGame.Default__WeaponBalanceDefinition"
}