{
  "WeaponPartListCollection":
    "GD_Weap_Launchers.A_Weapons.RL_Vladof_2_Uncommon:PartList",
  "RuntimePartListCollection":
    "GD_Weap_Launchers.A_Weapons.RL_Vladof_2_Uncommon:WeaponPartListCollectionDefinition_60",
  "VfTable_IIDlcLicensableObject": "",
  "bInterpolateExpLevel": true,
  "InventoryDefinition": null,
  "BaseDefinition": "GD_Weap_Launchers.A_Weapons.RL_Vladof",
  "DlcItemSet": null,
  "PartListCollection": null,
  "PlayerClassId": null,
  "VfTableObject": "",
  "HashNext": "",
  "ObjectFlags": "",
  "HashOuterNext": "",
  "StateFrame": "",
  "Linker": null,
  "LinkerIndex": "",
  "ObjectInternalInteger": 132630,
  "NetIndex": 2114,
  "Outer": "GD_Weap_Launchers.A_Weapons",
  "Name": "RL_Vladof_2_Uncommon",
  "Class": "WillowGame.WeaponBalanceDefinition",
  "ObjectArchetype": "WillowGame.Default__WeaponBalanceDefinition"
}