{
  "WeaponPartListCollection":
    "GD_Weap_SMG.A_Weapons_Unique.SMG_Dahl_3_Lascaux:PartList",
  "RuntimePartListCollection":
    "GD_Weap_SMG.A_Weapons_Unique.SMG_Dahl_3_Lascaux:WeaponPartListCollectionDefinition_176",
  "VfTable_IIDlcLicensableObject": "",
  "bInterpolateExpLevel": true,
  "InventoryDefinition": null,
  "BaseDefinition": "GD_Weap_SMG.A_Weapons.SMG_Dahl_3_Rare",
  "DlcItemSet": null,
  "PartListCollection": null,
  "PlayerClassId": null,
  "VfTableObject": "",
  "HashNext": "",
  "ObjectFlags": "",
  "HashOuterNext": "",
  "StateFrame": "",
  "Linker": null,
  "LinkerIndex": "",
  "ObjectInternalInteger": 131812,
  "NetIndex": 1139,
  "Outer": "GD_Weap_SMG.A_Weapons_Unique",
  "Name": "SMG_Dahl_3_Lascaux",
  "Class": "WillowGame.WeaponBalanceDefinition",
  "ObjectArchetype": "WillowGame.Default__WeaponBalanceDefinition"
}