{
  "WeaponPartListCollection":
    "GD_Weap_AssaultRifle.A_Weapons.AR_Bandit_4_VeryRare:PartList",
  "RuntimePartListCollection":
    "GD_Weap_AssaultRifle.A_Weapons.AR_Bandit_4_VeryRare:WeaponPartListCollectionDefinition_21",
  "VfTable_IIDlcLicensableObject": "",
  "bInterpolateExpLevel": true,
  "InventoryDefinition": null,
  "BaseDefinition": "GD_Weap_AssaultRifle.A_Weapons.AR_Bandit_3_Rare",
  "DlcItemSet": null,
  "PartListCollection": null,
  "PlayerClassId": null,
  "VfTableObject": "",
  "HashNext": "",
  "ObjectFlags": "",
  "HashOuterNext": "",
  "StateFrame": "",
  "Linker": null,
  "LinkerIndex": "",
  "ObjectInternalInteger": 132614,
  "NetIndex": 1109,
  "Outer": "GD_Weap_AssaultRifle.A_Weapons",
  "Name": "AR_Bandit_4_VeryRare",
  "Class": "WillowGame.WeaponBalanceDefinition",
  "ObjectArchetype": "WillowGame.Default__WeaponBalanceDefinition"
}