{
  "WeaponPartListCollection":
    "GD_Weap_SniperRifles.A_Weapons_Unique.Sniper_Hyperion_3_Longbow:PartList",
  "RuntimePartListCollection":
    "GD_Weap_SniperRifles.A_Weapons_Unique.Sniper_Hyperion_3_Longbow:WeaponPartListCollectionDefinition_210",
  "VfTable_IIDlcLicensableObject": "",
  "bInterpolateExpLevel": true,
  "InventoryDefinition": null,
  "BaseDefinition": "GD_Weap_SniperRifles.A_Weapons.Sniper_Hyperion_3_Rare",
  "DlcItemSet": null,
  "PartListCollection": null,
  "PlayerClassId": null,
  "VfTableObject": "",
  "HashNext": "",
  "ObjectFlags": "",
  "HashOuterNext": "",
  "StateFrame": "",
  "Linker": null,
  "LinkerIndex": "",
  "ObjectInternalInteger": 132649,
  "NetIndex": 975,
  "Outer": "GD_Weap_SniperRifles.A_Weapons_Unique",
  "Name": "Sniper_Hyperion_3_Longbow",
  "Class": "WillowGame.WeaponBalanceDefinition",
  "ObjectArchetype": "WillowGame.Default__WeaponBalanceDefinition"
}