{
  "WeaponPartListCollection":
    "GD_Weap_AssaultRifle.A_Weapons_Unique.AR_Torgue_3_EvilSmasher:PartList",
  "RuntimePartListCollection":
    "GD_Weap_AssaultRifle.A_Weapons_Unique.AR_Torgue_3_EvilSmasher:WeaponPartListCollectionDefinition_43",
  "VfTable_IIDlcLicensableObject": "",
  "bInterpolateExpLevel": true,
  "InventoryDefinition": null,
  "BaseDefinition": "GD_Weap_AssaultRifle.A_Weapons.AR_Torgue_3_Rare",
  "DlcItemSet": null,
  "PartListCollection": null,
  "PlayerClassId": null,
  "VfTableObject": "",
  "HashNext": "",
  "ObjectFlags": "",
  "HashOuterNext": "",
  "StateFrame": "",
  "Linker": null,
  "LinkerIndex": "",
  "ObjectInternalInteger": 135655,
  "NetIndex": 1141,
  "Outer": "GD_Weap_AssaultRifle.A_Weapons_Unique",
  "Name": "AR_Torgue_3_EvilSmasher",
  "Class": "WillowGame.WeaponBalanceDefinition",
  "ObjectArchetype": "WillowGame.Default__WeaponBalanceDefinition"
}