{
  "OverridePool": null,
  "CustomizationDef": "GD_AllCustoms_MainGame.Soldier.Skin_CyanD",
  "PrimaryColor": {
    "R": 0.162854,
    "G": 0.7624030000000001,
    "B": 0.646269,
    "A": 1.0
  },
  "SecondaryColor": { "R": 0.839748, "G": 0.839748, "B": 0.839748, "A": 1.0 },
  "TertiaryColor": { "R": 0.135332, "G": 0.607712, "B": 0.546961, "A": 1.0 },
  "ItemCardTopStatString": "%s1 %s2 Customization",
  "bPlayerUseItemOnPickup": false,
  "bAIUseItemOnPickup": false,
  "bUseCoopRange": false,
  "UsedStatId": null,
  "VfTable_IIBehaviorProvider": "",
  "VfTable_IIConstructObject": "",
  "DroppedImpact": "GD_Impacts.Loot.Loot_Drop_Ammo",
  "UseFailureCharacterMessage": "You must be a %s to use this item.",
  "ItemName": "",
  "bItemNameIsFullName": true,
  "bUseMeshCompositing": false,
  "NonCompositeStaticMesh": "Prop_Pickups.Meshes.Skin",
  "NonCompositeSkeletalMesh": null,
  "OverrideMaterial": null,
  "GestaltMesh": null,
  "AlphaParts": null,
  "BetaParts": null,
  "GammaParts": null,
  "DeltaParts": null,
  "EpsilonParts": null,
  "ZetaParts": null,
  "EtaParts": null,
  "ThetaParts": null,
  "MaterialParts": null,
  "BehaviorProviderDefinition": null,
  "Behaviors": { "OnUsed": null },
  "RequiredPlayerClass": null,
  "PickupIconOverride": null,
  "CustomPresentations": [
    "GD_Soldier_Items_MainGame.AttributePresentationDefinition_325"
  ],
  "InventoryClass": "WillowGame.WillowUsableCustomizationItem",
  "bAutomaticallyPickup": false,
  "bPickupInBulk": false,
  "bDisallowAIFromGrabbingPickup": false,
  "bDuplicatePickupJustAddsQuantity": false,
  "bSuppressPickupCard": false,
  "bTorque": false,
  "bNeverDisplayPickupMessage": false,
  "bShopsHaveInfiniteQuantity": false,
  "bCanCompare": true,
  "bUsesPlayerLevelRequirement": false,
  "bUIMeshRotationNeedsTransformFixup": false,
  "bIsConsumable": true,
  "bAllowInventoryDefToModifyPartWeight": false,
  "PlayerDroppability": "EPD_Droppable",
  "FormOfCurrency": "CURRENCY_Credits",
  "OnUseConstraintsMode": "EXPRMODE_And",
  "AttributeSlotEffectMode": "ATTRSLOTEFFECTMODE_Default",
  "PickupLifeSpan": 0.0,
  "PickupFlagScale": 1.0,
  "PickupFlagIcon": "fx_shared_items.Textures.Customization_Skin",
  "PickupFlagOffset": { "X": 0.0, "Y": 0.0, "Z": 0.0 },
  "Torque": { "X": 0.0, "Y": 0.0, "Z": 0.0 },
  "ThirdPersonMeshScale": 1.0,
  "MaterialClass": "Engine.MaterialInstanceConstant",
  "PhysicsAsset": null,
  "PickupMessage": "You got %s",
  "UseFailureLevelMessage": "You must be at least level %d to use this item.",
  "UseFailureConstraintsMessage": "You cannot use this item.",
  "NoManufacturerName": "Generic",
  "BaseRarity": {
    "BaseValueConstant": 1.0,
    "BaseValueAttribute": null,
    "InitializationDefinition": null,
    "BaseValueScaleConstant": 1.0
  },
  "MonetaryValue": {
    "BaseValueConstant": 0.0,
    "BaseValueAttribute": null,
    "InitializationDefinition":
      "GD_Economy.PriceCalc.Init_CustomizationItem_PriceCalculator",
    "BaseValueScaleConstant": 1.0
  },
  "BaseMonetaryValueModifier": 1.0,
  "PlayerUseLevelBonus": {
    "BaseValueConstant": 0.0,
    "BaseValueAttribute": null,
    "InitializationDefinition": null,
    "BaseValueScaleConstant": 1.0
  },
  "UIMeshRotation": { "Pitch": 49152, "Yaw": 16384, "Roll": 16384 },
  "Presentation":
    "GD_InventoryPresentations.Definitions.Customization_PlayerSkin",
  "CalloutDefinition": null,
  "PickedUpStatID": null,
  "PurchasedStatID": null,
  "FocusRadius": 55.0,
  "FocusOffset": { "X": -0.4, "Y": -0.075, "Z": 0.0 },
  "AttributeSlotEffectSkillDuration": {
    "BaseValueConstant": 0.0,
    "BaseValueAttribute": null,
    "InitializationDefinition": null,
    "BaseValueScaleConstant": 1.0
  },
  "AttributeSlotBaseGrade": {
    "BaseValueConstant": 1.0,
    "BaseValueAttribute": null,
    "InitializationDefinition": null,
    "BaseValueScaleConstant": 1.0
  },
  "AttributeSlotMaxActivated": 19,
  "LootBeamColorOverride": { "B": 0, "G": 0, "R": 0, "A": 0 },
  "PickupSounds": [
    {
      "Event":
        "Ake_Obj_Pickup.Obj_Pickup.Ak_Play_Obj_Pickup_Char_Customization",
      "Cue": null,
      "Expressions": null
    }
  ],
  "VfTableObject": "",
  "HashNext": "",
  "ObjectFlags": "",
  "HashOuterNext": "",
  "StateFrame": "",
  "Linker": null,
  "LinkerIndex": "",
  "ObjectInternalInteger": 131163,
  "NetIndex": 242,
  "Outer": "GD_Soldier_Items_MainGame.Soldier",
  "Name": "Skin_CyanD",
  "Class": "WillowGame.UsableCustomizationItemDefinition",
  "ObjectArchetype": "WillowGame.Default__UsableCustomizationItemDefinition"
}