{
  "OverridePool": null,
  "CustomizationDef": "GD_AllCustoms_MainGame.Siren.Skin_BlueC",
  "PrimaryColor": { "R": 0.027194, "G": 0.115967, "B": 0.453022, "A": 1.0 },
  "SecondaryColor": { "R": 0.009646, "G": 0.074112, "B": 0.303856, "A": 1.0 },
  "TertiaryColor": { "R": 0.00906, "G": 0.008791, "B": 0.016574, "A": 1.0 },
  "ItemCardTopStatString": "%s1 %s2 Customization",
  "bPlayerUseItemOnPickup": false,
  "bAIUseItemOnPickup": false,
  "bUseCoopRange": false,
  "UsedStatId": null,
  "VfTable_IIBehaviorProvider": "",
  "VfTable_IIConstructObject": "",
  "DroppedImpact": "GD_Impacts.Loot.Loot_Drop_Ammo",
  "UseFailureCharacterMessage": "You must be a %s to use this item.",
  "ItemName": "",
  "bItemNameIsFullName": true,
  "bUseMeshCompositing": false,
  "NonCompositeStaticMesh": "Prop_Pickups.Meshes.Skin",
  "NonCompositeSkeletalMesh": null,
  "OverrideMaterial": null,
  "GestaltMesh": null,
  "AlphaParts": null,
  "BetaParts": null,
  "GammaParts": null,
  "DeltaParts": null,
  "EpsilonParts": null,
  "ZetaParts": null,
  "EtaParts": null,
  "ThetaParts": null,
  "MaterialParts": null,
  "BehaviorProviderDefinition": null,
  "Behaviors": { "OnUsed": null },
  "RequiredPlayerClass": null,
  "PickupIconOverride": null,
  "CustomPresentations": [
    "GD_Siren_Items_MainGame.AttributePresentationDefinition_142"
  ],
  "InventoryClass": "WillowGame.WillowUsableCustomizationItem",
  "bAutomaticallyPickup": false,
  "bPickupInBulk": false,
  "bDisallowAIFromGrabbingPickup": false,
  "bDuplicatePickupJustAddsQuantity": false,
  "bSuppressPickupCard": false,
  "bTorque": false,
  "bNeverDisplayPickupMessage": false,
  "bShopsHaveInfiniteQuantity": false,
  "bCanCompare": true,
  "bUsesPlayerLevelRequirement": false,
  "bUIMeshRotationNeedsTransformFixup": false,
  "bIsConsumable": true,
  "bAllowInventoryDefToModifyPartWeight": false,
  "PlayerDroppability": "EPD_Droppable",
  "FormOfCurrency": "CURRENCY_Credits",
  "OnUseConstraintsMode": "EXPRMODE_And",
  "AttributeSlotEffectMode": "ATTRSLOTEFFECTMODE_Default",
  "PickupLifeSpan": 0.0,
  "PickupFlagScale": 1.0,
  "PickupFlagIcon": "fx_shared_items.Textures.Customization_Skin",
  "PickupFlagOffset": { "X": 0.0, "Y": 0.0, "Z": 0.0 },
  "Torque": { "X": 0.0, "Y": 0.0, "Z": 0.0 },
  "ThirdPersonMeshScale": 1.0,
  "MaterialClass": "Engine.MaterialInstanceConstant",
  "PhysicsAsset": null,
  "PickupMessage": "You got %s",
  "UseFailureLevelMessage": "You must be at least level %d to use this item.",
  "UseFailureConstraintsMessage": "You cannot use this item.",
  "NoManufacturerName": "Generic",
  "BaseRarity": {
    "BaseValueConstant": 4.0,
    "BaseValueAttribute": null,
    "InitializationDefinition": null,
    "BaseValueScaleConstant": 1.0
  },
  "MonetaryValue": {
    "BaseValueConstant": 0.0,
    "BaseValueAttribute": null,
    "InitializationDefinition":
      "GD_Economy.PriceCalc.Init_CustomizationItem_PriceCalculator",
    "BaseValueScaleConstant": 1.0
  },
  "BaseMonetaryValueModifier": 1.0,
  "PlayerUseLevelBonus": {
    "BaseValueConstant": 0.0,
    "BaseValueAttribute": null,
    "InitializationDefinition": null,
    "BaseValueScaleConstant": 1.0
  },
  "UIMeshRotation": { "Pitch": 49152, "Yaw": 16384, "Roll": 16384 },
  "Presentation":
    "GD_InventoryPresentations.Definitions.Customization_PlayerSkin",
  "CalloutDefinition": null,
  "PickedUpStatID": null,
  "PurchasedStatID": null,
  "FocusRadius": 55.0,
  "FocusOffset": { "X": -0.4, "Y": -0.075, "Z": 0.0 },
  "AttributeSlotEffectSkillDuration": {
    "BaseValueConstant": 0.0,
    "BaseValueAttribute": null,
    "InitializationDefinition": null,
    "BaseValueScaleConstant": 1.0
  },
  "AttributeSlotBaseGrade": {
    "BaseValueConstant": 1.0,
    "BaseValueAttribute": null,
    "InitializationDefinition": null,
    "BaseValueScaleConstant": 1.0
  },
  "AttributeSlotMaxActivated": 19,
  "LootBeamColorOverride": { "B": 0, "G": 0, "R": 0, "A": 0 },
  "PickupSounds": [
    {
      "Event":
        "Ake_Obj_Pickup.Obj_Pickup.Ak_Play_Obj_Pickup_Char_Customization",
      "Cue": null,
      "Expressions": null
    }
  ],
  "VfTableObject": "",
  "HashNext": "",
  "ObjectFlags": "",
  "HashOuterNext": "",
  "StateFrame": "",
  "Linker": null,
  "LinkerIndex": "",
  "ObjectInternalInteger": 130937,
  "NetIndex": 233,
  "Outer": "GD_Siren_Items_MainGame.Siren",
  "Name": "Skin_BlueC",
  "Class": "WillowGame.UsableCustomizationItemDefinition",
  "ObjectArchetype": "WillowGame.Default__UsableCustomizationItemDefinition"
}