{
  "AssociatedPlayerClassIdentifierPath": "GD_PlayerClassId.Siren",
  "AsterClassMods": null,
  "LobeliaClassMods": null,
  "CharacterCustomizations": [
    {
      "ItemPoolDefPath": "GD_CustomItemPools_allium.Rewards.AlliumTGSkins",
      "ItemPoolKey": 1700,
      "CustomizationItemPool":
        "GD_CustomItemPools_allium.Siren.AlliumTGSkins"
    },
    {
      "ItemPoolDefPath": "GD_CustomItemPools_allium.Rewards.AlliumXmasSkins",
      "ItemPoolKey": 1702,
      "CustomizationItemPool":
        "GD_CustomItemPools_allium.Siren.AlliumXmasSkins"
    },
    {
      "ItemPoolDefPath":
        "ItemPoolDefinition'GD_CustomItemPools_allium.Assassin.AlliumTGHeads'",
      "ItemPoolKey": 1701,
      "CustomizationItemPool":
        "GD_CustomItemPools_allium.Siren.AlliumTGHeads"
    },
    {
      "ItemPoolDefPath": "GD_CustomItemPools_allium.Rewards.AlliumXmasHeads",
      "ItemPoolKey": 1703,
      "CustomizationItemPool":
        "GD_CustomItemPools_allium.Siren.AlliumXmasHeads"
    }
  ],
  "VfTableObject": "",
  "HashNext": "",
  "ObjectFlags": "",
  "HashOuterNext": "",
  "StateFrame": "",
  "Linker": null,
  "LinkerIndex": "",
  "ObjectInternalInteger": 162524,
  "NetIndex": 4,
  "Outer": "GD_AlliumPackageDef.LegacyPlayerClassIDs",
  "Name": "Siren",
  "Class": "WillowGame.DLCLegacyPlayerClassIdentifierDefinition",
  "ObjectArchetype":
    "WillowGame.Default__DLCLegacyPlayerClassIdentifierDefinition"
}