{
  "AssociatedPlayerClassIdentifierPath": "GD_PlayerClassId.Siren",
  "AsterClassMods": null,
  "LobeliaClassMods": null,
  "CharacterCustomizations": [
    {
      "ItemPoolDefPath": "GD_CustomItemPools_Iris.Rewards.IrisHeads",
      "ItemPoolKey": 700,
      "CustomizationItemPool": "GD_CustomItemPools_Iris.Siren.IrisHeads"
    }
  ],
  "VfTableObject": "",
  "HashNext": "",
  "ObjectFlags": "",
  "HashOuterNext": "",
  "StateFrame": "",
  "Linker": null,
  "LinkerIndex": "",
  "ObjectInternalInteger": 170761,
  "NetIndex": 4,
  "Outer": "GD_IrisPackageDef.LegacyPlayerClassIDs",
  "Name": "Siren",
  "Class": "WillowGame.DLCLegacyPlayerClassIdentifierDefinition",
  "ObjectArchetype":
    "WillowGame.Default__DLCLegacyPlayerClassIdentifierDefinition"
}