{
  "AssociatedPlayerClassIdentifierPath": "GD_PlayerClassId.Soldier",
  "AsterClassMods": null,
  "LobeliaClassMods": null,
  "CharacterCustomizations": [
    {
      "ItemPoolDefPath": "GD_CustomItemPools_Peony.Rewards.PeonyHeads",
      "ItemPoolKey": 1900,
      "CustomizationItemPool": "GD_CustomItemPools_Peony.Soldier.PeonyHeads"
    },
    {
      "ItemPoolDefPath": "GD_CustomItemPools_Peony.Rewards.PeonySkins",
      "ItemPoolKey": 1901,
      "CustomizationItemPool": "GD_CustomItemPools_Peony.Soldier.PeonySkins"
    }
  ],
  "VfTableObject": "",
  "HashNext": "",
  "ObjectFlags": "",
  "HashOuterNext": "",
  "StateFrame": "",
  "Linker": null,
  "LinkerIndex": "",
  "ObjectInternalInteger": 177400,
  "NetIndex": 5,
  "Outer": "GD_PeonyPackageDef.LegacyPlayerClassIDs",
  "Name": "Soldier",
  "Class": "WillowGame.DLCLegacyPlayerClassIdentifierDefinition",
  "ObjectArchetype":
    "WillowGame.Default__DLCLegacyPlayerClassIdentifierDefinition"
}