{
  "CheatSpawnLevel": {
    "BaseValueConstant": 0.0,
    "BaseValueAttribute": null,
    "InitializationDefinition": null,
    "BaseValueScaleConstant": 1.0
  },
  "bDisablePhysicsDrop": false,
  "bAutoReadyItems": false,
  "bSupportsGameStageVariance": true,
  "bShopsHaveInfiniteQuantity": false,
  "bEligibleForUncommonWeightMultiplier": false,
  "Quantity": {
    "BaseValueConstant": 1.0,
    "BaseValueAttribute": null,
    "InitializationDefinition": null,
    "BaseValueScaleConstant": 1.0
  },
  "MinGameStageRequirement": null,
  "MaxGameStageRequirement": null,
  "BalancedItems": [
    {
      "ItmPoolDefinition": null,
      "InvBalanceDefinition":
        "GD_Siren_Items_MainGame.BalanceDefs.Siren_Skin_BanditA",
      "Probability": {
        "BaseValueConstant": 1.0,
        "BaseValueAttribute": null,
        "InitializationDefinition": null,
        "BaseValueScaleConstant": 1.0
      },
      "bDropOnDeath": false
    },
    {
      "ItmPoolDefinition": null,
      "InvBalanceDefinition":
        "GD_Siren_Items_MainGame.BalanceDefs.Siren_Skin_BlueD",
      "Probability": {
        "BaseValueConstant": 1.0,
        "BaseValueAttribute": null,
        "InitializationDefinition": null,
        "BaseValueScaleConstant": 1.0
      },
      "bDropOnDeath": false
    },
    {
      "ItmPoolDefinition": null,
      "InvBalanceDefinition":
        "GD_Siren_Items_MainGame.BalanceDefs.Siren_Skin_CyanD",
      "Probability": {
        "BaseValueConstant": 1.0,
        "BaseValueAttribute": null,
        "InitializationDefinition": null,
        "BaseValueScaleConstant": 1.0
      },
      "bDropOnDeath": false
    },
    {
      "ItmPoolDefinition": null,
      "InvBalanceDefinition":
        "GD_Siren_Items_MainGame.BalanceDefs.Siren_Skin_DahlA",
      "Probability": {
        "BaseValueConstant": 1.0,
        "BaseValueAttribute": null,
        "InitializationDefinition": null,
        "BaseValueScaleConstant": 1.0
      },
      "bDropOnDeath": false
    },
    {
      "ItmPoolDefinition": null,
      "InvBalanceDefinition":
        "GD_Siren_Items_MainGame.BalanceDefs.Siren_Skin_GreenD",
      "Probability": {
        "BaseValueConstant": 1.0,
        "BaseValueAttribute": null,
        "InitializationDefinition": null,
        "BaseValueScaleConstant": 1.0
      },
      "bDropOnDeath": false
    },
    {
      "ItmPoolDefinition": null,
      "InvBalanceDefinition":
        "GD_Siren_Items_MainGame.BalanceDefs.Siren_Skin_HyperionA",
      "Probability": {
        "BaseValueConstant": 1.0,
        "BaseValueAttribute": null,
        "InitializationDefinition": null,
        "BaseValueScaleConstant": 1.0
      },
      "bDropOnDeath": false
    },
    {
      "ItmPoolDefinition": null,
      "InvBalanceDefinition":
        "GD_Siren_Items_MainGame.BalanceDefs.Siren_Skin_JakobsA",
      "Probability": {
        "BaseValueConstant": 1.0,
        "BaseValueAttribute": null,
        "InitializationDefinition": null,
        "BaseValueScaleConstant": 1.0
      },
      "bDropOnDeath": false
    },
    {
      "ItmPoolDefinition": null,
      "InvBalanceDefinition":
        "GD_Siren_Items_MainGame.BalanceDefs.Siren_Skin_MaliwanA",
      "Probability": {
        "BaseValueConstant": 1.0,
        "BaseValueAttribute": null,
        "InitializationDefinition": null,
        "BaseValueScaleConstant": 1.0
      },
      "bDropOnDeath": false
    },
    {
      "ItmPoolDefinition": null,
      "InvBalanceDefinition":
        "GD_Siren_Items_MainGame.BalanceDefs.Siren_Skin_OrangeA",
      "Probability": {
        "BaseValueConstant": 1.0,
        "BaseValueAttribute": null,
        "InitializationDefinition": null,
        "BaseValueScaleConstant": 1.0
      },
      "bDropOnDeath": false
    },
    {
      "ItmPoolDefinition": null,
      "InvBalanceDefinition":
        "GD_Siren_Items_MainGame.BalanceDefs.Siren_Skin_OrangeD",
      "Probability": {
        "BaseValueConstant": 1.0,
        "BaseValueAttribute": null,
        "InitializationDefinition": null,
        "BaseValueScaleConstant": 1.0
      },
      "bDropOnDeath": false
    },
    {
      "ItmPoolDefinition": null,
      "InvBalanceDefinition":
        "GD_Siren_Items_MainGame.BalanceDefs.Siren_Skin_PinkB",
      "Probability": {
        "BaseValueConstant": 1.0,
        "BaseValueAttribute": null,
        "InitializationDefinition": null,
        "BaseValueScaleConstant": 1.0
      },
      "bDropOnDeath": false
    },
    {
      "ItmPoolDefinition": null,
      "InvBalanceDefinition":
        "GD_Siren_Items_MainGame.BalanceDefs.Siren_Skin_PurpleA",
      "Probability": {
        "BaseValueConstant": 1.0,
        "BaseValueAttribute": null,
        "InitializationDefinition": null,
        "BaseValueScaleConstant": 1.0
      },
      "bDropOnDeath": false
    },
    {
      "ItmPoolDefinition": null,
      "InvBalanceDefinition":
        "GD_Siren_Items_MainGame.BalanceDefs.Siren_Skin_PurpleD",
      "Probability": {
        "BaseValueConstant": 1.0,
        "BaseValueAttribute": null,
        "InitializationDefinition": null,
        "BaseValueScaleConstant": 1.0
      },
      "bDropOnDeath": false
    },
    {
      "ItmPoolDefinition": null,
      "InvBalanceDefinition":
        "GD_Siren_Items_MainGame.BalanceDefs.Siren_Skin_RedA",
      "Probability": {
        "BaseValueConstant": 1.0,
        "BaseValueAttribute": null,
        "InitializationDefinition": null,
        "BaseValueScaleConstant": 1.0
      },
      "bDropOnDeath": false
    },
    {
      "ItmPoolDefinition": null,
      "InvBalanceDefinition":
        "GD_Siren_Items_MainGame.BalanceDefs.Siren_Skin_RedD",
      "Probability": {
        "BaseValueConstant": 1.0,
        "BaseValueAttribute": null,
        "InitializationDefinition": null,
        "BaseValueScaleConstant": 1.0
      },
      "bDropOnDeath": false
    },
    {
      "ItmPoolDefinition": null,
      "InvBalanceDefinition":
        "GD_Siren_Items_MainGame.BalanceDefs.Siren_Skin_TedioreA",
      "Probability": {
        "BaseValueConstant": 1.0,
        "BaseValueAttribute": null,
        "InitializationDefinition": null,
        "BaseValueScaleConstant": 1.0
      },
      "bDropOnDeath": false
    },
    {
      "ItmPoolDefinition": null,
      "InvBalanceDefinition":
        "GD_Siren_Items_MainGame.BalanceDefs.Siren_Skin_TorgueA",
      "Probability": {
        "BaseValueConstant": 1.0,
        "BaseValueAttribute": null,
        "InitializationDefinition": null,
        "BaseValueScaleConstant": 1.0
      },
      "bDropOnDeath": false
    },
    {
      "ItmPoolDefinition": null,
      "InvBalanceDefinition":
        "GD_Siren_Items_MainGame.BalanceDefs.Siren_Skin_VladofA",
      "Probability": {
        "BaseValueConstant": 1.0,
        "BaseValueAttribute": null,
        "InitializationDefinition": null,
        "BaseValueScaleConstant": 1.0
      },
      "bDropOnDeath": false
    },
    {
      "ItmPoolDefinition": null,
      "InvBalanceDefinition":
        "GD_Siren_Items_MainGame.BalanceDefs.Siren_Skin_YellowA",
      "Probability": {
        "BaseValueConstant": 1.0,
        "BaseValueAttribute": null,
        "InitializationDefinition": null,
        "BaseValueScaleConstant": 1.0
      },
      "bDropOnDeath": false
    },
    {
      "ItmPoolDefinition": null,
      "InvBalanceDefinition":
        "GD_Siren_Items_MainGame.BalanceDefs.Siren_Skin_YellowD",
      "Probability": {
        "BaseValueConstant": 1.0,
        "BaseValueAttribute": null,
        "InitializationDefinition": null,
        "BaseValueScaleConstant": 1.0
      },
      "bDropOnDeath": false
    }
  ],
  "VfTableObject": "",
  "HashNext": "",
  "ObjectFlags": "",
  "HashOuterNext": "",
  "StateFrame": "",
  "Linker": null,
  "LinkerIndex": "",
  "ObjectInternalInteger": 132065,
  "NetIndex": 249,
  "Outer": "GD_CustomItemPools_MainGame.Siren",
  "Name": "Pool_Customs_Siren_Common",
  "Class": "WillowGame.ItemPoolDefinition",
  "ObjectArchetype": "WillowGame.Default__ItemPoolDefinition"
}