{
  "CheatSpawnLevel": {
    "BaseValueConstant": 0.0,
    "BaseValueAttribute": null,
    "InitializationDefinition": null,
    "BaseValueScaleConstant": 1.0
  },
  "bDisablePhysicsDrop": false,
  "bAutoReadyItems": false,
  "bSupportsGameStageVariance": true,
  "bShopsHaveInfiniteQuantity": false,
  "bEligibleForUncommonWeightMultiplier": false,
  "Quantity": {
    "BaseValueConstant": 1.0,
    "BaseValueAttribute": null,
    "InitializationDefinition": null,
    "BaseValueScaleConstant": 1.0
  },
  "MinGameStageRequirement": null,
  "MaxGameStageRequirement": null,
  "BalancedItems": [
    {
      "ItmPoolDefinition": null,
      "InvBalanceDefinition":
        "GD_Psycho_Items_Lilac.BalanceDefs.Psycho_Skin_BanditB",
      "Probability": {
        "BaseValueConstant": 1.0,
        "BaseValueAttribute": null,
        "InitializationDefinition": null,
        "BaseValueScaleConstant": 1.0
      },
      "bDropOnDeath": true
    },
    {
      "ItmPoolDefinition": null,
      "InvBalanceDefinition":
        "GD_Psycho_Items_Lilac.BalanceDefs.Psycho_Skin_BlueB",
      "Probability": {
        "BaseValueConstant": 1.0,
        "BaseValueAttribute": null,
        "InitializationDefinition": null,
        "BaseValueScaleConstant": 1.0
      },
      "bDropOnDeath": true
    },
    {
      "ItmPoolDefinition": null,
      "InvBalanceDefinition":
        "GD_Psycho_Items_Lilac.BalanceDefs.Psycho_Skin_BlueE",
      "Probability": {
        "BaseValueConstant": 1.0,
        "BaseValueAttribute": null,
        "InitializationDefinition": null,
        "BaseValueScaleConstant": 1.0
      },
      "bDropOnDeath": true
    },
    {
      "ItmPoolDefinition": null,
      "InvBalanceDefinition":
        "GD_Psycho_Items_Lilac.BalanceDefs.Psycho_Skin_CyanB",
      "Probability": {
        "BaseValueConstant": 1.0,
        "BaseValueAttribute": null,
        "InitializationDefinition": null,
        "BaseValueScaleConstant": 1.0
      },
      "bDropOnDeath": true
    },
    {
      "ItmPoolDefinition": null,
      "InvBalanceDefinition":
        "GD_Psycho_Items_Lilac.BalanceDefs.Psycho_Skin_CyanE",
      "Probability": {
        "BaseValueConstant": 1.0,
        "BaseValueAttribute": null,
        "InitializationDefinition": null,
        "BaseValueScaleConstant": 1.0
      },
      "bDropOnDeath": true
    },
    {
      "ItmPoolDefinition": null,
      "InvBalanceDefinition":
        "GD_Psycho_Items_Lilac.BalanceDefs.Psycho_Skin_DahlB",
      "Probability": {
        "BaseValueConstant": 1.0,
        "BaseValueAttribute": null,
        "InitializationDefinition": null,
        "BaseValueScaleConstant": 1.0
      },
      "bDropOnDeath": true
    },
    {
      "ItmPoolDefinition": null,
      "InvBalanceDefinition":
        "GD_Psycho_Items_Lilac.BalanceDefs.Psycho_Skin_GreenB",
      "Probability": {
        "BaseValueConstant": 1.0,
        "BaseValueAttribute": null,
        "InitializationDefinition": null,
        "BaseValueScaleConstant": 1.0
      },
      "bDropOnDeath": true
    },
    {
      "ItmPoolDefinition": null,
      "InvBalanceDefinition":
        "GD_Psycho_Items_Lilac.BalanceDefs.Psycho_Skin_GreenE",
      "Probability": {
        "BaseValueConstant": 1.0,
        "BaseValueAttribute": null,
        "InitializationDefinition": null,
        "BaseValueScaleConstant": 1.0
      },
      "bDropOnDeath": true
    },
    {
      "ItmPoolDefinition": null,
      "InvBalanceDefinition":
        "GD_Psycho_Items_Lilac.BalanceDefs.Psycho_Skin_HyperionB",
      "Probability": {
        "BaseValueConstant": 1.0,
        "BaseValueAttribute": null,
        "InitializationDefinition": null,
        "BaseValueScaleConstant": 1.0
      },
      "bDropOnDeath": true
    },
    {
      "ItmPoolDefinition": null,
      "InvBalanceDefinition":
        "GD_Psycho_Items_Lilac.BalanceDefs.Psycho_Skin_JakobsB",
      "Probability": {
        "BaseValueConstant": 1.0,
        "BaseValueAttribute": null,
        "InitializationDefinition": null,
        "BaseValueScaleConstant": 1.0
      },
      "bDropOnDeath": true
    },
    {
      "ItmPoolDefinition": null,
      "InvBalanceDefinition":
        "GD_Psycho_Items_Lilac.BalanceDefs.Psycho_Skin_MaliwanB",
      "Probability": {
        "BaseValueConstant": 1.0,
        "BaseValueAttribute": null,
        "InitializationDefinition": null,
        "BaseValueScaleConstant": 1.0
      },
      "bDropOnDeath": true
    },
    {
      "ItmPoolDefinition": null,
      "InvBalanceDefinition":
        "GD_Psycho_Items_Lilac.BalanceDefs.Psycho_Skin_OrangeB",
      "Probability": {
        "BaseValueConstant": 1.0,
        "BaseValueAttribute": null,
        "InitializationDefinition": null,
        "BaseValueScaleConstant": 1.0
      },
      "bDropOnDeath": true
    },
    {
      "ItmPoolDefinition": null,
      "InvBalanceDefinition":
        "GD_Psycho_Items_Lilac.BalanceDefs.Psycho_Skin_OrangeE",
      "Probability": {
        "BaseValueConstant": 1.0,
        "BaseValueAttribute": null,
        "InitializationDefinition": null,
        "BaseValueScaleConstant": 1.0
      },
      "bDropOnDeath": true
    },
    {
      "ItmPoolDefinition": null,
      "InvBalanceDefinition":
        "GD_Psycho_Items_Lilac.BalanceDefs.Psycho_Skin_PinkD",
      "Probability": {
        "BaseValueConstant": 1.0,
        "BaseValueAttribute": null,
        "InitializationDefinition": null,
        "BaseValueScaleConstant": 1.0
      },
      "bDropOnDeath": true
    },
    {
      "ItmPoolDefinition": null,
      "InvBalanceDefinition":
        "GD_Psycho_Items_Lilac.BalanceDefs.Psycho_Skin_PurpleB",
      "Probability": {
        "BaseValueConstant": 1.0,
        "BaseValueAttribute": null,
        "InitializationDefinition": null,
        "BaseValueScaleConstant": 1.0
      },
      "bDropOnDeath": true
    },
    {
      "ItmPoolDefinition": null,
      "InvBalanceDefinition":
        "GD_Psycho_Items_Lilac.BalanceDefs.Psycho_Skin_RedB",
      "Probability": {
        "BaseValueConstant": 1.0,
        "BaseValueAttribute": null,
        "InitializationDefinition": null,
        "BaseValueScaleConstant": 1.0
      },
      "bDropOnDeath": true
    },
    {
      "ItmPoolDefinition": null,
      "InvBalanceDefinition":
        "GD_Psycho_Items_Lilac.BalanceDefs.Psycho_Skin_RedE",
      "Probability": {
        "BaseValueConstant": 1.0,
        "BaseValueAttribute": null,
        "InitializationDefinition": null,
        "BaseValueScaleConstant": 1.0
      },
      "bDropOnDeath": true
    },
    {
      "ItmPoolDefinition": null,
      "InvBalanceDefinition":
        "GD_Psycho_Items_Lilac.BalanceDefs.Psycho_Skin_TedioreB",
      "Probability": {
        "BaseValueConstant": 1.0,
        "BaseValueAttribute": null,
        "InitializationDefinition": null,
        "BaseValueScaleConstant": 1.0
      },
      "bDropOnDeath": true
    },
    {
      "ItmPoolDefinition": null,
      "InvBalanceDefinition":
        "GD_Psycho_Items_Lilac.BalanceDefs.Psycho_Skin_TorgueB",
      "Probability": {
        "BaseValueConstant": 1.0,
        "BaseValueAttribute": null,
        "InitializationDefinition": null,
        "BaseValueScaleConstant": 1.0
      },
      "bDropOnDeath": true
    },
    {
      "ItmPoolDefinition": null,
      "InvBalanceDefinition":
        "GD_Psycho_Items_Lilac.BalanceDefs.Psycho_Skin_VladofB",
      "Probability": {
        "BaseValueConstant": 1.0,
        "BaseValueAttribute": null,
        "InitializationDefinition": null,
        "BaseValueScaleConstant": 1.0
      },
      "bDropOnDeath": true
    },
    {
      "ItmPoolDefinition": null,
      "InvBalanceDefinition":
        "GD_Psycho_Items_Lilac.BalanceDefs.Psycho_Skin_YellowB",
      "Probability": {
        "BaseValueConstant": 1.0,
        "BaseValueAttribute": null,
        "InitializationDefinition": null,
        "BaseValueScaleConstant": 1.0
      },
      "bDropOnDeath": true
    },
    {
      "ItmPoolDefinition": null,
      "InvBalanceDefinition":
        "GD_Psycho_Items_Lilac.BalanceDefs.Psycho_Skin_YellowE",
      "Probability": {
        "BaseValueConstant": 1.0,
        "BaseValueAttribute": null,
        "InitializationDefinition": null,
        "BaseValueScaleConstant": 1.0
      },
      "bDropOnDeath": true
    }
  ],
  "VfTableObject": "",
  "HashNext": "",
  "ObjectFlags": "",
  "HashOuterNext": "",
  "StateFrame": "",
  "Linker": null,
  "LinkerIndex": "",
  "ObjectInternalInteger": 172199,
  "NetIndex": 62,
  "Outer": "GD_CustomItemPools_Lilac.Psycho",
  "Name": "Pool_Customs_Psycho_Uncommon",
  "Class": "WillowGame.ItemPoolDefinition",
  "ObjectArchetype": "WillowGame.Default__ItemPoolDefinition"
}