{
  "CheatSpawnLevel": {
    "BaseValueConstant": 0.0,
    "BaseValueAttribute": null,
    "InitializationDefinition": null,
    "BaseValueScaleConstant": 1.0
  },
  "bDisablePhysicsDrop": false,
  "bAutoReadyItems": false,
  "bSupportsGameStageVariance": true,
  "bShopsHaveInfiniteQuantity": false,
  "bEligibleForUncommonWeightMultiplier": false,
  "Quantity": {
    "BaseValueConstant": 1.0,
    "BaseValueAttribute": null,
    "InitializationDefinition": null,
    "BaseValueScaleConstant": 1.0
  },
  "MinGameStageRequirement": "GD_Itempools.Scheduling.Gamestage_05",
  "MaxGameStageRequirement": null,
  "BalancedItems": [
    {
      "ItmPoolDefinition":
        "GD_Itempools.WeaponPools.Pool_Weapons_Shotguns_01_Common",
      "InvBalanceDefinition": null,
      "Probability": {
        "BaseValueConstant": 0.0,
        "BaseValueAttribute": null,
        "InitializationDefinition":
          "GD_Balance.Weighting.Weight_1_Common_RareMod",
        "BaseValueScaleConstant": 1.0
      },
      "bDropOnDeath": true
    },
    {
      "ItmPoolDefinition":
        "GD_Itempools.WeaponPools.Pool_Weapons_Shotguns_02_Uncommon",
      "InvBalanceDefinition": null,
      "Probability": {
        "BaseValueConstant": 0.0,
        "BaseValueAttribute": null,
        "InitializationDefinition": "GD_Balance.Weighting.Weight_2_Uncommon",
        "BaseValueScaleConstant": 1.0
      },
      "bDropOnDeath": true
    },
    {
      "ItmPoolDefinition":
        "GD_Itempools.WeaponPools.Pool_Weapons_Shotguns_04_Rare",
      "InvBalanceDefinition": null,
      "Probability": {
        "BaseValueConstant": 0.0,
        "BaseValueAttribute": null,
        "InitializationDefinition": "GD_Balance.Weighting.Weight_4_Rare",
        "BaseValueScaleConstant": 1.0
      },
      "bDropOnDeath": true
    },
    {
      "ItmPoolDefinition":
        "GD_Itempools.WeaponPools.Pool_Weapons_Shotguns_05_VeryRare",
      "InvBalanceDefinition": null,
      "Probability": {
        "BaseValueConstant": 0.0,
        "BaseValueAttribute": null,
        "InitializationDefinition": "GD_Balance.Weighting.Weight_5_VeryRare",
        "BaseValueScaleConstant": 1.0
      },
      "bDropOnDeath": true
    },
    {
      "ItmPoolDefinition":
        "GD_Itempools.WeaponPools.Pool_Weapons_Shotguns_05_VeryRare_Alien",
      "InvBalanceDefinition": null,
      "Probability": {
        "BaseValueConstant": 0.0,
        "BaseValueAttribute": null,
        "InitializationDefinition": "GD_Balance.Weighting.Weight_5_VeryRare",
        "BaseValueScaleConstant": 1.0
      },
      "bDropOnDeath": true
    },
    {
      "ItmPoolDefinition":
        "GD_Gladiolus_Itempools.WeaponPools.Pool_Weapons_Shotguns_07_LegendaryPlusPearl",
      "InvBalanceDefinition": null,
      "Probability": {
        "BaseValueConstant": 0.0,
        "BaseValueAttribute": null,
        "InitializationDefinition": "GD_Balance.Weighting.Weight_6_Legendary",
        "BaseValueScaleConstant": 1.0
      },
      "bDropOnDeath": true
    }
  ],
  "VfTableObject": "",
  "HashNext": "",
  "ObjectFlags": "",
  "HashOuterNext": "",
  "StateFrame": "",
  "Linker": null,
  "LinkerIndex": "",
  "ObjectInternalInteger": 132305,
  "NetIndex": 475,
  "Outer": "GD_Itempools.WeaponPools",
  "Name": "Pool_Weapons_Shotguns",
  "Class": "WillowGame.ItemPoolDefinition",
  "ObjectArchetype": "WillowGame.Default__ItemPoolDefinition"
}