{
  "CheatSpawnLevel": {
    "BaseValueConstant": 0.0,
    "BaseValueAttribute": null,
    "InitializationDefinition": null,
    "BaseValueScaleConstant": 1.0
  },
  "bDisablePhysicsDrop": false,
  "bAutoReadyItems": false,
  "bSupportsGameStageVariance": true,
  "bShopsHaveInfiniteQuantity": false,
  "bEligibleForUncommonWeightMultiplier": false,
  "Quantity": {
    "BaseValueConstant": 1.0,
    "BaseValueAttribute": null,
    "InitializationDefinition": null,
    "BaseValueScaleConstant": 1.0
  },
  "MinGameStageRequirement": null,
  "MaxGameStageRequirement": null,
  "BalancedItems": [
    {
      "ItmPoolDefinition":
        "GD_Iris_ItemPools.EnemyDropPools.Pool_DragonGang_Drop",
      "InvBalanceDefinition": null,
      "Probability": {
        "BaseValueConstant": 0.0,
        "BaseValueAttribute": null,
        "InitializationDefinition": "GD_Balance.Weighting.Weight_1_Common",
        "BaseValueScaleConstant": 0.8
      },
      "bDropOnDeath": true
    },
    {
      "ItmPoolDefinition": "GD_Itempools.WeaponPools.Pool_Weapons_All",
      "InvBalanceDefinition": null,
      "Probability": {
        "BaseValueConstant": 0.0,
        "BaseValueAttribute": null,
        "InitializationDefinition": "GD_Balance.Weighting.Weight_2_Uncommon",
        "BaseValueScaleConstant": 2.0
      },
      "bDropOnDeath": true
    },
    {
      "ItmPoolDefinition": "GD_Itempools.ShieldPools.Pool_Shields_All",
      "InvBalanceDefinition": null,
      "Probability": {
        "BaseValueConstant": 0.0,
        "BaseValueAttribute": null,
        "InitializationDefinition": "GD_Balance.Weighting.Weight_1_Common",
        "BaseValueScaleConstant": 0.45
      },
      "bDropOnDeath": false
    },
    {
      "ItmPoolDefinition":
        "GD_Itempools.GrenadeModPools.Pool_GrenadeMods_All",
      "InvBalanceDefinition": null,
      "Probability": {
        "BaseValueConstant": 0.0,
        "BaseValueAttribute": null,
        "InitializationDefinition": "GD_Balance.Weighting.Weight_2_Uncommon",
        "BaseValueScaleConstant": 3.5
      },
      "bDropOnDeath": true
    },
    {
      "ItmPoolDefinition": "GD_Itempools.ClassModPools.Pool_ClassMod_All",
      "InvBalanceDefinition": null,
      "Probability": {
        "BaseValueConstant": 1.0,
        "BaseValueAttribute": null,
        "InitializationDefinition": "GD_Balance.Weighting.Weight_2_Uncommon",
        "BaseValueScaleConstant": 2.5
      },
      "bDropOnDeath": true
    },
    {
      "ItmPoolDefinition": "GD_Itempools.ArtifactPools.Pool_ArtifactsAll",
      "InvBalanceDefinition": null,
      "Probability": {
        "BaseValueConstant": 1.0,
        "BaseValueAttribute": null,
        "InitializationDefinition": "GD_Balance.Weighting.Weight_2_Uncommon",
        "BaseValueScaleConstant": 2.0
      },
      "bDropOnDeath": true
    }
  ],
  "VfTableObject": "",
  "HashNext": "",
  "ObjectFlags": "",
  "HashOuterNext": "",
  "StateFrame": "",
  "Linker": null,
  "LinkerIndex": "",
  "ObjectInternalInteger": 171086,
  "NetIndex": 7,
  "Outer": "GD_Iris_ItemPools.EnemyDropPools",
  "Name": "Pool_GunsAndGear_WeightedDragonGang",
  "Class": "WillowGame.ItemPoolDefinition",
  "ObjectArchetype": "WillowGame.Default__ItemPoolDefinition"
}