{
  "CheatSpawnLevel": {
    "BaseValueConstant": 0.0,
    "BaseValueAttribute": null,
    "InitializationDefinition": null,
    "BaseValueScaleConstant": 1.0
  },
  "bDisablePhysicsDrop": false,
  "bAutoReadyItems": true,
  "bSupportsGameStageVariance": true,
  "bShopsHaveInfiniteQuantity": false,
  "bEligibleForUncommonWeightMultiplier": false,
  "Quantity": {
    "BaseValueConstant": 1.0,
    "BaseValueAttribute": null,
    "InitializationDefinition": null,
    "BaseValueScaleConstant": 1.0
  },
  "MinGameStageRequirement": "GD_Itempools.Scheduling.Gamestage_08",
  "MaxGameStageRequirement": null,
  "BalancedItems": [
    {
      "ItmPoolDefinition":
        "GD_Itempools.ShieldPools.Pool_Shields_SpikeShields_Corrosive_05_VeryRare",
      "InvBalanceDefinition": null,
      "Probability": {
        "BaseValueConstant": 1.0,
        "BaseValueAttribute": null,
        "InitializationDefinition": null,
        "BaseValueScaleConstant": 1.0
      },
      "bDropOnDeath": true
    },
    {
      "ItmPoolDefinition":
        "GD_Itempools.ShieldPools.Pool_Shields_SpikeShields_Explosive_05_VeryRare",
      "InvBalanceDefinition": null,
      "Probability": {
        "BaseValueConstant": 1.0,
        "BaseValueAttribute": null,
        "InitializationDefinition": null,
        "BaseValueScaleConstant": 1.0
      },
      "bDropOnDeath": true
    },
    {
      "ItmPoolDefinition":
        "GD_Itempools.ShieldPools.Pool_Shields_SpikeShields_Fire_05_VeryRare",
      "InvBalanceDefinition": null,
      "Probability": {
        "BaseValueConstant": 1.0,
        "BaseValueAttribute": null,
        "InitializationDefinition": null,
        "BaseValueScaleConstant": 1.0
      },
      "bDropOnDeath": true
    },
    {
      "ItmPoolDefinition":
        "GD_Itempools.ShieldPools.Pool_Shields_SpikeShields_Shock_05_VeryRare",
      "InvBalanceDefinition": null,
      "Probability": {
        "BaseValueConstant": 1.0,
        "BaseValueAttribute": null,
        "InitializationDefinition": null,
        "BaseValueScaleConstant": 1.0
      },
      "bDropOnDeath": true
    }
  ],
  "VfTableObject": "",
  "HashNext": "",
  "ObjectFlags": "",
  "HashOuterNext": "",
  "StateFrame": "",
  "Linker": null,
  "LinkerIndex": "",
  "ObjectInternalInteger": 132493,
  "NetIndex": 392,
  "Outer": "GD_Itempools.ShieldPools",
  "Name": "Pool_Shields_SpikeShields_All_05_VeryRare",
  "Class": "WillowGame.ItemPoolDefinition",
  "ObjectArchetype": "WillowGame.Default__ItemPoolDefinition"
}