{
  "CheatSpawnLevel": {
    "BaseValueConstant": 0.0,
    "BaseValueAttribute": null,
    "InitializationDefinition": null,
    "BaseValueScaleConstant": 1.0
  },
  "bDisablePhysicsDrop": false,
  "bAutoReadyItems": false,
  "bSupportsGameStageVariance": true,
  "bShopsHaveInfiniteQuantity": false,
  "bEligibleForUncommonWeightMultiplier": false,
  "Quantity": {
    "BaseValueConstant": 1.0,
    "BaseValueAttribute": null,
    "InitializationDefinition": null,
    "BaseValueScaleConstant": 1.0
  },
  "MinGameStageRequirement": null,
  "MaxGameStageRequirement": null,
  "BalancedItems": [
    {
      "ItmPoolDefinition":
        "GD_Itempools.AmmoAndResourcePools.Pool_Ammo_Repeater",
      "InvBalanceDefinition": null,
      "Probability": {
        "BaseValueConstant": 1.0,
        "BaseValueAttribute":
          "GD_Itempools.DropWeights.DropWeight_Ammo_Repeater_Need",
        "InitializationDefinition": null,
        "BaseValueScaleConstant": 1.0
      },
      "bDropOnDeath": true
    },
    {
      "ItmPoolDefinition":
        "GD_Itempools.AmmoAndResourcePools.Pool_Ammo_CombatRifle",
      "InvBalanceDefinition": null,
      "Probability": {
        "BaseValueConstant": 1.0,
        "BaseValueAttribute":
          "GD_Itempools.DropWeights.DropWeight_Ammo_CombatRifle_Need",
        "InitializationDefinition": null,
        "BaseValueScaleConstant": 1.0
      },
      "bDropOnDeath": true
    },
    {
      "ItmPoolDefinition": "GD_Itempools.AmmoAndResourcePools.Pool_Ammo_SMG",
      "InvBalanceDefinition": null,
      "Probability": {
        "BaseValueConstant": 1.0,
        "BaseValueAttribute":
          "GD_Itempools.DropWeights.DropWeight_Ammo_SMG_Need",
        "InitializationDefinition": null,
        "BaseValueScaleConstant": 1.0
      },
      "bDropOnDeath": true
    },
    {
      "ItmPoolDefinition":
        "GD_Itempools.AmmoAndResourcePools.Pool_Ammo_Shotgun",
      "InvBalanceDefinition": null,
      "Probability": {
        "BaseValueConstant": 1.0,
        "BaseValueAttribute":
          "GD_Itempools.DropWeights.DropWeight_Ammo_Shotgun_Need",
        "InitializationDefinition": null,
        "BaseValueScaleConstant": 1.0
      },
      "bDropOnDeath": true
    },
    {
      "ItmPoolDefinition":
        "GD_Itempools.AmmoAndResourcePools.Pool_Ammo_Sniper",
      "InvBalanceDefinition": null,
      "Probability": {
        "BaseValueConstant": 1.0,
        "BaseValueAttribute":
          "GD_Itempools.DropWeights.DropWeight_Ammo_SniperRifle_Need",
        "InitializationDefinition": null,
        "BaseValueScaleConstant": 1.0
      },
      "bDropOnDeath": true
    },
    {
      "ItmPoolDefinition":
        "GD_Itempools.AmmoAndResourcePools.Pool_Ammo_Grenades",
      "InvBalanceDefinition": null,
      "Probability": {
        "BaseValueConstant": 1.0,
        "BaseValueAttribute":
          "GD_Itempools.DropWeights.DropWeight_Grenade_Protean_Need",
        "InitializationDefinition": null,
        "BaseValueScaleConstant": 1.0
      },
      "bDropOnDeath": true
    }
  ],
  "VfTableObject": "",
  "HashNext": "",
  "ObjectFlags": "",
  "HashOuterNext": "",
  "StateFrame": "",
  "Linker": null,
  "LinkerIndex": "",
  "ObjectInternalInteger": 129388,
  "NetIndex": 136,
  "Outer": "GD_Itempools.AmmoAndResourcePools",
  "Name": "Pool_Ammo_All_NeedOnly",
  "Class": "WillowGame.ItemPoolDefinition",
  "ObjectArchetype": "WillowGame.Default__ItemPoolDefinition"
}