{
  "CheatSpawnLevel": {
    "BaseValueConstant": 0.0,
    "BaseValueAttribute": null,
    "InitializationDefinition": null,
    "BaseValueScaleConstant": 1.0
  },
  "bDisablePhysicsDrop": false,
  "bAutoReadyItems": false,
  "bSupportsGameStageVariance": true,
  "bShopsHaveInfiniteQuantity": false,
  "bEligibleForUncommonWeightMultiplier": false,
  "Quantity": {
    "BaseValueConstant": 1.0,
    "BaseValueAttribute": null,
    "InitializationDefinition": null,
    "BaseValueScaleConstant": 1.0
  },
  "MinGameStageRequirement": null,
  "MaxGameStageRequirement": null,
  "BalancedItems": [
    {
      "ItmPoolDefinition":
        "GD_Itempools.ShieldPools.Pool_Shields_All_02_Uncommon",
      "InvBalanceDefinition": null,
      "Probability": {
        "BaseValueConstant": 1.0,
        "BaseValueAttribute":
          "GD_ItemPools_Shop.Misc.Att_IOTD_Weighting_03_Uncommon",
        "InitializationDefinition": null,
        "BaseValueScaleConstant": 1.0
      },
      "bDropOnDeath": true
    },
    {
      "ItmPoolDefinition":
        "GD_Itempools.ShieldPools.Pool_Shields_All_04_Rare",
      "InvBalanceDefinition": null,
      "Probability": {
        "BaseValueConstant": 1.0,
        "BaseValueAttribute":
          "GD_ItemPools_Shop.Misc.Att_IOTD_Weighting_04_Rare",
        "InitializationDefinition": null,
        "BaseValueScaleConstant": 1.0
      },
      "bDropOnDeath": true
    },
    {
      "ItmPoolDefinition":
        "GD_Itempools.ShieldPools.Pool_Shields_All_05_VeryRare",
      "InvBalanceDefinition": null,
      "Probability": {
        "BaseValueConstant": 1.0,
        "BaseValueAttribute":
          "GD_ItemPools_Shop.Misc.Att_IOTD_Weighting_05_VeryRare",
        "InitializationDefinition": null,
        "BaseValueScaleConstant": 0.5
      },
      "bDropOnDeath": true
    },
    {
      "ItmPoolDefinition":
        "GD_Itempools.ShieldPools.Pool_Shields_All_06_Legendary",
      "InvBalanceDefinition": null,
      "Probability": {
        "BaseValueConstant": 1.0,
        "BaseValueAttribute":
          "GD_ItemPools_Shop.Misc.Att_IOTD_Weighting_06_Legendary",
        "InitializationDefinition": null,
        "BaseValueScaleConstant": 0.5
      },
      "bDropOnDeath": true
    },
    {
      "ItmPoolDefinition":
        "GD_Itempools.ClassModPools.Pool_ClassMod_02_Uncommon",
      "InvBalanceDefinition": null,
      "Probability": {
        "BaseValueConstant": 1.0,
        "BaseValueAttribute":
          "GD_ItemPools_Shop.Misc.Att_IOTD_Weighting_03_Uncommon",
        "InitializationDefinition": null,
        "BaseValueScaleConstant": 1.0
      },
      "bDropOnDeath": true
    },
    {
      "ItmPoolDefinition": "GD_Itempools.ClassModPools.Pool_ClassMod_04_Rare",
      "InvBalanceDefinition": null,
      "Probability": {
        "BaseValueConstant": 1.0,
        "BaseValueAttribute":
          "GD_ItemPools_Shop.Misc.Att_IOTD_Weighting_04_Rare",
        "InitializationDefinition": null,
        "BaseValueScaleConstant": 1.0
      },
      "bDropOnDeath": true
    },
    {
      "ItmPoolDefinition":
        "GD_Itempools.ClassModPools.Pool_ClassMod_05_VeryRare",
      "InvBalanceDefinition": null,
      "Probability": {
        "BaseValueConstant": 1.0,
        "BaseValueAttribute":
          "GD_ItemPools_Shop.Misc.Att_IOTD_Weighting_05_VeryRare",
        "InitializationDefinition": null,
        "BaseValueScaleConstant": 0.5
      },
      "bDropOnDeath": true
    },
    {
      "ItmPoolDefinition":
        "GD_Itempools.ClassModPools.Pool_ClassMod_06_Legendary",
      "InvBalanceDefinition": null,
      "Probability": {
        "BaseValueConstant": 1.0,
        "BaseValueAttribute":
          "GD_ItemPools_Shop.Misc.Att_IOTD_Weighting_06_Legendary",
        "InitializationDefinition": null,
        "BaseValueScaleConstant": 0.5
      },
      "bDropOnDeath": true
    }
  ],
  "VfTableObject": "",
  "HashNext": "",
  "ObjectFlags": "",
  "HashOuterNext": "",
  "StateFrame": "",
  "Linker": null,
  "LinkerIndex": "",
  "ObjectInternalInteger": 231212,
  "NetIndex": 20,
  "Outer": "GD_ItemPools_Shop.HealthShop",
  "Name": "HealthShop_FeaturedItem",
  "Class": "WillowGame.ItemPoolDefinition",
  "ObjectArchetype": "WillowGame.Default__ItemPoolDefinition"
}