{
  "CheatSpawnLevel": {
    "BaseValueConstant": 0.0,
    "BaseValueAttribute": null,
    "InitializationDefinition": null,
    "BaseValueScaleConstant": 1.0
  },
  "bDisablePhysicsDrop": false,
  "bAutoReadyItems": true,
  "bSupportsGameStageVariance": true,
  "bShopsHaveInfiniteQuantity": false,
  "bEligibleForUncommonWeightMultiplier": false,
  "Quantity": {
    "BaseValueConstant": 1.0,
    "BaseValueAttribute": null,
    "InitializationDefinition": null,
    "BaseValueScaleConstant": 1.0
  },
  "MinGameStageRequirement": null,
  "MaxGameStageRequirement": null,
  "BalancedItems": [
    {
      "ItmPoolDefinition": null,
      "InvBalanceDefinition": "GD_Weap_Pistol.A_Weapons.Pistol_Bandit",
      "Probability": {
        "BaseValueConstant": 0.0,
        "BaseValueAttribute": null,
        "InitializationDefinition":
          "GD_Balance.Weighting.Weight_0_VeryCommon",
        "BaseValueScaleConstant": 1.0
      },
      "bDropOnDeath": false
    },
    {
      "ItmPoolDefinition": null,
      "InvBalanceDefinition": "GD_Weap_Pistol.A_Weapons.Pistol_Tediore",
      "Probability": {
        "BaseValueConstant": 0.0,
        "BaseValueAttribute": null,
        "InitializationDefinition":
          "GD_Balance.Weighting.Weight_0_VeryCommon",
        "BaseValueScaleConstant": 1.0
      },
      "bDropOnDeath": false
    },
    {
      "ItmPoolDefinition": null,
      "InvBalanceDefinition": "GD_Weap_Pistol.A_Weapons.Pistol_Dahl",
      "Probability": {
        "BaseValueConstant": 0.0,
        "BaseValueAttribute": null,
        "InitializationDefinition":
          "GD_Balance.Weighting.Weight_0_VeryCommon",
        "BaseValueScaleConstant": 1.0
      },
      "bDropOnDeath": false
    }
  ],
  "VfTableObject": "",
  "HashNext": "",
  "ObjectFlags": "",
  "HashOuterNext": "",
  "StateFrame": "",
  "Linker": null,
  "LinkerIndex": "",
  "ObjectInternalInteger": 241565,
  "NetIndex": 15,
  "Outer": "GD_ItempoolsEnemyUse.WeaponPools",
  "Name": "Pool_Weapons_Pistols_EnemyUse_Intro",
  "Class": "WillowGame.ItemPoolDefinition",
  "ObjectArchetype": "WillowGame.Default__ItemPoolDefinition"
}