{
  "CheatSpawnLevel": {
    "BaseValueConstant": 0.0,
    "BaseValueAttribute": null,
    "InitializationDefinition": null,
    "BaseValueScaleConstant": 1.0
  },
  "bDisablePhysicsDrop": false,
  "bAutoReadyItems": false,
  "bSupportsGameStageVariance": true,
  "bShopsHaveInfiniteQuantity": false,
  "bEligibleForUncommonWeightMultiplier": false,
  "Quantity": {
    "BaseValueConstant": 1.0,
    "BaseValueAttribute": null,
    "InitializationDefinition": null,
    "BaseValueScaleConstant": 1.0
  },
  "MinGameStageRequirement": null,
  "MaxGameStageRequirement": null,
  "BalancedItems": [
    {
      "ItmPoolDefinition": null,
      "InvBalanceDefinition":
        "GD_Weap_Launchers.A_Weapons_Legendary.RL_Torgue_5_Nukem",
      "Probability": {
        "BaseValueConstant": 0.0,
        "BaseValueAttribute": null,
        "InitializationDefinition": "GD_Balance.Weighting.Weight_1_Common",
        "BaseValueScaleConstant": 1.0
      },
      "bDropOnDeath": true
    }
  ],
  "VfTableObject": "",
  "HashNext": "",
  "ObjectFlags": "",
  "HashOuterNext": "",
  "StateFrame": "",
  "Linker": null,
  "LinkerIndex": "",
  "ObjectInternalInteger": 132346,
  "NetIndex": 266,
  "Outer": "GD_Itempools.Runnables",
  "Name": "Pool_BlackQueen",
  "Class": "WillowGame.ItemPoolDefinition",
  "ObjectArchetype": "WillowGame.Default__ItemPoolDefinition"
}