{
  "CheatSpawnLevel": {
    "BaseValueConstant": 0.0,
    "BaseValueAttribute": null,
    "InitializationDefinition": null,
    "BaseValueScaleConstant": 1.0
  },
  "bDisablePhysicsDrop": false,
  "bAutoReadyItems": true,
  "bSupportsGameStageVariance": true,
  "bShopsHaveInfiniteQuantity": false,
  "bEligibleForUncommonWeightMultiplier": false,
  "Quantity": {
    "BaseValueConstant": 1.0,
    "BaseValueAttribute": null,
    "InitializationDefinition": null,
    "BaseValueScaleConstant": 1.0
  },
  "MinGameStageRequirement": null,
  "MaxGameStageRequirement": null,
  "BalancedItems": [
    {
      "ItmPoolDefinition":
        "GD_Itempools.WeaponPools.Pool_Weapons_Pistols_01_Common",
      "InvBalanceDefinition": null,
      "Probability": {
        "BaseValueConstant": 1.0,
        "BaseValueAttribute": null,
        "InitializationDefinition": "GD_Balance.Weighting.Weight_1_Common",
        "BaseValueScaleConstant": 1.0
      },
      "bDropOnDeath": false
    },
    {
      "ItmPoolDefinition":
        "GD_Itempools.WeaponPools.Pool_Weapons_Pistols_02_Uncommon",
      "InvBalanceDefinition": null,
      "Probability": {
        "BaseValueConstant": 1.0,
        "BaseValueAttribute": null,
        "InitializationDefinition": "GD_Balance.Weighting.Weight_2_Uncommon",
        "BaseValueScaleConstant": 1.0
      },
      "bDropOnDeath": false
    },
    {
      "ItmPoolDefinition":
        "GD_Itempools.WeaponPools.Pool_Weapons_Pistols_04_Rare",
      "InvBalanceDefinition": null,
      "Probability": {
        "BaseValueConstant": 1.0,
        "BaseValueAttribute": null,
        "InitializationDefinition": "GD_Balance.Weighting.Weight_4_Rare",
        "BaseValueScaleConstant": 1.0
      },
      "bDropOnDeath": false
    },
    {
      "ItmPoolDefinition":
        "GD_Itempools.WeaponPools.Pool_Weapons_Pistols_05_VeryRare",
      "InvBalanceDefinition": null,
      "Probability": {
        "BaseValueConstant": 1.0,
        "BaseValueAttribute": null,
        "InitializationDefinition": "GD_Balance.Weighting.Weight_5_VeryRare",
        "BaseValueScaleConstant": 1.0
      },
      "bDropOnDeath": false
    }
  ],
  "VfTableObject": "",
  "HashNext": "",
  "ObjectFlags": "",
  "HashOuterNext": "",
  "StateFrame": "",
  "Linker": null,
  "LinkerIndex": "",
  "ObjectInternalInteger": 200750,
  "NetIndex": 14,
  "Outer": "GD_ItempoolsEnemyUse.WeaponPools",
  "Name": "Pool_Weapons_Pistols_EnemyUse",
  "Class": "WillowGame.ItemPoolDefinition",
  "ObjectArchetype": "WillowGame.Default__ItemPoolDefinition"
}