{
  "CheatSpawnLevel": {
    "BaseValueConstant": 0.0,
    "BaseValueAttribute": null,
    "InitializationDefinition": null,
    "BaseValueScaleConstant": 1.0
  },
  "bDisablePhysicsDrop": false,
  "bAutoReadyItems": true,
  "bSupportsGameStageVariance": true,
  "bShopsHaveInfiniteQuantity": false,
  "bEligibleForUncommonWeightMultiplier": false,
  "Quantity": {
    "BaseValueConstant": 1.0,
    "BaseValueAttribute": null,
    "InitializationDefinition": null,
    "BaseValueScaleConstant": 1.0
  },
  "MinGameStageRequirement": null,
  "MaxGameStageRequirement": null,
  "BalancedItems": [
    {
      "ItmPoolDefinition": null,
      "InvBalanceDefinition":
        "GD_Weap_AssaultRifle.A_Weapons_Legendary.AR_Bandit_5_Madhouse",
      "Probability": {
        "BaseValueConstant": 0.0,
        "BaseValueAttribute": null,
        "InitializationDefinition": "GD_Balance.Weighting.Weight_1_Common",
        "BaseValueScaleConstant": 1.0
      },
      "bDropOnDeath": true
    },
    {
      "ItmPoolDefinition": null,
      "InvBalanceDefinition":
        "GD_Weap_AssaultRifle.A_Weapons_Legendary.AR_Dahl_5_Veruc",
      "Probability": {
        "BaseValueConstant": 0.0,
        "BaseValueAttribute": null,
        "InitializationDefinition": "GD_Balance.Weighting.Weight_1_Common",
        "BaseValueScaleConstant": 1.0
      },
      "bDropOnDeath": true
    },
    {
      "ItmPoolDefinition": null,
      "InvBalanceDefinition":
        "GD_Weap_AssaultRifle.A_Weapons_Unique.AR_Jakobs_3_Stomper",
      "Probability": {
        "BaseValueConstant": 0.0,
        "BaseValueAttribute": null,
        "InitializationDefinition": "GD_Balance.Weighting.Weight_1_Common",
        "BaseValueScaleConstant": 1.0
      },
      "bDropOnDeath": true
    },
    {
      "ItmPoolDefinition": null,
      "InvBalanceDefinition":
        "GD_Weap_AssaultRifle.A_Weapons_Legendary.AR_Torgue_5_KerBlaster",
      "Probability": {
        "BaseValueConstant": 0.0,
        "BaseValueAttribute": null,
        "InitializationDefinition": "GD_Balance.Weighting.Weight_1_Common",
        "BaseValueScaleConstant": 1.0
      },
      "bDropOnDeath": true
    },
    {
      "ItmPoolDefinition": null,
      "InvBalanceDefinition":
        "GD_Weap_AssaultRifle.A_Weapons_Legendary.AR_Vladof_5_Sherdifier",
      "Probability": {
        "BaseValueConstant": 0.0,
        "BaseValueAttribute": null,
        "InitializationDefinition": "GD_Balance.Weighting.Weight_1_Common",
        "BaseValueScaleConstant": 1.0
      },
      "bDropOnDeath": true
    }
  ],
  "VfTableObject": "",
  "HashNext": "",
  "ObjectFlags": "",
  "HashOuterNext": "",
  "StateFrame": "",
  "Linker": null,
  "LinkerIndex": "",
  "ObjectInternalInteger": 211788,
  "NetIndex": 75,
  "Outer": "GD_JohnMamaril.WeaponPools",
  "Name": "JohnMamarilAssaultUse",
  "Class": "WillowGame.ItemPoolDefinition",
  "ObjectArchetype": "WillowGame.Default__ItemPoolDefinition"
}