{
  "CheatSpawnLevel": {
    "BaseValueConstant": 0.0,
    "BaseValueAttribute": null,
    "InitializationDefinition": null,
    "BaseValueScaleConstant": 1.0
  },
  "bDisablePhysicsDrop": false,
  "bAutoReadyItems": true,
  "bSupportsGameStageVariance": true,
  "bShopsHaveInfiniteQuantity": false,
  "bEligibleForUncommonWeightMultiplier": false,
  "Quantity": {
    "BaseValueConstant": 1.0,
    "BaseValueAttribute": null,
    "InitializationDefinition": null,
    "BaseValueScaleConstant": 1.0
  },
  "MinGameStageRequirement": "GD_Lobelia_Itempools.Scheduling.GameStage_62",
  "MaxGameStageRequirement": null,
  "BalancedItems": [
    {
      "ItmPoolDefinition":
        "GD_Lobelia_Itempools.ClassModPools.Pool_ClassMod_Lobelia_Assassin",
      "InvBalanceDefinition": null,
      "Probability": {
        "BaseValueConstant": 0.0,
        "BaseValueAttribute": null,
        "InitializationDefinition":
          "Transient.AttributeInitializationDefinition_28",
        "BaseValueScaleConstant": 1.0
      },
      "bDropOnDeath": true
    },
    {
      "ItmPoolDefinition":
        "GD_Lobelia_Itempools.ClassModPools.Pool_ClassMod_Lobelia_Merc",
      "InvBalanceDefinition": null,
      "Probability": {
        "BaseValueConstant": 0.0,
        "BaseValueAttribute": null,
        "InitializationDefinition":
          "Transient.AttributeInitializationDefinition_29",
        "BaseValueScaleConstant": 1.0
      },
      "bDropOnDeath": true
    },
    {
      "ItmPoolDefinition":
        "GD_Lobelia_Itempools.ClassModPools.Pool_ClassMod_Lobelia_Siren",
      "InvBalanceDefinition": null,
      "Probability": {
        "BaseValueConstant": 0.0,
        "BaseValueAttribute": null,
        "InitializationDefinition":
          "Transient.AttributeInitializationDefinition_30",
        "BaseValueScaleConstant": 1.0
      },
      "bDropOnDeath": true
    },
    {
      "ItmPoolDefinition":
        "GD_Lobelia_Itempools.ClassModPools.Pool_ClassMod_Lobelia_Soldier",
      "InvBalanceDefinition": null,
      "Probability": {
        "BaseValueConstant": 0.0,
        "BaseValueAttribute": null,
        "InitializationDefinition":
          "Transient.AttributeInitializationDefinition_31",
        "BaseValueScaleConstant": 1.0
      },
      "bDropOnDeath": true
    },
    {
      "ItmPoolDefinition":
        "GD_Lobelia_Itempools.ClassModPools.Pool_ClassMod_Lobelia_Psycho",
      "InvBalanceDefinition": null,
      "Probability": {
        "BaseValueConstant": 0.0,
        "BaseValueAttribute": null,
        "InitializationDefinition":
          "Transient.AttributeInitializationDefinition_32",
        "BaseValueScaleConstant": 1.0
      },
      "bDropOnDeath": true
    },
    {
      "ItmPoolDefinition":
        "GD_Lobelia_Itempools.ClassModPools.Pool_ClassMod_Lobelia_Mechromancer",
      "InvBalanceDefinition": null,
      "Probability": {
        "BaseValueConstant": 0.0,
        "BaseValueAttribute": null,
        "InitializationDefinition":
          "Transient.AttributeInitializationDefinition_33",
        "BaseValueScaleConstant": 1.0
      },
      "bDropOnDeath": true
    }
  ],
  "VfTableObject": "",
  "HashNext": "",
  "ObjectFlags": "",
  "HashOuterNext": "",
  "StateFrame": "",
  "Linker": null,
  "LinkerIndex": "",
  "ObjectInternalInteger": 172480,
  "NetIndex": 7,
  "Outer": "GD_Lobelia_Itempools.ClassModPools",
  "Name": "Pool_ClassMod_Lobelia_All",
  "Class": "WillowGame.ItemPoolDefinition",
  "ObjectArchetype": "WillowGame.Default__ItemPoolDefinition"
}