{
  "CheatSpawnLevel": {
    "BaseValueConstant": 0.0,
    "BaseValueAttribute": null,
    "InitializationDefinition": null,
    "BaseValueScaleConstant": 1.0
  },
  "bDisablePhysicsDrop": false,
  "bAutoReadyItems": true,
  "bSupportsGameStageVariance": true,
  "bShopsHaveInfiniteQuantity": false,
  "bEligibleForUncommonWeightMultiplier": false,
  "Quantity": {
    "BaseValueConstant": 1.0,
    "BaseValueAttribute": null,
    "InitializationDefinition": null,
    "BaseValueScaleConstant": 1.0
  },
  "MinGameStageRequirement": null,
  "MaxGameStageRequirement": null,
  "BalancedItems": [
    {
      "ItmPoolDefinition": null,
      "InvBalanceDefinition":
        "GD_Orchid_BossWeapons.AssaultRifle.AR_Jakobs_3_Stinkpot",
      "Probability": {
        "BaseValueConstant": 1.0,
        "BaseValueAttribute": null,
        "InitializationDefinition": null,
        "BaseValueScaleConstant": 1.0
      },
      "bDropOnDeath": true
    },
    {
      "ItmPoolDefinition": null,
      "InvBalanceDefinition":
        "GD_Orchid_BossWeapons.AssaultRifle.AR_Vladof_3_Rapier",
      "Probability": {
        "BaseValueConstant": 1.0,
        "BaseValueAttribute": null,
        "InitializationDefinition": null,
        "BaseValueScaleConstant": 1.0
      },
      "bDropOnDeath": true
    },
    {
      "ItmPoolDefinition": null,
      "InvBalanceDefinition":
        "GD_Orchid_BossWeapons.Launcher.RL_Torgue_3_12Pounder",
      "Probability": {
        "BaseValueConstant": 1.0,
        "BaseValueAttribute": null,
        "InitializationDefinition": null,
        "BaseValueScaleConstant": 1.0
      },
      "bDropOnDeath": true
    },
    {
      "ItmPoolDefinition": null,
      "InvBalanceDefinition":
        "GD_Orchid_BossWeapons.Pistol.Pistol_Jakobs_ScarletsGreed",
      "Probability": {
        "BaseValueConstant": 1.0,
        "BaseValueAttribute": null,
        "InitializationDefinition": null,
        "BaseValueScaleConstant": 1.0
      },
      "bDropOnDeath": true
    },
    {
      "ItmPoolDefinition": null,
      "InvBalanceDefinition":
        "GD_Orchid_BossWeapons.Pistol.Pistol_Maliwan_3_LittleEvie",
      "Probability": {
        "BaseValueConstant": 1.0,
        "BaseValueAttribute": null,
        "InitializationDefinition": null,
        "BaseValueScaleConstant": 1.0
      },
      "bDropOnDeath": true
    },
    {
      "ItmPoolDefinition": null,
      "InvBalanceDefinition":
        "GD_Orchid_BossWeapons.Shotgun.SG_Bandit_3_JollyRoger",
      "Probability": {
        "BaseValueConstant": 1.0,
        "BaseValueAttribute": null,
        "InitializationDefinition": null,
        "BaseValueScaleConstant": 1.0
      },
      "bDropOnDeath": true
    },
    {
      "ItmPoolDefinition": null,
      "InvBalanceDefinition":
        "GD_Orchid_BossWeapons.Shotgun.SG_Jakobs_3_OrphanMaker",
      "Probability": {
        "BaseValueConstant": 1.0,
        "BaseValueAttribute": null,
        "InitializationDefinition": null,
        "BaseValueScaleConstant": 1.0
      },
      "bDropOnDeath": true
    },
    {
      "ItmPoolDefinition": null,
      "InvBalanceDefinition": "GD_Orchid_BossWeapons.SMG.SMG_Dahl_3_SandHawk",
      "Probability": {
        "BaseValueConstant": 1.0,
        "BaseValueAttribute": null,
        "InitializationDefinition": null,
        "BaseValueScaleConstant": 1.0
      },
      "bDropOnDeath": true
    },
    {
      "ItmPoolDefinition": null,
      "InvBalanceDefinition":
        "GD_Orchid_BossWeapons.SniperRifles.Sniper_Maliwan_3_Pimpernel",
      "Probability": {
        "BaseValueConstant": 1.0,
        "BaseValueAttribute": null,
        "InitializationDefinition": null,
        "BaseValueScaleConstant": 1.0
      },
      "bDropOnDeath": true
    },
    {
      "ItmPoolDefinition": null,
      "InvBalanceDefinition":
        "GD_Orchid_RaidWeapons.AssaultRifle.Seraphim.Orchid_Seraph_Seraphim_Balance",
      "Probability": {
        "BaseValueConstant": 1.0,
        "BaseValueAttribute": null,
        "InitializationDefinition": null,
        "BaseValueScaleConstant": 1.0
      },
      "bDropOnDeath": true
    },
    {
      "ItmPoolDefinition": null,
      "InvBalanceDefinition":
        "GD_Orchid_RaidWeapons.SMG.Tattler.Orchid_Seraph_Tattler_Balance",
      "Probability": {
        "BaseValueConstant": 1.0,
        "BaseValueAttribute": null,
        "InitializationDefinition": null,
        "BaseValueScaleConstant": 1.0
      },
      "bDropOnDeath": true
    },
    {
      "ItmPoolDefinition": null,
      "InvBalanceDefinition":
        "GD_Orchid_RaidWeapons.SMG.Actualizer.Orchid_Seraph_Actualizer_Balance",
      "Probability": {
        "BaseValueConstant": 1.0,
        "BaseValueAttribute": null,
        "InitializationDefinition": null,
        "BaseValueScaleConstant": 1.0
      },
      "bDropOnDeath": true
    },
    {
      "ItmPoolDefinition": null,
      "InvBalanceDefinition":
        "GD_Orchid_RaidWeapons.Pistol.Devastator.Orchid_Seraph_Devastator_Balance",
      "Probability": {
        "BaseValueConstant": 1.0,
        "BaseValueAttribute": null,
        "InitializationDefinition": null,
        "BaseValueScaleConstant": 1.0
      },
      "bDropOnDeath": true
    },
    {
      "ItmPoolDefinition": null,
      "InvBalanceDefinition":
        "GD_Orchid_RaidWeapons.Shotgun.Spitter.Orchid_Seraph_Spitter_Balance",
      "Probability": {
        "BaseValueConstant": 1.0,
        "BaseValueAttribute": null,
        "InitializationDefinition": null,
        "BaseValueScaleConstant": 1.0
      },
      "bDropOnDeath": true
    },
    {
      "ItmPoolDefinition": null,
      "InvBalanceDefinition":
        "GD_Orchid_RaidWeapons.sniper.Patriot.Orchid_Seraph_Patriot_Balance",
      "Probability": {
        "BaseValueConstant": 1.0,
        "BaseValueAttribute": null,
        "InitializationDefinition": null,
        "BaseValueScaleConstant": 1.0
      },
      "bDropOnDeath": true
    },
    {
      "ItmPoolDefinition": null,
      "InvBalanceDefinition":
        "GD_Orchid_RaidWeapons.RPG.Ahab.Orchid_Seraph_Ahab_Balance",
      "Probability": {
        "BaseValueConstant": 1.0,
        "BaseValueAttribute": null,
        "InitializationDefinition": null,
        "BaseValueScaleConstant": 1.0
      },
      "bDropOnDeath": true
    }
  ],
  "VfTableObject": "",
  "HashNext": "",
  "ObjectFlags": "",
  "HashOuterNext": "",
  "StateFrame": "",
  "Linker": null,
  "LinkerIndex": "",
  "ObjectInternalInteger": 176363,
  "NetIndex": 36,
  "Outer": "GD_Orchid_ItemPools.WeaponPools",
  "Name": "TestPool_Orchid_Weapons",
  "Class": "WillowGame.ItemPoolDefinition",
  "ObjectArchetype": "WillowGame.Default__ItemPoolDefinition"
}