{
  "CheatSpawnLevel": {
    "BaseValueConstant": 0.0,
    "BaseValueAttribute": null,
    "InitializationDefinition": null,
    "BaseValueScaleConstant": 1.0
  },
  "bDisablePhysicsDrop": false,
  "bAutoReadyItems": false,
  "bSupportsGameStageVariance": true,
  "bShopsHaveInfiniteQuantity": false,
  "bEligibleForUncommonWeightMultiplier": false,
  "Quantity": {
    "BaseValueConstant": 1.0,
    "BaseValueAttribute": null,
    "InitializationDefinition": null,
    "BaseValueScaleConstant": 1.0
  },
  "MinGameStageRequirement": null,
  "MaxGameStageRequirement": null,
  "BalancedItems": [
    {
      "ItmPoolDefinition": null,
      "InvBalanceDefinition":
        "GD_Sage_BuffDrinks.ShieldRegen.Balance.InvBalance_Sage_Buff_ShieldRegen02",
      "Probability": {
        "BaseValueConstant": 0.0,
        "BaseValueAttribute": null,
        "InitializationDefinition": "GD_Balance.Weighting.Weight_1_Common",
        "BaseValueScaleConstant": 1.0
      },
      "bDropOnDeath": true
    },
    {
      "ItmPoolDefinition": null,
      "InvBalanceDefinition":
        "GD_Sage_BuffDrinks.ShieldRegen.Balance.InvBalance_Sage_Buff_ShieldRegen03",
      "Probability": {
        "BaseValueConstant": 0.0,
        "BaseValueAttribute": null,
        "InitializationDefinition": "GD_Balance.Weighting.Weight_2_Uncommon",
        "BaseValueScaleConstant": 1.0
      },
      "bDropOnDeath": true
    },
    {
      "ItmPoolDefinition": null,
      "InvBalanceDefinition":
        "GD_Sage_BuffDrinks.ShieldRegen.Balance.InvBalance_Sage_Buff_ShieldRegen04",
      "Probability": {
        "BaseValueConstant": 0.0,
        "BaseValueAttribute": null,
        "InitializationDefinition": "GD_Balance.Weighting.Weight_4_Rare",
        "BaseValueScaleConstant": 1.0
      },
      "bDropOnDeath": true
    }
  ],
  "VfTableObject": "",
  "HashNext": "",
  "ObjectFlags": "",
  "HashOuterNext": "",
  "StateFrame": "",
  "Linker": null,
  "LinkerIndex": "",
  "ObjectInternalInteger": 201406,
  "NetIndex": 54,
  "Outer": "GD_Sage_Buff_ItemPools.ShieldRegen",
  "Name": "Pool_Sage_Buff_ShieldRegen_All",
  "Class": "WillowGame.ItemPoolDefinition",
  "ObjectArchetype": "WillowGame.Default__ItemPoolDefinition"
}