{
  "CollectionName": null,
  "VfTableObject": "",
  "HashNext": "",
  "ObjectFlags": "",
  "HashOuterNext": "",
  "StateFrame": "",
  "Linker": null,
  "LinkerIndex": "",
  "ObjectInternalInteger": 3137,
  "NetIndex": 992,
  "Outer": "Package'GearboxFramework'",
  "Name": "Default__AwarenessZoneCollectionDefinition",
  "Class": "GearboxFramework.AwarenessZoneCollectionDefinition",
  "ObjectArchetype": "Engine.Default__GBXDefinition"
}