{
  "LootData": [
    {
      "ConfigurationName": "StorageLocker_Cash",
      "LootGameStageVarianceFormula": null,
      "Weight": {
        "BaseValueConstant": 0.0,
        "BaseValueAttribute": null,
        "InitializationDefinition":
          "GD_Balance.Weighting.Weight_0_VeryCommon",
        "BaseValueScaleConstant": 1.0
      },
      "ItemAttachments": [
        {
          "ItemPool":
            "GD_Aster_ItemPools.ClassModPools.Pool_ClassMod_00_Aster",
          "PoolProbability": {
            "BaseValueConstant": 1.0,
            "BaseValueAttribute": null,
            "InitializationDefinition": null,
            "BaseValueScaleConstant": 1.0
          },
          "AttachmentPointName": null
        }
      ]
    }
  ],
  "VfTableObject": "",
  "HashNext": "",
  "ObjectFlags": "",
  "HashOuterNext": "",
  "StateFrame": "",
  "Linker": null,
  "LinkerIndex": "",
  "ObjectInternalInteger": 165312,
  "NetIndex": 2,
  "Outer": "GD_Aster_ItemPools.ListDefs",
  "Name": "Aster_ClassMod",
  "Class": "WillowGame.InteractiveObjectLootListDefinition",
  "ObjectArchetype":
    "WillowGame.Default__InteractiveObjectLootListDefinition"
}