{
  "LootData": [
    {
      "ConfigurationName": "TreasureChest_2guns",
      "LootGameStageVarianceFormula": null,
      "Weight": {
        "BaseValueConstant": 0.0,
        "BaseValueAttribute": null,
        "InitializationDefinition":
          "GD_Balance.Weighting.Weight_0_VeryCommon",
        "BaseValueScaleConstant": 1.5
      },
      "ItemAttachments": [
        {
          "ItemPool":
            "GD_Itempools.Treasure_ChestPools.Pool_EpicChestGolden_Weapons_LongGuns",
          "PoolProbability": {
            "BaseValueConstant": 1.0,
            "BaseValueAttribute": null,
            "InitializationDefinition": null,
            "BaseValueScaleConstant": 1.0
          },
          "AttachmentPointName": "Gun1"
        },
        {
          "ItemPool":
            "GD_Itempools.Treasure_ChestPools.Pool_EpicChestGolden_Weapons_LongGuns",
          "PoolProbability": {
            "BaseValueConstant": 1.0,
            "BaseValueAttribute": null,
            "InitializationDefinition": null,
            "BaseValueScaleConstant": 1.0
          },
          "AttachmentPointName": "Gun2"
        }
      ]
    },
    {
      "ConfigurationName": "TreasureChest_4Pistols",
      "LootGameStageVarianceFormula": null,
      "Weight": {
        "BaseValueConstant": 0.0,
        "BaseValueAttribute": null,
        "InitializationDefinition": "GD_Balance.Weighting.Weight_1_Common",
        "BaseValueScaleConstant": 1.5
      },
      "ItemAttachments": [
        {
          "ItemPool":
            "GD_Itempools.WeaponPools.Pool_Weapons_Pistols_05_VeryRare",
          "PoolProbability": {
            "BaseValueConstant": 1.0,
            "BaseValueAttribute": null,
            "InitializationDefinition": null,
            "BaseValueScaleConstant": 1.0
          },
          "AttachmentPointName": "Pistol2"
        },
        {
          "ItemPool":
            "GD_Itempools.WeaponPools.Pool_Weapons_Pistols_05_VeryRare",
          "PoolProbability": {
            "BaseValueConstant": 1.0,
            "BaseValueAttribute": null,
            "InitializationDefinition": null,
            "BaseValueScaleConstant": 1.0
          },
          "AttachmentPointName": "Pistol3"
        }
      ]
    },
    {
      "ConfigurationName": "TreasureChest_Launcher",
      "LootGameStageVarianceFormula": null,
      "Weight": {
        "BaseValueConstant": 0.0,
        "BaseValueAttribute": null,
        "InitializationDefinition": "GD_Balance.Weighting.Weight_1_Common",
        "BaseValueScaleConstant": 0.9
      },
      "ItemAttachments": [
        {
          "ItemPool":
            "GD_Itempools.WeaponPools.Pool_Weapons_Launchers_05_VeryRare",
          "PoolProbability": {
            "BaseValueConstant": 1.0,
            "BaseValueAttribute": null,
            "InitializationDefinition": null,
            "BaseValueScaleConstant": 1.0
          },
          "AttachmentPointName": "Launcher1"
        }
      ]
    },
    {
      "ConfigurationName": "TreasureChest_Shields",
      "LootGameStageVarianceFormula": null,
      "Weight": {
        "BaseValueConstant": 0.0,
        "BaseValueAttribute": null,
        "InitializationDefinition": "GD_Balance.Weighting.Weight_1_Common",
        "BaseValueScaleConstant": 0.8
      },
      "ItemAttachments": [
        {
          "ItemPool": "GD_Itempools.ShieldPools.Pool_Shields_All_05_VeryRare",
          "PoolProbability": {
            "BaseValueConstant": 1.0,
            "BaseValueAttribute": null,
            "InitializationDefinition": null,
            "BaseValueScaleConstant": 1.0
          },
          "AttachmentPointName": "Item2"
        },
        {
          "ItemPool": "GD_Itempools.ShieldPools.Pool_Shields_All_05_VeryRare",
          "PoolProbability": {
            "BaseValueConstant": 1.0,
            "BaseValueAttribute": null,
            "InitializationDefinition": null,
            "BaseValueScaleConstant": 1.0
          },
          "AttachmentPointName": "Item3"
        }
      ]
    },
    {
      "ConfigurationName": "TreasureChest_GrenadeMods",
      "LootGameStageVarianceFormula": null,
      "Weight": {
        "BaseValueConstant": 0.0,
        "BaseValueAttribute": null,
        "InitializationDefinition": "GD_Balance.Weighting.Weight_1_Common",
        "BaseValueScaleConstant": 0.8
      },
      "ItemAttachments": [
        {
          "ItemPool":
            "GD_Itempools.GrenadeModPools.Pool_GrenadeMods_05_VeryRare",
          "PoolProbability": {
            "BaseValueConstant": 1.0,
            "BaseValueAttribute": null,
            "InitializationDefinition": null,
            "BaseValueScaleConstant": 1.0
          },
          "AttachmentPointName": "GrenadeMod2"
        },
        {
          "ItemPool":
            "GD_Itempools.GrenadeModPools.Pool_GrenadeMods_05_VeryRare",
          "PoolProbability": {
            "BaseValueConstant": 1.0,
            "BaseValueAttribute": null,
            "InitializationDefinition": null,
            "BaseValueScaleConstant": 1.0
          },
          "AttachmentPointName": "GrenadeMod3"
        }
      ]
    },
    {
      "ConfigurationName": "TreasureChest_ClassMods",
      "LootGameStageVarianceFormula": null,
      "Weight": {
        "BaseValueConstant": 0.0,
        "BaseValueAttribute": null,
        "InitializationDefinition": "GD_Balance.Weighting.Weight_1_Common",
        "BaseValueScaleConstant": 0.8
      },
      "ItemAttachments": [
        {
          "ItemPool": "GD_Itempools.ClassModPools.Pool_ClassMod_05_VeryRare",
          "PoolProbability": {
            "BaseValueConstant": 1.0,
            "BaseValueAttribute": null,
            "InitializationDefinition": null,
            "BaseValueScaleConstant": 1.0
          },
          "AttachmentPointName": "ClassMod2"
        },
        {
          "ItemPool": "GD_Itempools.ClassModPools.Pool_ClassMod_05_VeryRare",
          "PoolProbability": {
            "BaseValueConstant": 1.0,
            "BaseValueAttribute": null,
            "InitializationDefinition": null,
            "BaseValueScaleConstant": 1.0
          },
          "AttachmentPointName": "ClassMod3"
        }
      ]
    },
    {
      "ConfigurationName": "TreasureChest_Artifacts",
      "LootGameStageVarianceFormula": null,
      "Weight": {
        "BaseValueConstant": 0.0,
        "BaseValueAttribute": null,
        "InitializationDefinition": "GD_Balance.Weighting.Weight_1_Common",
        "BaseValueScaleConstant": 0.5
      },
      "ItemAttachments": [
        {
          "ItemPool": "GD_Itempools.ArtifactPools.Pool_Artifacts_04_VeryRare",
          "PoolProbability": {
            "BaseValueConstant": 1.0,
            "BaseValueAttribute": null,
            "InitializationDefinition": null,
            "BaseValueScaleConstant": 1.0
          },
          "AttachmentPointName": "Artifact1"
        },
        {
          "ItemPool": "GD_Itempools.ArtifactPools.Pool_Artifacts_04_VeryRare",
          "PoolProbability": {
            "BaseValueConstant": 1.0,
            "BaseValueAttribute": null,
            "InitializationDefinition": null,
            "BaseValueScaleConstant": 1.0
          },
          "AttachmentPointName": "Artifact2"
        }
      ]
    }
  ],
  "VfTableObject": "",
  "HashNext": "",
  "ObjectFlags": "",
  "HashOuterNext": "",
  "StateFrame": "",
  "Linker": null,
  "LinkerIndex": "",
  "ObjectInternalInteger": 129410,
  "NetIndex": 122,
  "Outer": "GD_Itempools.ListDefs",
  "Name": "EpicChestGoldenLoot",
  "Class": "WillowGame.InteractiveObjectLootListDefinition",
  "ObjectArchetype":
    "WillowGame.Default__InteractiveObjectLootListDefinition"
}