{
  "InputSets": [ "GD_Input.Sets.InputSet_AlwaysAvailable" ],
  "InputActions": [
    "GD_Siren.InputActions.InputAction_SirenDetonate",
    "GD_Siren.InputActions.InputAction_SirenSphere"
  ],
  "VfTableObject": "",
  "HashNext": "",
  "ObjectFlags": "",
  "HashOuterNext": "",
  "StateFrame": "",
  "Linker": null,
  "LinkerIndex": "",
  "ObjectInternalInteger": 129356,
  "NetIndex": 7,
  "Outer": "GD_Siren.InputContexts",
  "Name": "InputContext_SirenOnFoot",
  "Class": "WillowGame.InputContextDefinition",
  "ObjectArchetype": "WillowGame.Default__InputContextDefinition"
}