{
  "CameraSetting": "EVC_FollowsSteering",
  "SteeringSetting": "EVS_VehicleRelative",
  "VfTableObject": "",
  "HashNext": "",
  "ObjectFlags": "",
  "HashOuterNext": "",
  "StateFrame": "",
  "Linker": null,
  "LinkerIndex": "",
  "ObjectInternalInteger": 135924,
  "NetIndex": 53,
  "Outer": "GD_Globals.VehicleControls",
  "Name": "HalfLife2Scheme",
  "Class": "WillowGame.WillowVehicleControlDefinition",
  "ObjectArchetype": "WillowGame.Default__WillowVehicleControlDefinition"
}