{
  "Parent": null,
  "VfTable_FExec": "",
  "Actor": null,
  "CurrentNetSpeed": 0,
  "ConfiguredInternetSpeed": 10000,
  "ConfiguredLanSpeed": 20000,
  "PP_DesaturationMultiplier": 1.0,
  "PP_HighlightsMultiplier": 1.0,
  "PP_MidTonesMultiplier": 1.0,
  "PP_ShadowsMultiplier": 1.0,
  "VfTableObject": "",
  "HashNext": "",
  "ObjectFlags": "",
  "HashOuterNext": "",
  "StateFrame": "",
  "Linker": null,
  "LinkerIndex": "",
  "ObjectInternalInteger": 755,
  "NetIndex": -1,
  "Outer": "Package'Engine'",
  "Name": "Default__ChildConnection",
  "Class": "Engine.ChildConnection",
  "ObjectArchetype": "Engine.Default__NetConnection"
}