{
  "ValueName": null,
  "BaseValue": {
    "BaseValueConstant": 0.0,
    "BaseValueAttribute": null,
    "InitializationDefinition": null,
    "BaseValueScaleConstant": 1.0
  },
  "VfTableObject": "",
  "HashNext": "",
  "ObjectFlags": "",
  "HashOuterNext": "",
  "StateFrame": "",
  "Linker": null,
  "LinkerIndex": "",
  "ObjectInternalInteger": 155492,
  "NetIndex": 724,
  "Outer": "GD_Assassin_Skills.Misc.Att_CriticalAscention_DmgPerStack",
  "Name": "DesignerAttributeContextResolver_0",
  "Class": "WillowGame.DesignerAttributeContextResolver",
  "ObjectArchetype": "WillowGame.Default__DesignerAttributeContextResolver"
}