{
  "ValueName": null,
  "BaseValue": {
    "BaseValueConstant": 0.0,
    "BaseValueAttribute": null,
    "InitializationDefinition": null,
    "BaseValueScaleConstant": 1.0
  },
  "VfTableObject": "",
  "HashNext": "",
  "ObjectFlags": "",
  "HashOuterNext": "",
  "StateFrame": "",
  "Linker": null,
  "LinkerIndex": "",
  "ObjectInternalInteger": 159334,
  "NetIndex": 660,
  "Outer":
    "GD_Balance_Shopping.Misc.Att_AmmoStorageDeckUpgradesShouldBeStocked",
  "Name": "DesignerAttributeContextResolver_1",
  "Class": "WillowGame.DesignerAttributeContextResolver",
  "ObjectArchetype": "WillowGame.Default__DesignerAttributeContextResolver"
}