{
  "ValueName": null,
  "BaseValue": {
    "BaseValueConstant": 0.0,
    "BaseValueAttribute": null,
    "InitializationDefinition": null,
    "BaseValueScaleConstant": 1.0
  },
  "VfTableObject": "",
  "HashNext": "",
  "ObjectFlags": "",
  "HashOuterNext": "",
  "StateFrame": "",
  "Linker": null,
  "LinkerIndex": "",
  "ObjectInternalInteger": 220006,
  "NetIndex": 431,
  "Outer":
    "GD_Lilac_Skills_Bloodlust.Attributes.Att_BloodBath_PerBloodlustStackDamageBonus",
  "Name": "DesignerAttributeContextResolver_0",
  "Class": "WillowGame.DesignerAttributeContextResolver",
  "ObjectArchetype": "WillowGame.Default__DesignerAttributeContextResolver"
}