{
  "ValueName": null,
  "BaseValue": {
    "BaseValueConstant": 0.0,
    "BaseValueAttribute": null,
    "InitializationDefinition": null,
    "BaseValueScaleConstant": 1.0
  },
  "VfTableObject": "",
  "HashNext": "",
  "ObjectFlags": "",
  "HashOuterNext": "",
  "StateFrame": "",
  "Linker": null,
  "LinkerIndex": "",
  "ObjectInternalInteger": 189011,
  "NetIndex": 233,
  "Outer": "GD_Soldier_Skills.Misc.Att_Pressure_ReloadSpdPerLvl",
  "Name": "DesignerAttributeContextResolver_0",
  "Class": "WillowGame.DesignerAttributeContextResolver",
  "ObjectArchetype": "WillowGame.Default__DesignerAttributeContextResolver"
}