{
  "ValueName": null,
  "BaseValue": {
    "BaseValueConstant": 0.0,
    "BaseValueAttribute": null,
    "InitializationDefinition": null,
    "BaseValueScaleConstant": 1.0
  },
  "VfTableObject": "",
  "HashNext": "",
  "ObjectFlags": "",
  "HashOuterNext": "",
  "StateFrame": "",
  "Linker": null,
  "LinkerIndex": "",
  "ObjectInternalInteger": 123582,
  "NetIndex": 1841,
  "Outer": "GD_Shields.Misc.Att_BoosterShield_ProcChance",
  "Name": "DesignerAttributeContextResolver_0",
  "Class": "WillowGame.DesignerAttributeContextResolver",
  "ObjectArchetype": "WillowGame.Default__DesignerAttributeContextResolver"
}