{
  "RootMotionMode": "RMM_Translate",
  "RootRotationMode": "RMRM_RotateActor",
  "RootRotationOption": [ "RRO_Default", "RRO_Default", "RRO_Extract" ],
  "RootBoneOption": [ "RBA_Translate", "RBA_Translate", "RBA_Translate" ],
  "VfTableObject": "",
  "HashNext": "",
  "ObjectFlags": "",
  "HashOuterNext": "",
  "StateFrame": "",
  "Linker": null,
  "LinkerIndex": "",
  "ObjectInternalInteger": 215684,
  "NetIndex": 8,
  "Outer": "Package'GD_RootMotion'",
  "Name": "RootMotion_FlyYawOnly",
  "Class": "GearboxFramework.RootMotionDefinition",
  "ObjectArchetype": "GearboxFramework.Default__RootMotionDefinition"
}