{
  "RootMotionMode": "RMM_TranslateWithGravity",
  "RootRotationMode": "RMRM_RotateActor",
  "RootRotationOption": [ "RRO_Default", "RRO_Default", "RRO_Extract" ],
  "RootBoneOption": [ "RBA_Translate", "RBA_Translate", "RBA_Default" ],
  "VfTableObject": "",
  "HashNext": "",
  "ObjectFlags": "",
  "HashOuterNext": "",
  "StateFrame": "",
  "Linker": null,
  "LinkerIndex": "",
  "ObjectInternalInteger": 82107,
  "NetIndex": 10,
  "Outer": "Package'GD_RootMotion'",
  "Name": "RootMotion_MoveAndTurnOnGround",
  "Class": "GearboxFramework.RootMotionDefinition",
  "ObjectArchetype": "GearboxFramework.Default__RootMotionDefinition"
}