{
  "bIsSimpleAttribute": false,
  "AttributeDataType": "ADT_Float",
  "ValueResolverChain": [
    "D_Attributes.DamageEnhancementModifiers.PlayerConvertDamageToHealingPercent:ObjectPropertyAttributeValueResolver_20"
  ],
  "ContextResolverChain": [
    "D_Attributes.DamageEnhancementModifiers.PlayerConvertDamageToHealingPercent:PlayerControllerAttributeContextResolver_0"
  ],
  "VfTableObject": "",
  "HashNext": "",
  "ObjectFlags": "",
  "HashOuterNext": "",
  "StateFrame": "",
  "Linker": null,
  "LinkerIndex": "",
  "ObjectInternalInteger": 107364,
  "NetIndex": 129,
  "Outer": "D_Attributes.DamageEnhancementModifiers",
  "Name": "PlayerConvertDamageToHealingPercent",
  "Class": "Engine.AttributeDefinition",
  "ObjectArchetype": "Engine.Default__AttributeDefinition"
}