{
  "bIsSimpleAttribute": false,
  "AttributeDataType": "ADT_Float",
  "ValueResolverChain": [
    "D_Attributes.DamageTypeModifers.IncendiaryImpactDamageModifier:ObjectPropertyAttributeValueResolver_558"
  ],
  "ContextResolverChain": [
    "D_Attributes.DamageTypeModifers.IncendiaryImpactDamageModifier:PawnAttributeContextResolver_0"
  ],
  "VfTableObject": "",
  "HashNext": "",
  "ObjectFlags": "",
  "HashOuterNext": "",
  "StateFrame": "",
  "Linker": null,
  "LinkerIndex": "",
  "ObjectInternalInteger": 107115,
  "NetIndex": 170,
  "Outer": "D_Attributes.DamageTypeModifers",
  "Name": "IncendiaryImpactDamageModifier",
  "Class": "Engine.AttributeDefinition",
  "ObjectArchetype": "Engine.Default__AttributeDefinition"
}