{
  "bIsSimpleAttribute": false,
  "AttributeDataType": "ADT_Int",
  "ValueResolverChain": [
    "D_Attributes.Weapon.EnableWeaponFireSkillEvent:ObjectPropertyAttributeValueResolver_599"
  ],
  "ContextResolverChain": [
    "D_Attributes.Weapon.EnableWeaponFireSkillEvent:PawnAttributeContextResolver_0"
  ],
  "VfTableObject": "",
  "HashNext": "",
  "ObjectFlags": "",
  "HashOuterNext": "",
  "StateFrame": "",
  "Linker": null,
  "LinkerIndex": "",
  "ObjectInternalInteger": 107688,
  "NetIndex": 428,
  "Outer": "D_Attributes.Weapon",
  "Name": "EnableWeaponFireSkillEvent",
  "Class": "Engine.AttributeDefinition",
  "ObjectArchetype": "Engine.Default__AttributeDefinition"
}