{
  "bIsSimpleAttribute": false,
  "AttributeDataType": "ADT_Float",
  "ValueResolverChain": [
    "D_Attributes.StatusEffectModifiers.ShockChanceResistanceModifier:ObjectPropertyAttributeValueResolver_20"
  ],
  "ContextResolverChain": [
    "D_Attributes.StatusEffectModifiers.ShockChanceResistanceModifier:StatusEffectChanceModifierResolver_0"
  ],
  "VfTableObject": "",
  "HashNext": "",
  "ObjectFlags": "",
  "HashOuterNext": "",
  "StateFrame": "",
  "Linker": null,
  "LinkerIndex": "",
  "ObjectInternalInteger": 107674,
  "NetIndex": 416,
  "Outer": "D_Attributes.StatusEffectModifiers",
  "Name": "ShockChanceResistanceModifier",
  "Class": "Engine.AttributeDefinition",
  "ObjectArchetype": "Engine.Default__AttributeDefinition"
}