{
  "bIsSimpleAttribute": false,
  "AttributeDataType": "ADT_Float",
  "ValueResolverChain": [
    "D_Attributes.GrenadeMod.GrenadeModCombinedStatusEffectChanceModifier:SimpleMathValueResolver_0"
  ],
  "ContextResolverChain": [
    "D_Attributes.GrenadeMod.GrenadeModCombinedStatusEffectChanceModifier:EquippedInventoryAttributeContextResolver_1"
  ],
  "VfTableObject": "",
  "HashNext": "",
  "ObjectFlags": "",
  "HashOuterNext": "",
  "StateFrame": "",
  "Linker": null,
  "LinkerIndex": "",
  "ObjectInternalInteger": 107482,
  "NetIndex": 250,
  "Outer": "D_Attributes.GrenadeMod",
  "Name": "GrenadeModCombinedStatusEffectChanceModifier",
  "Class": "Engine.AttributeDefinition",
  "ObjectArchetype": "Engine.Default__AttributeDefinition"
}