{
  "bIsSimpleAttribute": true,
  "AttributeDataType": "ADT_Float",
  "ValueResolverChain": [
    "D_Attributes.Projectile.ProjectileStatusEffectDamage:ObjectPropertyAttributeValueResolver_589"
  ],
  "ContextResolverChain": [
    "D_Attributes.Projectile.ProjectileStatusEffectDamage:ProjectileAttributeContextResolver_0"
  ],
  "VfTableObject": "",
  "HashNext": "",
  "ObjectFlags": "",
  "HashOuterNext": "",
  "StateFrame": "",
  "Linker": null,
  "LinkerIndex": "",
  "ObjectInternalInteger": 107604,
  "NetIndex": 355,
  "Outer": "D_Attributes.Projectile",
  "Name": "ProjectileStatusEffectDamage",
  "Class": "Engine.AttributeDefinition",
  "ObjectArchetype": "Engine.Default__AttributeDefinition"
}