{
  "bIsSimpleAttribute": true,
  "AttributeDataType": "ADT_Float",
  "ValueResolverChain": [
    "D_Attributes.WeaponType.Weapon_Is_RocketLauncher:WeaponTypeAttributeValueResolver_0"
  ],
  "ContextResolverChain": [
    "D_Attributes.WeaponType.Weapon_Is_RocketLauncher:WeaponAttributeContextResolver_1"
  ],
  "VfTableObject": "",
  "HashNext": "",
  "ObjectFlags": "",
  "HashOuterNext": "",
  "StateFrame": "",
  "Linker": null,
  "LinkerIndex": "",
  "ObjectInternalInteger": 107013,
  "NetIndex": 550,
  "Outer": "D_Attributes.WeaponType",
  "Name": "Weapon_Is_RocketLauncher",
  "Class": "Engine.AttributeDefinition",
  "ObjectArchetype": "Engine.Default__AttributeDefinition"
}