{
  "bIsSimpleAttribute": false,
  "AttributeDataType": "ADT_Float",
  "ValueResolverChain": [
    "D_Attributes.GrenadeMod.GrenadeModStatusEffectDamage:ObjectPropertyAttributeValueResolver_23"
  ],
  "ContextResolverChain": [
    "D_Attributes.GrenadeMod.GrenadeModStatusEffectDamage:EquippedInventoryAttributeContextResolver_3"
  ],
  "VfTableObject": "",
  "HashNext": "",
  "ObjectFlags": "",
  "HashOuterNext": "",
  "StateFrame": "",
  "Linker": null,
  "LinkerIndex": "",
  "ObjectInternalInteger": 107509,
  "NetIndex": 259,
  "Outer": "D_Attributes.GrenadeMod",
  "Name": "GrenadeModStatusEffectDamage",
  "Class": "Engine.AttributeDefinition",
  "ObjectArchetype": "Engine.Default__AttributeDefinition"
}