{
  "bIsSimpleAttribute": false,
  "AttributeDataType": "ADT_Float",
  "ValueResolverChain": [
    "D_Attributes.Artifacts.ArtifactModsMaliwan:ConstantAttributeValueResolver_0"
  ],
  "ContextResolverChain": [
    "D_Attributes.Artifacts.ArtifactModsMaliwan:NoContextNeededAttributeContextResolver_20"
  ],
  "VfTableObject": "",
  "HashNext": "",
  "ObjectFlags": "",
  "HashOuterNext": "",
  "StateFrame": "",
  "Linker": null,
  "LinkerIndex": "",
  "ObjectInternalInteger": 107073,
  "NetIndex": 91,
  "Outer": "D_Attributes.Artifacts",
  "Name": "ArtifactModsMaliwan",
  "Class": "Engine.AttributeDefinition",
  "ObjectArchetype": "Engine.Default__AttributeDefinition"
}