{
  "bIsSimpleAttribute": true,
  "AttributeDataType": "ADT_Float",
  "ValueResolverChain": [
    "D_Attributes.Movement.AccelerationDotProduct:ObjectPropertyAttributeValueResolver_20"
  ],
  "ContextResolverChain": [
    "D_Attributes.Movement.AccelerationDotProduct:PawnAttributeContextResolver_0"
  ],
  "VfTableObject": "",
  "HashNext": "",
  "ObjectFlags": "",
  "HashOuterNext": "",
  "StateFrame": "",
  "Linker": null,
  "LinkerIndex": "",
  "ObjectInternalInteger": 193256,
  "NetIndex": 314,
  "Outer": "D_Attributes.Movement",
  "Name": "AccelerationDotProduct",
  "Class": "Engine.AttributeDefinition",
  "ObjectArchetype": "Engine.Default__AttributeDefinition"
}