{
  "bIsSimpleAttribute": true,
  "AttributeDataType": "ADT_Float",
  "ValueResolverChain": [
    "D_Attributes.Inventory.ArtifactItemLevel:ObjectPropertyAttributeValueResolver_587"
  ],
  "ContextResolverChain": [
    "D_Attributes.Inventory.ArtifactItemLevel:InventoryAttributeContextResolver_1"
  ],
  "VfTableObject": "",
  "HashNext": "",
  "ObjectFlags": "",
  "HashOuterNext": "",
  "StateFrame": "",
  "Linker": null,
  "LinkerIndex": "",
  "ObjectInternalInteger": 107530,
  "NetIndex": 284,
  "Outer": "D_Attributes.Inventory",
  "Name": "ArtifactItemLevel",
  "Class": "Engine.AttributeDefinition",
  "ObjectArchetype": "Engine.Default__AttributeDefinition"
}