{
  "bIsSimpleAttribute": false,
  "AttributeDataType": "ADT_Float",
  "ValueResolverChain": [
    "D_Attributes.SkillAttributes.CanThrowGrenadesWhileInDownState:ObjectPropertyAttributeValueResolver_591"
  ],
  "ContextResolverChain": [
    "D_Attributes.SkillAttributes.CanThrowGrenadesWhileInDownState:PlayerControllerAttributeContextResolver_0"
  ],
  "VfTableObject": "",
  "HashNext": "",
  "ObjectFlags": "",
  "HashOuterNext": "",
  "StateFrame": "",
  "Linker": null,
  "LinkerIndex": "",
  "ObjectInternalInteger": 215643,
  "NetIndex": 387,
  "Outer": "D_Attributes.SkillAttributes",
  "Name": "CanThrowGrenadesWhileInDownState",
  "Class": "Engine.AttributeDefinition",
  "ObjectArchetype": "Engine.Default__AttributeDefinition"
}