{
  "bIsSimpleAttribute": true,
  "AttributeDataType": "ADT_Float",
  "ValueResolverChain": [
    "D_Attributes.ShieldResourcePool.ShieldCurrentPercentOfMaxValue:SimpleMathValueResolver_1"
  ],
  "ContextResolverChain": [
    "D_Attributes.ShieldResourcePool.ShieldCurrentPercentOfMaxValue:ControllerAttributeContextResolver_1"
  ],
  "VfTableObject": "",
  "HashNext": "",
  "ObjectFlags": "",
  "HashOuterNext": "",
  "StateFrame": "",
  "Linker": null,
  "LinkerIndex": "",
  "ObjectInternalInteger": 206652,
  "NetIndex": 382,
  "Outer": "D_Attributes.ShieldResourcePool",
  "Name": "ShieldCurrentPercentOfMaxValue",
  "Class": "Engine.AttributeDefinition",
  "ObjectArchetype": "Engine.Default__AttributeDefinition"
}