{
  "bIsSimpleAttribute": true,
  "AttributeDataType": "ADT_Float",
  "ValueResolverChain": [
    "D_Attributes.WeaponType.OffhandWeapon_Is_Assault_Rifle:WeaponTypeAttributeValueResolver_0"
  ],
  "ContextResolverChain": [
    "D_Attributes.WeaponType.OffhandWeapon_Is_Assault_Rifle:OffHandWeaponAttributeContextResolver_0"
  ],
  "VfTableObject": "",
  "HashNext": "",
  "ObjectFlags": "",
  "HashOuterNext": "",
  "StateFrame": "",
  "Linker": null,
  "LinkerIndex": "",
  "ObjectInternalInteger": 107010,
  "NetIndex": 540,
  "Outer": "D_Attributes.WeaponType",
  "Name": "OffhandWeapon_Is_Assault_Rifle",
  "Class": "Engine.AttributeDefinition",
  "ObjectArchetype": "Engine.Default__AttributeDefinition"
}