{
  "bIsSimpleAttribute": false,
  "AttributeDataType": "ADT_Float",
  "ValueResolverChain": [
    "D_Attributes.Artifacts.ArtifactModsBandit:ConstantAttributeValueResolver_0"
  ],
  "ContextResolverChain": [
    "D_Attributes.Artifacts.ArtifactModsBandit:NoContextNeededAttributeContextResolver_20"
  ],
  "VfTableObject": "",
  "HashNext": "",
  "ObjectFlags": "",
  "HashOuterNext": "",
  "StateFrame": "",
  "Linker": null,
  "LinkerIndex": "",
  "ObjectInternalInteger": 107036,
  "NetIndex": 86,
  "Outer": "D_Attributes.Artifacts",
  "Name": "ArtifactModsBandit",
  "Class": "Engine.AttributeDefinition",
  "ObjectArchetype": "Engine.Default__AttributeDefinition"
}