{
  "bIsSimpleAttribute": false,
  "AttributeDataType": "ADT_Float",
  "ValueResolverChain": [
    "D_Attributes.GameplayAttributes.JumpHeight:ObjectPropertyAttributeValueResolver_577"
  ],
  "ContextResolverChain": [
    "D_Attributes.GameplayAttributes.JumpHeight:PawnAttributeContextResolver_0"
  ],
  "VfTableObject": "",
  "HashNext": "",
  "ObjectFlags": "",
  "HashOuterNext": "",
  "StateFrame": "",
  "Linker": null,
  "LinkerIndex": "",
  "ObjectInternalInteger": 195787,
  "NetIndex": 232,
  "Outer": "D_Attributes.GameplayAttributes",
  "Name": "JumpHeight",
  "Class": "Engine.AttributeDefinition",
  "ObjectArchetype": "Engine.Default__AttributeDefinition"
}