{
  "bIsSimpleAttribute": true,
  "AttributeDataType": "ADT_Float",
  "ValueResolverChain": [
    "D_Attributes.WeaponManufacturer.OffhandWeapon_Is_Vladof:ManufacturerAttributeValueResolver_0"
  ],
  "ContextResolverChain": [
    "D_Attributes.WeaponManufacturer.OffhandWeapon_Is_Vladof:OffHandWeaponAttributeContextResolver_0"
  ],
  "VfTableObject": "",
  "HashNext": "",
  "ObjectFlags": "",
  "HashOuterNext": "",
  "StateFrame": "",
  "Linker": null,
  "LinkerIndex": "",
  "ObjectInternalInteger": 107088,
  "NetIndex": 528,
  "Outer": "D_Attributes.WeaponManufacturer",
  "Name": "OffhandWeapon_Is_Vladof",
  "Class": "Engine.AttributeDefinition",
  "ObjectArchetype": "Engine.Default__AttributeDefinition"
}