{
  "bIsSimpleAttribute": true,
  "AttributeDataType": "ADT_Int",
  "ValueResolverChain": [
    "D_Attributes.Currency.SeraphCrystalsOnHand:CurrencyAttributeValueResolver_0"
  ],
  "ContextResolverChain": [
    "D_Attributes.Currency.SeraphCrystalsOnHand:ControllerAttributeContextResolver_0",
    "D_Attributes.Currency.SeraphCrystalsOnHand:PlayerReplicationInfoAttributeContextResolver_6"
  ],
  "VfTableObject": "",
  "HashNext": "",
  "ObjectFlags": "",
  "HashOuterNext": "",
  "StateFrame": "",
  "Linker": null,
  "LinkerIndex": "",
  "ObjectInternalInteger": 163161,
  "NetIndex": 124,
  "Outer": "D_Attributes.Currency",
  "Name": "SeraphCrystalsOnHand",
  "Class": "Engine.AttributeDefinition",
  "ObjectArchetype": "Engine.Default__AttributeDefinition"
}