{
  "bIsSimpleAttribute": false,
  "AttributeDataType": "ADT_Float",
  "ValueResolverChain": [
    "Env_Caverns.StatusEffect.Attribute_CorrosiveOozeShieldMath:SimpleMathValueResolver_0"
  ],
  "ContextResolverChain": [
    "Env_Caverns.StatusEffect.Attribute_CorrosiveOozeShieldMath:PawnAttributeContextResolver_0"
  ],
  "VfTableObject": "",
  "HashNext": "",
  "ObjectFlags": "",
  "HashOuterNext": "",
  "StateFrame": "",
  "Linker": null,
  "LinkerIndex": "",
  "ObjectInternalInteger": 221684,
  "NetIndex": 11,
  "Outer": "Env_Caverns.StatusEffect",
  "Name": "Attribute_CorrosiveOozeShieldMath",
  "Class": "Engine.AttributeDefinition",
  "ObjectArchetype": "Engine.Default__AttributeDefinition"
}