{
  "bIsSimpleAttribute": false,
  "AttributeDataType": "ADT_Float",
  "ValueResolverChain": [
    "GD_Ammodrops.Attributes.Att_AmmoPercentageShared_Grenades:ConstantAttributeValueResolver_0"
  ],
  "ContextResolverChain": [
    "GD_Ammodrops.Attributes.Att_AmmoPercentageShared_Grenades:NoContextNeededAttributeContextResolver_21"
  ],
  "VfTableObject": "",
  "HashNext": "",
  "ObjectFlags": "",
  "HashOuterNext": "",
  "StateFrame": "",
  "Linker": null,
  "LinkerIndex": "",
  "ObjectInternalInteger": 107878,
  "NetIndex": 6,
  "Outer": "GD_Ammodrops.Attributes",
  "Name": "Att_AmmoPercentageShared_Grenades",
  "Class": "Engine.AttributeDefinition",
  "ObjectArchetype": "Engine.Default__AttributeDefinition"
}