{
  "bIsSimpleAttribute": false,
  "AttributeDataType": "ADT_Float",
  "ValueResolverChain": [
    "GD_Ammodrops.Attributes.Att_AmmoPercentageShared_SMG:ConstantAttributeValueResolver_0"
  ],
  "ContextResolverChain": [
    "GD_Ammodrops.Attributes.Att_AmmoPercentageShared_SMG:NoContextNeededAttributeContextResolver_20"
  ],
  "VfTableObject": "",
  "HashNext": "",
  "ObjectFlags": "",
  "HashOuterNext": "",
  "StateFrame": "",
  "Linker": null,
  "LinkerIndex": "",
  "ObjectInternalInteger": 107890,
  "NetIndex": 10,
  "Outer": "GD_Ammodrops.Attributes",
  "Name": "Att_AmmoPercentageShared_SMG",
  "Class": "Engine.AttributeDefinition",
  "ObjectArchetype": "Engine.Default__AttributeDefinition"
}