{
  "bIsSimpleAttribute": false,
  "AttributeDataType": "ADT_Float",
  "ValueResolverChain": [
    "GD_Attributes_AI.Resource.Attribute_Resource_Minion:AIResourceAttributeValueResolver_0"
  ],
  "ContextResolverChain": [
    "GD_Attributes_AI.Resource.Attribute_Resource_Minion:GearboxMindAttributeContextResolver_0"
  ],
  "VfTableObject": "",
  "HashNext": "",
  "ObjectFlags": "",
  "HashOuterNext": "",
  "StateFrame": "",
  "Linker": null,
  "LinkerIndex": "",
  "ObjectInternalInteger": 242213,
  "NetIndex": 12,
  "Outer": "GD_Attributes_AI.Resource",
  "Name": "Attribute_Resource_Minion",
  "Class": "Engine.AttributeDefinition",
  "ObjectArchetype": "Engine.Default__AttributeDefinition"
}