{
  "bIsSimpleAttribute": true,
  "AttributeDataType": "ADT_Int",
  "ValueResolverChain": [
    "GD_Balance.EnemyLevel.EnemyLevel_GameStage_MinorVariance:SimpleMathValueResolver_0"
  ],
  "ContextResolverChain": [
    "GD_Balance.EnemyLevel.EnemyLevel_GameStage_MinorVariance:BalancedActorAttributeContextResolver_2"
  ],
  "VfTableObject": "",
  "HashNext": "",
  "ObjectFlags": "",
  "HashOuterNext": "",
  "StateFrame": "",
  "Linker": null,
  "LinkerIndex": "",
  "ObjectInternalInteger": 242242,
  "NetIndex": 1,
  "Outer": "GD_Balance.EnemyLevel",
  "Name": "EnemyLevel_GameStage_MinorVariance",
  "Class": "Engine.AttributeDefinition",
  "ObjectArchetype": "Engine.Default__AttributeDefinition"
}