{
  "bIsSimpleAttribute": true,
  "AttributeDataType": "ADT_Int",
  "ValueResolverChain": [
    "GD_Balance.EnemyLevel.EnemyLevel_GameStage_Plus5:SimpleMathValueResolver_0"
  ],
  "ContextResolverChain": [
    "GD_Balance.EnemyLevel.EnemyLevel_GameStage_Plus5:BalancedActorAttributeContextResolver_3"
  ],
  "VfTableObject": "",
  "HashNext": "",
  "ObjectFlags": "",
  "HashOuterNext": "",
  "StateFrame": "",
  "Linker": null,
  "LinkerIndex": "",
  "ObjectInternalInteger": 198891,
  "NetIndex": 8,
  "Outer": "GD_Balance.EnemyLevel",
  "Name": "EnemyLevel_GameStage_Plus5",
  "Class": "Engine.AttributeDefinition",
  "ObjectArchetype": "Engine.Default__AttributeDefinition"
}