{
  "bIsSimpleAttribute": false,
  "AttributeDataType": "ADT_Float",
  "ValueResolverChain": [
    "GD_Challenges.BadassRewardsAttributes.Att_BAR_Gun_Accuracy:BadassAttributeValueResolver_0"
  ],
  "ContextResolverChain": [
    "GD_Challenges.BadassRewardsAttributes.Att_BAR_Gun_Accuracy:PlayerControllerAttributeContextResolver_0"
  ],
  "VfTableObject": "",
  "HashNext": "",
  "ObjectFlags": "",
  "HashOuterNext": "",
  "StateFrame": "",
  "Linker": null,
  "LinkerIndex": "",
  "ObjectInternalInteger": 108007,
  "NetIndex": 2,
  "Outer": "GD_Challenges.BadassRewardsAttributes",
  "Name": "Att_BAR_Gun_Accuracy",
  "Class": "Engine.AttributeDefinition",
  "ObjectArchetype": "Engine.Default__AttributeDefinition"
}