{
  "bIsSimpleAttribute": true,
  "AttributeDataType": "ADT_Float",
  "ValueResolverChain": [
    "GD_ClassMods.Misc.Att_TeamConstraint:ConstantAttributeValueResolver_0"
  ],
  "ContextResolverChain": [
    "GD_ClassMods.Misc.Att_TeamConstraint:NoContextNeededAttributeContextResolver_20"
  ],
  "VfTableObject": "",
  "HashNext": "",
  "ObjectFlags": "",
  "HashOuterNext": "",
  "StateFrame": "",
  "Linker": null,
  "LinkerIndex": "",
  "ObjectInternalInteger": 108062,
  "NetIndex": 2,
  "Outer": "GD_ClassMods.Misc",
  "Name": "Att_TeamConstraint",
  "Class": "Engine.AttributeDefinition",
  "ObjectArchetype": "Engine.Default__AttributeDefinition"
}