{
  "bIsSimpleAttribute": false,
  "AttributeDataType": "ADT_Float",
  "ValueResolverChain": [
    "GD_ConstructorShared.Attributes.ChildNumber:SimpleMathValueResolver_0"
  ],
  "ContextResolverChain": [
    "GD_ConstructorShared.Attributes.ChildNumber:NoContextNeededAttributeContextResolver_20"
  ],
  "VfTableObject": "",
  "HashNext": "",
  "ObjectFlags": "",
  "HashOuterNext": "",
  "StateFrame": "",
  "Linker": null,
  "LinkerIndex": "",
  "ObjectInternalInteger": 219352,
  "NetIndex": 10,
  "Outer": "GD_ConstructorShared.Attributes",
  "Name": "ChildNumber",
  "Class": "Engine.AttributeDefinition",
  "ObjectArchetype": "Engine.Default__AttributeDefinition"
}