{
  "bIsSimpleAttribute": false,
  "AttributeDataType": "ADT_Float",
  "ValueResolverChain": [
    "GD_ConstructorShared.Attributes.TotalChildrenPlus3:SimpleMathValueResolver_0"
  ],
  "ContextResolverChain": [
    "GD_ConstructorShared.Attributes.TotalChildrenPlus3:NoContextNeededAttributeContextResolver_20"
  ],
  "VfTableObject": "",
  "HashNext": "",
  "ObjectFlags": "",
  "HashOuterNext": "",
  "StateFrame": "",
  "Linker": null,
  "LinkerIndex": "",
  "ObjectInternalInteger": 209026,
  "NetIndex": 12,
  "Outer": "GD_ConstructorShared.Attributes",
  "Name": "TotalChildrenPlus3",
  "Class": "Engine.AttributeDefinition",
  "ObjectArchetype": "Engine.Default__AttributeDefinition"
}