{
  "bIsSimpleAttribute": true,
  "AttributeDataType": "ADT_Float",
  "ValueResolverChain": [
    "GD_Economy.WeaponCostModifiers.Att_SpecialPart_02_Memorable:ConstantAttributeValueResolver_0"
  ],
  "ContextResolverChain": [
    "GD_Economy.WeaponCostModifiers.Att_SpecialPart_02_Memorable:NoContextNeededAttributeContextResolver_20"
  ],
  "VfTableObject": "",
  "HashNext": "",
  "ObjectFlags": "",
  "HashOuterNext": "",
  "StateFrame": "",
  "Linker": null,
  "LinkerIndex": "",
  "ObjectInternalInteger": 108203,
  "NetIndex": 57,
  "Outer": "GD_Economy.WeaponCostModifiers",
  "Name": "Att_SpecialPart_02_Memorable",
  "Class": "Engine.AttributeDefinition",
  "ObjectArchetype": "Engine.Default__AttributeDefinition"
}