{
  "bIsSimpleAttribute": true,
  "AttributeDataType": "ADT_Float",
  "ValueResolverChain": [
    "GD_Economy.WeaponCostModifiers.Att_Part_02_Economical:ConstantAttributeValueResolver_0"
  ],
  "ContextResolverChain": [
    "GD_Economy.WeaponCostModifiers.Att_Part_02_Economical:NoContextNeededAttributeContextResolver_20"
  ],
  "VfTableObject": "",
  "HashNext": "",
  "ObjectFlags": "",
  "HashOuterNext": "",
  "StateFrame": "",
  "Linker": null,
  "LinkerIndex": "",
  "ObjectInternalInteger": 108185,
  "NetIndex": 51,
  "Outer": "GD_Economy.WeaponCostModifiers",
  "Name": "Att_Part_02_Economical",
  "Class": "Engine.AttributeDefinition",
  "ObjectArchetype": "Engine.Default__AttributeDefinition"
}