{
  "bIsSimpleAttribute": true,
  "AttributeDataType": "ADT_Float",
  "ValueResolverChain": [
    "GD_Economy.BaseCost.Att_BaseCost_Ammo_SMGAmmo:ConstantAttributeValueResolver_0"
  ],
  "ContextResolverChain": [
    "GD_Economy.BaseCost.Att_BaseCost_Ammo_SMGAmmo:NoContextNeededAttributeContextResolver_20"
  ],
  "VfTableObject": "",
  "HashNext": "",
  "ObjectFlags": "",
  "HashOuterNext": "",
  "StateFrame": "",
  "Linker": null,
  "LinkerIndex": "",
  "ObjectInternalInteger": 237698,
  "NetIndex": 7,
  "Outer": "GD_Economy.BaseCost",
  "Name": "Att_BaseCost_Ammo_SMGAmmo",
  "Class": "Engine.AttributeDefinition",
  "ObjectArchetype": "Engine.Default__AttributeDefinition"
}