{
  "bIsSimpleAttribute": false,
  "AttributeDataType": "ADT_Float",
  "VfTableObject": "",
  "HashNext": "",
  "ObjectFlags": "",
  "HashOuterNext": "",
  "StateFrame": "",
  "Linker": null,
  "LinkerIndex": "",
  "ObjectInternalInteger": 166500,
  "NetIndex": 1,
  "Outer": "GD_Flax_Items.Attributes",
  "Name": "Attr_WispText",
  "Class": "Engine.AttributeDefinition",
  "ObjectArchetype": "Engine.Default__AttributeDefinition"
}