{
  "bIsSimpleAttribute": false,
  "AttributeDataType": "ADT_Float",
  "ValueResolverChain": [
    "GD_Itempools.Scheduling.GameStage_18:ConstantAttributeValueResolver_0"
  ],
  "ContextResolverChain": [
    "GD_Itempools.Scheduling.GameStage_18:NoContextNeededAttributeContextResolver_20"
  ],
  "VfTableObject": "",
  "HashNext": "",
  "ObjectFlags": "",
  "HashOuterNext": "",
  "StateFrame": "",
  "Linker": null,
  "LinkerIndex": "",
  "ObjectInternalInteger": 108340,
  "NetIndex": 58,
  "Outer": "GD_Itempools.Scheduling",
  "Name": "GameStage_18",
  "Class": "Engine.AttributeDefinition",
  "ObjectArchetype": "Engine.Default__AttributeDefinition"
}