{
  "bIsSimpleAttribute": true,
  "AttributeDataType": "ADT_Float",
  "ValueResolverChain": [
    "GD_Itempools.DropWeights.DropODDS_EridiumStick:ConstantAttributeValueResolver_1"
  ],
  "ContextResolverChain": [
    "GD_Itempools.DropWeights.DropODDS_EridiumStick:NoContextNeededAttributeContextResolver_20"
  ],
  "VfTableObject": "",
  "HashNext": "",
  "ObjectFlags": "",
  "HashOuterNext": "",
  "StateFrame": "",
  "Linker": null,
  "LinkerIndex": "",
  "ObjectInternalInteger": 108261,
  "NetIndex": 26,
  "Outer": "GD_Itempools.DropWeights",
  "Name": "DropODDS_EridiumStick",
  "Class": "Engine.AttributeDefinition",
  "ObjectArchetype": "Engine.Default__AttributeDefinition"
}