{
  "bIsSimpleAttribute": true,
  "AttributeDataType": "ADT_Float",
  "ValueResolverChain": [
    "GD_Itempools.DropWeights.RaidRaresQuantity:ConstantAttributeValueResolver_0"
  ],
  "ContextResolverChain": [
    "GD_Itempools.DropWeights.RaidRaresQuantity:NoContextNeededAttributeContextResolver_156"
  ],
  "VfTableObject": "",
  "HashNext": "",
  "ObjectFlags": "",
  "HashOuterNext": "",
  "StateFrame": "",
  "Linker": null,
  "LinkerIndex": "",
  "ObjectInternalInteger": 108285,
  "NetIndex": 40,
  "Outer": "GD_Itempools.DropWeights",
  "Name": "RaidRaresQuantity",
  "Class": "Engine.AttributeDefinition",
  "ObjectArchetype": "Engine.Default__AttributeDefinition"
}