{
  "bIsSimpleAttribute": false,
  "AttributeDataType": "ADT_Float",
  "ValueResolverChain": [
    "GD_Itempools.Scheduling.LootSchedule_ClassMod_01_Common:ConstantAttributeValueResolver_0"
  ],
  "ContextResolverChain": [
    "GD_Itempools.Scheduling.LootSchedule_ClassMod_01_Common:NoContextNeededAttributeContextResolver_20"
  ],
  "VfTableObject": "",
  "HashNext": "",
  "ObjectFlags": "",
  "HashOuterNext": "",
  "StateFrame": "",
  "Linker": null,
  "LinkerIndex": "",
  "ObjectInternalInteger": 108361,
  "NetIndex": 65,
  "Outer": "GD_Itempools.Scheduling",
  "Name": "LootSchedule_ClassMod_01_Common",
  "Class": "Engine.AttributeDefinition",
  "ObjectArchetype": "Engine.Default__AttributeDefinition"
}