{
  "bIsSimpleAttribute": false,
  "AttributeDataType": "ADT_Float",
  "ValueResolverChain": [
    "GD_Itempools.Scheduling.GameStage_13:ConstantAttributeValueResolver_0"
  ],
  "ContextResolverChain": [
    "GD_Itempools.Scheduling.GameStage_13:NoContextNeededAttributeContextResolver_20"
  ],
  "VfTableObject": "",
  "HashNext": "",
  "ObjectFlags": "",
  "HashOuterNext": "",
  "StateFrame": "",
  "Linker": null,
  "LinkerIndex": "",
  "ObjectInternalInteger": 108325,
  "NetIndex": 53,
  "Outer": "GD_Itempools.Scheduling",
  "Name": "GameStage_13",
  "Class": "Engine.AttributeDefinition",
  "ObjectArchetype": "Engine.Default__AttributeDefinition"
}