{
  "bIsSimpleAttribute": false,
  "AttributeDataType": "ADT_Float",
  "ValueResolverChain": [
    "GD_ItemPools_Shop.Misc.Att_IOTD_Weighting_03_Uncommon:ConstantAttributeValueResolver_1"
  ],
  "ContextResolverChain": [
    "GD_ItemPools_Shop.Misc.Att_IOTD_Weighting_03_Uncommon:NoContextNeededAttributeContextResolver_21"
  ],
  "VfTableObject": "",
  "HashNext": "",
  "ObjectFlags": "",
  "HashOuterNext": "",
  "StateFrame": "",
  "Linker": null,
  "LinkerIndex": "",
  "ObjectInternalInteger": 168599,
  "NetIndex": 0,
  "Outer": "GD_ItemPools_Shop.Misc",
  "Name": "Att_IOTD_Weighting_03_Uncommon",
  "Class": "Engine.AttributeDefinition",
  "ObjectArchetype": "Engine.Default__AttributeDefinition"
}