{
  "bIsSimpleAttribute": false,
  "AttributeDataType": "ADT_Float",
  "ValueResolverChain": [
    "GD_ItemPools_Shop.Misc.Att_IOTD_Weighting_05_VeryRare:ConstantAttributeValueResolver_0"
  ],
  "ContextResolverChain": [
    "GD_ItemPools_Shop.Misc.Att_IOTD_Weighting_05_VeryRare:NoContextNeededAttributeContextResolver_20"
  ],
  "VfTableObject": "",
  "HashNext": "",
  "ObjectFlags": "",
  "HashOuterNext": "",
  "StateFrame": "",
  "Linker": null,
  "LinkerIndex": "",
  "ObjectInternalInteger": 168605,
  "NetIndex": 2,
  "Outer": "GD_ItemPools_Shop.Misc",
  "Name": "Att_IOTD_Weighting_05_VeryRare",
  "Class": "Engine.AttributeDefinition",
  "ObjectArchetype": "Engine.Default__AttributeDefinition"
}