{
  "bIsSimpleAttribute": false,
  "AttributeDataType": "ADT_Float",
  "ValueResolverChain": [
    "GD_Lilac_Skills_Hellborn.Attributes.Att_HellfireHalitosis_Cooldown:ConstantAttributeValueResolver_0"
  ],
  "ContextResolverChain": [
    "GD_Lilac_Skills_Hellborn.Attributes.Att_HellfireHalitosis_Cooldown:NoContextNeededAttributeContextResolver_324"
  ],
  "VfTableObject": "",
  "HashNext": "",
  "ObjectFlags": "",
  "HashOuterNext": "",
  "StateFrame": "",
  "Linker": null,
  "LinkerIndex": "",
  "ObjectInternalInteger": 171606,
  "NetIndex": 13,
  "Outer": "GD_Lilac_Skills_Hellborn.Attributes",
  "Name": "Att_HellfireHalitosis_Cooldown",
  "Class": "Engine.AttributeDefinition",
  "ObjectArchetype": "Engine.Default__AttributeDefinition"
}