{
  "bIsSimpleAttribute": false,
  "AttributeDataType": "ADT_Float",
  "ValueResolverChain": [
    "GD_Lilac_Skills_Bloodlust.Attributes.Att_BloodyRevival_PerStackDamageBonus:ConditionalAttributeValueResolver_1"
  ],
  "ContextResolverChain": [
    "GD_Lilac_Skills_Bloodlust.Attributes.Att_BloodyRevival_PerStackDamageBonus:PlayerControllerAttributeContextResolver_12"
  ],
  "VfTableObject": "",
  "HashNext": "",
  "ObjectFlags": "",
  "HashOuterNext": "",
  "StateFrame": "",
  "Linker": null,
  "LinkerIndex": "",
  "ObjectInternalInteger": 193216,
  "NetIndex": 3,
  "Outer": "GD_Lilac_Skills_Bloodlust.Attributes",
  "Name": "Att_BloodyRevival_PerStackDamageBonus",
  "Class": "Engine.AttributeDefinition",
  "ObjectArchetype": "Engine.Default__AttributeDefinition"
}