{
  "bIsSimpleAttribute": false,
  "AttributeDataType": "ADT_Int",
  "ValueResolverChain": [
    "GD_Lilac_Skills_Bloodlust.SkillGrades.SkillGrade_BloodBath:ObjectPropertyAttributeValueResolver_0"
  ],
  "ContextResolverChain": [
    "GD_Lilac_Skills_Bloodlust.SkillGrades.SkillGrade_BloodBath:PlayerControllerAttributeContextResolver_0",
    "GD_Lilac_Skills_Bloodlust.SkillGrades.SkillGrade_BloodBath:SkillAttributeContextResolver_0"
  ],
  "VfTableObject": "",
  "HashNext": "",
  "ObjectFlags": "",
  "HashOuterNext": "",
  "StateFrame": "",
  "Linker": null,
  "LinkerIndex": "",
  "ObjectInternalInteger": 193191,
  "NetIndex": 11,
  "Outer": "GD_Lilac_Skills_Bloodlust.SkillGrades",
  "Name": "SkillGrade_BloodBath",
  "Class": "Engine.AttributeDefinition",
  "ObjectArchetype": "Engine.Default__AttributeDefinition"
}