{
  "bIsSimpleAttribute": false,
  "AttributeDataType": "ADT_Float",
  "ValueResolverChain": [
    "GD_Lilac_Skills_Hellborn.Attributes.Att_ElementalEmpathy_HealingPerGrade:ConstantAttributeValueResolver_0"
  ],
  "ContextResolverChain": [
    "GD_Lilac_Skills_Hellborn.Attributes.Att_ElementalEmpathy_HealingPerGrade:NoContextNeededAttributeContextResolver_324"
  ],
  "VfTableObject": "",
  "HashNext": "",
  "ObjectFlags": "",
  "HashOuterNext": "",
  "StateFrame": "",
  "Linker": null,
  "LinkerIndex": "",
  "ObjectInternalInteger": 193127,
  "NetIndex": 8,
  "Outer": "GD_Lilac_Skills_Hellborn.Attributes",
  "Name": "Att_ElementalEmpathy_HealingPerGrade",
  "Class": "Engine.AttributeDefinition",
  "ObjectArchetype": "Engine.Default__AttributeDefinition"
}