{
  "bIsSimpleAttribute": false,
  "AttributeDataType": "ADT_Float",
  "ValueResolverChain": [
    "GD_Lilac_Skills_Hellborn.Attributes.Att_ElementalElation_MaxStackCount:ConstantAttributeValueResolver_0"
  ],
  "ContextResolverChain": [
    "GD_Lilac_Skills_Hellborn.Attributes.Att_ElementalElation_MaxStackCount:NoContextNeededAttributeContextResolver_144"
  ],
  "VfTableObject": "",
  "HashNext": "",
  "ObjectFlags": "",
  "HashOuterNext": "",
  "StateFrame": "",
  "Linker": null,
  "LinkerIndex": "",
  "ObjectInternalInteger": 193139,
  "NetIndex": 4,
  "Outer": "GD_Lilac_Skills_Hellborn.Attributes",
  "Name": "Att_ElementalElation_MaxStackCount",
  "Class": "Engine.AttributeDefinition",
  "ObjectArchetype": "Engine.Default__AttributeDefinition"
}