{
  "bIsSimpleAttribute": true,
  "AttributeDataType": "ADT_Int",
  "ValueResolverChain": [
    "GD_Mercenary_Skills.Misc.Att_Inconceivable_BulletCostChance:RandomAttributeValueResolver_0",
    "GD_Mercenary_Skills.Misc.Att_Inconceivable_BulletCostChance:ConstraintAttributeValueResolver_0"
  ],
  "ContextResolverChain": [
    "GD_Mercenary_Skills.Misc.Att_Inconceivable_BulletCostChance:NoContextNeededAttributeContextResolver_20"
  ],
  "VfTableObject": "",
  "HashNext": "",
  "ObjectFlags": "",
  "HashOuterNext": "",
  "StateFrame": "",
  "Linker": null,
  "LinkerIndex": "",
  "ObjectInternalInteger": 197893,
  "NetIndex": 10,
  "Outer": "GD_Mercenary_Skills.Misc",
  "Name": "Att_Inconceivable_BulletCostChance",
  "Class": "Engine.AttributeDefinition",
  "ObjectArchetype": "Engine.Default__AttributeDefinition"
}