{
  "bIsSimpleAttribute": true,
  "AttributeDataType": "ADT_Float",
  "ValueResolverChain": [
    "GD_MissionRewardBalance.XP.XPReward_02_Small:ConstantAttributeValueResolver_0",
    "GD_MissionRewardBalance.XP.XPReward_02_Small:SimpleMathValueResolver_0"
  ],
  "ContextResolverChain": [
    "GD_MissionRewardBalance.XP.XPReward_02_Small:NoContextNeededAttributeContextResolver_20"
  ],
  "VfTableObject": "",
  "HashNext": "",
  "ObjectFlags": "",
  "HashOuterNext": "",
  "StateFrame": "",
  "Linker": null,
  "LinkerIndex": "",
  "ObjectInternalInteger": 108414,
  "NetIndex": 7,
  "Outer": "GD_MissionRewardBalance.XP",
  "Name": "XPReward_02_Small",
  "Class": "Engine.AttributeDefinition",
  "ObjectArchetype": "Engine.Default__AttributeDefinition"
}