{
  "bIsSimpleAttribute": false,
  "AttributeDataType": "ADT_Float",
  "ValueResolverChain": [
    "GD_Orchid_Shields.Attributes.Attr_BladeElementalDamageModifier:ConstantAttributeValueResolver_0"
  ],
  "ContextResolverChain": [
    "GD_Orchid_Shields.Attributes.Attr_BladeElementalDamageModifier:NoContextNeededAttributeContextResolver_20"
  ],
  "VfTableObject": "",
  "HashNext": "",
  "ObjectFlags": "",
  "HashOuterNext": "",
  "StateFrame": "",
  "Linker": null,
  "LinkerIndex": "",
  "ObjectInternalInteger": 174583,
  "NetIndex": 0,
  "Outer": "GD_Orchid_Shields.Attributes",
  "Name": "Attr_BladeElementalDamageModifier",
  "Class": "Engine.AttributeDefinition",
  "ObjectArchetype": "Engine.Default__AttributeDefinition"
}