{
  "bIsSimpleAttribute": false,
  "AttributeDataType": "ADT_Float",
  "ValueResolverChain": [
    "GD_PlayerShared.Misc.Att_PercentAmmoRestoredOnDeath:ConstantAttributeValueResolver_0"
  ],
  "ContextResolverChain": [
    "GD_PlayerShared.Misc.Att_PercentAmmoRestoredOnDeath:NoContextNeededAttributeContextResolver_32"
  ],
  "VfTableObject": "",
  "HashNext": "",
  "ObjectFlags": "",
  "HashOuterNext": "",
  "StateFrame": "",
  "Linker": null,
  "LinkerIndex": "",
  "ObjectInternalInteger": 108432,
  "NetIndex": 72,
  "Outer": "GD_PlayerShared.Misc",
  "Name": "Att_PercentAmmoRestoredOnDeath",
  "Class": "Engine.AttributeDefinition",
  "ObjectArchetype": "Engine.Default__AttributeDefinition"
}