{
  "bIsSimpleAttribute": false,
  "AttributeDataType": "ADT_Float",
  "ValueResolverChain": [
    "GD_Tulip_Mechromancer_Skills.Misc.Att_Discord_Bonuses:ConstantAttributeValueResolver_1"
  ],
  "ContextResolverChain": [
    "GD_Tulip_Mechromancer_Skills.Misc.Att_Discord_Bonuses:NoContextNeededAttributeContextResolver_45"
  ],
  "VfTableObject": "",
  "HashNext": "",
  "ObjectFlags": "",
  "HashOuterNext": "",
  "StateFrame": "",
  "Linker": null,
  "LinkerIndex": "",
  "ObjectInternalInteger": 183750,
  "NetIndex": 11,
  "Outer": "GD_Tulip_Mechromancer_Skills.Misc",
  "Name": "Att_Discord_Bonuses",
  "Class": "Engine.AttributeDefinition",
  "ObjectArchetype": "Engine.Default__AttributeDefinition"
}