{
  "bIsSimpleAttribute": true,
  "AttributeDataType": "ADT_Float",
  "ValueResolverChain": [
    "Transient.AttributeInitializationDefinition_159:AttributeDefinition_319.PlayerClassAttributeValueResolver_159"
  ],
  "ContextResolverChain": [
    "Transient.AttributeInitializationDefinition_159:AttributeDefinition_319.PlayerControllerAttributeContextResolver_159"
  ],
  "VfTableObject": "",
  "HashNext": "",
  "ObjectFlags": "",
  "HashOuterNext": "",
  "StateFrame": "",
  "Linker": null,
  "LinkerIndex": "",
  "ObjectInternalInteger": 238551,
  "NetIndex": -1,
  "Outer": "Transient.AttributeInitializationDefinition_159",
  "Name": "AttributeDefinition_319",
  "Class": "Engine.AttributeDefinition",
  "ObjectArchetype": "Engine.Default__AttributeDefinition"
}