{
  "bIsSimpleAttribute": true,
  "AttributeDataType": "ADT_Float",
  "ValueResolverChain": [
    "Transient.AttributeInitializationDefinition_25:AttributeDefinition_52.ClassDropWeightValueResolver_25"
  ],
  "ContextResolverChain": [
    "Transient.AttributeInitializationDefinition_25:AttributeDefinition_52.NoContextNeededAttributeContextResolver_25"
  ],
  "VfTableObject": "",
  "HashNext": "",
  "ObjectFlags": "",
  "HashOuterNext": "",
  "StateFrame": "",
  "Linker": null,
  "LinkerIndex": "",
  "ObjectInternalInteger": 237505,
  "NetIndex": -1,
  "Outer": "Transient.AttributeInitializationDefinition_25",
  "Name": "AttributeDefinition_52",
  "Class": "Engine.AttributeDefinition",
  "ObjectArchetype": "Engine.Default__AttributeDefinition"
}