{
  "bIsSimpleAttribute": true,
  "AttributeDataType": "ADT_Float",
  "ValueResolverChain": [
    "Transient.AttributeInitializationDefinition_241:AttributeDefinition_475.PlayerClassAttributeValueResolver_237"
  ],
  "ContextResolverChain": [
    "Transient.AttributeInitializationDefinition_241:AttributeDefinition_475.PlayerControllerAttributeContextResolver_237"
  ],
  "VfTableObject": "",
  "HashNext": "",
  "ObjectFlags": "",
  "HashOuterNext": "",
  "StateFrame": "",
  "Linker": null,
  "LinkerIndex": "",
  "ObjectInternalInteger": 238580,
  "NetIndex": -1,
  "Outer": "Transient.AttributeInitializationDefinition_241",
  "Name": "AttributeDefinition_475",
  "Class": "Engine.AttributeDefinition",
  "ObjectArchetype": "Engine.Default__AttributeDefinition"
}