{
  "bIsSimpleAttribute": true,
  "AttributeDataType": "ADT_Float",
  "ValueResolverChain": [
    "Transient.AttributeInitializationDefinition_64:AttributeDefinition_129.PlayerClassAttributeValueResolver_64"
  ],
  "ContextResolverChain": [
    "Transient.AttributeInitializationDefinition_64:AttributeDefinition_129.PlayerControllerAttributeContextResolver_64"
  ],
  "VfTableObject": "",
  "HashNext": "",
  "ObjectFlags": "",
  "HashOuterNext": "",
  "StateFrame": "",
  "Linker": null,
  "LinkerIndex": "",
  "ObjectInternalInteger": 240008,
  "NetIndex": -1,
  "Outer": "Transient.AttributeInitializationDefinition_64",
  "Name": "AttributeDefinition_129",
  "Class": "Engine.AttributeDefinition",
  "ObjectArchetype": "Engine.Default__AttributeDefinition"
}