{
  "bIsSimpleAttribute": true,
  "AttributeDataType": "ADT_Float",
  "ValueResolverChain": [
    "Transient.AttributeInitializationDefinition_195:AttributeDefinition_384.ClassDropWeightValueResolver_191"
  ],
  "ContextResolverChain": [
    "Transient.AttributeInitializationDefinition_195:AttributeDefinition_384.NoContextNeededAttributeContextResolver_191"
  ],
  "VfTableObject": "",
  "HashNext": "",
  "ObjectFlags": "",
  "HashOuterNext": "",
  "StateFrame": "",
  "Linker": null,
  "LinkerIndex": "",
  "ObjectInternalInteger": 238576,
  "NetIndex": -1,
  "Outer": "Transient.AttributeInitializationDefinition_195",
  "Name": "AttributeDefinition_384",
  "Class": "Engine.AttributeDefinition",
  "ObjectArchetype": "Engine.Default__AttributeDefinition"
}