{
  "bIsSimpleAttribute": true,
  "AttributeDataType": "ADT_Float",
  "ValueResolverChain": [
    "Transient.AttributeInitializationDefinition_144:AttributeDefinition_289.PlayerClassAttributeValueResolver_144"
  ],
  "ContextResolverChain": [
    "Transient.AttributeInitializationDefinition_144:AttributeDefinition_289.PlayerControllerAttributeContextResolver_144"
  ],
  "VfTableObject": "",
  "HashNext": "",
  "ObjectFlags": "",
  "HashOuterNext": "",
  "StateFrame": "",
  "Linker": null,
  "LinkerIndex": "",
  "ObjectInternalInteger": 238570,
  "NetIndex": -1,
  "Outer": "Transient.AttributeInitializationDefinition_144",
  "Name": "AttributeDefinition_289",
  "Class": "Engine.AttributeDefinition",
  "ObjectArchetype": "Engine.Default__AttributeDefinition"
}