{
  "bIsSimpleAttribute": true,
  "AttributeDataType": "ADT_Float",
  "ValueResolverChain": [
    "Transient.AttributeInitializationDefinition_419:AttributeDefinition_832.ClassDropWeightValueResolver_415"
  ],
  "ContextResolverChain": [
    "Transient.AttributeInitializationDefinition_419:AttributeDefinition_832.NoContextNeededAttributeContextResolver_415"
  ],
  "VfTableObject": "",
  "HashNext": "",
  "ObjectFlags": "",
  "HashOuterNext": "",
  "StateFrame": "",
  "Linker": null,
  "LinkerIndex": "",
  "ObjectInternalInteger": 242845,
  "NetIndex": -1,
  "Outer": "Transient.AttributeInitializationDefinition_419",
  "Name": "AttributeDefinition_832",
  "Class": "Engine.AttributeDefinition",
  "ObjectArchetype": "Engine.Default__AttributeDefinition"
}