{
  "bIsSimpleAttribute": true,
  "AttributeDataType": "ADT_Float",
  "ValueResolverChain": [
    "Transient.AttributeInitializationDefinition_60:AttributeDefinition_122.ClassDropWeightValueResolver_60"
  ],
  "ContextResolverChain": [
    "Transient.AttributeInitializationDefinition_60:AttributeDefinition_122.NoContextNeededAttributeContextResolver_60"
  ],
  "VfTableObject": "",
  "HashNext": "",
  "ObjectFlags": "",
  "HashOuterNext": "",
  "StateFrame": "",
  "Linker": null,
  "LinkerIndex": "",
  "ObjectInternalInteger": 237514,
  "NetIndex": -1,
  "Outer": "Transient.AttributeInitializationDefinition_60",
  "Name": "AttributeDefinition_122",
  "Class": "Engine.AttributeDefinition",
  "ObjectArchetype": "Engine.Default__AttributeDefinition"
}