{
  "bIsSimpleAttribute": true,
  "AttributeDataType": "ADT_Float",
  "ValueResolverChain": [
    "Transient.AttributeInitializationDefinition_161:AttributeDefinition_324.ClassDropWeightValueResolver_161"
  ],
  "ContextResolverChain": [
    "Transient.AttributeInitializationDefinition_161:AttributeDefinition_324.NoContextNeededAttributeContextResolver_161"
  ],
  "VfTableObject": "",
  "HashNext": "",
  "ObjectFlags": "",
  "HashOuterNext": "",
  "StateFrame": "",
  "Linker": null,
  "LinkerIndex": "",
  "ObjectInternalInteger": 238609,
  "NetIndex": -1,
  "Outer": "Transient.AttributeInitializationDefinition_161",
  "Name": "AttributeDefinition_324",
  "Class": "Engine.AttributeDefinition",
  "ObjectArchetype": "Engine.Default__AttributeDefinition"
}