{
  "bIsSimpleAttribute": true,
  "AttributeDataType": "ADT_Float",
  "ValueResolverChain": [
    "Transient.AttributeInitializationDefinition_379:AttributeDefinition_752.ClassDropWeightValueResolver_375"
  ],
  "ContextResolverChain": [
    "Transient.AttributeInitializationDefinition_379:AttributeDefinition_752.NoContextNeededAttributeContextResolver_375"
  ],
  "VfTableObject": "",
  "HashNext": "",
  "ObjectFlags": "",
  "HashOuterNext": "",
  "StateFrame": "",
  "Linker": null,
  "LinkerIndex": "",
  "ObjectInternalInteger": 239605,
  "NetIndex": -1,
  "Outer": "Transient.AttributeInitializationDefinition_379",
  "Name": "AttributeDefinition_752",
  "Class": "Engine.AttributeDefinition",
  "ObjectArchetype": "Engine.Default__AttributeDefinition"
}