{
  "bIsSimpleAttribute": true,
  "AttributeDataType": "ADT_Float",
  "ValueResolverChain": [
    "Transient.AttributeInitializationDefinition_305:AttributeDefinition_603.PlayerClassAttributeValueResolver_301"
  ],
  "ContextResolverChain": [
    "Transient.AttributeInitializationDefinition_305:AttributeDefinition_603.PlayerControllerAttributeContextResolver_301"
  ],
  "VfTableObject": "",
  "HashNext": "",
  "ObjectFlags": "",
  "HashOuterNext": "",
  "StateFrame": "",
  "Linker": null,
  "LinkerIndex": "",
  "ObjectInternalInteger": 238567,
  "NetIndex": -1,
  "Outer": "Transient.AttributeInitializationDefinition_305",
  "Name": "AttributeDefinition_603",
  "Class": "Engine.AttributeDefinition",
  "ObjectArchetype": "Engine.Default__AttributeDefinition"
}