{
  "bIsSimpleAttribute": true,
  "AttributeDataType": "ADT_Float",
  "ValueResolverChain": [
    "Transient.AttributeInitializationDefinition_216:AttributeDefinition_425.PlayerClassAttributeValueResolver_212"
  ],
  "ContextResolverChain": [
    "Transient.AttributeInitializationDefinition_216:AttributeDefinition_425.PlayerControllerAttributeContextResolver_212"
  ],
  "VfTableObject": "",
  "HashNext": "",
  "ObjectFlags": "",
  "HashOuterNext": "",
  "StateFrame": "",
  "Linker": null,
  "LinkerIndex": "",
  "ObjectInternalInteger": 238591,
  "NetIndex": -1,
  "Outer": "Transient.AttributeInitializationDefinition_216",
  "Name": "AttributeDefinition_425",
  "Class": "Engine.AttributeDefinition",
  "ObjectArchetype": "Engine.Default__AttributeDefinition"
}