{
  "bIsSimpleAttribute": true,
  "AttributeDataType": "ADT_Float",
  "ValueResolverChain": [
    "Transient.AttributeInitializationDefinition_274:AttributeDefinition_542.ClassDropWeightValueResolver_270"
  ],
  "ContextResolverChain": [
    "Transient.AttributeInitializationDefinition_274:AttributeDefinition_542.NoContextNeededAttributeContextResolver_270"
  ],
  "VfTableObject": "",
  "HashNext": "",
  "ObjectFlags": "",
  "HashOuterNext": "",
  "StateFrame": "",
  "Linker": null,
  "LinkerIndex": "",
  "ObjectInternalInteger": 238602,
  "NetIndex": -1,
  "Outer": "Transient.AttributeInitializationDefinition_274",
  "Name": "AttributeDefinition_542",
  "Class": "Engine.AttributeDefinition",
  "ObjectArchetype": "Engine.Default__AttributeDefinition"
}