{
  "bIsSimpleAttribute": true,
  "AttributeDataType": "ADT_Float",
  "ValueResolverChain": [
    "Transient.AttributeInitializationDefinition_175:AttributeDefinition_343.PlayerClassAttributeValueResolver_171"
  ],
  "ContextResolverChain": [
    "Transient.AttributeInitializationDefinition_175:AttributeDefinition_343.PlayerControllerAttributeContextResolver_171"
  ],
  "VfTableObject": "",
  "HashNext": "",
  "ObjectFlags": "",
  "HashOuterNext": "",
  "StateFrame": "",
  "Linker": null,
  "LinkerIndex": "",
  "ObjectInternalInteger": 238551,
  "NetIndex": -1,
  "Outer": "Transient.AttributeInitializationDefinition_175",
  "Name": "AttributeDefinition_343",
  "Class": "Engine.AttributeDefinition",
  "ObjectArchetype": "Engine.Default__AttributeDefinition"
}