{
  "bIsSimpleAttribute": true,
  "AttributeDataType": "ADT_Float",
  "ValueResolverChain": [
    "Transient.AttributeInitializationDefinition_333:AttributeDefinition_660.ClassDropWeightValueResolver_329"
  ],
  "ContextResolverChain": [
    "Transient.AttributeInitializationDefinition_333:AttributeDefinition_660.NoContextNeededAttributeContextResolver_329"
  ],
  "VfTableObject": "",
  "HashNext": "",
  "ObjectFlags": "",
  "HashOuterNext": "",
  "StateFrame": "",
  "Linker": null,
  "LinkerIndex": "",
  "ObjectInternalInteger": 238609,
  "NetIndex": -1,
  "Outer": "Transient.AttributeInitializationDefinition_333",
  "Name": "AttributeDefinition_660",
  "Class": "Engine.AttributeDefinition",
  "ObjectArchetype": "Engine.Default__AttributeDefinition"
}