{
  "bIsSimpleAttribute": true,
  "AttributeDataType": "ADT_Float",
  "ValueResolverChain": [
    "Transient.AttributeInitializationDefinition_377:AttributeDefinition_747.PlayerClassAttributeValueResolver_373"
  ],
  "ContextResolverChain": [
    "Transient.AttributeInitializationDefinition_377:AttributeDefinition_747.PlayerControllerAttributeContextResolver_373"
  ],
  "VfTableObject": "",
  "HashNext": "",
  "ObjectFlags": "",
  "HashOuterNext": "",
  "StateFrame": "",
  "Linker": null,
  "LinkerIndex": "",
  "ObjectInternalInteger": 239622,
  "NetIndex": -1,
  "Outer": "Transient.AttributeInitializationDefinition_377",
  "Name": "AttributeDefinition_747",
  "Class": "Engine.AttributeDefinition",
  "ObjectArchetype": "Engine.Default__AttributeDefinition"
}