{
  "bIsSimpleAttribute": true,
  "AttributeDataType": "ADT_Float",
  "ValueResolverChain": [
    "Transient.AttributeInitializationDefinition_392:AttributeDefinition_777.PlayerClassAttributeValueResolver_388"
  ],
  "ContextResolverChain": [
    "Transient.AttributeInitializationDefinition_392:AttributeDefinition_777.PlayerControllerAttributeContextResolver_388"
  ],
  "VfTableObject": "",
  "HashNext": "",
  "ObjectFlags": "",
  "HashOuterNext": "",
  "StateFrame": "",
  "Linker": null,
  "LinkerIndex": "",
  "ObjectInternalInteger": 242869,
  "NetIndex": -1,
  "Outer": "Transient.AttributeInitializationDefinition_392",
  "Name": "AttributeDefinition_777",
  "Class": "Engine.AttributeDefinition",
  "ObjectArchetype": "Engine.Default__AttributeDefinition"
}