{
  "bIsSimpleAttribute": true,
  "AttributeDataType": "ADT_Float",
  "ValueResolverChain": [
    "Transient.AttributeInitializationDefinition_68:AttributeDefinition_137.PlayerClassAttributeValueResolver_68"
  ],
  "ContextResolverChain": [
    "Transient.AttributeInitializationDefinition_68:AttributeDefinition_137.PlayerControllerAttributeContextResolver_68"
  ],
  "VfTableObject": "",
  "HashNext": "",
  "ObjectFlags": "",
  "HashOuterNext": "",
  "StateFrame": "",
  "Linker": null,
  "LinkerIndex": "",
  "ObjectInternalInteger": 239935,
  "NetIndex": -1,
  "Outer": "Transient.AttributeInitializationDefinition_68",
  "Name": "AttributeDefinition_137",
  "Class": "Engine.AttributeDefinition",
  "ObjectArchetype": "Engine.Default__AttributeDefinition"
}