{
  "bIsSimpleAttribute": true,
  "AttributeDataType": "ADT_Float",
  "ValueResolverChain": [
    "Transient.AttributeInitializationDefinition_50:AttributeDefinition_101.PlayerClassAttributeValueResolver_50"
  ],
  "ContextResolverChain": [
    "Transient.AttributeInitializationDefinition_50:AttributeDefinition_101.PlayerControllerAttributeContextResolver_50"
  ],
  "VfTableObject": "",
  "HashNext": "",
  "ObjectFlags": "",
  "HashOuterNext": "",
  "StateFrame": "",
  "Linker": null,
  "LinkerIndex": "",
  "ObjectInternalInteger": 239902,
  "NetIndex": -1,
  "Outer": "Transient.AttributeInitializationDefinition_50",
  "Name": "AttributeDefinition_101",
  "Class": "Engine.AttributeDefinition",
  "ObjectArchetype": "Engine.Default__AttributeDefinition"
}