{
  "bIsSimpleAttribute": true,
  "AttributeDataType": "ADT_Float",
  "ValueResolverChain": [
    "Transient.AttributeInitializationDefinition_150:AttributeDefinition_302.ClassDropWeightValueResolver_150"
  ],
  "ContextResolverChain": [
    "Transient.AttributeInitializationDefinition_150:AttributeDefinition_302.NoContextNeededAttributeContextResolver_150"
  ],
  "VfTableObject": "",
  "HashNext": "",
  "ObjectFlags": "",
  "HashOuterNext": "",
  "StateFrame": "",
  "Linker": null,
  "LinkerIndex": "",
  "ObjectInternalInteger": 238602,
  "NetIndex": -1,
  "Outer": "Transient.AttributeInitializationDefinition_150",
  "Name": "AttributeDefinition_302",
  "Class": "Engine.AttributeDefinition",
  "ObjectArchetype": "Engine.Default__AttributeDefinition"
}