{
  "bIsSimpleAttribute": true,
  "AttributeDataType": "ADT_Float",
  "ValueResolverChain": [
    "Transient.AttributeInitializationDefinition_234:AttributeDefinition_462.ClassDropWeightValueResolver_230"
  ],
  "ContextResolverChain": [
    "Transient.AttributeInitializationDefinition_234:AttributeDefinition_462.NoContextNeededAttributeContextResolver_230"
  ],
  "VfTableObject": "",
  "HashNext": "",
  "ObjectFlags": "",
  "HashOuterNext": "",
  "StateFrame": "",
  "Linker": null,
  "LinkerIndex": "",
  "ObjectInternalInteger": 238557,
  "NetIndex": -1,
  "Outer": "Transient.AttributeInitializationDefinition_234",
  "Name": "AttributeDefinition_462",
  "Class": "Engine.AttributeDefinition",
  "ObjectArchetype": "Engine.Default__AttributeDefinition"
}