{
  "bIsSimpleAttribute": true,
  "AttributeDataType": "ADT_Float",
  "ValueResolverChain": [
    "Transient.AttributeInitializationDefinition_136:AttributeDefinition_274.ClassDropWeightValueResolver_136"
  ],
  "ContextResolverChain": [
    "Transient.AttributeInitializationDefinition_136:AttributeDefinition_274.NoContextNeededAttributeContextResolver_136"
  ],
  "VfTableObject": "",
  "HashNext": "",
  "ObjectFlags": "",
  "HashOuterNext": "",
  "StateFrame": "",
  "Linker": null,
  "LinkerIndex": "",
  "ObjectInternalInteger": 238616,
  "NetIndex": -1,
  "Outer": "Transient.AttributeInitializationDefinition_136",
  "Name": "AttributeDefinition_274",
  "Class": "Engine.AttributeDefinition",
  "ObjectArchetype": "Engine.Default__AttributeDefinition"
}