{
  "bIsSimpleAttribute": true,
  "AttributeDataType": "ADT_Float",
  "ValueResolverChain": [
    "Transient.AttributeInitializationDefinition_389:AttributeDefinition_771.PlayerClassAttributeValueResolver_385"
  ],
  "ContextResolverChain": [
    "Transient.AttributeInitializationDefinition_389:AttributeDefinition_771.PlayerControllerAttributeContextResolver_385"
  ],
  "VfTableObject": "",
  "HashNext": "",
  "ObjectFlags": "",
  "HashOuterNext": "",
  "StateFrame": "",
  "Linker": null,
  "LinkerIndex": "",
  "ObjectInternalInteger": 242890,
  "NetIndex": -1,
  "Outer": "Transient.AttributeInitializationDefinition_389",
  "Name": "AttributeDefinition_771",
  "Class": "Engine.AttributeDefinition",
  "ObjectArchetype": "Engine.Default__AttributeDefinition"
}