{
  "bIsSimpleAttribute": true,
  "AttributeDataType": "ADT_Float",
  "ValueResolverChain": [
    "Transient.AttributeInitializationDefinition_113:AttributeDefinition_227.PlayerClassAttributeValueResolver_113"
  ],
  "ContextResolverChain": [
    "Transient.AttributeInitializationDefinition_113:AttributeDefinition_227.PlayerControllerAttributeContextResolver_113"
  ],
  "VfTableObject": "",
  "HashNext": "",
  "ObjectFlags": "",
  "HashOuterNext": "",
  "StateFrame": "",
  "Linker": null,
  "LinkerIndex": "",
  "ObjectInternalInteger": 238612,
  "NetIndex": -1,
  "Outer": "Transient.AttributeInitializationDefinition_113",
  "Name": "AttributeDefinition_227",
  "Class": "Engine.AttributeDefinition",
  "ObjectArchetype": "Engine.Default__AttributeDefinition"
}