{
  "bIsSimpleAttribute": true,
  "AttributeDataType": "ADT_Float",
  "ValueResolverChain": [
    "Transient.AttributeInitializationDefinition_443:AttributeDefinition_872.ClassDropWeightValueResolver_435"
  ],
  "ContextResolverChain": [
    "Transient.AttributeInitializationDefinition_443:AttributeDefinition_872.NoContextNeededAttributeContextResolver_435"
  ],
  "VfTableObject": "",
  "HashNext": "",
  "ObjectFlags": "",
  "HashOuterNext": "",
  "StateFrame": "",
  "Linker": null,
  "LinkerIndex": "",
  "ObjectInternalInteger": 242873,
  "NetIndex": -1,
  "Outer": "Transient.AttributeInitializationDefinition_443",
  "Name": "AttributeDefinition_872",
  "Class": "Engine.AttributeDefinition",
  "ObjectArchetype": "Engine.Default__AttributeDefinition"
}