{
  "bIsSimpleAttribute": true,
  "AttributeDataType": "ADT_Float",
  "ValueResolverChain": [
    "Transient.AttributeInitializationDefinition_100:AttributeDefinition_201.PlayerClassAttributeValueResolver_100"
  ],
  "ContextResolverChain": [
    "Transient.AttributeInitializationDefinition_100:AttributeDefinition_201.PlayerControllerAttributeContextResolver_100"
  ],
  "VfTableObject": "",
  "HashNext": "",
  "ObjectFlags": "",
  "HashOuterNext": "",
  "StateFrame": "",
  "Linker": null,
  "LinkerIndex": "",
  "ObjectInternalInteger": 240008,
  "NetIndex": -1,
  "Outer": "Transient.AttributeInitializationDefinition_100",
  "Name": "AttributeDefinition_201",
  "Class": "Engine.AttributeDefinition",
  "ObjectArchetype": "Engine.Default__AttributeDefinition"
}