{
  "bIsSimpleAttribute": true,
  "AttributeDataType": "ADT_Float",
  "ValueResolverChain": [
    "Transient.AttributeInitializationDefinition_367:AttributeDefinition_728.ClassDropWeightValueResolver_363"
  ],
  "ContextResolverChain": [
    "Transient.AttributeInitializationDefinition_367:AttributeDefinition_728.NoContextNeededAttributeContextResolver_363"
  ],
  "VfTableObject": "",
  "HashNext": "",
  "ObjectFlags": "",
  "HashOuterNext": "",
  "StateFrame": "",
  "Linker": null,
  "LinkerIndex": "",
  "ObjectInternalInteger": 238548,
  "NetIndex": -1,
  "Outer": "Transient.AttributeInitializationDefinition_367",
  "Name": "AttributeDefinition_728",
  "Class": "Engine.AttributeDefinition",
  "ObjectArchetype": "Engine.Default__AttributeDefinition"
}