{
  "bIsSimpleAttribute": true,
  "AttributeDataType": "ADT_Float",
  "ValueResolverChain": [
    "Transient.AttributeInitializationDefinition_448:AttributeDefinition_882.ClassDropWeightValueResolver_440"
  ],
  "ContextResolverChain": [
    "Transient.AttributeInitializationDefinition_448:AttributeDefinition_882.NoContextNeededAttributeContextResolver_440"
  ],
  "VfTableObject": "",
  "HashNext": "",
  "ObjectFlags": "",
  "HashOuterNext": "",
  "StateFrame": "",
  "Linker": null,
  "LinkerIndex": "",
  "ObjectInternalInteger": 242838,
  "NetIndex": -1,
  "Outer": "Transient.AttributeInitializationDefinition_448",
  "Name": "AttributeDefinition_882",
  "Class": "Engine.AttributeDefinition",
  "ObjectArchetype": "Engine.Default__AttributeDefinition"
}