{
  "bIsSimpleAttribute": true,
  "AttributeDataType": "ADT_Float",
  "ValueResolverChain": [
    "Transient.AttributeInitializationDefinition_67:AttributeDefinition_136.ClassDropWeightValueResolver_67"
  ],
  "ContextResolverChain": [
    "Transient.AttributeInitializationDefinition_67:AttributeDefinition_136.NoContextNeededAttributeContextResolver_67"
  ],
  "VfTableObject": "",
  "HashNext": "",
  "ObjectFlags": "",
  "HashOuterNext": "",
  "StateFrame": "",
  "Linker": null,
  "LinkerIndex": "",
  "ObjectInternalInteger": 239939,
  "NetIndex": -1,
  "Outer": "Transient.AttributeInitializationDefinition_67",
  "Name": "AttributeDefinition_136",
  "Class": "Engine.AttributeDefinition",
  "ObjectArchetype": "Engine.Default__AttributeDefinition"
}