{
  "bIsSimpleAttribute": true,
  "AttributeDataType": "ADT_Float",
  "ValueResolverChain": [
    "Transient.AttributeInitializationDefinition_221:AttributeDefinition_435.PlayerClassAttributeValueResolver_217"
  ],
  "ContextResolverChain": [
    "Transient.AttributeInitializationDefinition_221:AttributeDefinition_435.PlayerControllerAttributeContextResolver_217"
  ],
  "VfTableObject": "",
  "HashNext": "",
  "ObjectFlags": "",
  "HashOuterNext": "",
  "StateFrame": "",
  "Linker": null,
  "LinkerIndex": "",
  "ObjectInternalInteger": 238565,
  "NetIndex": -1,
  "Outer": "Transient.AttributeInitializationDefinition_221",
  "Name": "AttributeDefinition_435",
  "Class": "Engine.AttributeDefinition",
  "ObjectArchetype": "Engine.Default__AttributeDefinition"
}