{
  "bIsSimpleAttribute": true,
  "AttributeDataType": "ADT_Float",
  "ValueResolverChain": [
    "Transient.AttributeInitializationDefinition_44:AttributeDefinition_90.ClassDropWeightValueResolver_44"
  ],
  "ContextResolverChain": [
    "Transient.AttributeInitializationDefinition_44:AttributeDefinition_90.NoContextNeededAttributeContextResolver_44"
  ],
  "VfTableObject": "",
  "HashNext": "",
  "ObjectFlags": "",
  "HashOuterNext": "",
  "StateFrame": "",
  "Linker": null,
  "LinkerIndex": "",
  "ObjectInternalInteger": 237531,
  "NetIndex": -1,
  "Outer": "Transient.AttributeInitializationDefinition_44",
  "Name": "AttributeDefinition_90",
  "Class": "Engine.AttributeDefinition",
  "ObjectArchetype": "Engine.Default__AttributeDefinition"
}