{
  "bIsSimpleAttribute": true,
  "AttributeDataType": "ADT_Float",
  "ValueResolverChain": [
    "Transient.AttributeInitializationDefinition_248:AttributeDefinition_489.PlayerClassAttributeValueResolver_244"
  ],
  "ContextResolverChain": [
    "Transient.AttributeInitializationDefinition_248:AttributeDefinition_489.PlayerControllerAttributeContextResolver_244"
  ],
  "VfTableObject": "",
  "HashNext": "",
  "ObjectFlags": "",
  "HashOuterNext": "",
  "StateFrame": "",
  "Linker": null,
  "LinkerIndex": "",
  "ObjectInternalInteger": 238619,
  "NetIndex": -1,
  "Outer": "Transient.AttributeInitializationDefinition_248",
  "Name": "AttributeDefinition_489",
  "Class": "Engine.AttributeDefinition",
  "ObjectArchetype": "Engine.Default__AttributeDefinition"
}