{
  "bIsSimpleAttribute": true,
  "AttributeDataType": "ADT_Float",
  "ValueResolverChain": [
    "Transient.AttributeInitializationDefinition_137:AttributeDefinition_275.PlayerClassAttributeValueResolver_137"
  ],
  "ContextResolverChain": [
    "Transient.AttributeInitializationDefinition_137:AttributeDefinition_275.PlayerControllerAttributeContextResolver_137"
  ],
  "VfTableObject": "",
  "HashNext": "",
  "ObjectFlags": "",
  "HashOuterNext": "",
  "StateFrame": "",
  "Linker": null,
  "LinkerIndex": "",
  "ObjectInternalInteger": 238612,
  "NetIndex": -1,
  "Outer": "Transient.AttributeInitializationDefinition_137",
  "Name": "AttributeDefinition_275",
  "Class": "Engine.AttributeDefinition",
  "ObjectArchetype": "Engine.Default__AttributeDefinition"
}