{
  "bIsSimpleAttribute": true,
  "AttributeDataType": "ADT_Float",
  "ValueResolverChain": [
    "Transient.AttributeInitializationDefinition_249:AttributeDefinition_492.ClassDropWeightValueResolver_245"
  ],
  "ContextResolverChain": [
    "Transient.AttributeInitializationDefinition_249:AttributeDefinition_492.NoContextNeededAttributeContextResolver_245"
  ],
  "VfTableObject": "",
  "HashNext": "",
  "ObjectFlags": "",
  "HashOuterNext": "",
  "StateFrame": "",
  "Linker": null,
  "LinkerIndex": "",
  "ObjectInternalInteger": 238609,
  "NetIndex": -1,
  "Outer": "Transient.AttributeInitializationDefinition_249",
  "Name": "AttributeDefinition_492",
  "Class": "Engine.AttributeDefinition",
  "ObjectArchetype": "Engine.Default__AttributeDefinition"
}