{
  "bIsSimpleAttribute": true,
  "AttributeDataType": "ADT_Float",
  "ValueResolverChain": [
    "Transient.AttributeInitializationDefinition_385:AttributeDefinition_763.PlayerClassAttributeValueResolver_381"
  ],
  "ContextResolverChain": [
    "Transient.AttributeInitializationDefinition_385:AttributeDefinition_763.PlayerControllerAttributeContextResolver_381"
  ],
  "VfTableObject": "",
  "HashNext": "",
  "ObjectFlags": "",
  "HashOuterNext": "",
  "StateFrame": "",
  "Linker": null,
  "LinkerIndex": "",
  "ObjectInternalInteger": 239643,
  "NetIndex": -1,
  "Outer": "Transient.AttributeInitializationDefinition_385",
  "Name": "AttributeDefinition_763",
  "Class": "Engine.AttributeDefinition",
  "ObjectArchetype": "Engine.Default__AttributeDefinition"
}