{
  "bIsSimpleAttribute": true,
  "AttributeDataType": "ADT_Float",
  "ValueResolverChain": [
    "Transient.AttributeInitializationDefinition_386:AttributeDefinition_765.PlayerClassAttributeValueResolver_382"
  ],
  "ContextResolverChain": [
    "Transient.AttributeInitializationDefinition_386:AttributeDefinition_765.PlayerControllerAttributeContextResolver_382"
  ],
  "VfTableObject": "",
  "HashNext": "",
  "ObjectFlags": "",
  "HashOuterNext": "",
  "StateFrame": "",
  "Linker": null,
  "LinkerIndex": "",
  "ObjectInternalInteger": 242911,
  "NetIndex": -1,
  "Outer": "Transient.AttributeInitializationDefinition_386",
  "Name": "AttributeDefinition_765",
  "Class": "Engine.AttributeDefinition",
  "ObjectArchetype": "Engine.Default__AttributeDefinition"
}