{
  "bIsSimpleAttribute": true,
  "AttributeDataType": "ADT_Float",
  "ValueResolverChain": [
    "Transient.AttributeInitializationDefinition_165:AttributeDefinition_332.ClassDropWeightValueResolver_165"
  ],
  "ContextResolverChain": [
    "Transient.AttributeInitializationDefinition_165:AttributeDefinition_332.NoContextNeededAttributeContextResolver_165"
  ],
  "VfTableObject": "",
  "HashNext": "",
  "ObjectFlags": "",
  "HashOuterNext": "",
  "StateFrame": "",
  "Linker": null,
  "LinkerIndex": "",
  "ObjectInternalInteger": 238579,
  "NetIndex": -1,
  "Outer": "Transient.AttributeInitializationDefinition_165",
  "Name": "AttributeDefinition_332",
  "Class": "Engine.AttributeDefinition",
  "ObjectArchetype": "Engine.Default__AttributeDefinition"
}