{
  "bIsSimpleAttribute": true,
  "AttributeDataType": "ADT_Float",
  "ValueResolverChain": [
    "Transient.AttributeInitializationDefinition_132:AttributeDefinition_266.ClassDropWeightValueResolver_132"
  ],
  "ContextResolverChain": [
    "Transient.AttributeInitializationDefinition_132:AttributeDefinition_266.NoContextNeededAttributeContextResolver_132"
  ],
  "VfTableObject": "",
  "HashNext": "",
  "ObjectFlags": "",
  "HashOuterNext": "",
  "StateFrame": "",
  "Linker": null,
  "LinkerIndex": "",
  "ObjectInternalInteger": 238567,
  "NetIndex": -1,
  "Outer": "Transient.AttributeInitializationDefinition_132",
  "Name": "AttributeDefinition_266",
  "Class": "Engine.AttributeDefinition",
  "ObjectArchetype": "Engine.Default__AttributeDefinition"
}