{
  "bIsSimpleAttribute": true,
  "AttributeDataType": "ADT_Float",
  "ValueResolverChain": [
    "Transient.AttributeInitializationDefinition_115:AttributeDefinition_231.PlayerClassAttributeValueResolver_115"
  ],
  "ContextResolverChain": [
    "Transient.AttributeInitializationDefinition_115:AttributeDefinition_231.PlayerControllerAttributeContextResolver_115"
  ],
  "VfTableObject": "",
  "HashNext": "",
  "ObjectFlags": "",
  "HashOuterNext": "",
  "StateFrame": "",
  "Linker": null,
  "LinkerIndex": "",
  "ObjectInternalInteger": 238598,
  "NetIndex": -1,
  "Outer": "Transient.AttributeInitializationDefinition_115",
  "Name": "AttributeDefinition_231",
  "Class": "Engine.AttributeDefinition",
  "ObjectArchetype": "Engine.Default__AttributeDefinition"
}