{
  "bIsSimpleAttribute": true,
  "AttributeDataType": "ADT_Float",
  "ValueResolverChain": [
    "Transient.AttributeInitializationDefinition_205:AttributeDefinition_403.PlayerClassAttributeValueResolver_201"
  ],
  "ContextResolverChain": [
    "Transient.AttributeInitializationDefinition_205:AttributeDefinition_403.PlayerControllerAttributeContextResolver_201"
  ],
  "VfTableObject": "",
  "HashNext": "",
  "ObjectFlags": "",
  "HashOuterNext": "",
  "StateFrame": "",
  "Linker": null,
  "LinkerIndex": "",
  "ObjectInternalInteger": 238582,
  "NetIndex": -1,
  "Outer": "Transient.AttributeInitializationDefinition_205",
  "Name": "AttributeDefinition_403",
  "Class": "Engine.AttributeDefinition",
  "ObjectArchetype": "Engine.Default__AttributeDefinition"
}