{
  "bIsSimpleAttribute": true,
  "AttributeDataType": "ADT_Float",
  "ValueResolverChain": [
    "Transient.AttributeInitializationDefinition_33:AttributeDefinition_68.ClassDropWeightValueResolver_33"
  ],
  "ContextResolverChain": [
    "Transient.AttributeInitializationDefinition_33:AttributeDefinition_68.NoContextNeededAttributeContextResolver_33"
  ],
  "VfTableObject": "",
  "HashNext": "",
  "ObjectFlags": "",
  "HashOuterNext": "",
  "StateFrame": "",
  "Linker": null,
  "LinkerIndex": "",
  "ObjectInternalInteger": 219573,
  "NetIndex": -1,
  "Outer": "Transient.AttributeInitializationDefinition_33",
  "Name": "AttributeDefinition_68",
  "Class": "Engine.AttributeDefinition",
  "ObjectArchetype": "Engine.Default__AttributeDefinition"
}