{
  "bIsSimpleAttribute": true,
  "AttributeDataType": "ADT_Float",
  "ValueResolverChain": [
    "Transient.AttributeInitializationDefinition_244:AttributeDefinition_481.PlayerClassAttributeValueResolver_240"
  ],
  "ContextResolverChain": [
    "Transient.AttributeInitializationDefinition_244:AttributeDefinition_481.PlayerControllerAttributeContextResolver_240"
  ],
  "VfTableObject": "",
  "HashNext": "",
  "ObjectFlags": "",
  "HashOuterNext": "",
  "StateFrame": "",
  "Linker": null,
  "LinkerIndex": "",
  "ObjectInternalInteger": 238574,
  "NetIndex": -1,
  "Outer": "Transient.AttributeInitializationDefinition_244",
  "Name": "AttributeDefinition_481",
  "Class": "Engine.AttributeDefinition",
  "ObjectArchetype": "Engine.Default__AttributeDefinition"
}