{
  "bIsSimpleAttribute": true,
  "AttributeDataType": "ADT_Float",
  "ValueResolverChain": [
    "Transient.AttributeInitializationDefinition_24:AttributeDefinition_50.ClassDropWeightValueResolver_24"
  ],
  "ContextResolverChain": [
    "Transient.AttributeInitializationDefinition_24:AttributeDefinition_50.NoContextNeededAttributeContextResolver_24"
  ],
  "VfTableObject": "",
  "HashNext": "",
  "ObjectFlags": "",
  "HashOuterNext": "",
  "StateFrame": "",
  "Linker": null,
  "LinkerIndex": "",
  "ObjectInternalInteger": 237512,
  "NetIndex": -1,
  "Outer": "Transient.AttributeInitializationDefinition_24",
  "Name": "AttributeDefinition_50",
  "Class": "Engine.AttributeDefinition",
  "ObjectArchetype": "Engine.Default__AttributeDefinition"
}