{
  "bIsSimpleAttribute": true,
  "AttributeDataType": "ADT_Float",
  "ValueResolverChain": [
    "Transient.AttributeInitializationDefinition_414:AttributeDefinition_821.PlayerClassAttributeValueResolver_410"
  ],
  "ContextResolverChain": [
    "Transient.AttributeInitializationDefinition_414:AttributeDefinition_821.PlayerControllerAttributeContextResolver_410"
  ],
  "VfTableObject": "",
  "HashNext": "",
  "ObjectFlags": "",
  "HashOuterNext": "",
  "StateFrame": "",
  "Linker": null,
  "LinkerIndex": "",
  "ObjectInternalInteger": 242883,
  "NetIndex": -1,
  "Outer": "Transient.AttributeInitializationDefinition_414",
  "Name": "AttributeDefinition_821",
  "Class": "Engine.AttributeDefinition",
  "ObjectArchetype": "Engine.Default__AttributeDefinition"
}