{
  "bIsSimpleAttribute": true,
  "AttributeDataType": "ADT_Float",
  "ValueResolverChain": [
    "Transient.AttributeInitializationDefinition_42:AttributeDefinition_85.PlayerClassAttributeValueResolver_42"
  ],
  "ContextResolverChain": [
    "Transient.AttributeInitializationDefinition_42:AttributeDefinition_85.PlayerControllerAttributeContextResolver_42"
  ],
  "VfTableObject": "",
  "HashNext": "",
  "ObjectFlags": "",
  "HashOuterNext": "",
  "StateFrame": "",
  "Linker": null,
  "LinkerIndex": "",
  "ObjectInternalInteger": 237550,
  "NetIndex": -1,
  "Outer": "Transient.AttributeInitializationDefinition_42",
  "Name": "AttributeDefinition_85",
  "Class": "Engine.AttributeDefinition",
  "ObjectArchetype": "Engine.Default__AttributeDefinition"
}