{
  "bIsSimpleAttribute": true,
  "AttributeDataType": "ADT_Float",
  "ValueResolverChain": [
    "Transient.AttributeInitializationDefinition_403:AttributeDefinition_799.PlayerClassAttributeValueResolver_399"
  ],
  "ContextResolverChain": [
    "Transient.AttributeInitializationDefinition_403:AttributeDefinition_799.PlayerControllerAttributeContextResolver_399"
  ],
  "VfTableObject": "",
  "HashNext": "",
  "ObjectFlags": "",
  "HashOuterNext": "",
  "StateFrame": "",
  "Linker": null,
  "LinkerIndex": "",
  "ObjectInternalInteger": 242876,
  "NetIndex": -1,
  "Outer": "Transient.AttributeInitializationDefinition_403",
  "Name": "AttributeDefinition_799",
  "Class": "Engine.AttributeDefinition",
  "ObjectArchetype": "Engine.Default__AttributeDefinition"
}