{
  "bIsSimpleAttribute": true,
  "AttributeDataType": "ADT_Float",
  "ValueResolverChain": [
    "Transient.AttributeInitializationDefinition_66:AttributeDefinition_133.PlayerClassAttributeValueResolver_66"
  ],
  "ContextResolverChain": [
    "Transient.AttributeInitializationDefinition_66:AttributeDefinition_133.PlayerControllerAttributeContextResolver_66"
  ],
  "VfTableObject": "",
  "HashNext": "",
  "ObjectFlags": "",
  "HashOuterNext": "",
  "StateFrame": "",
  "Linker": null,
  "LinkerIndex": "",
  "ObjectInternalInteger": 239949,
  "NetIndex": -1,
  "Outer": "Transient.AttributeInitializationDefinition_66",
  "Name": "AttributeDefinition_133",
  "Class": "Engine.AttributeDefinition",
  "ObjectArchetype": "Engine.Default__AttributeDefinition"
}