{
  "bIsSimpleAttribute": true,
  "AttributeDataType": "ADT_Float",
  "ValueResolverChain": [
    "Transient.AttributeInitializationDefinition_146:AttributeDefinition_293.PlayerClassAttributeValueResolver_146"
  ],
  "ContextResolverChain": [
    "Transient.AttributeInitializationDefinition_146:AttributeDefinition_293.PlayerControllerAttributeContextResolver_146"
  ],
  "VfTableObject": "",
  "HashNext": "",
  "ObjectFlags": "",
  "HashOuterNext": "",
  "StateFrame": "",
  "Linker": null,
  "LinkerIndex": "",
  "ObjectInternalInteger": 238556,
  "NetIndex": -1,
  "Outer": "Transient.AttributeInitializationDefinition_146",
  "Name": "AttributeDefinition_293",
  "Class": "Engine.AttributeDefinition",
  "ObjectArchetype": "Engine.Default__AttributeDefinition"
}