{
  "bIsSimpleAttribute": true,
  "AttributeDataType": "ADT_Float",
  "ValueResolverChain": [
    "Transient.AttributeInitializationDefinition_47:AttributeDefinition_95.PlayerClassAttributeValueResolver_47"
  ],
  "ContextResolverChain": [
    "Transient.AttributeInitializationDefinition_47:AttributeDefinition_95.PlayerControllerAttributeContextResolver_47"
  ],
  "VfTableObject": "",
  "HashNext": "",
  "ObjectFlags": "",
  "HashOuterNext": "",
  "StateFrame": "",
  "Linker": null,
  "LinkerIndex": "",
  "ObjectInternalInteger": 239995,
  "NetIndex": -1,
  "Outer": "Transient.AttributeInitializationDefinition_47",
  "Name": "AttributeDefinition_95",
  "Class": "Engine.AttributeDefinition",
  "ObjectArchetype": "Engine.Default__AttributeDefinition"
}