{
  "bIsSimpleAttribute": true,
  "AttributeDataType": "ADT_Float",
  "ValueResolverChain": [
    "Transient.AttributeInitializationDefinition_254:AttributeDefinition_502.ClassDropWeightValueResolver_250"
  ],
  "ContextResolverChain": [
    "Transient.AttributeInitializationDefinition_254:AttributeDefinition_502.NoContextNeededAttributeContextResolver_250"
  ],
  "VfTableObject": "",
  "HashNext": "",
  "ObjectFlags": "",
  "HashOuterNext": "",
  "StateFrame": "",
  "Linker": null,
  "LinkerIndex": "",
  "ObjectInternalInteger": 238623,
  "NetIndex": -1,
  "Outer": "Transient.AttributeInitializationDefinition_254",
  "Name": "AttributeDefinition_502",
  "Class": "Engine.AttributeDefinition",
  "ObjectArchetype": "Engine.Default__AttributeDefinition"
}