{
  "bIsSimpleAttribute": true,
  "AttributeDataType": "ADT_Float",
  "ValueResolverChain": [
    "Transient.AttributeInitializationDefinition_36:AttributeDefinition_73.PlayerClassAttributeValueResolver_36"
  ],
  "ContextResolverChain": [
    "Transient.AttributeInitializationDefinition_36:AttributeDefinition_73.PlayerControllerAttributeContextResolver_36"
  ],
  "VfTableObject": "",
  "HashNext": "",
  "ObjectFlags": "",
  "HashOuterNext": "",
  "StateFrame": "",
  "Linker": null,
  "LinkerIndex": "",
  "ObjectInternalInteger": 237517,
  "NetIndex": -1,
  "Outer": "Transient.AttributeInitializationDefinition_36",
  "Name": "AttributeDefinition_73",
  "Class": "Engine.AttributeDefinition",
  "ObjectArchetype": "Engine.Default__AttributeDefinition"
}