{
  "bIsSimpleAttribute": true,
  "AttributeDataType": "ADT_Float",
  "ValueResolverChain": [
    "Transient.AttributeInitializationDefinition_301:AttributeDefinition_596.ClassDropWeightValueResolver_297"
  ],
  "ContextResolverChain": [
    "Transient.AttributeInitializationDefinition_301:AttributeDefinition_596.NoContextNeededAttributeContextResolver_297"
  ],
  "VfTableObject": "",
  "HashNext": "",
  "ObjectFlags": "",
  "HashOuterNext": "",
  "StateFrame": "",
  "Linker": null,
  "LinkerIndex": "",
  "ObjectInternalInteger": 238546,
  "NetIndex": -1,
  "Outer": "Transient.AttributeInitializationDefinition_301",
  "Name": "AttributeDefinition_596",
  "Class": "Engine.AttributeDefinition",
  "ObjectArchetype": "Engine.Default__AttributeDefinition"
}