{
  "bIsSimpleAttribute": true,
  "AttributeDataType": "ADT_Float",
  "ValueResolverChain": [
    "Transient.AttributeInitializationDefinition_104:AttributeDefinition_210.ClassDropWeightValueResolver_104"
  ],
  "ContextResolverChain": [
    "Transient.AttributeInitializationDefinition_104:AttributeDefinition_210.NoContextNeededAttributeContextResolver_104"
  ],
  "VfTableObject": "",
  "HashNext": "",
  "ObjectFlags": "",
  "HashOuterNext": "",
  "StateFrame": "",
  "Linker": null,
  "LinkerIndex": "",
  "ObjectInternalInteger": 239887,
  "NetIndex": -1,
  "Outer": "Transient.AttributeInitializationDefinition_104",
  "Name": "AttributeDefinition_210",
  "Class": "Engine.AttributeDefinition",
  "ObjectArchetype": "Engine.Default__AttributeDefinition"
}