{
  "bIsSimpleAttribute": true,
  "AttributeDataType": "ADT_Float",
  "ValueResolverChain": [
    "Transient.AttributeInitializationDefinition_26:AttributeDefinition_53.PlayerClassAttributeValueResolver_26"
  ],
  "ContextResolverChain": [
    "Transient.AttributeInitializationDefinition_26:AttributeDefinition_53.PlayerControllerAttributeContextResolver_26"
  ],
  "VfTableObject": "",
  "HashNext": "",
  "ObjectFlags": "",
  "HashOuterNext": "",
  "StateFrame": "",
  "Linker": null,
  "LinkerIndex": "",
  "ObjectInternalInteger": 237501,
  "NetIndex": -1,
  "Outer": "Transient.AttributeInitializationDefinition_26",
  "Name": "AttributeDefinition_53",
  "Class": "Engine.AttributeDefinition",
  "ObjectArchetype": "Engine.Default__AttributeDefinition"
}