{
  "bIsSimpleAttribute": true,
  "AttributeDataType": "ADT_Float",
  "ValueResolverChain": [
    "Transient.AttributeInitializationDefinition_308:AttributeDefinition_609.PlayerClassAttributeValueResolver_304"
  ],
  "ContextResolverChain": [
    "Transient.AttributeInitializationDefinition_308:AttributeDefinition_609.PlayerControllerAttributeContextResolver_304"
  ],
  "VfTableObject": "",
  "HashNext": "",
  "ObjectFlags": "",
  "HashOuterNext": "",
  "StateFrame": "",
  "Linker": null,
  "LinkerIndex": "",
  "ObjectInternalInteger": 238619,
  "NetIndex": -1,
  "Outer": "Transient.AttributeInitializationDefinition_308",
  "Name": "AttributeDefinition_609",
  "Class": "Engine.AttributeDefinition",
  "ObjectArchetype": "Engine.Default__AttributeDefinition"
}