{
  "bIsSimpleAttribute": true,
  "AttributeDataType": "ADT_Float",
  "ValueResolverChain": [
    "Transient.AttributeInitializationDefinition_80:AttributeDefinition_162.ClassDropWeightValueResolver_80"
  ],
  "ContextResolverChain": [
    "Transient.AttributeInitializationDefinition_80:AttributeDefinition_162.NoContextNeededAttributeContextResolver_80"
  ],
  "VfTableObject": "",
  "HashNext": "",
  "ObjectFlags": "",
  "HashOuterNext": "",
  "StateFrame": "",
  "Linker": null,
  "LinkerIndex": "",
  "ObjectInternalInteger": 237531,
  "NetIndex": -1,
  "Outer": "Transient.AttributeInitializationDefinition_80",
  "Name": "AttributeDefinition_162",
  "Class": "Engine.AttributeDefinition",
  "ObjectArchetype": "Engine.Default__AttributeDefinition"
}