{
  "bIsSimpleAttribute": true,
  "AttributeDataType": "ADT_Float",
  "ValueResolverChain": [
    "Transient.AttributeInitializationDefinition_133:AttributeDefinition_267.PlayerClassAttributeValueResolver_133"
  ],
  "ContextResolverChain": [
    "Transient.AttributeInitializationDefinition_133:AttributeDefinition_267.PlayerControllerAttributeContextResolver_133"
  ],
  "VfTableObject": "",
  "HashNext": "",
  "ObjectFlags": "",
  "HashOuterNext": "",
  "StateFrame": "",
  "Linker": null,
  "LinkerIndex": "",
  "ObjectInternalInteger": 238563,
  "NetIndex": -1,
  "Outer": "Transient.AttributeInitializationDefinition_133",
  "Name": "AttributeDefinition_267",
  "Class": "Engine.AttributeDefinition",
  "ObjectArchetype": "Engine.Default__AttributeDefinition"
}