{
  "bIsSimpleAttribute": true,
  "AttributeDataType": "ADT_Float",
  "ValueResolverChain": [
    "Transient.AttributeInitializationDefinition_251:AttributeDefinition_496.ClassDropWeightValueResolver_247"
  ],
  "ContextResolverChain": [
    "Transient.AttributeInitializationDefinition_251:AttributeDefinition_496.NoContextNeededAttributeContextResolver_247"
  ],
  "VfTableObject": "",
  "HashNext": "",
  "ObjectFlags": "",
  "HashOuterNext": "",
  "StateFrame": "",
  "Linker": null,
  "LinkerIndex": "",
  "ObjectInternalInteger": 238595,
  "NetIndex": -1,
  "Outer": "Transient.AttributeInitializationDefinition_251",
  "Name": "AttributeDefinition_496",
  "Class": "Engine.AttributeDefinition",
  "ObjectArchetype": "Engine.Default__AttributeDefinition"
}