{
  "bIsSimpleAttribute": true,
  "AttributeDataType": "ADT_Float",
  "ValueResolverChain": [
    "Transient.AttributeInitializationDefinition_28:AttributeDefinition_57.PlayerClassAttributeValueResolver_28"
  ],
  "ContextResolverChain": [
    "Transient.AttributeInitializationDefinition_28:AttributeDefinition_57.PlayerControllerAttributeContextResolver_28"
  ],
  "VfTableObject": "",
  "HashNext": "",
  "ObjectFlags": "",
  "HashOuterNext": "",
  "StateFrame": "",
  "Linker": null,
  "LinkerIndex": "",
  "ObjectInternalInteger": 219865,
  "NetIndex": -1,
  "Outer": "Transient.AttributeInitializationDefinition_28",
  "Name": "AttributeDefinition_57",
  "Class": "Engine.AttributeDefinition",
  "ObjectArchetype": "Engine.Default__AttributeDefinition"
}