{
  "bIsSimpleAttribute": true,
  "AttributeDataType": "ADT_Float",
  "ValueResolverChain": [
    "Transient.AttributeInitializationDefinition_271:AttributeDefinition_535.PlayerClassAttributeValueResolver_267"
  ],
  "ContextResolverChain": [
    "Transient.AttributeInitializationDefinition_271:AttributeDefinition_535.PlayerControllerAttributeContextResolver_267"
  ],
  "VfTableObject": "",
  "HashNext": "",
  "ObjectFlags": "",
  "HashOuterNext": "",
  "StateFrame": "",
  "Linker": null,
  "LinkerIndex": "",
  "ObjectInternalInteger": 238553,
  "NetIndex": -1,
  "Outer": "Transient.AttributeInitializationDefinition_271",
  "Name": "AttributeDefinition_535",
  "Class": "Engine.AttributeDefinition",
  "ObjectArchetype": "Engine.Default__AttributeDefinition"
}