{
  "bIsSimpleAttribute": true,
  "AttributeDataType": "ADT_Float",
  "ValueResolverChain": [
    "Transient.AttributeInitializationDefinition_91:AttributeDefinition_184.ClassDropWeightValueResolver_91"
  ],
  "ContextResolverChain": [
    "Transient.AttributeInitializationDefinition_91:AttributeDefinition_184.NoContextNeededAttributeContextResolver_91"
  ],
  "VfTableObject": "",
  "HashNext": "",
  "ObjectFlags": "",
  "HashOuterNext": "",
  "StateFrame": "",
  "Linker": null,
  "LinkerIndex": "",
  "ObjectInternalInteger": 237538,
  "NetIndex": -1,
  "Outer": "Transient.AttributeInitializationDefinition_91",
  "Name": "AttributeDefinition_184",
  "Class": "Engine.AttributeDefinition",
  "ObjectArchetype": "Engine.Default__AttributeDefinition"
}