{
  "bIsSimpleAttribute": true,
  "AttributeDataType": "ADT_Float",
  "ValueResolverChain": [
    "Transient.AttributeInitializationDefinition_174:AttributeDefinition_341.PlayerClassAttributeValueResolver_170"
  ],
  "ContextResolverChain": [
    "Transient.AttributeInitializationDefinition_174:AttributeDefinition_341.PlayerControllerAttributeContextResolver_170"
  ],
  "VfTableObject": "",
  "HashNext": "",
  "ObjectFlags": "",
  "HashOuterNext": "",
  "StateFrame": "",
  "Linker": null,
  "LinkerIndex": "",
  "ObjectInternalInteger": 238558,
  "NetIndex": -1,
  "Outer": "Transient.AttributeInitializationDefinition_174",
  "Name": "AttributeDefinition_341",
  "Class": "Engine.AttributeDefinition",
  "ObjectArchetype": "Engine.Default__AttributeDefinition"
}