{
  "bIsSimpleAttribute": true,
  "AttributeDataType": "ADT_Float",
  "ValueResolverChain": [
    "Transient.AttributeInitializationDefinition_181:AttributeDefinition_356.ClassDropWeightValueResolver_177"
  ],
  "ContextResolverChain": [
    "Transient.AttributeInitializationDefinition_181:AttributeDefinition_356.NoContextNeededAttributeContextResolver_177"
  ],
  "VfTableObject": "",
  "HashNext": "",
  "ObjectFlags": "",
  "HashOuterNext": "",
  "StateFrame": "",
  "Linker": null,
  "LinkerIndex": "",
  "ObjectInternalInteger": 238579,
  "NetIndex": -1,
  "Outer": "Transient.AttributeInitializationDefinition_181",
  "Name": "AttributeDefinition_356",
  "Class": "Engine.AttributeDefinition",
  "ObjectArchetype": "Engine.Default__AttributeDefinition"
}