{
  "bIsSimpleAttribute": true,
  "AttributeDataType": "ADT_Float",
  "ValueResolverChain": [
    "Transient.AttributeInitializationDefinition_446:AttributeDefinition_877.PlayerClassAttributeValueResolver_438"
  ],
  "ContextResolverChain": [
    "Transient.AttributeInitializationDefinition_446:AttributeDefinition_877.PlayerControllerAttributeContextResolver_438"
  ],
  "VfTableObject": "",
  "HashNext": "",
  "ObjectFlags": "",
  "HashOuterNext": "",
  "StateFrame": "",
  "Linker": null,
  "LinkerIndex": "",
  "ObjectInternalInteger": 242855,
  "NetIndex": -1,
  "Outer": "Transient.AttributeInitializationDefinition_446",
  "Name": "AttributeDefinition_877",
  "Class": "Engine.AttributeDefinition",
  "ObjectArchetype": "Engine.Default__AttributeDefinition"
}