{
  "bIsSimpleAttribute": true,
  "AttributeDataType": "ADT_Float",
  "ValueResolverChain": [
    "Transient.AttributeInitializationDefinition_87:AttributeDefinition_176.ClassDropWeightValueResolver_87"
  ],
  "ContextResolverChain": [
    "Transient.AttributeInitializationDefinition_87:AttributeDefinition_176.NoContextNeededAttributeContextResolver_87"
  ],
  "VfTableObject": "",
  "HashNext": "",
  "ObjectFlags": "",
  "HashOuterNext": "",
  "StateFrame": "",
  "Linker": null,
  "LinkerIndex": "",
  "ObjectInternalInteger": 239771,
  "NetIndex": -1,
  "Outer": "Transient.AttributeInitializationDefinition_87",
  "Name": "AttributeDefinition_176",
  "Class": "Engine.AttributeDefinition",
  "ObjectArchetype": "Engine.Default__AttributeDefinition"
}