{
  "bIsSimpleAttribute": true,
  "AttributeDataType": "ADT_Float",
  "ValueResolverChain": [
    "Transient.AttributeInitializationDefinition_141:AttributeDefinition_283.PlayerClassAttributeValueResolver_141"
  ],
  "ContextResolverChain": [
    "Transient.AttributeInitializationDefinition_141:AttributeDefinition_283.PlayerControllerAttributeContextResolver_141"
  ],
  "VfTableObject": "",
  "HashNext": "",
  "ObjectFlags": "",
  "HashOuterNext": "",
  "StateFrame": "",
  "Linker": null,
  "LinkerIndex": "",
  "ObjectInternalInteger": 238584,
  "NetIndex": -1,
  "Outer": "Transient.AttributeInitializationDefinition_141",
  "Name": "AttributeDefinition_283",
  "Class": "Engine.AttributeDefinition",
  "ObjectArchetype": "Engine.Default__AttributeDefinition"
}