{
  "bIsSimpleAttribute": true,
  "AttributeDataType": "ADT_Float",
  "ValueResolverChain": [
    "Transient.AttributeInitializationDefinition_120:AttributeDefinition_242.ClassDropWeightValueResolver_120"
  ],
  "ContextResolverChain": [
    "Transient.AttributeInitializationDefinition_120:AttributeDefinition_242.NoContextNeededAttributeContextResolver_120"
  ],
  "VfTableObject": "",
  "HashNext": "",
  "ObjectFlags": "",
  "HashOuterNext": "",
  "StateFrame": "",
  "Linker": null,
  "LinkerIndex": "",
  "ObjectInternalInteger": 238567,
  "NetIndex": -1,
  "Outer": "Transient.AttributeInitializationDefinition_120",
  "Name": "AttributeDefinition_242",
  "Class": "Engine.AttributeDefinition",
  "ObjectArchetype": "Engine.Default__AttributeDefinition"
}