{
  "bIsSimpleAttribute": true,
  "AttributeDataType": "ADT_Float",
  "ValueResolverChain": [
    "Transient.AttributeInitializationDefinition_334:AttributeDefinition_662.ClassDropWeightValueResolver_330"
  ],
  "ContextResolverChain": [
    "Transient.AttributeInitializationDefinition_334:AttributeDefinition_662.NoContextNeededAttributeContextResolver_330"
  ],
  "VfTableObject": "",
  "HashNext": "",
  "ObjectFlags": "",
  "HashOuterNext": "",
  "StateFrame": "",
  "Linker": null,
  "LinkerIndex": "",
  "ObjectInternalInteger": 238602,
  "NetIndex": -1,
  "Outer": "Transient.AttributeInitializationDefinition_334",
  "Name": "AttributeDefinition_662",
  "Class": "Engine.AttributeDefinition",
  "ObjectArchetype": "Engine.Default__AttributeDefinition"
}