{
  "bIsSimpleAttribute": true,
  "AttributeDataType": "ADT_Float",
  "ValueResolverChain": [
    "Transient.AttributeInitializationDefinition_411:AttributeDefinition_815.PlayerClassAttributeValueResolver_407"
  ],
  "ContextResolverChain": [
    "Transient.AttributeInitializationDefinition_411:AttributeDefinition_815.PlayerControllerAttributeContextResolver_407"
  ],
  "VfTableObject": "",
  "HashNext": "",
  "ObjectFlags": "",
  "HashOuterNext": "",
  "StateFrame": "",
  "Linker": null,
  "LinkerIndex": "",
  "ObjectInternalInteger": 242904,
  "NetIndex": -1,
  "Outer": "Transient.AttributeInitializationDefinition_411",
  "Name": "AttributeDefinition_815",
  "Class": "Engine.AttributeDefinition",
  "ObjectArchetype": "Engine.Default__AttributeDefinition"
}