{
  "AssociatedWeaponType": null,
  "BodyPartData": { "bEnabled": false, "WeightedParts": null },
  "GripPartData": { "bEnabled": false, "WeightedParts": null },
  "BarrelPartData": {
    "bEnabled": false,
    "WeightedParts": [
      {
        "Part": "GD_Weap_Pistol.Barrel.Pistol_Barrel_Dahl_Tinderbox",
        "Manufacturers": null,
        "MinGameStageIndex": 0,
        "MaxGameStageIndex": 1,
        "DefaultWeightIndex": 2
      }
    ]
  },
  "SightPartData": { "bEnabled": false, "WeightedParts": null },
  "StockPartData": { "bEnabled": false, "WeightedParts": null },
  "ElementalPartData": {
    "bEnabled": false,
    "WeightedParts": [
      {
        "Part": "GD_Weap_Pistol.elemental.Pistol_Elemental_Slag",
        "Manufacturers": null,
        "MinGameStageIndex": 0,
        "MaxGameStageIndex": 1,
        "DefaultWeightIndex": 2
      }
    ]
  },
  "Accessory1PartData": { "bEnabled": false, "WeightedParts": null },
  "Accessory2PartData": { "bEnabled": false, "WeightedParts": null },
  "MaterialPartData": {
    "bEnabled": false,
    "WeightedParts": [
      {
        "Part": "GD_Weap_Pistol.ManufacturerMaterials.Mat_Bandit_3_Tinderbox",
        "Manufacturers": null,
        "MinGameStageIndex": 0,
        "MaxGameStageIndex": 1,
        "DefaultWeightIndex": 2
      }
    ]
  },
  "PartReplacementMode": "EPRM_Additive",
  "ConsolidatedAttributeInitData": [
    {
      "BaseValueConstant": 1.0,
      "BaseValueAttribute": null,
      "InitializationDefinition": null,
      "BaseValueScaleConstant": 1.0
    },
    {
      "BaseValueConstant": 100.0,
      "BaseValueAttribute": null,
      "InitializationDefinition": null,
      "BaseValueScaleConstant": 1.0
    },
    {
      "BaseValueConstant": 0.0,
      "BaseValueAttribute": null,
      "InitializationDefinition": null,
      "BaseValueScaleConstant": 1.0
    }
  ],
  "VfTableObject": "",
  "HashNext": "",
  "ObjectFlags": "",
  "HashOuterNext": "",
  "StateFrame": "",
  "Linker": null,
  "LinkerIndex": "",
  "ObjectInternalInteger": 162973,
  "NetIndex": 1999,
  "Outer": "GD_Allium_TG_Plot_M01Data.Weapons.Weapon_JabberSlagWeapon",
  "Name": "PartList",
  "Class": "WillowGame.WeaponPartListCollectionDefinition",
  "ObjectArchetype": "WillowGame.Default__WeaponBalanceDefinition:PartList"
}