{
  "AssociatedWeaponType": null,
  "BodyPartData": { "bEnabled": false, "WeightedParts": null },
  "GripPartData": { "bEnabled": false, "WeightedParts": null },
  "BarrelPartData": { "bEnabled": false, "WeightedParts": null },
  "SightPartData": { "bEnabled": false, "WeightedParts": null },
  "StockPartData": { "bEnabled": false, "WeightedParts": null },
  "ElementalPartData": { "bEnabled": false, "WeightedParts": null },
  "Accessory1PartData": { "bEnabled": false, "WeightedParts": null },
  "Accessory2PartData": { "bEnabled": false, "WeightedParts": null },
  "MaterialPartData": {
    "bEnabled": true,
    "WeightedParts": [
      {
        "Part":
          "GD_Aster_Weapons.ManufacturerMaterials.Mat_Dahl_4_Emerald_SR",
        "Manufacturers": null,
        "MinGameStageIndex": 0,
        "MaxGameStageIndex": 1,
        "DefaultWeightIndex": 2
      }
    ]
  },
  "PartReplacementMode": "EPRM_Selective",
  "ConsolidatedAttributeInitData": [
    {
      "BaseValueConstant": 1.0,
      "BaseValueAttribute": null,
      "InitializationDefinition": null,
      "BaseValueScaleConstant": 1.0
    },
    {
      "BaseValueConstant": 100.0,
      "BaseValueAttribute": null,
      "InitializationDefinition": null,
      "BaseValueScaleConstant": 1.0
    },
    {
      "BaseValueConstant": 0.0,
      "BaseValueAttribute": null,
      "InitializationDefinition": null,
      "BaseValueScaleConstant": 1.0
    }
  ],
  "VfTableObject": "",
  "HashNext": "",
  "ObjectFlags": "",
  "HashOuterNext": "",
  "StateFrame": "",
  "Linker": null,
  "LinkerIndex": "",
  "ObjectInternalInteger": 166217,
  "NetIndex": 381,
  "Outer": "GD_Aster_Weapons.Snipers.SR_Dahl_4_Emerald",
  "Name": "PartList",
  "Class": "WillowGame.WeaponPartListCollectionDefinition",
  "ObjectArchetype": "WillowGame.Default__WeaponBalanceDefinition:PartList"
}