{
  "AssociatedWeaponType": "GD_Lilac_SkillsBase.Buzzaxe.WeaponType_Buzzaxe",
  "BodyPartData": {
    "bEnabled": true,
    "WeightedParts": [
      {
        "Part": "GD_Lilac_SkillsBase.Buzzaxe.Dynamite_Buzzaxe",
        "Manufacturers": [
          {
            "Manufacturer": "GD_Manufacturers.Manufacturers.Bandit",
            "DefaultWeightIndex": 3
          }
        ],
        "MinGameStageIndex": 0,
        "MaxGameStageIndex": 1,
        "DefaultWeightIndex": 2
      }
    ]
  },
  "GripPartData": {
    "bEnabled": true,
    "WeightedParts": [
      {
        "Part": "GD_Lilac_SkillsBase.Buzzaxe.Grip_Buzzaxe",
        "Manufacturers": [
          {
            "Manufacturer": "GD_Manufacturers.Manufacturers.Bandit",
            "DefaultWeightIndex": 1
          }
        ],
        "MinGameStageIndex": 0,
        "MaxGameStageIndex": 1,
        "DefaultWeightIndex": 0
      }
    ]
  },
  "BarrelPartData": {
    "bEnabled": true,
    "WeightedParts": [
      {
        "Part": "GD_Lilac_SkillsBase.Buzzaxe.Blades_Buzzaxe",
        "Manufacturers": [
          {
            "Manufacturer": "GD_Manufacturers.Manufacturers.Bandit",
            "DefaultWeightIndex": 4
          }
        ],
        "MinGameStageIndex": 0,
        "MaxGameStageIndex": 1,
        "DefaultWeightIndex": 2
      }
    ]
  },
  "SightPartData": { "bEnabled": false, "WeightedParts": null },
  "StockPartData": {
    "bEnabled": true,
    "WeightedParts": [
      {
        "Part": "GD_Lilac_SkillsBase.Buzzaxe.BottomSpike_Buzzaxe",
        "Manufacturers": [
          {
            "Manufacturer": "GD_Manufacturers.Manufacturers.Bandit",
            "DefaultWeightIndex": 5
          }
        ],
        "MinGameStageIndex": 0,
        "MaxGameStageIndex": 1,
        "DefaultWeightIndex": 2
      }
    ]
  },
  "ElementalPartData": { "bEnabled": false, "WeightedParts": null },
  "Accessory1PartData": {
    "bEnabled": true,
    "WeightedParts": [
      {
        "Part": "GD_Lilac_SkillsBase.Buzzaxe.Claw_Buzzaxe",
        "Manufacturers": [
          {
            "Manufacturer": "GD_Manufacturers.Manufacturers.Bandit",
            "DefaultWeightIndex": 6
          }
        ],
        "MinGameStageIndex": 0,
        "MaxGameStageIndex": 1,
        "DefaultWeightIndex": 2
      }
    ]
  },
  "Accessory2PartData": { "bEnabled": false, "WeightedParts": null },
  "MaterialPartData": {
    "bEnabled": true,
    "WeightedParts": [
      {
        "Part": "GD_Lilac_SkillsBase.Buzzaxe.Material_Buzzaxe",
        "Manufacturers": [
          {
            "Manufacturer": "GD_Manufacturers.Manufacturers.Bandit",
            "DefaultWeightIndex": 7
          }
        ],
        "MinGameStageIndex": 0,
        "MaxGameStageIndex": 1,
        "DefaultWeightIndex": 0
      },
      {
        "Part": "GD_Lilac_SkillsBase.Buzzaxe.Material_Buzzaxe_Fire",
        "Manufacturers": [
          {
            "Manufacturer": "GD_Manufacturers.Manufacturers.Bandit",
            "DefaultWeightIndex": 8
          }
        ],
        "MinGameStageIndex": 0,
        "MaxGameStageIndex": 1,
        "DefaultWeightIndex": 0
      }
    ]
  },
  "PartReplacementMode": "EPRM_Complete",
  "ConsolidatedAttributeInitData": [
    {
      "BaseValueConstant": 1.0,
      "BaseValueAttribute": null,
      "InitializationDefinition": null,
      "BaseValueScaleConstant": 1.0
    },
    {
      "BaseValueConstant": 100.0,
      "BaseValueAttribute": null,
      "InitializationDefinition": null,
      "BaseValueScaleConstant": 1.0
    },
    {
      "BaseValueConstant": 0.0,
      "BaseValueAttribute": null,
      "InitializationDefinition": null,
      "BaseValueScaleConstant": 1.0
    },
    {
      "BaseValueConstant": 0.0,
      "BaseValueAttribute":
        "GD_Lilac_Skills_Bloodlust.SkillGrades.SkillGrade_BuzzAxeBombadier",
      "InitializationDefinition": null,
      "BaseValueScaleConstant": 1.0
    },
    {
      "BaseValueConstant": 0.0,
      "BaseValueAttribute":
        "GD_Lilac_Skills_Mania.SkillGrades.SkillGrade_ReleaseTheBeast",
      "InitializationDefinition": null,
      "BaseValueScaleConstant": 1.0
    },
    {
      "BaseValueConstant": 0.0,
      "BaseValueAttribute":
        "GD_Lilac_Skills_Mania.SkillGrades.SkillGrade_EmptyRage",
      "InitializationDefinition": null,
      "BaseValueScaleConstant": 1.0
    },
    {
      "BaseValueConstant": 0.0,
      "BaseValueAttribute":
        "GD_Lilac_Skills_Mania.SkillGrades.SkillGrade_SilenceTheVoices",
      "InitializationDefinition": null,
      "BaseValueScaleConstant": 1.0
    },
    {
      "BaseValueConstant": 0.0,
      "BaseValueAttribute":
        "GD_Lilac_SkillsBase.Buzzaxe.Weight_FireAxeDisabled",
      "InitializationDefinition": null,
      "BaseValueScaleConstant": 1.0
    },
    {
      "BaseValueConstant": 0.0,
      "BaseValueAttribute":
        "GD_Lilac_SkillsBase.Buzzaxe.Weight_FireAxeEnabled",
      "InitializationDefinition": null,
      "BaseValueScaleConstant": 1.0
    }
  ],
  "VfTableObject": "",
  "HashNext": "",
  "ObjectFlags": "",
  "HashOuterNext": "",
  "StateFrame": "",
  "Linker": null,
  "LinkerIndex": "",
  "ObjectInternalInteger": 191977,
  "NetIndex": 750,
  "Outer": "GD_Lilac_SkillsBase.Buzzaxe.Buzzaxe",
  "Name": "PartList",
  "Class": "WillowGame.WeaponPartListCollectionDefinition",
  "ObjectArchetype": "WillowGame.Default__WeaponBalanceDefinition:PartList"
}