{
  "AssociatedWeaponType":
    "GD_Runner_Streaming.Weapon.WeaponTypes.WeaponType_RocketLauncher",
  "BodyPartData": { "bEnabled": false, "WeightedParts": null },
  "GripPartData": { "bEnabled": false, "WeightedParts": null },
  "BarrelPartData": { "bEnabled": false, "WeightedParts": null },
  "SightPartData": {
    "bEnabled": true,
    "WeightedParts": [
      {
        "Part": "GD_Runner_Streaming.Parts.SightPart_RocketRunner",
        "Manufacturers": [
          {
            "Manufacturer": "GD_Manufacturers.Manufacturers.Tediore",
            "DefaultWeightIndex": 1
          }
        ],
        "MinGameStageIndex": 0,
        "MaxGameStageIndex": 1,
        "DefaultWeightIndex": 0
      }
    ]
  },
  "StockPartData": { "bEnabled": false, "WeightedParts": null },
  "ElementalPartData": { "bEnabled": false, "WeightedParts": null },
  "Accessory1PartData": { "bEnabled": false, "WeightedParts": null },
  "Accessory2PartData": { "bEnabled": false, "WeightedParts": null },
  "MaterialPartData": { "bEnabled": false, "WeightedParts": null },
  "PartReplacementMode": "EPRM_Additive",
  "ConsolidatedAttributeInitData": [
    {
      "BaseValueConstant": 1.0,
      "BaseValueAttribute": null,
      "InitializationDefinition": null,
      "BaseValueScaleConstant": 1.0
    },
    {
      "BaseValueConstant": 100.0,
      "BaseValueAttribute": null,
      "InitializationDefinition": null,
      "BaseValueScaleConstant": 1.0
    }
  ],
  "VfTableObject": "",
  "HashNext": "",
  "ObjectFlags": "",
  "HashOuterNext": "",
  "StateFrame": "",
  "Linker": null,
  "LinkerIndex": "",
  "ObjectInternalInteger": 181494,
  "NetIndex": 636,
  "Outer": "GD_Runner_Streaming.Parts",
  "Name": "WeaponParts_RocketRunner",
  "Class": "WillowGame.WeaponPartListCollectionDefinition",
  "ObjectArchetype": "WillowGame.Default__WeaponPartListCollectionDefinition"
}