{
  "AssociatedWeaponType": "GD_Weap_Shotgun.A_Weapons.WT_Bandit_Shotgun",
  "BodyPartData": {
    "bEnabled": true,
    "WeightedParts": [
      {
        "Part": "GD_Weap_Shotgun.Body.SG_Body_Bandit_2",
        "Manufacturers": null,
        "MinGameStageIndex": 0,
        "MaxGameStageIndex": 1,
        "DefaultWeightIndex": 2
      }
    ]
  },
  "GripPartData": {
    "bEnabled": true,
    "WeightedParts": [
      {
        "Part": "GD_Weap_Shotgun.Grip.SG_Grip_Bandit",
        "Manufacturers": null,
        "MinGameStageIndex": 0,
        "MaxGameStageIndex": 1,
        "DefaultWeightIndex": 2
      },
      {
        "Part": "GD_Weap_Shotgun.Grip.SG_Grip_Tediore",
        "Manufacturers": null,
        "MinGameStageIndex": 0,
        "MaxGameStageIndex": 1,
        "DefaultWeightIndex": 2
      },
      {
        "Part": "GD_Weap_Shotgun.Grip.SG_Grip_Torgue",
        "Manufacturers": null,
        "MinGameStageIndex": 0,
        "MaxGameStageIndex": 1,
        "DefaultWeightIndex": 2
      },
      {
        "Part": "GD_Weap_Shotgun.Grip.SG_Grip_Jakobs",
        "Manufacturers": null,
        "MinGameStageIndex": 0,
        "MaxGameStageIndex": 1,
        "DefaultWeightIndex": 2
      },
      {
        "Part": "GD_Weap_Shotgun.Grip.SG_Grip_Hyperion",
        "Manufacturers": null,
        "MinGameStageIndex": 0,
        "MaxGameStageIndex": 1,
        "DefaultWeightIndex": 2
      }
    ]
  },
  "BarrelPartData": {
    "bEnabled": true,
    "WeightedParts": [
      {
        "Part": "GD_Weap_Shotgun.Barrel.SG_Barrel_Bandit",
        "Manufacturers": null,
        "MinGameStageIndex": 0,
        "MaxGameStageIndex": 1,
        "DefaultWeightIndex": 0
      },
      {
        "Part": "GD_Weap_Shotgun.Barrel.SG_Barrel_Tediore",
        "Manufacturers": null,
        "MinGameStageIndex": 0,
        "MaxGameStageIndex": 1,
        "DefaultWeightIndex": 0
      },
      {
        "Part": "GD_Weap_Shotgun.Barrel.SG_Barrel_Hyperion",
        "Manufacturers": null,
        "MinGameStageIndex": 0,
        "MaxGameStageIndex": 1,
        "DefaultWeightIndex": 0
      },
      {
        "Part": "GD_Weap_Shotgun.Barrel.SG_Barrel_Jakobs",
        "Manufacturers": null,
        "MinGameStageIndex": 0,
        "MaxGameStageIndex": 1,
        "DefaultWeightIndex": 0
      }
    ]
  },
  "SightPartData": {
    "bEnabled": true,
    "WeightedParts": [
      {
        "Part": "GD_Weap_Shotgun.Sight.SG_Sight_None",
        "Manufacturers": [
          { "Manufacturer": null, "DefaultWeightIndex": 1 }
        ],
        "MinGameStageIndex": 0,
        "MaxGameStageIndex": 1,
        "DefaultWeightIndex": 3
      },
      {
        "Part": "GD_Weap_Shotgun.Sight.SG_Sight_Bandit",
        "Manufacturers": [
          { "Manufacturer": null, "DefaultWeightIndex": 1 }
        ],
        "MinGameStageIndex": 0,
        "MaxGameStageIndex": 1,
        "DefaultWeightIndex": 4
      },
      {
        "Part": "GD_Weap_Shotgun.Sight.SG_Sight_Tediore",
        "Manufacturers": [
          { "Manufacturer": null, "DefaultWeightIndex": 1 }
        ],
        "MinGameStageIndex": 0,
        "MaxGameStageIndex": 1,
        "DefaultWeightIndex": 4
      },
      {
        "Part": "GD_Weap_Shotgun.Sight.SG_Sight_Torgue",
        "Manufacturers": [
          { "Manufacturer": null, "DefaultWeightIndex": 1 }
        ],
        "MinGameStageIndex": 0,
        "MaxGameStageIndex": 1,
        "DefaultWeightIndex": 4
      },
      {
        "Part": "GD_Weap_Shotgun.Sight.SG_Sight_Jakobs",
        "Manufacturers": [
          { "Manufacturer": null, "DefaultWeightIndex": 1 }
        ],
        "MinGameStageIndex": 0,
        "MaxGameStageIndex": 1,
        "DefaultWeightIndex": 4
      },
      {
        "Part": "GD_Weap_Shotgun.Sight.SG_Sight_Hyperion",
        "Manufacturers": [
          { "Manufacturer": null, "DefaultWeightIndex": 1 }
        ],
        "MinGameStageIndex": 0,
        "MaxGameStageIndex": 1,
        "DefaultWeightIndex": 4
      }
    ]
  },
  "StockPartData": {
    "bEnabled": true,
    "WeightedParts": [
      {
        "Part": "GD_Weap_Shotgun.Stock.SG_Stock_Hyperion",
        "Manufacturers": null,
        "MinGameStageIndex": 0,
        "MaxGameStageIndex": 1,
        "DefaultWeightIndex": 0
      },
      {
        "Part": "GD_Weap_Shotgun.Stock.SG_Stock_Bandit",
        "Manufacturers": null,
        "MinGameStageIndex": 0,
        "MaxGameStageIndex": 1,
        "DefaultWeightIndex": 0
      },
      {
        "Part": "GD_Weap_Shotgun.Stock.SG_Stock_Torgue",
        "Manufacturers": null,
        "MinGameStageIndex": 0,
        "MaxGameStageIndex": 1,
        "DefaultWeightIndex": 0
      },
      {
        "Part": "GD_Weap_Shotgun.Stock.SG_Stock_Tediore",
        "Manufacturers": null,
        "MinGameStageIndex": 0,
        "MaxGameStageIndex": 1,
        "DefaultWeightIndex": 0
      },
      {
        "Part": "GD_Weap_Shotgun.Stock.SG_Stock_Jakobs",
        "Manufacturers": null,
        "MinGameStageIndex": 0,
        "MaxGameStageIndex": 1,
        "DefaultWeightIndex": 0
      }
    ]
  },
  "ElementalPartData": {
    "bEnabled": true,
    "WeightedParts": [
      {
        "Part": "GD_Weap_Shotgun.elemental.Shotgun_Elemental_None",
        "Manufacturers": [
          { "Manufacturer": null, "DefaultWeightIndex": 1 }
        ],
        "MinGameStageIndex": 0,
        "MaxGameStageIndex": 1,
        "DefaultWeightIndex": 3
      },
      {
        "Part": "GD_Weap_Shotgun.elemental.Shotgun_Elemental_Fire",
        "Manufacturers": [
          { "Manufacturer": null, "DefaultWeightIndex": 1 }
        ],
        "MinGameStageIndex": 5,
        "MaxGameStageIndex": 1,
        "DefaultWeightIndex": 4
      },
      {
        "Part": "GD_Weap_Shotgun.elemental.Shotgun_Elemental_Corrosive",
        "Manufacturers": [
          { "Manufacturer": null, "DefaultWeightIndex": 1 }
        ],
        "MinGameStageIndex": 6,
        "MaxGameStageIndex": 1,
        "DefaultWeightIndex": 4
      },
      {
        "Part": "GD_Weap_Shotgun.elemental.Shotgun_Elemental_Shock",
        "Manufacturers": [
          { "Manufacturer": null, "DefaultWeightIndex": 1 }
        ],
        "MinGameStageIndex": 7,
        "MaxGameStageIndex": 1,
        "DefaultWeightIndex": 4
      },
      {
        "Part": "GD_Weap_Shotgun.elemental.Shotgun_Elemental_Slag",
        "Manufacturers": [
          { "Manufacturer": null, "DefaultWeightIndex": 1 }
        ],
        "MinGameStageIndex": 8,
        "MaxGameStageIndex": 1,
        "DefaultWeightIndex": 4
      }
    ]
  },
  "Accessory1PartData": {
    "bEnabled": true,
    "WeightedParts": [
      {
        "Part": "GD_Weap_Shotgun.Accessory.SG_Accessory_None",
        "Manufacturers": [
          { "Manufacturer": null, "DefaultWeightIndex": 1 }
        ],
        "MinGameStageIndex": 0,
        "MaxGameStageIndex": 1,
        "DefaultWeightIndex": 9
      },
      {
        "Part": "GD_Weap_Shotgun.Accessory.SG_Accessory_Bayonet_2",
        "Manufacturers": [
          { "Manufacturer": null, "DefaultWeightIndex": 1 }
        ],
        "MinGameStageIndex": 0,
        "MaxGameStageIndex": 1,
        "DefaultWeightIndex": 4
      },
      {
        "Part": "GD_Weap_Shotgun.Accessory.SG_Accessory_MoonClip",
        "Manufacturers": [
          { "Manufacturer": null, "DefaultWeightIndex": 1 }
        ],
        "MinGameStageIndex": 0,
        "MaxGameStageIndex": 1,
        "DefaultWeightIndex": 4
      },
      {
        "Part": "GD_Weap_Shotgun.Accessory.SG_Accessory_ShotgunShell",
        "Manufacturers": [
          { "Manufacturer": null, "DefaultWeightIndex": 1 }
        ],
        "MinGameStageIndex": 0,
        "MaxGameStageIndex": 1,
        "DefaultWeightIndex": 4
      },
      {
        "Part": "GD_Weap_Shotgun.Accessory.SG_Accessory_Tech_1",
        "Manufacturers": [
          { "Manufacturer": null, "DefaultWeightIndex": 1 }
        ],
        "MinGameStageIndex": 0,
        "MaxGameStageIndex": 1,
        "DefaultWeightIndex": 4
      },
      {
        "Part": "GD_Weap_Shotgun.Accessory.SG_Accessory_Tech_2",
        "Manufacturers": [
          { "Manufacturer": null, "DefaultWeightIndex": 1 }
        ],
        "MinGameStageIndex": 0,
        "MaxGameStageIndex": 1,
        "DefaultWeightIndex": 4
      },
      {
        "Part": "GD_Weap_Shotgun.Accessory.SG_Accessory_Tech_3",
        "Manufacturers": [
          { "Manufacturer": null, "DefaultWeightIndex": 1 }
        ],
        "MinGameStageIndex": 0,
        "MaxGameStageIndex": 1,
        "DefaultWeightIndex": 4
      },
      {
        "Part": "GD_Weap_Shotgun.Accessory.SG_Accessory_VerticalGrip",
        "Manufacturers": [
          { "Manufacturer": null, "DefaultWeightIndex": 1 }
        ],
        "MinGameStageIndex": 0,
        "MaxGameStageIndex": 1,
        "DefaultWeightIndex": 4
      }
    ]
  },
  "Accessory2PartData": { "bEnabled": false, "WeightedParts": null },
  "MaterialPartData": {
    "bEnabled": true,
    "WeightedParts": [
      {
        "Part": "GD_Weap_Shotgun.ManufacturerMaterials.Mat_Bandit_2",
        "Manufacturers": null,
        "MinGameStageIndex": 0,
        "MaxGameStageIndex": 1,
        "DefaultWeightIndex": 2
      }
    ]
  },
  "PartReplacementMode": "EPRM_Additive",
  "ConsolidatedAttributeInitData": [
    {
      "BaseValueConstant": 1.0,
      "BaseValueAttribute": null,
      "InitializationDefinition": null,
      "BaseValueScaleConstant": 1.0
    },
    {
      "BaseValueConstant": 100.0,
      "BaseValueAttribute": null,
      "InitializationDefinition": null,
      "BaseValueScaleConstant": 1.0
    },
    {
      "BaseValueConstant": 0.0,
      "BaseValueAttribute": null,
      "InitializationDefinition": null,
      "BaseValueScaleConstant": 1.0
    },
    {
      "BaseValueConstant": 0.0,
      "BaseValueAttribute": null,
      "InitializationDefinition": "GD_Balance.Weighting.Weight_1_Common",
      "BaseValueScaleConstant": 1.0
    },
    {
      "BaseValueConstant": 0.0,
      "BaseValueAttribute": null,
      "InitializationDefinition": "GD_Balance.Weighting.Weight_2_Uncommon",
      "BaseValueScaleConstant": 1.0
    },
    {
      "BaseValueConstant": 7.0,
      "BaseValueAttribute": null,
      "InitializationDefinition": null,
      "BaseValueScaleConstant": 1.0
    },
    {
      "BaseValueConstant": 13.0,
      "BaseValueAttribute": null,
      "InitializationDefinition": null,
      "BaseValueScaleConstant": 1.0
    },
    {
      "BaseValueConstant": 11.0,
      "BaseValueAttribute": null,
      "InitializationDefinition": null,
      "BaseValueScaleConstant": 1.0
    },
    {
      "BaseValueConstant": 15.0,
      "BaseValueAttribute": null,
      "InitializationDefinition": null,
      "BaseValueScaleConstant": 1.0
    },
    {
      "BaseValueConstant": 0.0,
      "BaseValueAttribute": null,
      "InitializationDefinition": "GD_Balance.Weighting.Weight_0_VeryCommon",
      "BaseValueScaleConstant": 1.0
    }
  ],
  "VfTableObject": "",
  "HashNext": "",
  "ObjectFlags": "",
  "HashOuterNext": "",
  "StateFrame": "",
  "Linker": null,
  "LinkerIndex": "",
  "ObjectInternalInteger": 154572,
  "NetIndex": -1,
  "Outer": "GD_Weap_Shotgun.A_Weapons.SG_Bandit_2_Uncommon",
  "Name": "WeaponPartListCollectionDefinition_117",
  "Class": "WillowGame.WeaponPartListCollectionDefinition",
  "ObjectArchetype": "WillowGame.Default__WeaponPartListCollectionDefinition"
}