{
  "AssociatedWeaponType": "GD_Weap_Pistol.A_Weapons.WeaponType_Dahl_Pistol",
  "BodyPartData": {
    "bEnabled": true,
    "WeightedParts": [
      {
        "Part": "GD_Weap_Pistol.Body.Pistol_Body_Dahl_4",
        "Manufacturers": null,
        "MinGameStageIndex": 0,
        "MaxGameStageIndex": 1,
        "DefaultWeightIndex": 2
      }
    ]
  },
  "GripPartData": {
    "bEnabled": true,
    "WeightedParts": [
      {
        "Part": "GD_Weap_Pistol.Grip.Pistol_Grip_Bandit",
        "Manufacturers": null,
        "MinGameStageIndex": 0,
        "MaxGameStageIndex": 1,
        "DefaultWeightIndex": 2
      },
      {
        "Part": "GD_Weap_Pistol.Grip.Pistol_Grip_Tediore",
        "Manufacturers": null,
        "MinGameStageIndex": 0,
        "MaxGameStageIndex": 1,
        "DefaultWeightIndex": 2
      },
      {
        "Part": "GD_Weap_Pistol.Grip.Pistol_Grip_Vladof",
        "Manufacturers": null,
        "MinGameStageIndex": 0,
        "MaxGameStageIndex": 1,
        "DefaultWeightIndex": 2
      },
      {
        "Part": "GD_Weap_Pistol.Grip.Pistol_Grip_Dahl",
        "Manufacturers": null,
        "MinGameStageIndex": 0,
        "MaxGameStageIndex": 1,
        "DefaultWeightIndex": 2
      },
      {
        "Part": "GD_Weap_Pistol.Grip.Pistol_Grip_Torgue",
        "Manufacturers": null,
        "MinGameStageIndex": 0,
        "MaxGameStageIndex": 1,
        "DefaultWeightIndex": 2
      },
      {
        "Part": "GD_Weap_Pistol.Grip.Pistol_Grip_Maliwan",
        "Manufacturers": null,
        "MinGameStageIndex": 0,
        "MaxGameStageIndex": 1,
        "DefaultWeightIndex": 2
      },
      {
        "Part": "GD_Weap_Pistol.Grip.Pistol_Grip_Jakobs",
        "Manufacturers": null,
        "MinGameStageIndex": 0,
        "MaxGameStageIndex": 1,
        "DefaultWeightIndex": 2
      },
      {
        "Part": "GD_Weap_Pistol.Grip.Pistol_Grip_Hyperion",
        "Manufacturers": null,
        "MinGameStageIndex": 0,
        "MaxGameStageIndex": 1,
        "DefaultWeightIndex": 2
      }
    ]
  },
  "BarrelPartData": {
    "bEnabled": true,
    "WeightedParts": [
      {
        "Part": "GD_Weap_Pistol.Barrel.Pistol_Barrel_Alien",
        "Manufacturers": null,
        "MinGameStageIndex": 0,
        "MaxGameStageIndex": 1,
        "DefaultWeightIndex": 2
      },
      {
        "Part": "GD_Weap_Pistol.Barrel.Pistol_Barrel_Alien_Homing",
        "Manufacturers": null,
        "MinGameStageIndex": 0,
        "MaxGameStageIndex": 1,
        "DefaultWeightIndex": 2
      }
    ]
  },
  "SightPartData": {
    "bEnabled": true,
    "WeightedParts": [
      {
        "Part": "GD_Weap_Pistol.Sight.Pistol_Sight_Bandit",
        "Manufacturers": [
          { "Manufacturer": null, "DefaultWeightIndex": 1 }
        ],
        "MinGameStageIndex": 0,
        "MaxGameStageIndex": 1,
        "DefaultWeightIndex": 3
      },
      {
        "Part": "GD_Weap_Pistol.Sight.Pistol_Sight_Tediore",
        "Manufacturers": [
          { "Manufacturer": null, "DefaultWeightIndex": 1 }
        ],
        "MinGameStageIndex": 0,
        "MaxGameStageIndex": 1,
        "DefaultWeightIndex": 3
      },
      {
        "Part": "GD_Weap_Pistol.Sight.Pistol_Sight_Vladof",
        "Manufacturers": [
          { "Manufacturer": null, "DefaultWeightIndex": 1 }
        ],
        "MinGameStageIndex": 0,
        "MaxGameStageIndex": 1,
        "DefaultWeightIndex": 3
      },
      {
        "Part": "GD_Weap_Pistol.Sight.Pistol_Sight_Dahl",
        "Manufacturers": [
          { "Manufacturer": null, "DefaultWeightIndex": 1 }
        ],
        "MinGameStageIndex": 0,
        "MaxGameStageIndex": 1,
        "DefaultWeightIndex": 3
      },
      {
        "Part": "GD_Weap_Pistol.Sight.Pistol_Sight_Torgue",
        "Manufacturers": [
          { "Manufacturer": null, "DefaultWeightIndex": 1 }
        ],
        "MinGameStageIndex": 0,
        "MaxGameStageIndex": 1,
        "DefaultWeightIndex": 3
      },
      {
        "Part": "GD_Weap_Pistol.Sight.Pistol_Sight_Maliwan",
        "Manufacturers": [
          { "Manufacturer": null, "DefaultWeightIndex": 1 }
        ],
        "MinGameStageIndex": 0,
        "MaxGameStageIndex": 1,
        "DefaultWeightIndex": 3
      },
      {
        "Part": "GD_Weap_Pistol.Sight.Pistol_Sight_Jakobs",
        "Manufacturers": [
          { "Manufacturer": null, "DefaultWeightIndex": 1 }
        ],
        "MinGameStageIndex": 0,
        "MaxGameStageIndex": 1,
        "DefaultWeightIndex": 3
      },
      {
        "Part": "GD_Weap_Pistol.Sight.Pistol_Sight_Hyperion",
        "Manufacturers": [
          { "Manufacturer": null, "DefaultWeightIndex": 1 }
        ],
        "MinGameStageIndex": 0,
        "MaxGameStageIndex": 1,
        "DefaultWeightIndex": 3
      }
    ]
  },
  "StockPartData": { "bEnabled": false, "WeightedParts": null },
  "ElementalPartData": {
    "bEnabled": true,
    "WeightedParts": [
      {
        "Part": "GD_Weap_Pistol.elemental.Pistol_Elemental_Fire",
        "Manufacturers": [
          { "Manufacturer": null, "DefaultWeightIndex": 1 }
        ],
        "MinGameStageIndex": 4,
        "MaxGameStageIndex": 1,
        "DefaultWeightIndex": 3
      },
      {
        "Part": "GD_Weap_Pistol.elemental.Pistol_Elemental_Shock",
        "Manufacturers": [
          { "Manufacturer": null, "DefaultWeightIndex": 1 }
        ],
        "MinGameStageIndex": 5,
        "MaxGameStageIndex": 1,
        "DefaultWeightIndex": 3
      },
      {
        "Part": "GD_Weap_Pistol.elemental.Pistol_Elemental_Corrosive",
        "Manufacturers": [
          { "Manufacturer": null, "DefaultWeightIndex": 1 }
        ],
        "MinGameStageIndex": 6,
        "MaxGameStageIndex": 1,
        "DefaultWeightIndex": 3
      },
      {
        "Part": "GD_Weap_Pistol.elemental.Pistol_Elemental_Slag",
        "Manufacturers": [
          { "Manufacturer": null, "DefaultWeightIndex": 1 }
        ],
        "MinGameStageIndex": 7,
        "MaxGameStageIndex": 1,
        "DefaultWeightIndex": 3
      }
    ]
  },
  "Accessory1PartData": {
    "bEnabled": true,
    "WeightedParts": [
      {
        "Part": "GD_Weap_Pistol.Accessory.Pistol_Accessory_Bayonet_1",
        "Manufacturers": [
          { "Manufacturer": null, "DefaultWeightIndex": 1 }
        ],
        "MinGameStageIndex": 0,
        "MaxGameStageIndex": 1,
        "DefaultWeightIndex": 3
      },
      {
        "Part": "GD_Weap_Pistol.Accessory.Pistol_Accessory_Laser_Accuracy",
        "Manufacturers": [
          { "Manufacturer": null, "DefaultWeightIndex": 1 }
        ],
        "MinGameStageIndex": 0,
        "MaxGameStageIndex": 1,
        "DefaultWeightIndex": 3
      },
      {
        "Part": "GD_Weap_Pistol.Accessory.Pistol_Accessory_Laser_Double",
        "Manufacturers": [
          { "Manufacturer": null, "DefaultWeightIndex": 1 }
        ],
        "MinGameStageIndex": 0,
        "MaxGameStageIndex": 1,
        "DefaultWeightIndex": 3
      },
      {
        "Part": "GD_Weap_Pistol.Accessory.Pistol_Accessory_Stock_Stability",
        "Manufacturers": [
          { "Manufacturer": null, "DefaultWeightIndex": 1 }
        ],
        "MinGameStageIndex": 0,
        "MaxGameStageIndex": 1,
        "DefaultWeightIndex": 3
      },
      {
        "Part": "GD_Weap_Pistol.Accessory.Pistol_Accessory_Tech_1_Mag",
        "Manufacturers": [
          { "Manufacturer": null, "DefaultWeightIndex": 1 }
        ],
        "MinGameStageIndex": 0,
        "MaxGameStageIndex": 1,
        "DefaultWeightIndex": 3
      },
      {
        "Part": "GD_Weap_Pistol.Accessory.Pistol_Accessory_Tech_2_Damage",
        "Manufacturers": [
          { "Manufacturer": null, "DefaultWeightIndex": 1 }
        ],
        "MinGameStageIndex": 0,
        "MaxGameStageIndex": 1,
        "DefaultWeightIndex": 3
      },
      {
        "Part": "GD_Weap_Pistol.Accessory.Pistol_Accessory_Tech_3_Firerate",
        "Manufacturers": [
          { "Manufacturer": null, "DefaultWeightIndex": 1 }
        ],
        "MinGameStageIndex": 0,
        "MaxGameStageIndex": 1,
        "DefaultWeightIndex": 3
      }
    ]
  },
  "Accessory2PartData": { "bEnabled": false, "WeightedParts": null },
  "MaterialPartData": {
    "bEnabled": true,
    "WeightedParts": [
      {
        "Part": "GD_Weap_Pistol.ManufacturerMaterials.Mat_Dahl_4",
        "Manufacturers": null,
        "MinGameStageIndex": 0,
        "MaxGameStageIndex": 1,
        "DefaultWeightIndex": 2
      }
    ]
  },
  "PartReplacementMode": "EPRM_Additive",
  "ConsolidatedAttributeInitData": [
    {
      "BaseValueConstant": 1.0,
      "BaseValueAttribute": null,
      "InitializationDefinition": null,
      "BaseValueScaleConstant": 1.0
    },
    {
      "BaseValueConstant": 100.0,
      "BaseValueAttribute": null,
      "InitializationDefinition": null,
      "BaseValueScaleConstant": 1.0
    },
    {
      "BaseValueConstant": 0.0,
      "BaseValueAttribute": null,
      "InitializationDefinition": null,
      "BaseValueScaleConstant": 1.0
    },
    {
      "BaseValueConstant": 0.0,
      "BaseValueAttribute": null,
      "InitializationDefinition": "GD_Balance.Weighting.Weight_2_Uncommon",
      "BaseValueScaleConstant": 1.0
    },
    {
      "BaseValueConstant": 7.0,
      "BaseValueAttribute": null,
      "InitializationDefinition": null,
      "BaseValueScaleConstant": 1.0
    },
    {
      "BaseValueConstant": 11.0,
      "BaseValueAttribute": null,
      "InitializationDefinition": null,
      "BaseValueScaleConstant": 1.0
    },
    {
      "BaseValueConstant": 13.0,
      "BaseValueAttribute": null,
      "InitializationDefinition": null,
      "BaseValueScaleConstant": 1.0
    },
    {
      "BaseValueConstant": 15.0,
      "BaseValueAttribute": null,
      "InitializationDefinition": null,
      "BaseValueScaleConstant": 1.0
    }
  ],
  "VfTableObject": "",
  "HashNext": "",
  "ObjectFlags": "",
  "HashOuterNext": "",
  "StateFrame": "",
  "Linker": null,
  "LinkerIndex": "",
  "ObjectInternalInteger": 154533,
  "NetIndex": -1,
  "Outer": "GD_Weap_Pistol.A_Weapons.Pistol_Dahl_5_Alien",
  "Name": "WeaponPartListCollectionDefinition_78",
  "Class": "WillowGame.WeaponPartListCollectionDefinition",
  "ObjectArchetype": "WillowGame.Default__WeaponPartListCollectionDefinition"
}