{
  "AssociatedWeaponType": null,
  "BodyPartData": {
    "bEnabled": true,
    "WeightedParts": [
      {
        "Part": "GD_Weap_Launchers.Body.L_Body_Maliwan_2",
        "Manufacturers": null,
        "MinGameStageIndex": 0,
        "MaxGameStageIndex": 1,
        "DefaultWeightIndex": 2
      }
    ]
  },
  "GripPartData": { "bEnabled": false, "WeightedParts": null },
  "BarrelPartData": { "bEnabled": false, "WeightedParts": null },
  "SightPartData": { "bEnabled": false, "WeightedParts": null },
  "StockPartData": { "bEnabled": false, "WeightedParts": null },
  "ElementalPartData": { "bEnabled": false, "WeightedParts": null },
  "Accessory1PartData": {
    "bEnabled": true,
    "WeightedParts": [
      {
        "Part": "GD_Weap_Launchers.Accessory.RL_Accessory_None",
        "Manufacturers": [
          { "Manufacturer": null, "DefaultWeightIndex": 1 }
        ],
        "MinGameStageIndex": 0,
        "MaxGameStageIndex": 1,
        "DefaultWeightIndex": 3
      },
      {
        "Part": "GD_Weap_Launchers.Accessory.RL_Accessory_BodyMod_1_Mag",
        "Manufacturers": [
          { "Manufacturer": null, "DefaultWeightIndex": 1 }
        ],
        "MinGameStageIndex": 0,
        "MaxGameStageIndex": 1,
        "DefaultWeightIndex": 4
      },
      {
        "Part": "GD_Weap_Launchers.Accessory.RL_Accessory_BodyMod_2_Acc",
        "Manufacturers": [
          { "Manufacturer": null, "DefaultWeightIndex": 1 }
        ],
        "MinGameStageIndex": 0,
        "MaxGameStageIndex": 1,
        "DefaultWeightIndex": 4
      },
      {
        "Part": "GD_Weap_Launchers.Accessory.RL_Accessory_Gripper_Reload",
        "Manufacturers": [
          { "Manufacturer": null, "DefaultWeightIndex": 1 }
        ],
        "MinGameStageIndex": 0,
        "MaxGameStageIndex": 1,
        "DefaultWeightIndex": 4
      },
      {
        "Part": "GD_Weap_Launchers.Accessory.RL_Accessory_Handle_SwapSpeed",
        "Manufacturers": [
          { "Manufacturer": null, "DefaultWeightIndex": 1 }
        ],
        "MinGameStageIndex": 0,
        "MaxGameStageIndex": 1,
        "DefaultWeightIndex": 4
      },
      {
        "Part":
          "GD_Weap_Launchers.Accessory.RL_Accessory_StockCover_RocketSpeed",
        "Manufacturers": [
          { "Manufacturer": null, "DefaultWeightIndex": 1 }
        ],
        "MinGameStageIndex": 0,
        "MaxGameStageIndex": 1,
        "DefaultWeightIndex": 4
      },
      {
        "Part": "GD_Weap_Launchers.Accessory.RL_Accessory_StockTube_FireRate",
        "Manufacturers": [
          { "Manufacturer": null, "DefaultWeightIndex": 1 }
        ],
        "MinGameStageIndex": 0,
        "MaxGameStageIndex": 1,
        "DefaultWeightIndex": 4
      },
      {
        "Part": "GD_Weap_Launchers.Accessory.RL_Accessory_TipCover_Damage",
        "Manufacturers": [
          { "Manufacturer": null, "DefaultWeightIndex": 1 }
        ],
        "MinGameStageIndex": 0,
        "MaxGameStageIndex": 1,
        "DefaultWeightIndex": 4
      }
    ]
  },
  "Accessory2PartData": { "bEnabled": false, "WeightedParts": null },
  "MaterialPartData": {
    "bEnabled": true,
    "WeightedParts": [
      {
        "Part": "GD_Weap_Launchers.ManufacturerMaterials.Mat_Maliwan_2",
        "Manufacturers": null,
        "MinGameStageIndex": 0,
        "MaxGameStageIndex": 1,
        "DefaultWeightIndex": 2
      }
    ]
  },
  "PartReplacementMode": "EPRM_Selective",
  "ConsolidatedAttributeInitData": [
    {
      "BaseValueConstant": 1.0,
      "BaseValueAttribute": null,
      "InitializationDefinition": null,
      "BaseValueScaleConstant": 1.0
    },
    {
      "BaseValueConstant": 100.0,
      "BaseValueAttribute": null,
      "InitializationDefinition": null,
      "BaseValueScaleConstant": 1.0
    },
    {
      "BaseValueConstant": 0.0,
      "BaseValueAttribute": null,
      "InitializationDefinition": null,
      "BaseValueScaleConstant": 1.0
    },
    {
      "BaseValueConstant": 0.0,
      "BaseValueAttribute": null,
      "InitializationDefinition": "GD_Balance.Weighting.Weight_0_VeryCommon",
      "BaseValueScaleConstant": 1.0
    },
    {
      "BaseValueConstant": 0.0,
      "BaseValueAttribute": null,
      "InitializationDefinition": "GD_Balance.Weighting.Weight_2_Uncommon",
      "BaseValueScaleConstant": 1.0
    }
  ],
  "VfTableObject": "",
  "HashNext": "",
  "ObjectFlags": "",
  "HashOuterNext": "",
  "StateFrame": "",
  "Linker": null,
  "LinkerIndex": "",
  "ObjectInternalInteger": 152260,
  "NetIndex": 2330,
  "Outer": "GD_Weap_Launchers.A_Weapons.RL_Maliwan_2_Uncommon",
  "Name": "PartList",
  "Class": "WillowGame.WeaponPartListCollectionDefinition",
  "ObjectArchetype": "WillowGame.Default__WeaponBalanceDefinition:PartList"
}