{
  "AssociatedWeaponType": null,
  "BodyPartData": {
    "bEnabled": true,
    "WeightedParts": [
      {
        "Part": "GD_Weap_AssaultRifle.Body.AR_Body_Bandit_3",
        "Manufacturers": null,
        "MinGameStageIndex": 0,
        "MaxGameStageIndex": 1,
        "DefaultWeightIndex": 2
      }
    ]
  },
  "GripPartData": { "bEnabled": false, "WeightedParts": null },
  "BarrelPartData": {
    "bEnabled": true,
    "WeightedParts": [
      {
        "Part": "GD_Weap_AssaultRifle.Barrel.AR_Barrel_Bandit",
        "Manufacturers": null,
        "MinGameStageIndex": 0,
        "MaxGameStageIndex": 1,
        "DefaultWeightIndex": 2
      },
      {
        "Part": "GD_Weap_AssaultRifle.Barrel.AR_Barrel_Dahl",
        "Manufacturers": null,
        "MinGameStageIndex": 0,
        "MaxGameStageIndex": 1,
        "DefaultWeightIndex": 2
      },
      {
        "Part": "GD_Weap_AssaultRifle.Barrel.AR_Barrel_Jakobs",
        "Manufacturers": null,
        "MinGameStageIndex": 0,
        "MaxGameStageIndex": 1,
        "DefaultWeightIndex": 2
      },
      {
        "Part": "GD_Weap_AssaultRifle.Barrel.AR_Barrel_Torgue_Bandit",
        "Manufacturers": null,
        "MinGameStageIndex": 0,
        "MaxGameStageIndex": 1,
        "DefaultWeightIndex": 2
      },
      {
        "Part": "GD_Weap_AssaultRifle.Barrel.AR_Barrel_Vladof",
        "Manufacturers": null,
        "MinGameStageIndex": 0,
        "MaxGameStageIndex": 1,
        "DefaultWeightIndex": 2
      },
      {
        "Part": "GD_Weap_AssaultRifle.Barrel.AR_Barrel_Vladof_Minigun",
        "Manufacturers": null,
        "MinGameStageIndex": 0,
        "MaxGameStageIndex": 1,
        "DefaultWeightIndex": 2
      }
    ]
  },
  "SightPartData": { "bEnabled": false, "WeightedParts": null },
  "StockPartData": { "bEnabled": false, "WeightedParts": null },
  "ElementalPartData": { "bEnabled": false, "WeightedParts": null },
  "Accessory1PartData": { "bEnabled": false, "WeightedParts": null },
  "Accessory2PartData": { "bEnabled": false, "WeightedParts": null },
  "MaterialPartData": {
    "bEnabled": true,
    "WeightedParts": [
      {
        "Part": "GD_Weap_AssaultRifle.ManufacturerMaterials.Mat_BanditMade_3",
        "Manufacturers": null,
        "MinGameStageIndex": 0,
        "MaxGameStageIndex": 1,
        "DefaultWeightIndex": 2
      }
    ]
  },
  "PartReplacementMode": "EPRM_Selective",
  "ConsolidatedAttributeInitData": [
    {
      "BaseValueConstant": 1.0,
      "BaseValueAttribute": null,
      "InitializationDefinition": null,
      "BaseValueScaleConstant": 1.0
    },
    {
      "BaseValueConstant": 100.0,
      "BaseValueAttribute": null,
      "InitializationDefinition": null,
      "BaseValueScaleConstant": 1.0
    },
    {
      "BaseValueConstant": 0.0,
      "BaseValueAttribute": null,
      "InitializationDefinition": null,
      "BaseValueScaleConstant": 1.0
    }
  ],
  "VfTableObject": "",
  "HashNext": "",
  "ObjectFlags": "",
  "HashOuterNext": "",
  "StateFrame": "",
  "Linker": null,
  "LinkerIndex": "",
  "ObjectInternalInteger": 152221,
  "NetIndex": 1361,
  "Outer": "GD_Weap_AssaultRifle.A_Weapons.AR_Bandit_3_Rare",
  "Name": "PartList",
  "Class": "WillowGame.WeaponPartListCollectionDefinition",
  "ObjectArchetype": "WillowGame.Default__WeaponBalanceDefinition:PartList"
}