{
  "AssociatedWeaponType": null,
  "BodyPartData": {
    "bEnabled": true,
    "WeightedParts": [
      {
        "Part": "GD_Weap_AssaultRifle.Body.AR_Body_Dahl_4",
        "Manufacturers": null,
        "MinGameStageIndex": 0,
        "MaxGameStageIndex": 1,
        "DefaultWeightIndex": 2
      }
    ]
  },
  "GripPartData": { "bEnabled": false, "WeightedParts": null },
  "BarrelPartData": { "bEnabled": false, "WeightedParts": null },
  "SightPartData": {
    "bEnabled": true,
    "WeightedParts": [
      {
        "Part": "GD_Weap_AssaultRifle.Sight.AR_Sight_Bandit",
        "Manufacturers": null,
        "MinGameStageIndex": 0,
        "MaxGameStageIndex": 1,
        "DefaultWeightIndex": 2
      },
      {
        "Part": "GD_Weap_AssaultRifle.Sight.AR_Sight_Dahl",
        "Manufacturers": null,
        "MinGameStageIndex": 0,
        "MaxGameStageIndex": 1,
        "DefaultWeightIndex": 2
      },
      {
        "Part": "GD_Weap_AssaultRifle.Sight.AR_Sight_Vladof",
        "Manufacturers": null,
        "MinGameStageIndex": 0,
        "MaxGameStageIndex": 1,
        "DefaultWeightIndex": 2
      },
      {
        "Part": "GD_Weap_AssaultRifle.Sight.AR_Sight_Torgue",
        "Manufacturers": null,
        "MinGameStageIndex": 0,
        "MaxGameStageIndex": 1,
        "DefaultWeightIndex": 2
      },
      {
        "Part": "GD_Weap_AssaultRifle.Sight.AR_Sight_Jakobs",
        "Manufacturers": null,
        "MinGameStageIndex": 0,
        "MaxGameStageIndex": 1,
        "DefaultWeightIndex": 2
      }
    ]
  },
  "StockPartData": { "bEnabled": false, "WeightedParts": null },
  "ElementalPartData": { "bEnabled": false, "WeightedParts": null },
  "Accessory1PartData": {
    "bEnabled": true,
    "WeightedParts": [
      {
        "Part":
          "GD_Weap_AssaultRifle.Accessory.AR_Accessory_Foregrip_Stability",
        "Manufacturers": [
          { "Manufacturer": null, "DefaultWeightIndex": 1 }
        ],
        "MinGameStageIndex": 0,
        "MaxGameStageIndex": 1,
        "DefaultWeightIndex": 3
      },
      {
        "Part": "GD_Weap_AssaultRifle.Accessory.AR_Accessory_Bayonet_1",
        "Manufacturers": [
          { "Manufacturer": null, "DefaultWeightIndex": 1 }
        ],
        "MinGameStageIndex": 0,
        "MaxGameStageIndex": 1,
        "DefaultWeightIndex": 3
      },
      {
        "Part":
          "GD_Weap_AssaultRifle.Accessory.AR_Accessory_BanditClamp_Damage",
        "Manufacturers": [
          { "Manufacturer": null, "DefaultWeightIndex": 1 }
        ],
        "MinGameStageIndex": 0,
        "MaxGameStageIndex": 1,
        "DefaultWeightIndex": 3
      },
      {
        "Part":
          "GD_Weap_AssaultRifle.Accessory.AR_Accessory_BanditClamp_Wild",
        "Manufacturers": [
          { "Manufacturer": null, "DefaultWeightIndex": 1 }
        ],
        "MinGameStageIndex": 0,
        "MaxGameStageIndex": 1,
        "DefaultWeightIndex": 3
      },
      {
        "Part": "GD_Weap_AssaultRifle.Accessory.AR_Accessory_Box_BulletSpeed",
        "Manufacturers": [
          { "Manufacturer": null, "DefaultWeightIndex": 1 }
        ],
        "MinGameStageIndex": 0,
        "MaxGameStageIndex": 1,
        "DefaultWeightIndex": 3
      },
      {
        "Part": "GD_Weap_AssaultRifle.Accessory.AR_Accessory_Shroud1_MagSize",
        "Manufacturers": [
          { "Manufacturer": null, "DefaultWeightIndex": 1 }
        ],
        "MinGameStageIndex": 0,
        "MaxGameStageIndex": 1,
        "DefaultWeightIndex": 3
      },
      {
        "Part":
          "GD_Weap_AssaultRifle.Accessory.AR_Accessory_Shroud2_Accuracy",
        "Manufacturers": [
          { "Manufacturer": null, "DefaultWeightIndex": 1 }
        ],
        "MinGameStageIndex": 0,
        "MaxGameStageIndex": 1,
        "DefaultWeightIndex": 3
      }
    ]
  },
  "Accessory2PartData": { "bEnabled": false, "WeightedParts": null },
  "MaterialPartData": {
    "bEnabled": true,
    "WeightedParts": [
      {
        "Part": "GD_Weap_AssaultRifle.ManufacturerMaterials.Mat_Dahl_4",
        "Manufacturers": null,
        "MinGameStageIndex": 0,
        "MaxGameStageIndex": 1,
        "DefaultWeightIndex": 2
      }
    ]
  },
  "PartReplacementMode": "EPRM_Selective",
  "ConsolidatedAttributeInitData": [
    {
      "BaseValueConstant": 1.0,
      "BaseValueAttribute": null,
      "InitializationDefinition": null,
      "BaseValueScaleConstant": 1.0
    },
    {
      "BaseValueConstant": 100.0,
      "BaseValueAttribute": null,
      "InitializationDefinition": null,
      "BaseValueScaleConstant": 1.0
    },
    {
      "BaseValueConstant": 0.0,
      "BaseValueAttribute": null,
      "InitializationDefinition": null,
      "BaseValueScaleConstant": 1.0
    },
    {
      "BaseValueConstant": 0.0,
      "BaseValueAttribute": null,
      "InitializationDefinition": "GD_Balance.Weighting.Weight_2_Uncommon",
      "BaseValueScaleConstant": 1.0
    }
  ],
  "VfTableObject": "",
  "HashNext": "",
  "ObjectFlags": "",
  "HashOuterNext": "",
  "StateFrame": "",
  "Linker": null,
  "LinkerIndex": "",
  "ObjectInternalInteger": 152228,
  "NetIndex": 1368,
  "Outer": "GD_Weap_AssaultRifle.A_Weapons.AR_Dahl_4_VeryRare",
  "Name": "PartList",
  "Class": "WillowGame.WeaponPartListCollectionDefinition",
  "ObjectArchetype": "WillowGame.Default__WeaponBalanceDefinition:PartList"
}