{
  "AssociatedWeaponType": null,
  "BodyPartData": {
    "bEnabled": true,
    "WeightedParts": [
      {
        "Part": "GD_Weap_Shotgun.Body.SG_Body_Tediore_3",
        "Manufacturers": null,
        "MinGameStageIndex": 0,
        "MaxGameStageIndex": 1,
        "DefaultWeightIndex": 2
      }
    ]
  },
  "GripPartData": { "bEnabled": false, "WeightedParts": null },
  "BarrelPartData": {
    "bEnabled": true,
    "WeightedParts": [
      {
        "Part": "GD_Weap_Shotgun.Barrel.SG_Barrel_Tediore_Blockhead",
        "Manufacturers": null,
        "MinGameStageIndex": 0,
        "MaxGameStageIndex": 1,
        "DefaultWeightIndex": 0
      }
    ]
  },
  "SightPartData": { "bEnabled": false, "WeightedParts": null },
  "StockPartData": { "bEnabled": false, "WeightedParts": null },
  "ElementalPartData": {
    "bEnabled": true,
    "WeightedParts": [
      {
        "Part": "GD_Weap_Shotgun.elemental.Shotgun_Elemental_Fire",
        "Manufacturers": null,
        "MinGameStageIndex": 0,
        "MaxGameStageIndex": 1,
        "DefaultWeightIndex": 2
      }
    ]
  },
  "Accessory1PartData": { "bEnabled": false, "WeightedParts": null },
  "Accessory2PartData": { "bEnabled": false, "WeightedParts": null },
  "MaterialPartData": {
    "bEnabled": true,
    "WeightedParts": [
      {
        "Part":
          "GD_Weap_Shotgun.ManufacturerMaterials.Mat_Tediore_3_Blockhead",
        "Manufacturers": null,
        "MinGameStageIndex": 0,
        "MaxGameStageIndex": 1,
        "DefaultWeightIndex": 2
      }
    ]
  },
  "PartReplacementMode": "EPRM_Selective",
  "ConsolidatedAttributeInitData": [
    {
      "BaseValueConstant": 1.0,
      "BaseValueAttribute": null,
      "InitializationDefinition": null,
      "BaseValueScaleConstant": 1.0
    },
    {
      "BaseValueConstant": 100.0,
      "BaseValueAttribute": null,
      "InitializationDefinition": null,
      "BaseValueScaleConstant": 1.0
    },
    {
      "BaseValueConstant": 0.0,
      "BaseValueAttribute": null,
      "InitializationDefinition": null,
      "BaseValueScaleConstant": 1.0
    }
  ],
  "VfTableObject": "",
  "HashNext": "",
  "ObjectFlags": "",
  "HashOuterNext": "",
  "StateFrame": "",
  "Linker": null,
  "LinkerIndex": "",
  "ObjectInternalInteger": 152383,
  "NetIndex": 2058,
  "Outer": "GD_Weap_Shotgun.A_Weapons_Unique.SG_Tediore_3_Blockhead",
  "Name": "PartList",
  "Class": "WillowGame.WeaponPartListCollectionDefinition",
  "ObjectArchetype": "WillowGame.Default__WeaponBalanceDefinition:PartList"
}