{
  "DlcExpansion": "GD_AsterPackageDef.ExpansionDef_Aster",
  "FastTravelStationOrderList": [
    "GD_Aster_FastTravel.Docks", "GD_Aster_FastTravel.Village",
    "GD_Aster_FastTravel.DarkForest", "GD_Aster_FastTravel.DeadForest",
    "GD_Aster_FastTravel.Mines", "GD_Aster_FastTravel.CastleExterior",
    "GD_Aster_FastTravel.Dungeons", "GD_Aster_FastTravel.CastleKeep"
  ],
  "VfTableObject": "",
  "HashNext": "",
  "ObjectFlags": "",
  "HashOuterNext": "",
  "StateFrame": "",
  "Linker": null,
  "LinkerIndex": "",
  "ObjectInternalInteger": 165233,
  "NetIndex": 8,
  "Outer": "GD_Aster_FastTravel.StationsList",
  "Name": "AsterStationsList",
  "Class": "WillowGame.FastTravelStationsListOrder",
  "ObjectArchetype": "WillowGame.Default__FastTravelStationsListOrder"
}