{
  "DlcExpansion": "GD_AlliumPackageDef.ExpansionDef_Allium_TG",
  "FastTravelStationOrderList": [ "GD_Allium_FastTravel.Hunger" ],
  "VfTableObject": "",
  "HashNext": "",
  "ObjectFlags": "",
  "HashOuterNext": "",
  "StateFrame": "",
  "Linker": null,
  "LinkerIndex": "",
  "ObjectInternalInteger": 162561,
  "NetIndex": 2,
  "Outer": "Package'GD_Allium_FastTravel'",
  "Name": "AlliumTGStationsList",
  "Class": "WillowGame.FastTravelStationsListOrder",
  "ObjectArchetype": "WillowGame.Default__FastTravelStationsListOrder"
}