{
  "AssociatedBadassReward":
    "GD_Challenges.BadassRewards.BARD_Gun_RecoilReduction",
  "VfTableObject": "",
  "HashNext": "",
  "ObjectFlags": "",
  "HashOuterNext": "",
  "StateFrame": "",
  "Linker": null,
  "LinkerIndex": "",
  "ObjectInternalInteger": 108018,
  "NetIndex": 40,
  "Outer":
    "GD_Challenges.BadassRewardsAttributes.Att_BAR_Gun_RecoilReduction",
  "Name": "BadassAttributeValueResolver_0",
  "Class": "WillowGame.BadassAttributeValueResolver",
  "ObjectArchetype": "WillowGame.Default__BadassAttributeValueResolver"
}