{
  "AssociatedBadassReward": "GD_Challenges.BadassRewards.BARD_Gun_FireRate",
  "VfTableObject": "",
  "HashNext": "",
  "ObjectFlags": "",
  "HashOuterNext": "",
  "StateFrame": "",
  "Linker": null,
  "LinkerIndex": "",
  "ObjectInternalInteger": 108015,
  "NetIndex": 39,
  "Outer": "GD_Challenges.BadassRewardsAttributes.Att_BAR_Gun_FireRate",
  "Name": "BadassAttributeValueResolver_0",
  "Class": "WillowGame.BadassAttributeValueResolver",
  "ObjectArchetype": "WillowGame.Default__BadassAttributeValueResolver"
}