{
  "ExplosionAkEvent": null,
  "MultipleExplosionsAkEvent": null,
  "ExplosionPSTemplate": null,
  "DrawScale": 0.0,
  "CameraAnim": null,
  "MinCameraEffectDistance": 0.0,
  "MaxCameraEffectDistance": 0.0,
  "FFWaveform": null,
  "DamageTypeDef": "GD_Impact.DamageType.DmgType_Normal",
  "bSkipTraceTest": false,
  "ImpactEffect": null,
  "ImpactTraceLength": 512.0,
  "ExplosionSoundStackingPreventionDelay": 0.25,
  "ExplosionSoundStackingMaxDistanceSquared": 4194304.0,
  "ExplosionScale": [
    {
      "ExplosionPSTemplate":
        "FX_CREA_SpiderAnt.Particles.Part_Web_Explosion_Small",
      "MinRadius": 0,
      "MaxRadius": 192,
      "MinParticleScale": 0.0,
      "MaxParticleScale": 1.5,
      "ExplosionAkEvent":
        "Ake_Mon_Spiderant.Ak_Play_Mon_Spiderant_Web_Impact",
      "CameraAnim":
        "Anim_CameraAnimations.Explosions.Canim_Explosion_Default",
      "MinCameraEffectDistance": 0.0,
      "MaxCameraEffectDistance": 512.0,
      "FFWaveform":
        "GD_AngelBoss.Explosions.Explosion_Web:ForceFeedbackWaveform_3",
      "ImpactEffect":
        "GD_CrystaliskShared.Impacts.Crystalisk_MeleeAOE_Impact",
      "bDamageOverPeriodOfTime": false,
      "MaxDamageDuration": 0.0,
      "DamageInterval": 0.0,
      "bDamageEachTargetOnlyOnce": false,
      "bExpandRadiusOverTime": false
    },
    {
      "ExplosionPSTemplate":
        "FX_CREA_SpiderAnt.Particles.Part_Web_Explosion_Med",
      "MinRadius": 193,
      "MaxRadius": 384,
      "MinParticleScale": 0.75,
      "MaxParticleScale": 1.5,
      "ExplosionAkEvent":
        "Ake_Mon_Spiderant.Ak_Play_Mon_Spiderant_Web_Impact",
      "CameraAnim":
        "Anim_CameraAnimations.Explosions.Canim_Explosion_Default",
      "MinCameraEffectDistance": 256.0,
      "MaxCameraEffectDistance": 1024.0,
      "FFWaveform":
        "GD_AngelBoss.Explosions.Explosion_Web:ForceFeedbackWaveform_4",
      "ImpactEffect":
        "GD_CrystaliskShared.Impacts.Crystalisk_MeleeAOE_Impact",
      "bDamageOverPeriodOfTime": false,
      "MaxDamageDuration": 0.0,
      "DamageInterval": 0.0,
      "bDamageEachTargetOnlyOnce": false,
      "bExpandRadiusOverTime": false
    },
    {
      "ExplosionPSTemplate":
        "FX_CREA_SpiderAnt.Particles.Part_Web_Explosion_Med",
      "MinRadius": 385,
      "MaxRadius": 1024,
      "MinParticleScale": 0.75,
      "MaxParticleScale": 2.0,
      "ExplosionAkEvent":
        "Ake_Mon_Spiderant.Ak_Play_Mon_Spiderant_Web_Impact",
      "CameraAnim": null,
      "MinCameraEffectDistance": 256.0,
      "MaxCameraEffectDistance": 1024.0,
      "FFWaveform":
        "GD_AngelBoss.Explosions.Explosion_Web:ForceFeedbackWaveform_0",
      "ImpactEffect":
        "GD_CrystaliskShared.Impacts.Crystalisk_MeleeAOE_Impact",
      "bDamageOverPeriodOfTime": false,
      "MaxDamageDuration": 0.0,
      "DamageInterval": 0.0,
      "bDamageEachTargetOnlyOnce": false,
      "bExpandRadiusOverTime": false
    }
  ],
  "VfTableObject": "",
  "HashNext": "",
  "ObjectFlags": "",
  "HashOuterNext": "",
  "StateFrame": "",
  "Linker": null,
  "LinkerIndex": "",
  "ObjectInternalInteger": 212862,
  "NetIndex": 658,
  "Outer": "GD_AngelBoss.Explosions",
  "Name": "Explosion_Web",
  "Class": "WillowGame.ExplosionDefinition",
  "ObjectArchetype": "WillowGame.Default__ExplosionDefinition"
}