{
  "ExplosionAkEvent": null,
  "MultipleExplosionsAkEvent": null,
  "ExplosionPSTemplate": null,
  "DrawScale": 0.0,
  "CameraAnim": null,
  "MinCameraEffectDistance": 0.0,
  "MaxCameraEffectDistance": 0.0,
  "FFWaveform": null,
  "DamageTypeDef": "GD_Explosive.DamageType.DmgType_Explosive_Impact",
  "bSkipTraceTest": false,
  "ImpactEffect": null,
  "ImpactTraceLength": 512.0,
  "ExplosionSoundStackingPreventionDelay": 0.25,
  "ExplosionSoundStackingMaxDistanceSquared": 4194304.0,
  "ExplosionScale": [
    {
      "ExplosionPSTemplate": null,
      "MinRadius": 0,
      "MaxRadius": 100000,
      "MinParticleScale": 1.0,
      "MaxParticleScale": 1.0,
      "ExplosionAkEvent":
        "Ake_Seq_Missions.Missions.Misc.Ak_Play_Seq_Earthquake_Rumble",
      "CameraAnim":
        "GD_Allium_KillSnowmanData.Misc.Canim_Explosion_SnowmanEarthquake",
      "MinCameraEffectDistance": 0.0,
      "MaxCameraEffectDistance": 100000.0,
      "FFWaveform":
        "GD_Allium_KillSnowmanData.Misc.Explosion_SnowmanEarthquake:ForceFeedbackWaveform_0",
      "ImpactEffect": null,
      "bDamageOverPeriodOfTime": false,
      "MaxDamageDuration": 0.0,
      "DamageInterval": 0.0,
      "bDamageEachTargetOnlyOnce": false,
      "bExpandRadiusOverTime": false
    }
  ],
  "VfTableObject": "",
  "HashNext": "",
  "ObjectFlags": "",
  "HashOuterNext": "",
  "StateFrame": "",
  "Linker": null,
  "LinkerIndex": "",
  "ObjectInternalInteger": 199774,
  "NetIndex": 470,
  "Outer": "GD_Allium_KillSnowmanData.Misc",
  "Name": "Explosion_SnowmanEarthquake",
  "Class": "WillowGame.ExplosionDefinition",
  "ObjectArchetype": "WillowGame.Default__ExplosionDefinition"
}