{
  "ExplosionAkEvent": null,
  "MultipleExplosionsAkEvent": null,
  "ExplosionPSTemplate": null,
  "DrawScale": 0.0,
  "CameraAnim": null,
  "MinCameraEffectDistance": 0.0,
  "MaxCameraEffectDistance": 0.0,
  "FFWaveform": null,
  "DamageTypeDef": null,
  "bSkipTraceTest": false,
  "ImpactEffect": null,
  "ImpactTraceLength": 64.0,
  "ExplosionSoundStackingPreventionDelay": 0.25,
  "ExplosionSoundStackingMaxDistanceSquared": 4194304.0,
  "ExplosionScale": [
    {
      "ExplosionPSTemplate": null,
      "MinRadius": 0,
      "MaxRadius": 1024,
      "MinParticleScale": 1.0,
      "MaxParticleScale": 1.0,
      "ExplosionAkEvent": null,
      "CameraAnim":
        "Anim_CameraAnimations.Explosions.Canim_Explosion_RakkImpact",
      "MinCameraEffectDistance": 1.0,
      "MaxCameraEffectDistance": 5000.0,
      "FFWaveform":
        "GD_BloodwingShared.Explosions.Explosion_BloodwingShared_Impact:ForceFeedbackWaveform_3",
      "ImpactEffect": null,
      "bDamageOverPeriodOfTime": false,
      "MaxDamageDuration": 0.0,
      "DamageInterval": 0.0,
      "bDamageEachTargetOnlyOnce": false,
      "bExpandRadiusOverTime": false
    }
  ],
  "VfTableObject": "",
  "HashNext": "",
  "ObjectFlags": "",
  "HashOuterNext": "",
  "StateFrame": "",
  "Linker": null,
  "LinkerIndex": "",
  "ObjectInternalInteger": 190199,
  "NetIndex": 410,
  "Outer": "GD_BloodwingShared.Explosions",
  "Name": "Explosion_BloodwingShared_Impact",
  "Class": "WillowGame.ExplosionDefinition",
  "ObjectArchetype": "WillowGame.Default__ExplosionDefinition"
}