{
  "ExplosionAkEvent": null,
  "MultipleExplosionsAkEvent": null,
  "ExplosionPSTemplate": null,
  "DrawScale": 0.0,
  "CameraAnim": null,
  "MinCameraEffectDistance": 0.0,
  "MaxCameraEffectDistance": 0.0,
  "FFWaveform": null,
  "DamageTypeDef": "GD_BigBird.DamageType.DmgType_DiveBomb",
  "bSkipTraceTest": true,
  "ImpactEffect": null,
  "ImpactTraceLength": 64.0,
  "ExplosionSoundStackingPreventionDelay": 0.25,
  "ExplosionSoundStackingMaxDistanceSquared": 4194304.0,
  "ExplosionScale": [
    {
      "ExplosionPSTemplate":
        "FX_Allium_Wingsgiving.Particles.Part_DiveBomb_Impact",
      "MinRadius": 0,
      "MaxRadius": 9999,
      "MinParticleScale": 1.0,
      "MaxParticleScale": 1.0,
      "ExplosionAkEvent": null,
      "CameraAnim": "Anim_CameraAnimations.Explosions.Canim_Explosion_Large",
      "MinCameraEffectDistance": 500.0,
      "MaxCameraEffectDistance": 2500.0,
      "FFWaveform": null,
      "ImpactEffect": null,
      "bDamageOverPeriodOfTime": false,
      "MaxDamageDuration": 0.0,
      "DamageInterval": 0.1,
      "bDamageEachTargetOnlyOnce": true,
      "bExpandRadiusOverTime": false
    }
  ],
  "VfTableObject": "",
  "HashNext": "",
  "ObjectFlags": "",
  "HashOuterNext": "",
  "StateFrame": "",
  "Linker": null,
  "LinkerIndex": "",
  "ObjectInternalInteger": 209327,
  "NetIndex": 766,
  "Outer": "GD_BigBird.Explosion",
  "Name": "Explosion_BigBird_DiveBomb",
  "Class": "WillowGame.ExplosionDefinition",
  "ObjectArchetype": "WillowGame.Default__ExplosionDefinition"
}