{
  "ExplosionAkEvent": null,
  "MultipleExplosionsAkEvent": null,
  "ExplosionPSTemplate": null,
  "DrawScale": 0.0,
  "CameraAnim": null,
  "MinCameraEffectDistance": 0.0,
  "MaxCameraEffectDistance": 0.0,
  "FFWaveform": null,
  "DamageTypeDef":
    "GD_Explosive.DamageType.DmgType_Explosive_Impact_Friendly",
  "bSkipTraceTest": false,
  "ImpactEffect": null,
  "ImpactTraceLength": 512.0,
  "ExplosionSoundStackingPreventionDelay": 0.25,
  "ExplosionSoundStackingMaxDistanceSquared": 4194304.0,
  "ExplosionScale": [
    {
      "ExplosionPSTemplate":
        "FX_WEP_Explosions.Particles.Default.Part_Explosion_Large_Burst",
      "MinRadius": 0,
      "MaxRadius": 1024,
      "MinParticleScale": 1.0,
      "MaxParticleScale": 1.0,
      "ExplosionAkEvent":
        "Ake_Wep_Elemental_Shared.Ak_Play_Explosive_Blast_Large",
      "CameraAnim": null,
      "MinCameraEffectDistance": 256.0,
      "MaxCameraEffectDistance": 512.0,
      "FFWaveform":
        "GD_Explosions.explosive.Explosion_Friendly_512:ForceFeedbackWaveform_0",
      "ImpactEffect": "GD_Impacts.ExplosiveImpacts.ExplosiveImpactNormal512",
      "bDamageOverPeriodOfTime": false,
      "MaxDamageDuration": 0.0,
      "DamageInterval": 0.0,
      "bDamageEachTargetOnlyOnce": false,
      "bExpandRadiusOverTime": false
    }
  ],
  "VfTableObject": "",
  "HashNext": "",
  "ObjectFlags": "",
  "HashOuterNext": "",
  "StateFrame": "",
  "Linker": null,
  "LinkerIndex": "",
  "ObjectInternalInteger": 200006,
  "NetIndex": 23,
  "Outer": "GD_Explosions.explosive",
  "Name": "Explosion_Friendly_512",
  "Class": "WillowGame.ExplosionDefinition",
  "ObjectArchetype": "WillowGame.Default__ExplosionDefinition"
}