{
  "ExplosionAkEvent": null,
  "MultipleExplosionsAkEvent": null,
  "ExplosionPSTemplate": null,
  "DrawScale": 0.0,
  "CameraAnim": null,
  "MinCameraEffectDistance": 0.0,
  "MaxCameraEffectDistance": 0.0,
  "FFWaveform": null,
  "DamageTypeDef": "GD_Explosive.DamageType.DmgType_Explosive_Impact",
  "bSkipTraceTest": false,
  "ImpactEffect": null,
  "ImpactTraceLength": 512.0,
  "ExplosionSoundStackingPreventionDelay": 0.25,
  "ExplosionSoundStackingMaxDistanceSquared": 4194304.0,
  "ExplosionScale": [
    {
      "ExplosionPSTemplate":
        "FX_VEH_Gyrocopter.Particles.Boombringer.Part_Boombringer_Explosion",
      "MinRadius": 0,
      "MaxRadius": 1024,
      "MinParticleScale": 3.0,
      "MaxParticleScale": 3.0,
      "ExplosionAkEvent":
        "Ake_Veh_Bandit_Technical.Weapon.Ak_Play_veh_BT_wep_rocket_explo",
      "CameraAnim": null,
      "MinCameraEffectDistance": 0.0,
      "MaxCameraEffectDistance": 0.0,
      "FFWaveform":
        "GD_Explosions.InteractiveObjects.Explosion_Boombringer_Primary:ForceFeedbackWaveform_0",
      "ImpactEffect": "GD_Impacts.ExplosiveImpacts.ExplosiveImpactNormal256",
      "bDamageOverPeriodOfTime": false,
      "MaxDamageDuration": 0.0,
      "DamageInterval": 0.0,
      "bDamageEachTargetOnlyOnce": false,
      "bExpandRadiusOverTime": false
    }
  ],
  "VfTableObject": "",
  "HashNext": "",
  "ObjectFlags": "",
  "HashOuterNext": "",
  "StateFrame": "",
  "Linker": null,
  "LinkerIndex": "",
  "ObjectInternalInteger": 183232,
  "NetIndex": 45,
  "Outer": "GD_Explosions.InteractiveObjects",
  "Name": "Explosion_Boombringer_Primary",
  "Class": "WillowGame.ExplosionDefinition",
  "ObjectArchetype": "WillowGame.Default__ExplosionDefinition"
}