{
  "ExplosionAkEvent": null,
  "MultipleExplosionsAkEvent": null,
  "ExplosionPSTemplate": null,
  "DrawScale": 0.0,
  "CameraAnim": null,
  "MinCameraEffectDistance": 0.0,
  "MaxCameraEffectDistance": 0.0,
  "FFWaveform": null,
  "DamageTypeDef": "GD_Shock.DamageType.DmgType_Shock_Impact",
  "bSkipTraceTest": false,
  "ImpactEffect": null,
  "ImpactTraceLength": 512.0,
  "ExplosionSoundStackingPreventionDelay": 0.25,
  "ExplosionSoundStackingMaxDistanceSquared": 4194304.0,
  "ExplosionScale": [
    {
      "ExplosionPSTemplate":
        "FX_Aster_Knight.Particles.ShockKnight.Part_HammerSwing_Impact",
      "MinRadius": 0,
      "MaxRadius": 192,
      "MinParticleScale": 1.0,
      "MaxParticleScale": 1.0,
      "ExplosionAkEvent":
        "Ake_Exp_Elemental.Exp_Shock.Ak_Play_Exp_Elemental_Shock_SM",
      "CameraAnim": "Anim_CameraAnimations.Explosions.Canim_Explosion_Minor",
      "MinCameraEffectDistance": 0.0,
      "MaxCameraEffectDistance": 180.0,
      "FFWaveform":
        "GD_Knight_Storm.Explosions.Explosion_Shock:ForceFeedbackWaveform_1005",
      "ImpactEffect": "GD_Impacts.ExplosiveImpacts.ExplosiveImpactNormal128",
      "bDamageOverPeriodOfTime": false,
      "MaxDamageDuration": 0.0,
      "DamageInterval": 0.0,
      "bDamageEachTargetOnlyOnce": false,
      "bExpandRadiusOverTime": false
    },
    {
      "ExplosionPSTemplate":
        "FX_Aster_Knight.Particles.ShockKnight.Part_HammerSwing_Impact",
      "MinRadius": 193,
      "MaxRadius": 384,
      "MinParticleScale": 1.0,
      "MaxParticleScale": 1.0,
      "ExplosionAkEvent":
        "Ake_Exp_Elemental.Exp_Shock.Ak_Play_Exp_Elemental_Shock_MED",
      "CameraAnim": "Anim_CameraAnimations.Explosions.Canim_Explosion_Medium",
      "MinCameraEffectDistance": 150.0,
      "MaxCameraEffectDistance": 650.0,
      "FFWaveform":
        "GD_Knight_Storm.Explosions.Explosion_Shock:ForceFeedbackWaveform_1006",
      "ImpactEffect": "GD_Impacts.ExplosiveImpacts.ExplosiveImpactNormal256",
      "bDamageOverPeriodOfTime": false,
      "MaxDamageDuration": 0.0,
      "DamageInterval": 0.0,
      "bDamageEachTargetOnlyOnce": false,
      "bExpandRadiusOverTime": false
    },
    {
      "ExplosionPSTemplate":
        "FX_Aster_Knight.Particles.ShockKnight.Part_HammerSwing_Impact",
      "MinRadius": 385,
      "MaxRadius": 1024,
      "MinParticleScale": 1.0,
      "MaxParticleScale": 1.0,
      "ExplosionAkEvent":
        "Ake_Exp_Elemental.Exp_Shock.Ak_Play_Exp_Elemental_Shock_LG",
      "CameraAnim": "Anim_CameraAnimations.Explosions.Canim_Explosion_Large",
      "MinCameraEffectDistance": 300.0,
      "MaxCameraEffectDistance": 1200.0,
      "FFWaveform":
        "GD_Knight_Storm.Explosions.Explosion_Shock:ForceFeedbackWaveform_1007",
      "ImpactEffect": "GD_Impacts.ExplosiveImpacts.ExplosiveImpactNormal512",
      "bDamageOverPeriodOfTime": false,
      "MaxDamageDuration": 0.0,
      "DamageInterval": 0.0,
      "bDamageEachTargetOnlyOnce": false,
      "bExpandRadiusOverTime": false
    }
  ],
  "VfTableObject": "",
  "HashNext": "",
  "ObjectFlags": "",
  "HashOuterNext": "",
  "StateFrame": "",
  "Linker": null,
  "LinkerIndex": "",
  "ObjectInternalInteger": 217709,
  "NetIndex": 171,
  "Outer": "GD_Knight_Storm.Explosions",
  "Name": "Explosion_Shock",
  "Class": "WillowGame.ExplosionDefinition",
  "ObjectArchetype": "WillowGame.Default__ExplosionDefinition"
}