{
  "ExplosionAkEvent": null,
  "MultipleExplosionsAkEvent": null,
  "ExplosionPSTemplate": null,
  "DrawScale": 0.0,
  "CameraAnim": null,
  "MinCameraEffectDistance": 0.0,
  "MaxCameraEffectDistance": 0.0,
  "FFWaveform": null,
  "DamageTypeDef": null,
  "bSkipTraceTest": false,
  "ImpactEffect": null,
  "ImpactTraceLength": 64.0,
  "ExplosionSoundStackingPreventionDelay": 0.25,
  "ExplosionSoundStackingMaxDistanceSquared": 4194304.0,
  "VfTableObject": "",
  "HashNext": "",
  "ObjectFlags": "",
  "HashOuterNext": "",
  "StateFrame": "",
  "Linker": null,
  "LinkerIndex": "",
  "ObjectInternalInteger": 3867,
  "NetIndex": 21124,
  "Outer": "Package'WillowGame'",
  "Name": "Default__ExplosionDefinition",
  "Class": "WillowGame.ExplosionDefinition",
  "ObjectArchetype": "Engine.Default__GBXDefinition"
}