{
  "AssociatedResource": "D_Resources.AmmoResources.Ammo_Combat_Shotgun",
  "AmmoResourceUpgradesArrayIndex": 1,
  "VfTableObject": "",
  "HashNext": "",
  "ObjectFlags": "",
  "HashOuterNext": "",
  "StateFrame": "",
  "Linker": null,
  "LinkerIndex": "",
  "ObjectInternalInteger": 106386,
  "NetIndex": 3,
  "Outer": "D_Attributes.ammoupgrade.AmmoUpgradeLevel_Combat_Shotgun",
  "Name": "AmmoResourceUpgradeAttributeValueResolver_0",
  "Class": "WillowGame.AmmoResourceUpgradeAttributeValueResolver",
  "ObjectArchetype":
    "WillowGame.Default__AmmoResourceUpgradeAttributeValueResolver"
}