{
  "FlagChainOperator": "CEOP_And",
  "FlagChain": [
    {
      "FlagEvalType": "FLAG_IsFalse",
      "FlagDefinition": "GD_GoliathShared.Flags.Flag_ShouldRage",
      "TimeSeconds": {
        "BaseValueConstant": 0.0,
        "BaseValueAttribute": null,
        "InitializationDefinition": null,
        "BaseValueScaleConstant": 1.0
      }
    }
  ],
  "VfTableObject": "",
  "HashNext": "",
  "ObjectFlags": "",
  "HashOuterNext": "",
  "StateFrame": "",
  "Linker": null,
  "LinkerIndex": "",
  "ObjectInternalInteger": 222918,
  "NetIndex": 205,
  "Outer":
    "GD_Allium_PsychoSnow_Midget.Character.AIDef_Allium_SnowPsycho_Midget:AIBehaviorProviderDefinition_1.Behavior_Conditional_41",
  "Name": "FlagExpressionEvaluator_121",
  "Class": "GearboxFramework.FlagExpressionEvaluator",
  "ObjectArchetype": "GearboxFramework.Default__FlagExpressionEvaluator"
}