{
  "FlagChainOperator": "CEOP_And",
  "FlagChain": [
    {
      "FlagEvalType": "FLAG_IsTrue",
      "FlagDefinition": "GD_GoliathShared.Flags.Flag_Rage",
      "TimeSeconds": {
        "BaseValueConstant": 0.0,
        "BaseValueAttribute": null,
        "InitializationDefinition": null,
        "BaseValueScaleConstant": 1.0
      }
    }
  ],
  "VfTableObject": "",
  "HashNext": "",
  "ObjectFlags": "",
  "HashOuterNext": "",
  "StateFrame": "",
  "Linker": null,
  "LinkerIndex": "",
  "ObjectInternalInteger": 218630,
  "NetIndex": 702,
  "Outer":
    "GD_GoliathShared.HitRegions.HitRegion_Body:BehaviorProviderDefinition_0.Behavior_Conditional_88",
  "Name": "FlagExpressionEvaluator_30",
  "Class": "GearboxFramework.FlagExpressionEvaluator",
  "ObjectArchetype": "GearboxFramework.Default__FlagExpressionEvaluator"
}