{
  "FlagChainOperator": "CEOP_And",
  "FlagChain": [
    {
      "FlagEvalType": "FLAG_IsTrue",
      "FlagDefinition": "GD_Iris_BikeRider_Shared.Flags.Flag_IsOnBike",
      "TimeSeconds": {
        "BaseValueConstant": 0.0,
        "BaseValueAttribute": null,
        "InitializationDefinition": null,
        "BaseValueScaleConstant": 1.0
      }
    }
  ],
  "VfTableObject": "",
  "HashNext": "",
  "ObjectFlags": "",
  "HashOuterNext": "",
  "StateFrame": "",
  "Linker": null,
  "LinkerIndex": "",
  "ObjectInternalInteger": 211605,
  "NetIndex": 508,
  "Outer":
    "GD_Iris_BikeRiderMarauder.Character.AIDef_Iris_BikeRiderMarauder:AIBehaviorProviderDefinition_0.Behavior_Conditional_1363",
  "Name": "FlagExpressionEvaluator_42",
  "Class": "GearboxFramework.FlagExpressionEvaluator",
  "ObjectArchetype": "GearboxFramework.Default__FlagExpressionEvaluator"
}