{
  "FlagChainOperator": "CEOP_And",
  "FlagChain": [
    {
      "FlagEvalType": "FLAG_IsFalse",
      "FlagDefinition":
        "GD_Iris_BlimpBoss.Flags.Flag_BlimpLCannonLowerCDoorOpen",
      "TimeSeconds": {
        "BaseValueConstant": 0.0,
        "BaseValueAttribute": null,
        "InitializationDefinition": null,
        "BaseValueScaleConstant": 1.0
      }
    }
  ],
  "VfTableObject": "",
  "HashNext": "",
  "ObjectFlags": "",
  "HashOuterNext": "",
  "StateFrame": "",
  "Linker": null,
  "LinkerIndex": "",
  "ObjectInternalInteger": 204361,
  "NetIndex": 954,
  "Outer":
    "GD_Iris_BlimpBoss.Character.AIDef_Iris_BlimpBoss:AIBehaviorProviderDefinition_1.Behavior_Conditional_1389",
  "Name": "FlagExpressionEvaluator_0",
  "Class": "GearboxFramework.FlagExpressionEvaluator",
  "ObjectArchetype": "GearboxFramework.Default__FlagExpressionEvaluator"
}