{
  "FlagChainOperator": "CEOP_And",
  "FlagChain": [
    {
      "FlagEvalType": "FLAG_IsTrue",
      "FlagDefinition":
        "GD_Iris_MotorMama.Flags.Flag_MotorMamaSupportBikersVO",
      "TimeSeconds": {
        "BaseValueConstant": 0.0,
        "BaseValueAttribute": null,
        "InitializationDefinition": null,
        "BaseValueScaleConstant": 1.0
      }
    }
  ],
  "VfTableObject": "",
  "HashNext": "",
  "ObjectFlags": "",
  "HashOuterNext": "",
  "StateFrame": "",
  "Linker": null,
  "LinkerIndex": "",
  "ObjectInternalInteger": 224708,
  "NetIndex": 912,
  "Outer":
    "GD_Iris_MotorMama.Character.AIDef_Iris_MotorMama_Combat:AIBehaviorProviderDefinition_0.Behavior_Conditional_93",
  "Name": "FlagExpressionEvaluator_287",
  "Class": "GearboxFramework.FlagExpressionEvaluator",
  "ObjectArchetype": "GearboxFramework.Default__FlagExpressionEvaluator"
}