{
  "FlagChainOperator": "CEOP_And",
  "FlagChain": [
    {
      "FlagEvalType": "FLAG_IsFalse",
      "FlagDefinition": "GD_Loadershared.Flags.Flag_LegGone_L",
      "TimeSeconds": {
        "BaseValueConstant": 0.0,
        "BaseValueAttribute": null,
        "InitializationDefinition": null,
        "BaseValueScaleConstant": 1.0
      }
    },
    {
      "FlagEvalType": "FLAG_IsFalse",
      "FlagDefinition": "GD_Loadershared.Flags.Flag_LegGone_R",
      "TimeSeconds": {
        "BaseValueConstant": 0.0,
        "BaseValueAttribute": null,
        "InitializationDefinition": null,
        "BaseValueScaleConstant": 1.0
      }
    }
  ],
  "VfTableObject": "",
  "HashNext": "",
  "ObjectFlags": "",
  "HashOuterNext": "",
  "StateFrame": "",
  "Linker": null,
  "LinkerIndex": "",
  "ObjectInternalInteger": 233609,
  "NetIndex": 213,
  "Outer": "GD_Iris_LoaderJET.Character.AIDef_Iris_LoaderJET",
  "Name": "FlagExpressionEvaluator_5",
  "Class": "GearboxFramework.FlagExpressionEvaluator",
  "ObjectArchetype": "GearboxFramework.Default__FlagExpressionEvaluator"
}