{
  "FlagChainOperator": "CEOP_And",
  "FlagChain": [
    {
      "FlagEvalType": "FLAG_IsFalse",
      "FlagDefinition": "GD_GoliathShared.Flags.Flag_Rage",
      "TimeSeconds": {
        "BaseValueConstant": 0.0,
        "BaseValueAttribute": null,
        "InitializationDefinition": null,
        "BaseValueScaleConstant": 1.0
      }
    }
  ],
  "VfTableObject": "",
  "HashNext": "",
  "ObjectFlags": "",
  "HashOuterNext": "",
  "StateFrame": "",
  "Linker": null,
  "LinkerIndex": "",
  "ObjectInternalInteger": 218628,
  "NetIndex": 522,
  "Outer":
    "GD_Iris_Piston_Boss.Death.BodyDeath_Iris_Piston_Boss:BehaviorProviderDefinition_6.Behavior_Conditional_4",
  "Name": "FlagExpressionEvaluator_3",
  "Class": "GearboxFramework.FlagExpressionEvaluator",
  "ObjectArchetype": "GearboxFramework.Default__FlagExpressionEvaluator"
}