{
  "FlagChainOperator": "CEOP_And",
  "FlagChain": [
    {
      "FlagEvalType": "FLAG_IsTrue",
      "FlagDefinition": "GD_Iris_BikeRider_Shared.Flags.Flag_CanBoostMama",
      "TimeSeconds": {
        "BaseValueConstant": 0.0,
        "BaseValueAttribute": null,
        "InitializationDefinition": null,
        "BaseValueScaleConstant": 1.0
      }
    },
    {
      "FlagEvalType": "FLAG_IsFalse",
      "FlagDefinition": "GD_Iris_BikeRider_Shared.Flags.Flag_IsOnBike",
      "TimeSeconds": {
        "BaseValueConstant": 0.0,
        "BaseValueAttribute": null,
        "InitializationDefinition": null,
        "BaseValueScaleConstant": 1.0
      }
    }
  ],
  "VfTableObject": "",
  "HashNext": "",
  "ObjectFlags": "",
  "HashOuterNext": "",
  "StateFrame": "",
  "Linker": null,
  "LinkerIndex": "",
  "ObjectInternalInteger": 209148,
  "NetIndex": 512,
  "Outer": "GD_Iris_BikeRiderMarauder.Character.AIDef_Iris_BikeRiderMarauder",
  "Name": "FlagExpressionEvaluator_1898",
  "Class": "GearboxFramework.FlagExpressionEvaluator",
  "ObjectArchetype": "GearboxFramework.Default__FlagExpressionEvaluator"
}