{
  "FlagChainOperator": "CEOP_Or",
  "FlagChain": [
    {
      "FlagEvalType": "FLAG_IsFalse",
      "FlagDefinition": "GD_Loadershared.Flags.Flag_ArmGone_L",
      "TimeSeconds": {
        "BaseValueConstant": 0.0,
        "BaseValueAttribute": null,
        "InitializationDefinition": null,
        "BaseValueScaleConstant": 1.0
      }
    },
    {
      "FlagEvalType": "FLAG_IsFalse",
      "FlagDefinition": "GD_Loadershared.Flags.Flag_ArmGone_R",
      "TimeSeconds": {
        "BaseValueConstant": 0.0,
        "BaseValueAttribute": null,
        "InitializationDefinition": null,
        "BaseValueScaleConstant": 1.0
      }
    }
  ],
  "VfTableObject": "",
  "HashNext": "",
  "ObjectFlags": "",
  "HashOuterNext": "",
  "StateFrame": "",
  "Linker": null,
  "LinkerIndex": "",
  "ObjectInternalInteger": 195833,
  "NetIndex": 127,
  "Outer": "GD_LoaderPWR.Character.AIDef_LoaderPWR",
  "Name": "FlagExpressionEvaluator_168",
  "Class": "GearboxFramework.FlagExpressionEvaluator",
  "ObjectArchetype": "GearboxFramework.Default__FlagExpressionEvaluator"
}