{
  "FlagChainOperator": "CEOP_And",
  "FlagChain": [
    {
      "FlagEvalType": "FLAG_IsFalse",
      "FlagDefinition": "GD_Orchid_PirateNinja.Flags.Flag_ScarlettType",
      "TimeSeconds": {
        "BaseValueConstant": 0.0,
        "BaseValueAttribute": null,
        "InitializationDefinition": null,
        "BaseValueScaleConstant": 1.0
      }
    }
  ],
  "VfTableObject": "",
  "HashNext": "",
  "ObjectFlags": "",
  "HashOuterNext": "",
  "StateFrame": "",
  "Linker": null,
  "LinkerIndex": "",
  "ObjectInternalInteger": 221705,
  "NetIndex": 349,
  "Outer":
    "GD_Orchid_PirateNinja.Character.AIDef_Orchid_Assassin:AIBehaviorProviderDefinition_1.Behavior_Conditional_11",
  "Name": "FlagExpressionEvaluator_44",
  "Class": "GearboxFramework.FlagExpressionEvaluator",
  "ObjectArchetype": "GearboxFramework.Default__FlagExpressionEvaluator"
}