{
  "FlagChainOperator": "CEOP_And",
  "FlagChain": [
    {
      "FlagEvalType": "FLAG_IsTrue",
      "FlagDefinition": "GD_Orchid_RaidShaman.Flag_Orchid_RaidShaman_Frozen",
      "TimeSeconds": {
        "BaseValueConstant": 0.0,
        "BaseValueAttribute": null,
        "InitializationDefinition": null,
        "BaseValueScaleConstant": 1.0
      }
    }
  ],
  "VfTableObject": "",
  "HashNext": "",
  "ObjectFlags": "",
  "HashOuterNext": "",
  "StateFrame": "",
  "Linker": null,
  "LinkerIndex": "",
  "ObjectInternalInteger": 199113,
  "NetIndex": 397,
  "Outer":
    "GD_Orchid_RaidShaman.Character.AIDef_Orchid_RaidShaman:AIBehaviorProviderDefinition_0.Behavior_Conditional_206",
  "Name": "FlagExpressionEvaluator_270",
  "Class": "GearboxFramework.FlagExpressionEvaluator",
  "ObjectArchetype": "GearboxFramework.Default__FlagExpressionEvaluator"
}