{
  "FlagChainOperator": "CEOP_And",
  "FlagChain": [
    {
      "FlagEvalType": "FLAG_IsFalse",
      "FlagDefinition":
        "GD_Orchid_RaidEngineer.Flags.Flag_Orchid_RaidEngineer_ShieldDown",
      "TimeSeconds": {
        "BaseValueConstant": 0.0,
        "BaseValueAttribute": null,
        "InitializationDefinition": null,
        "BaseValueScaleConstant": 1.0
      }
    }
  ],
  "VfTableObject": "",
  "HashNext": "",
  "ObjectFlags": "",
  "HashOuterNext": "",
  "StateFrame": "",
  "Linker": null,
  "LinkerIndex": "",
  "ObjectInternalInteger": 218710,
  "NetIndex": 1065,
  "Outer":
    "GD_Orchid_RaidEngineer.Character.AIDef_Orchid_RaidEngineer:AIBehaviorProviderDefinition_1.Behavior_Conditional_10",
  "Name": "FlagExpressionEvaluator_304",
  "Class": "GearboxFramework.FlagExpressionEvaluator",
  "ObjectArchetype": "GearboxFramework.Default__FlagExpressionEvaluator"
}