{
  "FlagChainOperator": "CEOP_Or",
  "FlagChain": [
    {
      "FlagEvalType": "FLAG_IsTrue",
      "FlagDefinition":
        "GD_Orchid_SandWorm.Flag.AIFlag_Orchid_SandWorm_Underground",
      "TimeSeconds": {
        "BaseValueConstant": 0.0,
        "BaseValueAttribute": null,
        "InitializationDefinition": null,
        "BaseValueScaleConstant": 1.0
      }
    }
  ],
  "VfTableObject": "",
  "HashNext": "",
  "ObjectFlags": "",
  "HashOuterNext": "",
  "StateFrame": "",
  "Linker": null,
  "LinkerIndex": "",
  "ObjectInternalInteger": 199109,
  "NetIndex": 316,
  "Outer":
    "GD_Orchid_SandWormRaid.Character.AIDef_Orchid_SandWormRaid:AIBehaviorProviderDefinition_0.Behavior_Conditional_18",
  "Name": "FlagExpressionEvaluator_134",
  "Class": "GearboxFramework.FlagExpressionEvaluator",
  "ObjectArchetype": "GearboxFramework.Default__FlagExpressionEvaluator"
}