{
  "FlagChainOperator": "CEOP_And",
  "FlagChain": [
    {
      "FlagEvalType": "FLAG_IsFalse",
      "FlagDefinition": "GD_Loadershared.Flags.Flag_LegGone_L",
      "TimeSeconds": {
        "BaseValueConstant": 0.0,
        "BaseValueAttribute": null,
        "InitializationDefinition": null,
        "BaseValueScaleConstant": 1.0
      }
    },
    {
      "FlagEvalType": "FLAG_IsFalse",
      "FlagDefinition": "GD_Loadershared.Flags.Flag_LegGone_R",
      "TimeSeconds": {
        "BaseValueConstant": 0.0,
        "BaseValueAttribute": null,
        "InitializationDefinition": null,
        "BaseValueScaleConstant": 1.0
      }
    }
  ],
  "VfTableObject": "",
  "HashNext": "",
  "ObjectFlags": "",
  "HashOuterNext": "",
  "StateFrame": "",
  "Linker": null,
  "LinkerIndex": "",
  "ObjectInternalInteger": 156196,
  "NetIndex": 336,
  "Outer":
    "GD_PinocchioBot.Character.AIDef_PinocchioBot:AIBehaviorProviderDefinition_0.Behavior_Conditional_0",
  "Name": "FlagExpressionEvaluator_7",
  "Class": "GearboxFramework.FlagExpressionEvaluator",
  "ObjectArchetype": "GearboxFramework.Default__FlagExpressionEvaluator"
}