{
  "FlagChainOperator": "CEOP_And",
  "FlagChain": [
    {
      "FlagEvalType": "FLAG_IsTrue",
      "FlagDefinition":
        "GD_Sage_Raid_BeastMaster.Flags.Flag_Sage_Raid_BeastMaster_Shield",
      "TimeSeconds": {
        "BaseValueConstant": 0.0,
        "BaseValueAttribute": null,
        "InitializationDefinition": null,
        "BaseValueScaleConstant": 1.0
      }
    }
  ],
  "VfTableObject": "",
  "HashNext": "",
  "ObjectFlags": "",
  "HashOuterNext": "",
  "StateFrame": "",
  "Linker": null,
  "LinkerIndex": "",
  "ObjectInternalInteger": 191820,
  "NetIndex": 719,
  "Outer":
    "GD_Sage_Raid_Beast.Character.AIDef_Sage_Raid_Beast:AIBehaviorProviderDefinition_22.Behavior_Conditional_312",
  "Name": "FlagExpressionEvaluator_270",
  "Class": "GearboxFramework.FlagExpressionEvaluator",
  "ObjectArchetype": "GearboxFramework.Default__FlagExpressionEvaluator"
}