{
  "FlagChainOperator": "CEOP_And",
  "FlagChain": [
    {
      "FlagEvalType": "FLAG_IsTrue",
      "FlagDefinition": "GD_AI_Flags.Transformed.Flag_Transformed_Shock",
      "TimeSeconds": {
        "BaseValueConstant": 0.0,
        "BaseValueAttribute": null,
        "InitializationDefinition": null,
        "BaseValueScaleConstant": 1.0
      }
    }
  ],
  "VfTableObject": "",
  "HashNext": "",
  "ObjectFlags": "",
  "HashOuterNext": "",
  "StateFrame": "",
  "Linker": null,
  "LinkerIndex": "",
  "ObjectInternalInteger": 201934,
  "NetIndex": 1776,
  "Outer":
    "GD_SkagShared.Anims.Anim_Skag_ClawR:BehaviorProviderDefinition_25.Behavior_Conditional_18",
  "Name": "FlagExpressionEvaluator_12",
  "Class": "GearboxFramework.FlagExpressionEvaluator",
  "ObjectArchetype": "GearboxFramework.Default__FlagExpressionEvaluator"
}