{
  "FlagChainOperator": "CEOP_And",
  "FlagChain": [
    {
      "FlagEvalType": "FLAG_IsTrue",
      "FlagDefinition": "GD_SpiderantShared.Flags.Flag_IsBigSpiderant",
      "TimeSeconds": {
        "BaseValueConstant": 0.0,
        "BaseValueAttribute": null,
        "InitializationDefinition": null,
        "BaseValueScaleConstant": 1.0
      }
    }
  ],
  "VfTableObject": "",
  "HashNext": "",
  "ObjectFlags": "",
  "HashOuterNext": "",
  "StateFrame": "",
  "Linker": null,
  "LinkerIndex": "",
  "ObjectInternalInteger": 202048,
  "NetIndex": 207,
  "Outer":
    "GD_SpiderantScorch.Anims.Anim_Spiderant_AttackLeapFire_Start:BehaviorProviderDefinition_22.Behavior_Conditional_21",
  "Name": "FlagExpressionEvaluator_11",
  "Class": "GearboxFramework.FlagExpressionEvaluator",
  "ObjectArchetype": "GearboxFramework.Default__FlagExpressionEvaluator"
}