{
  "FlagChainOperator": "CEOP_And",
  "FlagChain": [
    {
      "FlagEvalType": "FLAG_IsTrue",
      "FlagDefinition": "GD_TentacleShared.Flags.Flag_HasRock",
      "TimeSeconds": {
        "BaseValueConstant": 0.0,
        "BaseValueAttribute": null,
        "InitializationDefinition": null,
        "BaseValueScaleConstant": 1.0
      }
    }
  ],
  "VfTableObject": "",
  "HashNext": "",
  "ObjectFlags": "",
  "HashOuterNext": "",
  "StateFrame": "",
  "Linker": null,
  "LinkerIndex": "",
  "ObjectInternalInteger": 243954,
  "NetIndex": 849,
  "Outer":
    "GD_TentacleShared.Death.DeathDef_TentacleShared_CriticalRaidRock:BehaviorProviderDefinition_0.Behavior_Conditional_0",
  "Name": "FlagExpressionEvaluator_164",
  "Class": "GearboxFramework.FlagExpressionEvaluator",
  "ObjectArchetype": "GearboxFramework.Default__FlagExpressionEvaluator"
}