{
  "CheckRate": 0.2,
  "FunctionCall": "IsHumanControlled",
  "VfTableObject": "",
  "HashNext": "",
  "ObjectFlags": "",
  "HashOuterNext": "",
  "StateFrame": "",
  "Linker": null,
  "LinkerIndex": "",
  "ObjectInternalInteger": 199444,
  "NetIndex": 80,
  "Outer": "GD_AI_Flags.Target.Flag_Target_IsPlayer",
  "Name": "ObjectFunctionFlagValueResolver_0",
  "Class": "GearboxFramework.ObjectFunctionFlagValueResolver",
  "ObjectArchetype":
    "GearboxFramework.Default__ObjectFunctionFlagValueResolver"
}