{
  "CheckRate": 0.2,
  "FunctionCall": "IsFlying",
  "VfTableObject": "",
  "HashNext": "",
  "ObjectFlags": "",
  "HashOuterNext": "",
  "StateFrame": "",
  "Linker": null,
  "LinkerIndex": "",
  "ObjectInternalInteger": 207543,
  "NetIndex": 1132,
  "Outer": "GD_Tulip_DeathTrap.Flags.Flag_TargetIsFlying",
  "Name": "ObjectFunctionFlagValueResolver_0",
  "Class": "GearboxFramework.ObjectFunctionFlagValueResolver",
  "ObjectArchetype":
    "GearboxFramework.Default__ObjectFunctionFlagValueResolver"
}