{
  "Stance": "GD_Loadershared.Anims.Stance_Crawling_R",
  "Option": "StanceOption_NotActive",
  "VfTableObject": "",
  "HashNext": "",
  "ObjectFlags": "",
  "HashOuterNext": "",
  "StateFrame": "",
  "Linker": null,
  "LinkerIndex": "",
  "ObjectInternalInteger": 244055,
  "NetIndex": 110,
  "Outer":
    "GD_Orchid_LoaderShared.Death.DeathDef_Orchid_LoaderShared:ExpressionTree_0",
  "Name": "StanceExpressionEvaluator_2",
  "Class": "WillowGame.StanceExpressionEvaluator",
  "ObjectArchetype": "WillowGame.Default__StanceExpressionEvaluator"
}