{
  "MaxRandomWaveOffsetTime": 4.0,
  "GlobalWaveScale": 0.2,
  "WaveOffsetTime": 0.0,
  "Waves": [
    {
      "WaveFreq": { "X": 447.0, "Y": 532.0 },
      "WaveAmp": { "X": 1.0, "Y": 1.5 },
      "WavePhase": { "X": 0.0, "Y": 0.0 }
    },
    {
      "WaveFreq": { "X": 873.0, "Y": 682.0 },
      "WaveAmp": { "X": 0.5, "Y": 0.6 },
      "WavePhase": { "X": 0.0, "Y": 0.0 }
    }
  ],
  "StartApproachDistance": 1024.0,
  "StartDelayTime": 0.2,
  "EaseInTime": 0.2,
  "StartTime": -1.0,
  "bInitialized": false,
  "RandomNumberSeed": 0,
  "LastVelocityRotOffset": { "X": 0.0, "Y": 0.0, "Z": 0.0, "W": 1.0 },
  "LastAccelRotOffset": { "X": 0.0, "Y": 0.0, "Z": 0.0, "W": 1.0 },
  "VfTable_IIWorldBody": "",
  "Scene": "",
  "Owner": null,
  "bAttached": false,
  "bSkipChildComponentUpdate": false,
  "bTickInEditor": false,
  "bTickInGame": true,
  "bTickInStatusMenu": true,
  "bNeedsReattach": false,
  "bNeedsUpdateTransform": false,
  "TickGroup": "TG_DuringAsyncWork",
  "TemplateOwnerClass": null,
  "TemplateName": null,
  "VfTableObject": "",
  "HashNext": "",
  "ObjectFlags": "",
  "HashOuterNext": "",
  "StateFrame": "",
  "Linker": null,
  "LinkerIndex": "",
  "ObjectInternalInteger": 206966,
  "NetIndex": 571,
  "Outer": "GD_DrifterShared.Projectiles.Projectile_DriftDelete",
  "Name": "DrunkenWaveComponent_136",
  "Class": "WillowGame.DrunkenWaveComponent",
  "ObjectArchetype": "WillowGame.Default__DrunkenWaveComponent"
}