{
  "ZippyFrame": "smg",
  "ItemFrame": "",
  "DescriptionLocReference": "",
  "VfTableObject": "",
  "HashNext": "",
  "ObjectFlags": "",
  "HashOuterNext": "",
  "StateFrame": "",
  "Linker": null,
  "LinkerIndex": "",
  "ObjectInternalInteger": 131323,
  "NetIndex": 27,
  "Outer": "GD_InventoryPresentations.Definitions",
  "Name": "WeaponAmmo_SMG",
  "Class": "Engine.InventoryCardPresentationDefinition",
  "ObjectArchetype": "Engine.Default__InventoryCardPresentationDefinition"
}