{
  "VfTable_IIBehaviorProvider": "",
  "NonRagdollDeathSpecialMove": "GD_DrifterRaid.Anims.Anim_Raid_Death",
  "CanPlayDeathAnimationIf": null,
  "InjuredSpecialMove": null,
  "DissolveBodyDelayBeforeDestroy": 3.0,
  "KeepCorpseAfterDeath": false,
  "bDestroyOnDeath": false,
  "bTearOffAfterDeath": false,
  "bCensorGibs": false,
  "bUseCodeDrivenBodyDissolve": false,
  "bDeathAnimRagdoll": false,
  "bMotorizeRagdollOnNormalDeath": false,
  "bMotorizeRagdollOnTechDeath": false,
  "bDefaultRagdollContactNotification": false,
  "bCreateSpringsForAllBones": false,
  "BehaviorProviderDefinition": null,
  "DefaultBodyDissolveTime": 1.0,
  "SkipRagdollDissolveAmount": 0.6,
  "BlendToRagdollTime": 0.1,
  "RagdollLinearSpring": 1000.0,
  "RagdollAngularSpring": 1000.0,
  "RagdollMotorSpring": 5000.0,
  "RagdollMotorDamping": 250.0,
  "RagdollContactReportThreshold": 250.0,
  "VfTableObject": "",
  "HashNext": "",
  "ObjectFlags": "",
  "HashOuterNext": "",
  "StateFrame": "",
  "Linker": null,
  "LinkerIndex": "",
  "ObjectInternalInteger": 204215,
  "NetIndex": 366,
  "Outer": "GD_DrifterRaid.Death",
  "Name": "DeathDef_DrifterRaid",
  "Class": "WillowGame.BodyClassDeathDefinition",
  "ObjectArchetype": "WillowGame.Default__BodyClassDeathDefinition"
}