{
  "VfTable_IIBehaviorProvider": "",
  "NonRagdollDeathSpecialMove": "GD_GolemShared.Anims.Anim_Golem_Death4",
  "CanPlayDeathAnimationIf": null,
  "InjuredSpecialMove": null,
  "DissolveBodyDelayBeforeDestroy": 3.0,
  "KeepCorpseAfterDeath": false,
  "bDestroyOnDeath": false,
  "bTearOffAfterDeath": false,
  "bCensorGibs": false,
  "bUseCodeDrivenBodyDissolve": false,
  "bDeathAnimRagdoll": true,
  "bMotorizeRagdollOnNormalDeath": false,
  "bMotorizeRagdollOnTechDeath": false,
  "bDefaultRagdollContactNotification": false,
  "bCreateSpringsForAllBones": false,
  "BehaviorProviderDefinition":
    "GD_GolemShared.Death.BodyDeath_Golem:BehaviorProviderDefinition_6",
  "DefaultBodyDissolveTime": 1.0,
  "SkipRagdollDissolveAmount": 0.6,
  "BlendToRagdollTime": 0.1,
  "RagdollLinearSpring": 1000.0,
  "RagdollAngularSpring": 1000.0,
  "RagdollMotorSpring": 5000.0,
  "RagdollMotorDamping": 250.0,
  "RagdollContactReportThreshold": 250.0,
  "VfTableObject": "",
  "HashNext": "",
  "ObjectFlags": "",
  "HashOuterNext": "",
  "StateFrame": "",
  "Linker": null,
  "LinkerIndex": "",
  "ObjectInternalInteger": 213157,
  "NetIndex": 332,
  "Outer": "GD_GolemShared.Death",
  "Name": "BodyDeath_Golem",
  "Class": "WillowGame.BodyClassDeathDefinition",
  "ObjectArchetype": "WillowGame.Default__BodyClassDeathDefinition"
}