{
  "VfTable_IIBehaviorProvider": "",
  "NonRagdollDeathSpecialMove":
    "GD_Nast_AnchorManShared.Anims.AnimRandom_AnchorDeath",
  "CanPlayDeathAnimationIf": null,
  "InjuredSpecialMove": null,
  "DissolveBodyDelayBeforeDestroy": 3.0,
  "KeepCorpseAfterDeath": false,
  "bDestroyOnDeath": false,
  "bTearOffAfterDeath": false,
  "bCensorGibs": true,
  "bUseCodeDrivenBodyDissolve": true,
  "bDeathAnimRagdoll": true,
  "bMotorizeRagdollOnNormalDeath": true,
  "bMotorizeRagdollOnTechDeath": false,
  "bDefaultRagdollContactNotification": true,
  "bCreateSpringsForAllBones": false,
  "BehaviorProviderDefinition":
    "GD_Nast_AnchorManShared.Death.BodyDeath_AnchorMan:BehaviorProviderDefinition_6",
  "DefaultBodyDissolveTime": 1.0,
  "SkipRagdollDissolveAmount": 0.6,
  "BlendToRagdollTime": 0.1,
  "RagdollLinearSpring": 1000.0,
  "RagdollAngularSpring": 1000.0,
  "RagdollMotorSpring": 5000.0,
  "RagdollMotorDamping": 250.0,
  "RagdollContactReportThreshold": 250.0,
  "RagdollSpringBones": [
    "Hips", "Spine1", "Spine3", "L_Shin", "R_Shin", "L_Upperarm",
    "R_Upperarm"
  ],
  "RagdollContactReportBones": [
    "Hips", "Spine1", "Spine3", "L_Thigh", "L_Shin", "R_Thigh", "R_Shin",
    "L_Upperarm", "R_Upperarm"
  ],
  "GibTriggers": [
    {
      "DamageTypeTrigger": "GD_Explosive.DamageType.DmgType_Explosive_Impact",
      "DamageSourceTrigger": null,
      "HealthPctDamageThreshold": 2.0
    },
    {
      "DamageTypeTrigger": null,
      "DamageSourceTrigger": "WillowGame.WillowDmgSource_Bullet",
      "HealthPctDamageThreshold": 10.0
    },
    {
      "DamageTypeTrigger": null,
      "DamageSourceTrigger": "WillowGame.WillowDmgSource_Rocket",
      "HealthPctDamageThreshold": 5.0
    },
    {
      "DamageTypeTrigger": "GD_Impact.DamageType.DmgType_VehicleCollision",
      "DamageSourceTrigger": null,
      "HealthPctDamageThreshold": 5.0
    }
  ],
  "TechDeaths": [
    {
      "DamageTypeTriggers": [
        "GD_Corrosive.DamageType.DmgType_Corrosive_Impact",
        "GD_Corrosive.DamageType.DmgType_Corrosive_Impact_NoDoT",
        "GD_Corrosive.DamageType.DmgType_Corrosive_Status"
      ],
      "DeathAnimation":
        "GD_Nast_AnchorManShared.Anims.Anim_AnchorShared_DeathCorrosive",
      "EventName": "AcidDeath"
    },
    {
      "DamageTypeTriggers": [
        "GD_Shock.DamageType.DmgType_Shock_Impact",
        "GD_Shock.DamageType.DmgType_Shock_Impact_NoDoT",
        "GD_Shock.DamageType.DmgType_Shock_Status"
      ],
      "DeathAnimation":
        "GD_Nast_AnchorManShared.Anims.Anim_AnchorShared_DeathShock",
      "EventName": "ShockDeath"
    },
    {
      "DamageTypeTriggers": [
        "GD_Incendiary.DamageType.DmgType_Incendiary_Impact",
        "GD_Incendiary.DamageType.DmgType_Incendiary_Impact_NoDoT",
        "GD_Incendiary.DamageType.DmgType_Incendiary_Status", null
      ],
      "DeathAnimation":
        "GD_Nast_AnchorManShared.Anims.Anim_AnchorShared_DeathFire",
      "EventName": "FireDeath"
    },
    {
      "DamageTypeTriggers": [ "GD_Amp.DamageType.DmgType_Amp_Impact" ],
      "DeathAnimation":
        "GD_Nast_AnchorManShared.Anims.Anim_AnchorShared_Death3",
      "EventName": null
    }
  ],
  "VfTableObject": "",
  "HashNext": "",
  "ObjectFlags": "",
  "HashOuterNext": "",
  "StateFrame": "",
  "Linker": null,
  "LinkerIndex": "",
  "ObjectInternalInteger": 202731,
  "NetIndex": 890,
  "Outer": "GD_Nast_AnchorManShared.Death",
  "Name": "BodyDeath_AnchorMan",
  "Class": "WillowGame.BodyClassDeathDefinition",
  "ObjectArchetype": "WillowGame.Default__BodyClassDeathDefinition"
}