{
  "VfTable_IIBehaviorProvider": "",
  "NonRagdollDeathSpecialMove":
    "GD_PsychoShared.Anims.AnimRandom_PsychoDeath",
  "CanPlayDeathAnimationIf": null,
  "InjuredSpecialMove": null,
  "DissolveBodyDelayBeforeDestroy": 3.0,
  "KeepCorpseAfterDeath": false,
  "bDestroyOnDeath": false,
  "bTearOffAfterDeath": false,
  "bCensorGibs": true,
  "bUseCodeDrivenBodyDissolve": true,
  "bDeathAnimRagdoll": true,
  "bMotorizeRagdollOnNormalDeath": true,
  "bMotorizeRagdollOnTechDeath": false,
  "bDefaultRagdollContactNotification": true,
  "bCreateSpringsForAllBones": false,
  "BehaviorProviderDefinition":
    "GD_Orchid_LittleSis.Death.BodyDeath_LittleSis:BehaviorProviderDefinition_6",
  "DefaultBodyDissolveTime": 1.0,
  "SkipRagdollDissolveAmount": 0.6,
  "BlendToRagdollTime": 0.1,
  "RagdollLinearSpring": 1000.0,
  "RagdollAngularSpring": 1000.0,
  "RagdollMotorSpring": 5000.0,
  "RagdollMotorDamping": 250.0,
  "RagdollContactReportThreshold": 250.0,
  "RagdollSpringBones": [
    "Hips", "Spine1", "Spine3", "L_Shin", "R_Shin", "L_Upperarm",
    "R_Upperarm"
  ],
  "RagdollContactReportBones": [
    "Hips", "Spine1", "Spine3", "L_Thigh", "L_Shin", "R_Thigh", "R_Shin",
    "L_Upperarm", "R_Upperarm"
  ],
  "TechDeaths": [
    {
      "DamageTypeTriggers": [
        "GD_Corrosive.DamageType.DmgType_Corrosive_Impact",
        "GD_Corrosive.DamageType.DmgType_Corrosive_Impact_NoDoT",
        "GD_Corrosive.DamageType.DmgType_Corrosive_Status"
      ],
      "DeathAnimation":
        "GD_PsychoShared.Anims.Anim_PsychoShared_DeathCorrosive",
      "EventName": "AcidDeath"
    },
    {
      "DamageTypeTriggers": [
        "GD_Shock.DamageType.DmgType_Shock_Impact",
        "GD_Shock.DamageType.DmgType_Shock_Impact_NoDoT",
        "GD_Shock.DamageType.DmgType_Shock_Status"
      ],
      "DeathAnimation": "GD_PsychoShared.Anims.Anim_PsychoShared_DeathShock",
      "EventName": "ShockDeath"
    },
    {
      "DamageTypeTriggers": [
        "GD_Incendiary.DamageType.DmgType_Incendiary_Impact",
        "GD_Incendiary.DamageType.DmgType_Incendiary_Impact_NoDoT",
        "GD_Incendiary.DamageType.DmgType_Incendiary_Status", null
      ],
      "DeathAnimation": "GD_PsychoShared.Anims.Anim_PsychoShared_DeathFire",
      "EventName": "FireDeath"
    },
    {
      "DamageTypeTriggers": [ "GD_Amp.DamageType.DmgType_Amp_Impact" ],
      "DeathAnimation": "GD_PsychoShared.Anims.Anim_PsychoShared_DeathSlag",
      "EventName": null
    }
  ],
  "VfTableObject": "",
  "HashNext": "",
  "ObjectFlags": "",
  "HashOuterNext": "",
  "StateFrame": "",
  "Linker": null,
  "LinkerIndex": "",
  "ObjectInternalInteger": 227923,
  "NetIndex": 243,
  "Outer": "GD_Orchid_LittleSis.Death",
  "Name": "BodyDeath_LittleSis",
  "Class": "WillowGame.BodyClassDeathDefinition",
  "ObjectArchetype": "WillowGame.Default__BodyClassDeathDefinition"
}