{
  "VfTable_IIBehaviorProvider": "",
  "NonRagdollDeathSpecialMove":
    "GD_Orchid_SandWorm.Animation.Anim_Orchid_SandWorm_Turret_Death",
  "CanPlayDeathAnimationIf": null,
  "InjuredSpecialMove": null,
  "DissolveBodyDelayBeforeDestroy": 3.0,
  "KeepCorpseAfterDeath": false,
  "bDestroyOnDeath": false,
  "bTearOffAfterDeath": false,
  "bCensorGibs": true,
  "bUseCodeDrivenBodyDissolve": true,
  "bDeathAnimRagdoll": false,
  "bMotorizeRagdollOnNormalDeath": true,
  "bMotorizeRagdollOnTechDeath": false,
  "bDefaultRagdollContactNotification": false,
  "bCreateSpringsForAllBones": true,
  "BehaviorProviderDefinition":
    "GD_Orchid_SandWormQueen.Character.BodyDeath_Orchid_SandWormQueen:BehaviorProviderDefinition_2",
  "DefaultBodyDissolveTime": 1.0,
  "SkipRagdollDissolveAmount": 0.6,
  "BlendToRagdollTime": 0.1,
  "RagdollLinearSpring": 100000.0,
  "RagdollAngularSpring": 100000.0,
  "RagdollMotorSpring": 500000.0,
  "RagdollMotorDamping": 25000.0,
  "RagdollContactReportThreshold": 250.0,
  "RagdollSpringBones": [
    "sandworm_head", "sandworm_jaw", "sandworm_spine", "sandworm_spine01",
    "sandworm_spine02", "sandworm_spine03", "sandworm_spine04",
    "sandworm_spine05", "sandworm_spine06", "sandworm_spine07"
  ],
  "VfTableObject": "",
  "HashNext": "",
  "ObjectFlags": "",
  "HashOuterNext": "",
  "StateFrame": "",
  "Linker": null,
  "LinkerIndex": "",
  "ObjectInternalInteger": 198115,
  "NetIndex": 276,
  "Outer": "GD_Orchid_SandWormQueen.Character",
  "Name": "BodyDeath_Orchid_SandWormQueen",
  "Class": "WillowGame.BodyClassDeathDefinition",
  "ObjectArchetype": "WillowGame.Default__BodyClassDeathDefinition"
}