{
  "VfTable_IIBehaviorProvider": "",
  "NonRagdollDeathSpecialMove": "GD_PrimalBeastShared.Anims.AnimRandom_Death",
  "CanPlayDeathAnimationIf": null,
  "InjuredSpecialMove": null,
  "DissolveBodyDelayBeforeDestroy": 3.0,
  "KeepCorpseAfterDeath": false,
  "bDestroyOnDeath": false,
  "bTearOffAfterDeath": false,
  "bCensorGibs": true,
  "bUseCodeDrivenBodyDissolve": true,
  "bDeathAnimRagdoll": true,
  "bMotorizeRagdollOnNormalDeath": false,
  "bMotorizeRagdollOnTechDeath": false,
  "bDefaultRagdollContactNotification": false,
  "bCreateSpringsForAllBones": false,
  "BehaviorProviderDefinition":
    "GD_PrimalBeast_KnuckleDragger.Death.BodyDeath_KnuckelDragger:BehaviorProviderDefinition_6",
  "DefaultBodyDissolveTime": 1.0,
  "SkipRagdollDissolveAmount": 0.6,
  "BlendToRagdollTime": 0.1,
  "RagdollLinearSpring": 1000.0,
  "RagdollAngularSpring": 1000.0,
  "RagdollMotorSpring": 5000.0,
  "RagdollMotorDamping": 250.0,
  "RagdollContactReportThreshold": 250.0,
  "GibTriggers": [
    {
      "DamageTypeTrigger": "GD_Explosive.DamageType.DmgType_Explosive_Impact",
      "DamageSourceTrigger": null,
      "HealthPctDamageThreshold": 2.0
    },
    {
      "DamageTypeTrigger": null,
      "DamageSourceTrigger": "WillowGame.WillowDmgSource_Bullet",
      "HealthPctDamageThreshold": 10.0
    },
    {
      "DamageTypeTrigger": null,
      "DamageSourceTrigger": "WillowGame.WillowDmgSource_Rocket",
      "HealthPctDamageThreshold": 5.0
    }
  ],
  "TechDeaths": [
    {
      "DamageTypeTriggers": [
        "GD_Corrosive.DamageType.DmgType_Corrosive_Impact",
        "GD_Corrosive.DamageType.DmgType_Corrosive_Impact_NoDoT",
        "GD_Corrosive.DamageType.DmgType_Corrosive_Status"
      ],
      "DeathAnimation":
        "GD_PrimalBeastShared.Anims.Anim_PrimalBeastShared_DeathCorrosive",
      "EventName": "AcidDeath"
    },
    {
      "DamageTypeTriggers": [
        "GD_Shock.DamageType.DmgType_Shock_Impact",
        "GD_Shock.DamageType.DmgType_Shock_Impact_NoDoT",
        "GD_Shock.DamageType.DmgType_Shock_Status"
      ],
      "DeathAnimation":
        "GD_PrimalBeastShared.Anims.Anim_PrimalBeastShared_DeathShock",
      "EventName": "ShockDeath"
    },
    {
      "DamageTypeTriggers": [
        "GD_Incendiary.DamageType.DmgType_Incendiary_Impact",
        "GD_Incendiary.DamageType.DmgType_Incendiary_Impact_NoDoT",
        "GD_Incendiary.DamageType.DmgType_Incendiary_Status"
      ],
      "DeathAnimation":
        "GD_PrimalBeastShared.Anims.Anim_PrimalBeastShared_DeathFire",
      "EventName": "FireDeath"
    }
  ],
  "VfTableObject": "",
  "HashNext": "",
  "ObjectFlags": "",
  "HashOuterNext": "",
  "StateFrame": "",
  "Linker": null,
  "LinkerIndex": "",
  "ObjectInternalInteger": 220395,
  "NetIndex": 140,
  "Outer": "GD_PrimalBeast_KnuckleDragger.Death",
  "Name": "BodyDeath_KnuckelDragger",
  "Class": "WillowGame.BodyClassDeathDefinition",
  "ObjectArchetype": "WillowGame.Default__BodyClassDeathDefinition"
}