{
  "VfTable_IIBehaviorProvider": "",
  "NonRagdollDeathSpecialMove":
    "GD_RatShared.Anims.AnimRandom_RatShared_Death",
  "CanPlayDeathAnimationIf": null,
  "InjuredSpecialMove": null,
  "DissolveBodyDelayBeforeDestroy": 3.0,
  "KeepCorpseAfterDeath": false,
  "bDestroyOnDeath": false,
  "bTearOffAfterDeath": false,
  "bCensorGibs": true,
  "bUseCodeDrivenBodyDissolve": true,
  "bDeathAnimRagdoll": false,
  "bMotorizeRagdollOnNormalDeath": true,
  "bMotorizeRagdollOnTechDeath": false,
  "bDefaultRagdollContactNotification": true,
  "bCreateSpringsForAllBones": false,
  "BehaviorProviderDefinition":
    "GD_RatGrunt_Digi.Death.BodyDeath_RatShared_Digi:BehaviorProviderDefinition_6",
  "DefaultBodyDissolveTime": 1.0,
  "SkipRagdollDissolveAmount": 0.6,
  "BlendToRagdollTime": 0.1,
  "RagdollLinearSpring": 5000.0,
  "RagdollAngularSpring": 1000.0,
  "RagdollMotorSpring": 5000.0,
  "RagdollMotorDamping": 250.0,
  "RagdollContactReportThreshold": 250.0,
  "RagdollSpringBones": [
    "Hips", "Spine1", "Spine3", "L_Shin", "R_Shin", "L_Upperarm",
    "R_Upperarm"
  ],
  "RagdollContactReportBones": [
    "Hips", "Spine1", "Spine3", "L_Thigh", "L_Shin", "R_Thigh", "R_Shin",
    "L_Upperarm", "R_Upperarm"
  ],
  "VfTableObject": "",
  "HashNext": "",
  "ObjectFlags": "",
  "HashOuterNext": "",
  "StateFrame": "",
  "Linker": null,
  "LinkerIndex": "",
  "ObjectInternalInteger": 205422,
  "NetIndex": 231,
  "Outer": "GD_RatGrunt_Digi.Death",
  "Name": "BodyDeath_RatShared_Digi",
  "Class": "WillowGame.BodyClassDeathDefinition",
  "ObjectArchetype": "WillowGame.Default__BodyClassDeathDefinition"
}