{
  "VfTable_IIBehaviorProvider": "",
  "NonRagdollDeathSpecialMove": null,
  "CanPlayDeathAnimationIf": null,
  "InjuredSpecialMove": null,
  "DissolveBodyDelayBeforeDestroy": 3.0,
  "KeepCorpseAfterDeath": false,
  "bDestroyOnDeath": false,
  "bTearOffAfterDeath": false,
  "bCensorGibs": true,
  "bUseCodeDrivenBodyDissolve": true,
  "bDeathAnimRagdoll": false,
  "bMotorizeRagdollOnNormalDeath": false,
  "bMotorizeRagdollOnTechDeath": false,
  "bDefaultRagdollContactNotification": false,
  "bCreateSpringsForAllBones": false,
  "BehaviorProviderDefinition":
    "GD_Sage_SM_DahliaMurderData.Creature.Character.DeathDef_DahliaMurdererCreature:BehaviorProviderDefinition_0",
  "DefaultBodyDissolveTime": 1.0,
  "SkipRagdollDissolveAmount": 0.6,
  "BlendToRagdollTime": 0.1,
  "RagdollLinearSpring": 1000.0,
  "RagdollAngularSpring": 1000.0,
  "RagdollMotorSpring": 5000.0,
  "RagdollMotorDamping": 250.0,
  "RagdollContactReportThreshold": 250.0,
  "TechDeaths": [
    {
      "DamageTypeTriggers": [
        "GD_Corrosive.DamageType.DmgType_Corrosive_Impact",
        "GD_Corrosive.DamageType.DmgType_Corrosive_Impact_NoDoT",
        "GD_Corrosive.DamageType.DmgType_Corrosive_Status"
      ],
      "DeathAnimation": "GD_RakkShared.Anims.Anim_Rakk_TechDeath",
      "EventName": "AcidDeath"
    },
    {
      "DamageTypeTriggers": [
        "GD_Shock.DamageType.DmgType_Shock_Impact",
        "GD_Shock.DamageType.DmgType_Shock_Impact_NoDoT",
        "GD_Shock.DamageType.DmgType_Shock_Status"
      ],
      "DeathAnimation": "GD_RakkShared.Anims.Anim_Rakk_TechDeath",
      "EventName": "ShockDeath"
    },
    {
      "DamageTypeTriggers": [
        "GD_Incendiary.DamageType.DmgType_Incendiary_Impact",
        "GD_Incendiary.DamageType.DmgType_Incendiary_Impact_NoDoT",
        "GD_Incendiary.DamageType.DmgType_Incendiary_Status", null
      ],
      "DeathAnimation": "GD_RakkShared.Anims.Anim_Rakk_TechDeath",
      "EventName": "FireDeath"
    }
  ],
  "VfTableObject": "",
  "HashNext": "",
  "ObjectFlags": "",
  "HashOuterNext": "",
  "StateFrame": "",
  "Linker": null,
  "LinkerIndex": "",
  "ObjectInternalInteger": 193625,
  "NetIndex": 293,
  "Outer": "GD_Sage_SM_DahliaMurderData.Creature.Character",
  "Name": "DeathDef_DahliaMurdererCreature",
  "Class": "WillowGame.BodyClassDeathDefinition",
  "ObjectArchetype": "WillowGame.Default__BodyClassDeathDefinition"
}