{
  "VfTable_IIBehaviorProvider": "",
  "NonRagdollDeathSpecialMove":
    "GD_Sage_ScaylionShared.Animation.Anim_Sage_ScaylionDeath_Turtle",
  "CanPlayDeathAnimationIf": null,
  "InjuredSpecialMove": null,
  "DissolveBodyDelayBeforeDestroy": 3.0,
  "KeepCorpseAfterDeath": false,
  "bDestroyOnDeath": false,
  "bTearOffAfterDeath": false,
  "bCensorGibs": true,
  "bUseCodeDrivenBodyDissolve": true,
  "bDeathAnimRagdoll": true,
  "bMotorizeRagdollOnNormalDeath": false,
  "bMotorizeRagdollOnTechDeath": false,
  "bDefaultRagdollContactNotification": false,
  "bCreateSpringsForAllBones": false,
  "BehaviorProviderDefinition":
    "GD_Sage_DiseasedScaylion.Death.DeathDef_Sage_DiseasedScaylion_Turtle:BehaviorProviderDefinition_0",
  "DefaultBodyDissolveTime": 1.0,
  "SkipRagdollDissolveAmount": 0.6,
  "BlendToRagdollTime": 0.1,
  "RagdollLinearSpring": 1000.0,
  "RagdollAngularSpring": 1000.0,
  "RagdollMotorSpring": 5000.0,
  "RagdollMotorDamping": 250.0,
  "RagdollContactReportThreshold": 250.0,
  "GibTriggers": [
    {
      "DamageTypeTrigger": null,
      "DamageSourceTrigger": null,
      "HealthPctDamageThreshold": 0.0
    }
  ],
  "VfTableObject": "",
  "HashNext": "",
  "ObjectFlags": "",
  "HashOuterNext": "",
  "StateFrame": "",
  "Linker": null,
  "LinkerIndex": "",
  "ObjectInternalInteger": 188072,
  "NetIndex": 216,
  "Outer": "GD_Sage_DiseasedScaylion.Death",
  "Name": "DeathDef_Sage_DiseasedScaylion_Turtle",
  "Class": "WillowGame.BodyClassDeathDefinition",
  "ObjectArchetype": "WillowGame.Default__BodyClassDeathDefinition"
}