{
  "VfTable_IIBehaviorProvider": "",
  "NonRagdollDeathSpecialMove": null,
  "CanPlayDeathAnimationIf": null,
  "InjuredSpecialMove": null,
  "DissolveBodyDelayBeforeDestroy": 3.0,
  "KeepCorpseAfterDeath": false,
  "bDestroyOnDeath": false,
  "bTearOffAfterDeath": true,
  "bCensorGibs": false,
  "bUseCodeDrivenBodyDissolve": true,
  "bDeathAnimRagdoll": false,
  "bMotorizeRagdollOnNormalDeath": false,
  "bMotorizeRagdollOnTechDeath": false,
  "bDefaultRagdollContactNotification": true,
  "bCreateSpringsForAllBones": true,
  "BehaviorProviderDefinition":
    "GD_Sage_GiantSpore_Corrosive.Character.DeathDef_GiantSpore_Corrosive:BehaviorProviderDefinition_0",
  "DefaultBodyDissolveTime": 1.0,
  "SkipRagdollDissolveAmount": 0.6,
  "BlendToRagdollTime": 0.1,
  "RagdollLinearSpring": 20000.0,
  "RagdollAngularSpring": 20000.0,
  "RagdollMotorSpring": 10000.0,
  "RagdollMotorDamping": 250.0,
  "RagdollContactReportThreshold": 250.0,
  "VfTableObject": "",
  "HashNext": "",
  "ObjectFlags": "",
  "HashOuterNext": "",
  "StateFrame": "",
  "Linker": null,
  "LinkerIndex": "",
  "ObjectInternalInteger": 188756,
  "NetIndex": 199,
  "Outer": "GD_Sage_GiantSpore_Corrosive.Character",
  "Name": "DeathDef_GiantSpore_Corrosive",
  "Class": "WillowGame.BodyClassDeathDefinition",
  "ObjectArchetype": "WillowGame.Default__BodyClassDeathDefinition"
}