{
  "VfTable_IIBehaviorProvider": "",
  "NonRagdollDeathSpecialMove":
    "GD_ThresherShared.Anims.AnimRandom_ThresherSmallDeath",
  "CanPlayDeathAnimationIf": null,
  "InjuredSpecialMove": null,
  "DissolveBodyDelayBeforeDestroy": 3.0,
  "KeepCorpseAfterDeath": false,
  "bDestroyOnDeath": false,
  "bTearOffAfterDeath": false,
  "bCensorGibs": false,
  "bUseCodeDrivenBodyDissolve": true,
  "bDeathAnimRagdoll": false,
  "bMotorizeRagdollOnNormalDeath": false,
  "bMotorizeRagdollOnTechDeath": false,
  "bDefaultRagdollContactNotification": false,
  "bCreateSpringsForAllBones": false,
  "BehaviorProviderDefinition":
    "GD_ThresherVibe.Death.DeathDef_ThresherVibe:BehaviorProviderDefinition_0",
  "DefaultBodyDissolveTime": 1.0,
  "SkipRagdollDissolveAmount": 0.6,
  "BlendToRagdollTime": 0.1,
  "RagdollLinearSpring": 1000.0,
  "RagdollAngularSpring": 1000.0,
  "RagdollMotorSpring": 5000.0,
  "RagdollMotorDamping": 250.0,
  "RagdollContactReportThreshold": 250.0,
  "GibTriggers": [
    {
      "DamageTypeTrigger": "GD_Explosive.DamageType.DmgType_Explosive_Impact",
      "DamageSourceTrigger": null,
      "HealthPctDamageThreshold": 2.0
    },
    {
      "DamageTypeTrigger": null,
      "DamageSourceTrigger": "WillowGame.WillowDmgSource_Bullet",
      "HealthPctDamageThreshold": 10.0
    },
    {
      "DamageTypeTrigger": null,
      "DamageSourceTrigger": "WillowGame.WillowDmgSource_Rocket",
      "HealthPctDamageThreshold": 5.0
    }
  ],
  "VfTableObject": "",
  "HashNext": "",
  "ObjectFlags": "",
  "HashOuterNext": "",
  "StateFrame": "",
  "Linker": null,
  "LinkerIndex": "",
  "ObjectInternalInteger": 204766,
  "NetIndex": 84,
  "Outer": "GD_ThresherVibe.Death",
  "Name": "DeathDef_ThresherVibe",
  "Class": "WillowGame.BodyClassDeathDefinition",
  "ObjectArchetype": "WillowGame.Default__BodyClassDeathDefinition"
}