{
  "VfTable_IIDlcLicensableObject": "",
  "VehicleFamily": "GD_SagePackageDef.Vehicles.VehicleFamily_FanBoat",
  "VehicleName": "Flamethrower Fan Boat",
  "PathToVSSDefinition":
    "GD_Sage_IncendiaryFanBoat.VSS.VSS_IncendiaryFanBoat",
  "PreferredOrdering": 21,
  "VehicleMaterialBankIndex": 0,
  "VehiclePreviewFrame": "",
  "VehiclePreviewClip": "Sage_UI_VehicleIcons.VehicleIcons_IncendiaryFanBoat",
  "RequiredMissionCompletionToUnlock": null,
  "DlcVehicleDef": "GD_SagePackageDef.Vehicles.VehicleDef_FanBoat",
  "RequiredTags": [ "EVSSAVAIL_DLCSage", "EVSSAVAIL_Hovercraft" ],
  "SupportedTags": [ "EVSSAVAIL_Land", "EVSSAVAIL_Desert", "EVSSAVAIL_Ice" ],
  "EligibleUsage": [ "WillowGame.CustomizationUsage_FanBoat" ],
  "VfTableObject": "",
  "HashNext": "",
  "ObjectFlags": "",
  "HashOuterNext": "",
  "StateFrame": "",
  "Linker": null,
  "LinkerIndex": "",
  "ObjectInternalInteger": 179387,
  "NetIndex": 22,
  "Outer": "GD_SagePackageDef.Vehicles",
  "Name": "VSSUI_IncendiaryFanBoat",
  "Class": "WillowGame.VSSUIDefinition",
  "ObjectArchetype": "WillowGame.Default__VSSUIDefinition"
}