{
  "StatId": "STAT_PLAYER_NUM_BLACK_MARKET_ITEMS_PURCHASED",
  "StatTargetValue": 1,
  "Key": "BlackMarket",
  "TitleKey": "BlackMarketTitle",
  "HUDInitializationFrame": "",
  "PausesGame": true,
  "bMandatory": false,
  "PauseContinueDelay": 3.0,
  "ExceptIfStatId": null,
  "ExceptIfGreaterThan": -1,
  "StatusMenuTab": "CS_None",
  "DialogPriority": "GD_Globals.Dialog.DialogPriority_20",
  "VfTableObject": "",
  "HashNext": "",
  "ObjectFlags": "",
  "HashOuterNext": "",
  "StateFrame": "",
  "Linker": null,
  "LinkerIndex": "",
  "ObjectInternalInteger": 101080,
  "NetIndex": 9,
  "Outer": "GD_Trainingmsg.Events",
  "Name": "BlackMarket",
  "Class": "WillowGame.TrainingMessageDefinition",
  "ObjectArchetype": "WillowGame.Default__TrainingMessageDefinition"
}