{
  "StatId": "STAT_PLAYER_SHIELD_EQUIPPED",
  "StatTargetValue": 1,
  "Key": "Shields",
  "TitleKey": "ShieldsTitle",
  "HUDInitializationFrame": "shield",
  "PausesGame": true,
  "bMandatory": false,
  "PauseContinueDelay": 2.0,
  "ExceptIfStatId": null,
  "ExceptIfGreaterThan": -1,
  "StatusMenuTab": "CS_None",
  "DialogPriority": "GD_Globals.Dialog.DialogPriority_20",
  "VfTableObject": "",
  "HashNext": "",
  "ObjectFlags": "",
  "HashOuterNext": "",
  "StateFrame": "",
  "Linker": null,
  "LinkerIndex": "",
  "ObjectInternalInteger": 101059,
  "NetIndex": 24,
  "Outer": "GD_Trainingmsg.Events",
  "Name": "FirstShield",
  "Class": "WillowGame.TrainingMessageDefinition",
  "ObjectArchetype": "WillowGame.Default__TrainingMessageDefinition"
}