{
  "StatId": null,
  "StatTargetValue": 1,
  "Key": "",
  "TitleKey": "",
  "HUDInitializationFrame": "",
  "PausesGame": false,
  "bMandatory": false,
  "PauseContinueDelay": 0.0,
  "ExceptIfStatId": null,
  "ExceptIfGreaterThan": -1,
  "StatusMenuTab": "CS_None",
  "DialogPriority": null,
  "VfTableObject": "",
  "HashNext": "",
  "ObjectFlags": "",
  "HashOuterNext": "",
  "StateFrame": "",
  "Linker": null,
  "LinkerIndex": "",
  "ObjectInternalInteger": 4309,
  "NetIndex": 34203,
  "Outer": "Package'WillowGame'",
  "Name": "Default__TrainingMessageDefinition",
  "Class": "WillowGame.TrainingMessageDefinition",
  "ObjectArchetype": "Engine.Default__GBXDefinition"
}