{
  "DamageTypeIcon": "DAMAGE_TYPE_Unknown",
  "VfTable_IIBehaviorProvider": "",
  "VfTable_IIConstructObject": "",
  "DroppedImpact": "GD_Impacts.Loot.Loot_Drop_Ammo",
  "UseFailureCharacterMessage": "You must be a %s to use this item.",
  "ItemName": "Lucrative Opportunity",
  "bItemNameIsFullName": true,
  "bUseMeshCompositing": true,
  "NonCompositeStaticMesh": null,
  "NonCompositeSkeletalMesh": null,
  "OverrideMaterial": null,
  "GestaltMesh": "Item_Artifacts.GestaltDef_Artifact",
  "AlphaParts": "GD_Artifacts.Enable1st.PartList_EnableFirstEffect",
  "BetaParts": "GD_Artifacts.Enable2nd.PartList_EnableSecondEffect",
  "GammaParts": null,
  "DeltaParts": null,
  "EpsilonParts": null,
  "ZetaParts": null,
  "EtaParts": "GD_Artifacts.Body.PartList_Body",
  "ThetaParts": "GD_Artifacts.Upgrade.PartList_Upgrade",
  "MaterialParts": null,
  "BehaviorProviderDefinition":
    "GD_Artifacts.A_Item_Unique.Artifact_Opportunity:BehaviorProviderDefinition_0",
  "Behaviors": { "OnUsed": null },
  "RequiredPlayerClass": null,
  "PickupIconOverride": null,
  "InventoryClass": "WillowGame.WillowArtifact",
  "bAutomaticallyPickup": false,
  "bPickupInBulk": false,
  "bDisallowAIFromGrabbingPickup": false,
  "bDuplicatePickupJustAddsQuantity": false,
  "bSuppressPickupCard": false,
  "bTorque": false,
  "bNeverDisplayPickupMessage": false,
  "bShopsHaveInfiniteQuantity": false,
  "bCanCompare": true,
  "bUsesPlayerLevelRequirement": true,
  "bUIMeshRotationNeedsTransformFixup": false,
  "bIsConsumable": false,
  "bAllowInventoryDefToModifyPartWeight": true,
  "PlayerDroppability": "EPD_Droppable",
  "FormOfCurrency": "CURRENCY_Credits",
  "OnUseConstraintsMode": "EXPRMODE_And",
  "AttributeSlotEffectMode": "ATTRSLOTEFFECTMODE_Default",
  "PickupLifeSpan": 0.0,
  "PickupFlagScale": 1.0,
  "PickupFlagIcon": "fx_shared_items.Textures.Artifact_Dif",
  "PickupFlagOffset": { "X": 0.0, "Y": 0.0, "Z": 0.0 },
  "Torque": { "X": 0.0, "Y": 0.0, "Z": 0.0 },
  "ThirdPersonMeshScale": 1.0,
  "MaterialClass": "Engine.MaterialInstanceConstant",
  "PhysicsAsset": "Item_Artifacts.Phat_Artifact",
  "PickupMessage": "You got %s",
  "UseFailureLevelMessage": "You must be at least level %d to use this item.",
  "UseFailureConstraintsMessage": "You cannot use this item.",
  "NoManufacturerName": "Generic",
  "BaseRarity": {
    "BaseValueConstant": 0.0,
    "BaseValueAttribute": null,
    "InitializationDefinition": null,
    "BaseValueScaleConstant": 1.0
  },
  "MonetaryValue": {
    "BaseValueConstant": 0.0,
    "BaseValueAttribute": null,
    "InitializationDefinition":
      "GD_Economy.PriceCalc.Init_Artifact_PriceCalculator_P1",
    "BaseValueScaleConstant": 1.0
  },
  "BaseMonetaryValueModifier": 1.0,
  "PlayerUseLevelBonus": {
    "BaseValueConstant": 0.0,
    "BaseValueAttribute": null,
    "InitializationDefinition": null,
    "BaseValueScaleConstant": 1.0
  },
  "UIMeshRotation": { "Pitch": 0, "Yaw": 20936, "Roll": 3644 },
  "Presentation": "GD_Artifacts.A_Item.InvPresentation_Artifact",
  "CalloutDefinition": null,
  "PickedUpStatID": "STAT_PLAYER_ELEMENTAL_ARTIFACT_PICKED_UP",
  "PurchasedStatID": null,
  "FocusRadius": 55.0,
  "FocusOffset": { "X": -0.4, "Y": -0.075, "Z": 0.0 },
  "AttributeSlotEffectSkillDuration": {
    "BaseValueConstant": 0.0,
    "BaseValueAttribute": null,
    "InitializationDefinition": null,
    "BaseValueScaleConstant": 1.0
  },
  "AttributeSlotBaseGrade": {
    "BaseValueConstant": 0.0,
    "BaseValueAttribute": null,
    "InitializationDefinition": null,
    "BaseValueScaleConstant": 1.0
  },
  "AttributeSlotMaxActivated": 19,
  "LootBeamColorOverride": { "B": 0, "G": 0, "R": 0, "A": 0 },
  "AttributeSlotEffects": [
    {
      "SlotName": "Effect1",
      "bExternalSlot": true,
      "bRunEffectsAsSkill": false,
      "AttributeToModify": "D_Attributes.Shops.ShopTimerRate",
      "ConstraintAttribute": null,
      "ModifierType": "MT_PostAdd",
      "BaseModifierValue": {
        "BaseValueConstant": 1.0,
        "BaseValueAttribute": null,
        "InitializationDefinition":
          "GD_Artifacts.BalanceAttributes.Init_ModifierBase_Linear",
        "BaseValueScaleConstant": 0.001
      },
      "PerGradeUpgrade": {
        "BaseValueConstant": 0.025,
        "BaseValueAttribute": null,
        "InitializationDefinition": null,
        "BaseValueScaleConstant": 1.0
      },
      "bIncludeInFunStats": false,
      "bIncludeAlliesAsTarget": false,
      "bEnforceMinimumGrade": false,
      "bEnforceMaximumGrade": false,
      "MinimumGrade": 0,
      "MaximumGrade": 12,
      "TargetInstanceDataName": null
    }
  ],
  "UIStatList": [
    {
      "bDisplayAsModifierOnly": true,
      "AttributeStyle": "ATTRSTYLE_ModifierText",
      "SupplementalAttributeStyle": "ATTRSTYLE_JustNumber",
      "StatCombinationMethod": "SCM_Multiply",
      "Attribute": "D_Attributes.Shops.ShopTimerRate",
      "ConstraintAttribute": null,
      "SupplementalAttributeExpression": {
        "AttributeOperand1": null,
        "ComparisonOperator": "OPERATOR_EqualTo",
        "Operand2Usage": "OPERAND_PreferAttribute",
        "AttributeOperand2": null,
        "ConstantOperand2": 0.0
      },
      "SupplementalAttributeToAppend": null
    }
  ],
  "PickupSounds": [
    {
      "Event": "Ake_Obj_Pickup.Obj_Pickup.Ak_Play_Obj_Pickup_Artifact",
      "Cue": null,
      "Expressions": null
    }
  ],
  "VfTableObject": "",
  "HashNext": "",
  "ObjectFlags": "",
  "HashOuterNext": "",
  "StateFrame": "",
  "Linker": null,
  "LinkerIndex": "",
  "ObjectInternalInteger": 107161,
  "NetIndex": 27,
  "Outer": "GD_Artifacts.A_Item_Unique",
  "Name": "Artifact_Opportunity",
  "Class": "WillowGame.ArtifactDefinition",
  "ObjectArchetype": "WillowGame.Default__ArtifactDefinition"
}