{
  "ResourcePoolMap": "",
  "NextPoolGUID": 2,
  "ReplicatedRarelyChangedState": [
    {
      "ConsumptionRate": 0.0,
      "ActiveRegenerationRate": 0.0,
      "OnIdleRegenerationRate": 20.0,
      "OnIdleRegenerationDelay": 5.0,
      "PassiveRegenerationRate": 0.0
    },
    {
      "ConsumptionRate": 0.0,
      "ActiveRegenerationRate": 0.0,
      "OnIdleRegenerationRate": 1500082.0,
      "OnIdleRegenerationDelay": 16.0,
      "PassiveRegenerationRate": 0.0
    },
    {
      "ConsumptionRate": 0.0,
      "ActiveRegenerationRate": 0.0,
      "OnIdleRegenerationRate": 0.0,
      "OnIdleRegenerationDelay": 0.0,
      "PassiveRegenerationRate": 0.0
    },
    {
      "ConsumptionRate": 0.0,
      "ActiveRegenerationRate": 0.0,
      "OnIdleRegenerationRate": 0.0,
      "OnIdleRegenerationDelay": 0.0,
      "PassiveRegenerationRate": 0.0
    },
    {
      "ConsumptionRate": 0.0,
      "ActiveRegenerationRate": 0.0,
      "OnIdleRegenerationRate": 0.0,
      "OnIdleRegenerationDelay": 0.0,
      "PassiveRegenerationRate": 0.0
    },
    {
      "ConsumptionRate": 0.0,
      "ActiveRegenerationRate": 0.0,
      "OnIdleRegenerationRate": 0.0,
      "OnIdleRegenerationDelay": 0.0,
      "PassiveRegenerationRate": 0.0
    },
    {
      "ConsumptionRate": 0.0,
      "ActiveRegenerationRate": 0.0,
      "OnIdleRegenerationRate": 0.0,
      "OnIdleRegenerationDelay": 0.0,
      "PassiveRegenerationRate": 0.0
    },
    {
      "ConsumptionRate": 0.0,
      "ActiveRegenerationRate": 0.0,
      "OnIdleRegenerationRate": 0.0,
      "OnIdleRegenerationDelay": 0.0,
      "PassiveRegenerationRate": 0.0
    },
    {
      "ConsumptionRate": 0.0,
      "ActiveRegenerationRate": 0.0,
      "OnIdleRegenerationRate": 0.0,
      "OnIdleRegenerationDelay": 0.0,
      "PassiveRegenerationRate": 0.0
    },
    {
      "ConsumptionRate": 0.0,
      "ActiveRegenerationRate": 0.0,
      "OnIdleRegenerationRate": 0.0,
      "OnIdleRegenerationDelay": 0.0,
      "PassiveRegenerationRate": 0.0
    },
    {
      "ConsumptionRate": 0.0,
      "ActiveRegenerationRate": 0.0,
      "OnIdleRegenerationRate": 0.0,
      "OnIdleRegenerationDelay": 0.0,
      "PassiveRegenerationRate": 0.0
    },
    {
      "ConsumptionRate": 0.0,
      "ActiveRegenerationRate": 0.0,
      "OnIdleRegenerationRate": 0.0,
      "OnIdleRegenerationDelay": 0.0,
      "PassiveRegenerationRate": 0.0
    },
    {
      "ConsumptionRate": 0.0,
      "ActiveRegenerationRate": 0.0,
      "OnIdleRegenerationRate": 0.0,
      "OnIdleRegenerationDelay": 0.0,
      "PassiveRegenerationRate": 0.0
    },
    {
      "ConsumptionRate": 0.0,
      "ActiveRegenerationRate": 0.0,
      "OnIdleRegenerationRate": 0.0,
      "OnIdleRegenerationDelay": 0.0,
      "PassiveRegenerationRate": 0.0
    },
    {
      "ConsumptionRate": 0.0,
      "ActiveRegenerationRate": 0.0,
      "OnIdleRegenerationRate": 0.0,
      "OnIdleRegenerationDelay": 0.0,
      "PassiveRegenerationRate": 0.0
    },
    {
      "ConsumptionRate": 0.0,
      "ActiveRegenerationRate": 0.0,
      "OnIdleRegenerationRate": 0.0,
      "OnIdleRegenerationDelay": 0.0,
      "PassiveRegenerationRate": 0.0
    }
  ],
  "ReplicatedMaxValues": [
    100.0, 15000820.0, 0.0, 0.0, 0.0, 0.0, 0.0, 0.0, 0.0, 0.0, 0.0, 0.0, 0.0,
    0.0, 0.0, 0.0
  ],
  "ReplicatedMinValues": [
    0.0, 0.0, 0.0, 0.0, 0.0, 0.0, 0.0, 0.0, 0.0, 0.0, 0.0, 0.0, 0.0, 0.0,
    0.0, 0.0
  ],
  "ReplicatedCurrentValues": [
    100.0, 15000820.0, 0.0, 0.0, 0.0, 0.0, 0.0, 0.0, 0.0, 0.0, 0.0, 0.0, 0.0,
    0.0, 0.0, 0.0
  ],
  "ReplicatedPoolIdentities": [
    { "PoolDefinition": null, "PoolGUID": 0 },
    { "PoolDefinition": null, "PoolGUID": 0 },
    { "PoolDefinition": null, "PoolGUID": 0 },
    { "PoolDefinition": null, "PoolGUID": 0 },
    { "PoolDefinition": null, "PoolGUID": 0 },
    { "PoolDefinition": null, "PoolGUID": 0 },
    { "PoolDefinition": null, "PoolGUID": 0 },
    { "PoolDefinition": null, "PoolGUID": 0 },
    { "PoolDefinition": null, "PoolGUID": 0 },
    { "PoolDefinition": null, "PoolGUID": 0 },
    { "PoolDefinition": null, "PoolGUID": 0 },
    { "PoolDefinition": null, "PoolGUID": 0 },
    { "PoolDefinition": null, "PoolGUID": 0 },
    { "PoolDefinition": null, "PoolGUID": 0 },
    { "PoolDefinition": null, "PoolGUID": 0 },
    { "PoolDefinition": null, "PoolGUID": 0 }
  ],
  "ResourcePools": [
    "Loader.TheWorld:PersistentLevel.ResourcePoolManager_10.ResourcePool_4",
    "Loader.TheWorld:PersistentLevel.ResourcePoolManager_10.HealthResourcePool_7",
    null, null, null, null, null, null, null, null, null, null, null, null,
    null, null
  ],
  "VfTable_IIWorldBody": "",
  "VfTable_IISpawnActor": "",
  "VfTable_IIDamageCauser": "",
  "Location": { "X": -725.764038, "Y": -47139.246094, "Z": 1052.514648 },
  "Rotation": { "Pitch": 0, "Yaw": -512, "Roll": 0 },
  "DrawScale": 1.0,
  "DrawScale3D": { "X": 1.0, "Y": 1.0, "Z": 1.0 },
  "PrePivot": { "X": 0.0, "Y": 0.0, "Z": 0.0 },
  "DetachFence": "",
  "CustomTimeDilation": 1.0,
  "Physics": "PHYS_None",
  "RemoteRole": "ROLE_SimulatedProxy",
  "Role": "ROLE_Authority",
  "CollisionType": "COLLIDE_NoCollision",
  "ReplicatedCollisionType": [ "INVALID" ],
  "TickGroup": "TG_DuringAsyncWork",
  "Owner": "Loader.TheWorld:PersistentLevel.WillowVehicle_WheeledVehicle_1",
  "Base": null,
  "bUseOrthonormalizedLighting": false,
  "bStatic": false,
  "bHidden": true,
  "bNoDelete": false,
  "bDeleteMe": false,
  "bTicked": false,
  "bOnlyOwnerSee": false,
  "bTickIsDisabled": false,
  "bWorldGeometry": false,
  "bIgnoreRigidBodyPawns": false,
  "bOrientOnSlope": false,
  "bIgnoreEncroachers": false,
  "bPushedByEncroachers": true,
  "bRouteBeginPlayEvenIfStatic": true,
  "bIsMoving": false,
  "bAlwaysEncroachCheck": false,
  "bCanStepUpOn": true,
  "bNetTemporary": false,
  "bOnlyRelevantToOwner": false,
  "bNetDirty": false,
  "bAlwaysRelevant": true,
  "bReplicateInstigator": false,
  "bReplicateMovement": true,
  "bSkipRotationReplication": false,
  "bForceRotationReplication": false,
  "bSkipActorPropertyReplication": true,
  "bUpdateSimulatedPosition": false,
  "bTearOff": false,
  "bOnlyDirtyReplication": true,
  "bSkipHiddenReplication": false,
  "bAllowFluidSurfaceInteraction": true,
  "bDemoRecording": false,
  "bDemoOwner": false,
  "bForceDemoRelevant": false,
  "bNetInitialRotation": false,
  "bReplicateRigidBodyLocation": false,
  "bKillDuringLevelTransition": false,
  "bExchangedRoles": false,
  "bConsiderAllStaticMeshComponentsForStreaming": false,
  "bPostRenderIfNotVisible": false,
  "bForceNetUpdate": false,
  "bPendingNetUpdate": false,
  "bHardAttach": false,
  "bIgnoreBaseRotation": false,
  "bSkipAttachedMoves": true,
  "bHurtEntry": false,
  "bGameRelevant": false,
  "bMovable": true,
  "bDestroyInPainVolume": false,
  "bCanBeDamaged": false,
  "bShouldBaseAtStartup": false,
  "bPendingDelete": false,
  "bCanTeleport": false,
  "bAlwaysTick": false,
  "bBlocksNavigation": false,
  "bCanTarget": false,
  "bCanTargetCheat": false,
  "BlockRigidBody": false,
  "bCollideWhenPlacing": false,
  "bCollideActors": false,
  "bCollideWorld": false,
  "bCollideComplex": false,
  "bBlockActors": false,
  "bProjTarget": false,
  "bBlocksTeleport": false,
  "bProjectileMoveSingleBlocking": false,
  "bTraceListeners": false,
  "bIsBlockingMesh": false,
  "bIsWillowInteractiveObject": false,
  "bIgnoreRadiusDamageCheck": false,
  "bNoEncroachCheck": false,
  "bCollideAsEncroacher": false,
  "bPhysRigidBodyOutOfWorldCheck": false,
  "bComponentOutsideWorld": false,
  "bForceOctreeSNFilter": false,
  "bRigidBodyWasAwake": false,
  "bCallRigidBodyWakeEvents": false,
  "bBounce": false,
  "bJustTeleported": true,
  "bNetInitial": false,
  "bNetOwner": false,
  "bHiddenEd": false,
  "bEditable": true,
  "bHiddenEdLayer": false,
  "bHiddenEdTemporary": false,
  "bHiddenEdLevel": false,
  "bEdShouldSnap": false,
  "bTempEditor": false,
  "bPathColliding": false,
  "bPathTemp": false,
  "bScriptInitialized": true,
  "bLockLocation": false,
  "bForceAllowKismetModification": false,
  "bTraceIgnoreRigidBodyForPawns": false,
  "bAutoMovePlayerOnInterpActor": false,
  "bMoveActorDoZeroExtentTrace": false,
  "bDebugEffectIsRelevant": false,
  "bLoadIfPhysXLevel0": true,
  "bLoadIfPhysXLevel1": true,
  "bLoadIfPhysXLevel2": true,
  "NetTag": 0,
  "NetUpdateTime": 0.0,
  "NetUpdateFrequency": 20.0,
  "NetPriority": 1.0,
  "LastNetUpdateTime": 0.0,
  "Instigator":
    "Loader.TheWorld:PersistentLevel.WillowVehicle_WheeledVehicle_1",
  "WorldInfo": "Loader.TheWorld:PersistentLevel.WorldInfo_1",
  "LifeSpan": 0.0,
  "CreationTime": 57.684032,
  "LastRenderTime": 0.0,
  "LatentFloat": 0.0,
  "PhysicsVolume": "Loader.TheWorld:PersistentLevel.DefaultPhysicsVolume_2",
  "Velocity": { "X": 0.0, "Y": 0.0, "Z": 0.0 },
  "Acceleration": { "X": 0.0, "Y": 0.0, "Z": 0.0 },
  "AngularVelocity": { "X": 0.0, "Y": 0.0, "Z": 0.0 },
  "BaseSkelComponent": null,
  "BaseBoneName": null,
  "RelativeLocation": { "X": 0.0, "Y": 0.0, "Z": 0.0 },
  "RelativeRotation": { "Pitch": 0, "Yaw": 0, "Roll": 0 },
  "CollisionComponent": null,
  "OverlapTag": 0,
  "RotationRate": { "Pitch": 0, "Yaw": 0, "Roll": 0 },
  "MostRecentDamageTaken": 0.0,
  "VfTableObject": "",
  "HashNext": "",
  "ObjectFlags": "",
  "HashOuterNext": "",
  "StateFrame": "",
  "Linker": null,
  "LinkerIndex": "",
  "ObjectInternalInteger": 239567,
  "NetIndex": -1,
  "Outer": "Loader.TheWorld:PersistentLevel",
  "Name": "ResourcePoolManager_10",
  "Class": "Engine.ResourcePoolManager",
  "ObjectArchetype": "Engine.Default__ResourcePoolManager"
}