{
  "PrimaryHandResource": "D_Resources.Accuracy",
  "OffHandResource": "D_Resources.OffHandAccuracy",
  "VfTableObject": "",
  "HashNext": "",
  "ObjectFlags": "",
  "HashOuterNext": "",
  "StateFrame": "",
  "Linker": null,
  "LinkerIndex": "",
  "ObjectInternalInteger": 151648,
  "NetIndex": 1999,
  "Outer": "D_Attributes.AccuracyResourcePool.AccuracyCurrentValue",
  "Name": "WeaponResourcePoolAttributeContextResolver_2",
  "Class": "Engine.WeaponResourcePoolAttributeContextResolver",
  "ObjectArchetype":
    "Engine.Default__WeaponResourcePoolAttributeContextResolver"
}