{
  "PrimaryHandResource": "D_Resources.Accuracy",
  "OffHandResource": "D_Resources.OffHandAccuracy",
  "VfTableObject": "",
  "HashNext": "",
  "ObjectFlags": "",
  "HashOuterNext": "",
  "StateFrame": "",
  "Linker": null,
  "LinkerIndex": "",
  "ObjectInternalInteger": 151649,
  "NetIndex": 2000,
  "Outer": "D_Attributes.AccuracyResourcePool.AccuracyMaxValue",
  "Name": "WeaponResourcePoolAttributeContextResolver_3",
  "Class": "Engine.WeaponResourcePoolAttributeContextResolver",
  "ObjectArchetype":
    "Engine.Default__WeaponResourcePoolAttributeContextResolver"
}