{
  "SwitchData": [ { "SwitchName": "Switch_Clans", "SwitchValue": 4 } ],
  "MaterialMap": [
    {
      "SourceMaterial": "Char_Bandit_Marauder.Materials.Mati_BanditMarauder",
      "ReplacementMaterial":
        "Char_Bandit_Marauder.Materials.Mati_BanditMarauder_ClanSlabs"
    },
    {
      "SourceMaterial": "Char_Nomad.Materials.Mati_NomadRed",
      "ReplacementMaterial": "Char_Nomad.Materials.Mati_Nomad_ClanSlabs"
    },
    {
      "SourceMaterial": "Char_Goliath.Materials.Mati_Goliath",
      "ReplacementMaterial": "Char_Goliath.Materials.Mati_Goliath_ClanSlabs"
    },
    {
      "SourceMaterial": "Char_Bandit_Psycho.Materials.Mati_PsychoStandard",
      "ReplacementMaterial":
        "Char_Bandit_Psycho.Materials.Mati_Psycho_ClanSlab"
    },
    {
      "SourceMaterial": "Char_Bandit_Psycho.Materials.Mati_PsychoSuicide",
      "ReplacementMaterial":
        "Char_Bandit_Psycho.Materials.Mati_Psycho_ClanSlab"
    },
    {
      "SourceMaterial": "Char_Bandit_Psycho.Materials.Mati_MidgetShield",
      "ReplacementMaterial":
        "Char_Bandit_Psycho.Materials.Mati_Psycho_ClanSlab"
    },
    {
      "SourceMaterial": "Char_TunnelRat.Materials.Mati_TunnelRat",
      "ReplacementMaterial":
        "Char_TunnelRat.Materials.Mati_TunnelRat_ClanSlab"
    },
    {
      "SourceMaterial":
        "Char_Bandit_Marauder.Materials.Mati_BanditMarauder_Badass",
      "ReplacementMaterial":
        "Char_Bandit_Marauder.Materials.Mati_BanditMarauder_Badass_Slab"
    },
    {
      "SourceMaterial": "Char_Bandit_Psycho.Materials.Mati_Badass",
      "ReplacementMaterial":
        "Char_Bandit_Psycho.Materials.Mati_Psycho_ClanSlab"
    }
  ],
  "VfTableObject": "",
  "HashNext": "",
  "ObjectFlags": "",
  "HashOuterNext": "",
  "StateFrame": "",
  "Linker": null,
  "LinkerIndex": "",
  "ObjectInternalInteger": 195000,
  "NetIndex": 6,
  "Outer": "Package'GD_AI_Clans'",
  "Name": "Clan_Slabs",
  "Class": "WillowGame.WillowClanDefinition",
  "ObjectArchetype": "WillowGame.Default__WillowClanDefinition"
}