{
  "Definition": "D_Resourcepools.PlayerPools.AccuracyPool",
  "PoolGUID": 7,
  "MinValue": 2.3,
  "MinValueBaseValue": 2.0,
  "MaxValue": 10.0,
  "MaxValueBaseValue": 12.0,
  "CurrentValue": 2.3,
  "ConsumptionRate": 0.0,
  "ConsumptionRateBaseValue": 0.0,
  "ActiveRegenerationRate": 0.0,
  "ActiveRegenerationRateBaseValue": 0.0,
  "OnIdleRegenerationRate": -8.0,
  "OnIdleRegenerationRateBaseValue": -8.0,
  "OnIdleRegenerationDelay": 0.2,
  "OnIdleRegenerationDelayBaseValue": 0.2,
  "PassiveRegenerationRate": 0.0,
  "PassiveRegenerationRateBaseValue": 0.0,
  "LastMinValue": 2.3,
  "LastMaxValue": 10.0,
  "LastCurrentValue": 2.3,
  "PoolIdleDelayStartTime": 0.0,
  "RateRemainder": 0.0,
  "RecentImpulseCount": 0,
  "RegenerationDisabled": 0,
  "RegenerationDisabledBaseValue": 0,
  "ResetRecentImpulseCountTime": 0.0,
  "bIsAuthoritative": true,
  "bIsBeingInitialized": false,
  "bHasPoolBeenFullSinceLastBeingDepleted": true,
  "bDisallowReinitialization": false,
  "bHideHUDDisplay": false,
  "bCreatedAndNotModified": false,
  "WasRegenerating": false,
  "AssociatedProvider":
    "Loader.TheWorld:PersistentLevel.WillowPlayerController_8",
  "HUDMaterialInstance": null,
  "RegenerationPool": null,
  "IsRegenerating": 0,
  "OnIdleRegenerationRateModifierStack": [
    "Loader.TheWorld:PersistentLevel.WillowPlayerController_8.AttributeModifier_15698"
  ],
  "MaxValueModifierStack": [
    "Loader.TheWorld:PersistentLevel.WillowPlayerController_8.AttributeModifier_15697",
    "Transient.AttributeModifier_15701"
  ],
  "MinValueModifierStack": [
    "Loader.TheWorld:PersistentLevel.WillowPlayerController_8.AttributeModifier_15696",
    "Transient.AttributeModifier_15700"
  ],
  "VfTableObject": "",
  "HashNext": "",
  "ObjectFlags": "",
  "HashOuterNext": "",
  "StateFrame": "",
  "Linker": null,
  "LinkerIndex": "",
  "ObjectInternalInteger": 234495,
  "NetIndex": -1,
  "Outer": "Loader.TheWorld:PersistentLevel.ResourcePoolManager_35",
  "Name": "ResourcePool_26",
  "Class": "Engine.ResourcePool",
  "ObjectArchetype": "Engine.Default__ResourcePool"
}