{
  "Definition": "D_Resourcepools.PlayerPools.MeleeSkillCooldownPool_Siren",
  "PoolGUID": 10,
  "MinValue": 0.0,
  "MinValueBaseValue": 0.0,
  "MaxValue": 18.0,
  "MaxValueBaseValue": 18.0,
  "CurrentValue": 0.0,
  "ConsumptionRate": 1.0,
  "ConsumptionRateBaseValue": 1.0,
  "ActiveRegenerationRate": 0.0,
  "ActiveRegenerationRateBaseValue": 0.0,
  "OnIdleRegenerationRate": 0.0,
  "OnIdleRegenerationRateBaseValue": 0.0,
  "OnIdleRegenerationDelay": 0.0,
  "OnIdleRegenerationDelayBaseValue": 0.0,
  "PassiveRegenerationRate": 0.0,
  "PassiveRegenerationRateBaseValue": 0.0,
  "LastMinValue": 0.0,
  "LastMaxValue": 18.0,
  "LastCurrentValue": 0.0,
  "PoolIdleDelayStartTime": 20.678829,
  "RateRemainder": 0.0,
  "RecentImpulseCount": 0,
  "RegenerationDisabled": 0,
  "RegenerationDisabledBaseValue": 0,
  "ResetRecentImpulseCountTime": 0.0,
  "bIsAuthoritative": true,
  "bIsBeingInitialized": false,
  "bHasPoolBeenFullSinceLastBeingDepleted": false,
  "bDisallowReinitialization": false,
  "bHideHUDDisplay": false,
  "bCreatedAndNotModified": true,
  "WasRegenerating": false,
  "AssociatedProvider":
    "Loader.TheWorld:PersistentLevel.WillowPlayerController_8",
  "HUDMaterialInstance": null,
  "RegenerationPool": null,
  "IsRegenerating": 0,
  "VfTableObject": "",
  "HashNext": "",
  "ObjectFlags": "",
  "HashOuterNext": "",
  "StateFrame": "",
  "Linker": null,
  "LinkerIndex": "",
  "ObjectInternalInteger": 234492,
  "NetIndex": -1,
  "Outer": "Loader.TheWorld:PersistentLevel.ResourcePoolManager_35",
  "Name": "ResourcePool_28",
  "Class": "Engine.ResourcePool",
  "ObjectArchetype": "Engine.Default__ResourcePool"
}