{
  "Definition": "D_Resourcepools.PlayerPools.ActiveSkillCooldownPool_Siren",
  "PoolGUID": 9,
  "MinValue": 0.0,
  "MinValueBaseValue": 0.0,
  "MaxValue": 13.0,
  "MaxValueBaseValue": 13.0,
  "CurrentValue": 0.0,
  "ConsumptionRate": 2.03,
  "ConsumptionRateBaseValue": 1.0,
  "ActiveRegenerationRate": 0.0,
  "ActiveRegenerationRateBaseValue": 0.0,
  "OnIdleRegenerationRate": 0.0,
  "OnIdleRegenerationRateBaseValue": 0.0,
  "OnIdleRegenerationDelay": 0.0,
  "OnIdleRegenerationDelayBaseValue": 0.0,
  "PassiveRegenerationRate": 0.0,
  "PassiveRegenerationRateBaseValue": 0.0,
  "LastMinValue": 0.0,
  "LastMaxValue": 13.0,
  "LastCurrentValue": 0.0,
  "PoolIdleDelayStartTime": 20.500187,
  "RateRemainder": 0.0,
  "RecentImpulseCount": 0,
  "RegenerationDisabled": 0,
  "RegenerationDisabledBaseValue": 0,
  "ResetRecentImpulseCountTime": 0.0,
  "bIsAuthoritative": true,
  "bIsBeingInitialized": false,
  "bHasPoolBeenFullSinceLastBeingDepleted": false,
  "bDisallowReinitialization": false,
  "bHideHUDDisplay": false,
  "bCreatedAndNotModified": true,
  "WasRegenerating": false,
  "AssociatedProvider":
    "Loader.TheWorld:PersistentLevel.WillowPlayerController_33",
  "HUDMaterialInstance": null,
  "RegenerationPool": null,
  "IsRegenerating": 0,
  "ConsumptionRateModifierStack": [
    "Loader.TheWorld:PersistentLevel.SkillEffectManager_33.Skill_795.AttributeModifier_72143",
    "Loader.TheWorld:PersistentLevel.SkillEffectManager_33.Skill_810.AttributeModifier_72736",
    "Loader.TheWorld:PersistentLevel.SkillEffectManager_33.Skill_811.AttributeModifier_72747"
  ],
  "VfTableObject": "",
  "HashNext": "",
  "ObjectFlags": "",
  "HashOuterNext": "",
  "StateFrame": "",
  "Linker": null,
  "LinkerIndex": "",
  "ObjectInternalInteger": 234493,
  "NetIndex": -1,
  "Outer": "Loader.TheWorld:PersistentLevel.ResourcePoolManager_193",
  "Name": "ResourcePool_132",
  "Class": "Engine.ResourcePool",
  "ObjectArchetype": "Engine.Default__ResourcePool"
}