{
  "IncludePlaythroughThree": 1,
  "VfTableObject": "",
  "HashNext": "",
  "ObjectFlags": "",
  "HashOuterNext": "",
  "StateFrame": "",
  "Linker": null,
  "LinkerIndex": "",
  "ObjectInternalInteger": 225772,
  "NetIndex": 3,
  "Outer":
    "GD_Attributes_Lobelia.Balance.PlayThroughCountIncludingPlaythroughThree",
  "Name": "PlayThroughCountAttributeValueResolver_0",
  "Class": "WillowGame.PlayThroughCountAttributeValueResolver",
  "ObjectArchetype":
    "WillowGame.Default__PlayThroughCountAttributeValueResolver"
}