{
  "RadarMgr": "Loader.TheWorld:PersistentLevel.WillowRadarManager_23",
  "ActiveRespawnCheckpointTeleportActor":
    "VOGChamber_Dynamic.TheWorld:PersistentLevel.StationTeleporterDestination_0",
  "CachedBossHasShield": 0,
  "MatchmakingState": "MMS_Inactive",
  "StartGameState": "SGS_None",
  "TimeOfDay": 0.710917,
  "DayNightCycleRate": 0.1,
  "DayNightCycleRateBaseValue": 0.1,
  "SecondsUntilShopsReset": 1190.0,
  "ShopTimerRate": 1.0,
  "bAnyPlayerAttemptedFastTravel": 0.0,
  "bAnyPlayerEnteredVehicle": 0.0,
  "CurrentPlaythrough": 0,
  "PlaythroughOverride": -1,
  "MissionTracker": "Loader.TheWorld:PersistentLevel.MissionTracker_29",
  "HardcoreMode": false,
  "bHasBossBar": false,
  "ReplicatedBossHasShield": false,
  "DisplayedBossHasShield": false,
  "bPlayersSoundLikeJack": false,
  "StartGameTimer": 0,
  "BossPawn": null,
  "BossName": "",
  "BossLevel": 0,
  "ReplicatedBossHealth": 0.0,
  "ReplicatedBossShield": 0.0,
  "CachedBossHealth": 0.0,
  "CachedBossShield": 0.0,
  "DisplayedBossHealth": 0.0,
  "DisplayedBossShield": 0.0,
  "OverpowerLevelModifier": 0,
  "MenuMatinee": null,
  "MusicAkState": null,
  "NameListDef": null,
  "__OnPlayerRemoved__Delegate": "(null).None",
  "__OnPlayerNameUpdated__Delegate": "(null).None",
  "__OnPlayerUidUpdated__Delegate": "(null).None",
  "__OnPlayerCharacterClassUpdated__Delegate": "(null).None",
  "__OnPlayerExpLevelUpdated__Delegate": "(null).None",
  "__OnMatchmakingStateChanged__Delegate": "(null).None",
  "NPCAllyLocation": [
    { "X": 0.0, "Y": 0.0, "Z": 0.0 },
    { "X": 0.0, "Y": 0.0, "Z": 0.0 }
  ],
  "NPCAllyName": [ "", "" ],
  "NPCAllyPawn": [ null, null ],
  "PlayerSpawnedVehicles": [ null, null ],
  "ActiveDuels": [ null, null ],
  "PotentialDuels": [ null, null, null, null, null, null ],
  "FastTravelLocations": [
    "Docks", "Hunger", "Xmas", "Village", "DarkForest", "DeadForest",
    "Mines", "CastleExterior", "Dungeons", "CastleKeep", "PumpkinPatch",
    "IrisCrater", "Beatdown", "BadassBar", "SouthernRaceway", "Forge",
    "TestingZone", "EasterTravel", "Vday", "OasisTown", "SaltFlats", "Caves",
    "ShipGraveyard", "Refinary", "Spire", "TopOfSpire", "Underground",
    "Underground_Lodge", "RockForest", "PowerStation", "SageCliffs",
    "HyperionShip", "Sanctuary", "GlacialIgloo", "SouthernShelfTown",
    "IceEast", "IceWest", "SouthpawFactory", "IceCanyon", "Interlude",
    "GoshDam", "DamTop", "TundraExpress", "TundraExpressSecret", "Wilhelm",
    "TheFridge", "Outwash", "Grass_A", "Grass_B", "Grass_C", "Caverns",
    "PandoraPark", "Cliffs", "Cliffs_Boss", "Lynchwood", "HyperionCity",
    "Ash", "CraterLake", "OnFireStone", "FyrestoneOneWay", "FinalBossAscent",
    "Volcano_Boss_A"
  ],
  "bIsNPCAllyEnabled": [ 0, 0 ],
  "FastTravelLocationsBitfield": [
    255, 255, 255, 255, 253, 255, 255, 127, 0, 0, 0, 0, 0, 0, 0, 0
  ],
  "ActiveAreaWaypoints": [
    {
      "WaypointLocation": { "X": 0.0, "Y": 0.0, "Z": 0.0 },
      "WaypointRadius": 0,
      "WaypointObjective": null
    },
    {
      "WaypointLocation": { "X": 0.0, "Y": 0.0, "Z": 0.0 },
      "WaypointRadius": 0,
      "WaypointObjective": null
    },
    {
      "WaypointLocation": { "X": 0.0, "Y": 0.0, "Z": 0.0 },
      "WaypointRadius": 0,
      "WaypointObjective": null
    },
    {
      "WaypointLocation": { "X": 0.0, "Y": 0.0, "Z": 0.0 },
      "WaypointRadius": 0,
      "WaypointObjective": null
    }
  ],
  "ActiveWaypoints": [
    {
      "WaypointLocation": { "X": 0.0, "Y": 0.0, "Z": 0.0 },
      "WaypointActor": null,
      "WaypointObjective": null,
      "bCanTransition": false
    },
    {
      "WaypointLocation": { "X": 0.0, "Y": 0.0, "Z": 0.0 },
      "WaypointActor": null,
      "WaypointObjective": null,
      "bCanTransition": false
    },
    {
      "WaypointLocation": { "X": 0.0, "Y": 0.0, "Z": 0.0 },
      "WaypointActor": null,
      "WaypointObjective": null,
      "bCanTransition": false
    },
    {
      "WaypointLocation": { "X": 0.0, "Y": 0.0, "Z": 0.0 },
      "WaypointActor": null,
      "WaypointObjective": null,
      "bCanTransition": false
    },
    {
      "WaypointLocation": { "X": 0.0, "Y": 0.0, "Z": 0.0 },
      "WaypointActor": null,
      "WaypointObjective": null,
      "bCanTransition": false
    },
    {
      "WaypointLocation": {
        "X": 7214.087891,
        "Y": -995.203186,
        "Z": 829.560303
      },
      "WaypointActor":
        "VOGChamber_Dynamic.TheWorld:PersistentLevel.LevelTravelStation_0",
      "WaypointObjective": null,
      "bCanTransition": true
    }
  ],
  "VfTable_IIResourcePoolProvider": "",
  "GameClass": "WillowGame.WillowCoopGameInfo",
  "bStopCountDown": true,
  "bMatchHasBegun": true,
  "bMatchIsOver": false,
  "bAllInCinematicMode": false,
  "bIgnoreMoveInput": false,
  "bIgnoreLookInput": false,
  "bIgnoreButtonInput": false,
  "RemainingTime": 0,
  "ElapsedTime": 10,
  "RemainingMinute": 0,
  "GoalScore": 0,
  "TimeLimit": 0,
  "ServerName": "",
  "Winner": null,
  "ResourcePoolManager":
    "Loader.TheWorld:PersistentLevel.ResourcePoolManager_114",
  "MusicInfo": {
    "State": "MUSIC_PlayingAmbientMusic",
    "CustomCombatMusicAkState": null,
    "CustomAmbientMusicAkState": null
  },
  "PRIArray": [
    "Loader.TheWorld:PersistentLevel.WillowPlayerReplicationInfo_35"
  ],
  "Teams": [
    "Loader.TheWorld:PersistentLevel.TeamInfo_64",
    "Loader.TheWorld:PersistentLevel.TeamInfo_65"
  ],
  "VfTable_IIWorldBody": "",
  "VfTable_IISpawnActor": "",
  "VfTable_IIDamageCauser": "",
  "Location": { "X": 0.0, "Y": 0.0, "Z": 0.0 },
  "Rotation": { "Pitch": 0, "Yaw": 0, "Roll": 0 },
  "DrawScale": 1.0,
  "DrawScale3D": { "X": 1.0, "Y": 1.0, "Z": 1.0 },
  "PrePivot": { "X": 0.0, "Y": 0.0, "Z": 0.0 },
  "DetachFence": "",
  "CustomTimeDilation": 1.0,
  "Physics": "PHYS_None",
  "RemoteRole": "ROLE_SimulatedProxy",
  "Role": "ROLE_Authority",
  "CollisionType": "COLLIDE_NoCollision",
  "ReplicatedCollisionType": [ "INVALID" ],
  "TickGroup": "TG_DuringAsyncWork",
  "Owner": null,
  "Base": null,
  "bUseOrthonormalizedLighting": false,
  "bStatic": false,
  "bHidden": true,
  "bNoDelete": false,
  "bDeleteMe": false,
  "bTicked": true,
  "bOnlyOwnerSee": false,
  "bTickIsDisabled": false,
  "bWorldGeometry": false,
  "bIgnoreRigidBodyPawns": false,
  "bOrientOnSlope": false,
  "bIgnoreEncroachers": false,
  "bPushedByEncroachers": true,
  "bRouteBeginPlayEvenIfStatic": true,
  "bIsMoving": false,
  "bAlwaysEncroachCheck": false,
  "bCanStepUpOn": true,
  "bNetTemporary": false,
  "bOnlyRelevantToOwner": false,
  "bNetDirty": true,
  "bAlwaysRelevant": true,
  "bReplicateInstigator": false,
  "bReplicateMovement": true,
  "bSkipRotationReplication": false,
  "bForceRotationReplication": false,
  "bSkipActorPropertyReplication": true,
  "bUpdateSimulatedPosition": false,
  "bTearOff": false,
  "bOnlyDirtyReplication": true,
  "bSkipHiddenReplication": false,
  "bAllowFluidSurfaceInteraction": true,
  "bDemoRecording": false,
  "bDemoOwner": false,
  "bForceDemoRelevant": false,
  "bNetInitialRotation": false,
  "bReplicateRigidBodyLocation": false,
  "bKillDuringLevelTransition": false,
  "bExchangedRoles": false,
  "bConsiderAllStaticMeshComponentsForStreaming": false,
  "bPostRenderIfNotVisible": false,
  "bForceNetUpdate": false,
  "bPendingNetUpdate": false,
  "bHardAttach": false,
  "bIgnoreBaseRotation": false,
  "bSkipAttachedMoves": true,
  "bHurtEntry": false,
  "bGameRelevant": false,
  "bMovable": true,
  "bDestroyInPainVolume": false,
  "bCanBeDamaged": false,
  "bShouldBaseAtStartup": false,
  "bPendingDelete": false,
  "bCanTeleport": false,
  "bAlwaysTick": false,
  "bBlocksNavigation": false,
  "bCanTarget": false,
  "bCanTargetCheat": false,
  "BlockRigidBody": false,
  "bCollideWhenPlacing": false,
  "bCollideActors": false,
  "bCollideWorld": false,
  "bCollideComplex": false,
  "bBlockActors": false,
  "bProjTarget": false,
  "bBlocksTeleport": false,
  "bProjectileMoveSingleBlocking": false,
  "bTraceListeners": false,
  "bIsBlockingMesh": false,
  "bIsWillowInteractiveObject": false,
  "bIgnoreRadiusDamageCheck": false,
  "bNoEncroachCheck": false,
  "bCollideAsEncroacher": false,
  "bPhysRigidBodyOutOfWorldCheck": false,
  "bComponentOutsideWorld": false,
  "bForceOctreeSNFilter": false,
  "bRigidBodyWasAwake": false,
  "bCallRigidBodyWakeEvents": false,
  "bBounce": false,
  "bJustTeleported": true,
  "bNetInitial": false,
  "bNetOwner": false,
  "bHiddenEd": false,
  "bEditable": true,
  "bHiddenEdLayer": false,
  "bHiddenEdTemporary": false,
  "bHiddenEdLevel": false,
  "bEdShouldSnap": false,
  "bTempEditor": false,
  "bPathColliding": false,
  "bPathTemp": false,
  "bScriptInitialized": true,
  "bLockLocation": false,
  "bForceAllowKismetModification": false,
  "bTraceIgnoreRigidBodyForPawns": false,
  "bAutoMovePlayerOnInterpActor": false,
  "bMoveActorDoZeroExtentTrace": false,
  "bDebugEffectIsRelevant": false,
  "bLoadIfPhysXLevel0": true,
  "bLoadIfPhysXLevel1": true,
  "bLoadIfPhysXLevel2": true,
  "NetTag": 0,
  "NetUpdateTime": 0.0,
  "NetUpdateFrequency": 10.0,
  "NetPriority": 1.0,
  "LastNetUpdateTime": 0.0,
  "Instigator": null,
  "WorldInfo": "Loader.TheWorld:PersistentLevel.WorldInfo_1",
  "LifeSpan": 0.0,
  "CreationTime": 0.0,
  "LastRenderTime": 0.0,
  "LatentFloat": 0.0,
  "PhysicsVolume": "Loader.TheWorld:PersistentLevel.DefaultPhysicsVolume_29",
  "Velocity": { "X": 0.0, "Y": 0.0, "Z": 0.0 },
  "Acceleration": { "X": 0.0, "Y": 0.0, "Z": 0.0 },
  "AngularVelocity": { "X": 0.0, "Y": 0.0, "Z": 0.0 },
  "BaseSkelComponent": null,
  "BaseBoneName": null,
  "RelativeLocation": { "X": 0.0, "Y": 0.0, "Z": 0.0 },
  "RelativeRotation": { "Pitch": 0, "Yaw": 0, "Roll": 0 },
  "CollisionComponent": null,
  "OverlapTag": 0,
  "RotationRate": { "Pitch": 0, "Yaw": 0, "Roll": 0 },
  "MostRecentDamageTaken": 0.0,
  "Timers": [
    {
      "bLoop": true,
      "bPaused": false,
      "FuncName": "Timer",
      "Rate": 1.0,
      "Count": 0.419373,
      "TimerTimeDilation": 1.0,
      "TimerObj":
        "Loader.TheWorld:PersistentLevel.WillowGameReplicationInfo_35"
    }
  ],
  "VfTableObject": "",
  "HashNext": "",
  "ObjectFlags": "",
  "HashOuterNext": "",
  "StateFrame": "",
  "Linker": null,
  "LinkerIndex": "",
  "ObjectInternalInteger": 241484,
  "NetIndex": -1,
  "Outer": "Loader.TheWorld:PersistentLevel",
  "Name": "WillowGameReplicationInfo_35",
  "Class": "WillowGame.WillowGameReplicationInfo",
  "ObjectArchetype": "WillowGame.Default__WillowGameReplicationInfo"
}