{
  "ClassModDefinitions": [
    "GD_ClassMods.A_Item_Siren.ClassMod_Siren_Z_SlayerOfTerramorphous"
  ],
  "ItemPartListCollection":
    "GD_ItemGrades.ClassMods.BalDef_ClassMod_Siren_06_SlayerOfTerramorphous:PartList",
  "RuntimePartListCollection":
    "GD_ItemGrades.ClassMods.BalDef_ClassMod_Siren_06_SlayerOfTerramorphous:ItemPartListCollectionDefinition_20",
  "VfTable_IIDlcLicensableObject": "",
  "bInterpolateExpLevel": true,
  "InventoryDefinition":
    "GD_ClassMods.A_Item_Siren.ClassMod_Siren_Z_SlayerOfTerramorphous",
  "BaseDefinition": "GD_ItemGrades.ClassMods.BalDef_ClassMod_Siren",
  "DlcItemSet": null,
  "PartListCollection": null,
  "PlayerClassId": null,
  "Manufacturers": [
    {
      "Manufacturer": "GD_Manufacturers.Manufacturers.Maliwan",
      "Grades": [
        {
          "GradeModifiers": {
            "ExpLevel": 1,
            "CustomInventoryDefinition": null
          },
          "GameStageRequirement": { "MinGameStage": 1, "MaxGameStage": 100 },
          "MinSpawnProbabilityModifier": {
            "BaseValueConstant": 1.0,
            "BaseValueAttribute": null,
            "InitializationDefinition": null,
            "BaseValueScaleConstant": 1.0
          },
          "MaxSpawnProbabilityModifier": {
            "BaseValueConstant": 1.0,
            "BaseValueAttribute": null,
            "InitializationDefinition": null,
            "BaseValueScaleConstant": 1.0
          }
        }
      ]
    }
  ],
  "VfTableObject": "",
  "HashNext": "",
  "ObjectFlags": "",
  "HashOuterNext": "",
  "StateFrame": "",
  "Linker": null,
  "LinkerIndex": "",
  "ObjectInternalInteger": 122522,
  "NetIndex": 21,
  "Outer": "GD_ItemGrades.ClassMods",
  "Name": "BalDef_ClassMod_Siren_06_SlayerOfTerramorphous",
  "Class": "WillowGame.ClassModBalanceDefinition",
  "ObjectArchetype": "WillowGame.Default__ClassModBalanceDefinition"
}