{
  "BasePriority": 1.0,
  "Attribute":
    "GD_Artifacts.BalanceAttributes.Attribute_WeaponReloadSpeedProxy",
  "Description": "Reload Speed",
  "NoConstraintText": "",
  "Suffix": "",
  "Prefix": "",
  "bIncludeSuffixInTranslation": false,
  "bIncludePrefixInTranslation": false,
  "bBiggerIsBetter": true,
  "bDisplayAsPercentage": true,
  "bDisplayPercentAsFloat": true,
  "bDisplayAsInverse": false,
  "bDontDisplayNumber": true,
  "bDontDisplayPlusSign": false,
  "bUseCustomNumberPlacement": false,
  "bEnableTextColor": false,
  "bValueRemappingEnabled": false,
  "bUseOneAsBaseValueForPresentationIfContextFailsToResolve": false,
  "bUseTwoAsBaseValueForPresentationIfContextFailsToResolve": false,
  "RoundingMode": "ATTRROUNDING_Float",
  "SignStyle": "SIGNSTYLE_AsIs",
  "TextColor": { "B": 255, "G": 255, "R": 255, "A": 255 },
  "FloatPrecision": 1,
  "Icon": "weaponsReloadSpeed",
  "RemappingData": {
    "bUseContextOverride": false,
    "InputValueMn": {
      "BaseValueConstant": 0.0,
      "BaseValueAttribute": null,
      "InitializationDefinition": null,
      "BaseValueScaleConstant": 1.0
    },
    "InputValueMx": {
      "BaseValueConstant": 0.0,
      "BaseValueAttribute": null,
      "InitializationDefinition": null,
      "BaseValueScaleConstant": 1.0
    },
    "OutputValueMn": {
      "BaseValueConstant": 0.0,
      "BaseValueAttribute": null,
      "InitializationDefinition": null,
      "BaseValueScaleConstant": 1.0
    },
    "OutputValueMx": {
      "BaseValueConstant": 0.0,
      "BaseValueAttribute": null,
      "InitializationDefinition": null,
      "BaseValueScaleConstant": 1.0
    }
  },
  "VfTableObject": "",
  "HashNext": "",
  "ObjectFlags": "",
  "HashOuterNext": "",
  "StateFrame": "",
  "Linker": null,
  "LinkerIndex": "",
  "ObjectInternalInteger": 109191,
  "NetIndex": 88,
  "Outer": "GD_AttributePresentation.Artifacts",
  "Name": "AttrPresent_ArtifactWeaponReloadSpeed",
  "Class": "WillowGame.AttributePresentationDefinition",
  "ObjectArchetype": "WillowGame.Default__AttributePresentationDefinition"
}