{
  "BasePriority": 1.0,
  "Attribute": "D_Attributes.Shield.RoidMeleeDamage",
  "Description": "Roid Damage",
  "NoConstraintText": "",
  "Suffix": "",
  "Prefix": "",
  "bIncludeSuffixInTranslation": true,
  "bIncludePrefixInTranslation": true,
  "bBiggerIsBetter": true,
  "bDisplayAsPercentage": false,
  "bDisplayPercentAsFloat": false,
  "bDisplayAsInverse": false,
  "bDontDisplayNumber": true,
  "bDontDisplayPlusSign": false,
  "bUseCustomNumberPlacement": true,
  "bEnableTextColor": true,
  "bValueRemappingEnabled": true,
  "bUseOneAsBaseValueForPresentationIfContextFailsToResolve": false,
  "bUseTwoAsBaseValueForPresentationIfContextFailsToResolve": false,
  "RoundingMode": "ATTRROUNDING_IntRound",
  "SignStyle": "SIGNSTYLE_AsIs",
  "TextColor": { "B": 255, "G": 255, "R": 255, "A": 255 },
  "FloatPrecision": 1,
  "Icon": "weaponDamage",
  "RemappingData": {
    "bUseContextOverride": true,
    "InputValueMn": {
      "BaseValueConstant": 0.0,
      "BaseValueAttribute": null,
      "InitializationDefinition": null,
      "BaseValueScaleConstant": 1.0
    },
    "InputValueMx": {
      "BaseValueConstant": 0.0,
      "BaseValueAttribute": "D_Attributes.Shield.RoidMeleeDamage",
      "InitializationDefinition": null,
      "BaseValueScaleConstant": 1.0
    },
    "OutputValueMn": {
      "BaseValueConstant": 0.0,
      "BaseValueAttribute": null,
      "InitializationDefinition":
        "D_Attributes.Shields.Init_RoidMeleeDamageDisplayed",
      "BaseValueScaleConstant": 1.0
    },
    "OutputValueMx": {
      "BaseValueConstant": 0.0,
      "BaseValueAttribute": null,
      "InitializationDefinition":
        "D_Attributes.Shields.Init_RoidMeleeDamageDisplayed",
      "BaseValueScaleConstant": 1.0
    }
  },
  "VfTableObject": "",
  "HashNext": "",
  "ObjectFlags": "",
  "HashOuterNext": "",
  "StateFrame": "",
  "Linker": null,
  "LinkerIndex": "",
  "ObjectInternalInteger": 109308,
  "NetIndex": 176,
  "Outer": "GD_AttributePresentation.Shields",
  "Name": "AttrPresent_Att_RoidShield_MeleeDamage",
  "Class": "WillowGame.AttributePresentationDefinition",
  "ObjectArchetype": "WillowGame.Default__AttributePresentationDefinition"
}