{
  "BasePriority": 0.0,
  "Attribute": "GD_StorageDeckUpgrade.MiscData.AttrSlotGrade_Launcher",
  "Description": "Use to increase your Launcher Ammo Capacity to $NUMBER$.",
  "NoConstraintText": "",
  "Suffix": "",
  "Prefix": "",
  "bIncludeSuffixInTranslation": true,
  "bIncludePrefixInTranslation": true,
  "bBiggerIsBetter": true,
  "bDisplayAsPercentage": false,
  "bDisplayPercentAsFloat": false,
  "bDisplayAsInverse": false,
  "bDontDisplayNumber": false,
  "bDontDisplayPlusSign": true,
  "bUseCustomNumberPlacement": true,
  "bEnableTextColor": true,
  "bValueRemappingEnabled": true,
  "bUseOneAsBaseValueForPresentationIfContextFailsToResolve": false,
  "bUseTwoAsBaseValueForPresentationIfContextFailsToResolve": false,
  "RoundingMode": "ATTRROUNDING_IntRound",
  "SignStyle": "SIGNSTYLE_AsIs",
  "TextColor": { "B": 255, "G": 255, "R": 255, "A": 255 },
  "FloatPrecision": 1,
  "Icon": "",
  "RemappingData": {
    "bUseContextOverride": false,
    "InputValueMn": {
      "BaseValueConstant": 0.0,
      "BaseValueAttribute": null,
      "InitializationDefinition": null,
      "BaseValueScaleConstant": 1.0
    },
    "InputValueMx": {
      "BaseValueConstant": 6.0,
      "BaseValueAttribute": null,
      "InitializationDefinition": null,
      "BaseValueScaleConstant": 1.0
    },
    "OutputValueMn": {
      "BaseValueConstant": 3.0,
      "BaseValueAttribute": null,
      "InitializationDefinition":
        "D_Resourcepools.MiscData.AmmoUpgrade_RocketLauncher",
      "BaseValueScaleConstant": 1.0
    },
    "OutputValueMx": {
      "BaseValueConstant": 9.0,
      "BaseValueAttribute": null,
      "InitializationDefinition":
        "D_Resourcepools.MiscData.AmmoUpgrade_RocketLauncher",
      "BaseValueScaleConstant": 1.0
    }
  },
  "VfTableObject": "",
  "HashNext": "",
  "ObjectFlags": "",
  "HashOuterNext": "",
  "StateFrame": "",
  "Linker": null,
  "LinkerIndex": "",
  "ObjectInternalInteger": 109127,
  "NetIndex": 25,
  "Outer": "GD_AttributePresentation.AmmoUpgrades",
  "Name": "AttrPresent_AttrSlotGrade_Launcher",
  "Class": "WillowGame.AttributePresentationDefinition",
  "ObjectArchetype": "WillowGame.Default__AttributePresentationDefinition"
}