{
  "BasePriority": 80.0,
  "Attribute": null,
  "Description": "I've had a piece,",
  "NoConstraintText": "",
  "Suffix": "",
  "Prefix": "",
  "bIncludeSuffixInTranslation": false,
  "bIncludePrefixInTranslation": false,
  "bBiggerIsBetter": true,
  "bDisplayAsPercentage": true,
  "bDisplayPercentAsFloat": false,
  "bDisplayAsInverse": false,
  "bDontDisplayNumber": true,
  "bDontDisplayPlusSign": false,
  "bUseCustomNumberPlacement": false,
  "bEnableTextColor": true,
  "bValueRemappingEnabled": false,
  "bUseOneAsBaseValueForPresentationIfContextFailsToResolve": false,
  "bUseTwoAsBaseValueForPresentationIfContextFailsToResolve": false,
  "RoundingMode": "ATTRROUNDING_IntRound",
  "SignStyle": "SIGNSTYLE_AsIs",
  "TextColor": { "B": 60, "G": 233, "R": 236, "A": 255 },
  "FloatPrecision": 1,
  "Icon": "",
  "RemappingData": {
    "bUseContextOverride": false,
    "InputValueMn": {
      "BaseValueConstant": 0.0,
      "BaseValueAttribute": null,
      "InitializationDefinition": null,
      "BaseValueScaleConstant": 1.0
    },
    "InputValueMx": {
      "BaseValueConstant": 0.0,
      "BaseValueAttribute": null,
      "InitializationDefinition": null,
      "BaseValueScaleConstant": 1.0
    },
    "OutputValueMn": {
      "BaseValueConstant": 0.0,
      "BaseValueAttribute": null,
      "InitializationDefinition": null,
      "BaseValueScaleConstant": 1.0
    },
    "OutputValueMx": {
      "BaseValueConstant": 0.0,
      "BaseValueAttribute": null,
      "InitializationDefinition": null,
      "BaseValueScaleConstant": 1.0
    }
  },
  "VfTableObject": "",
  "HashNext": "",
  "ObjectFlags": "",
  "HashOuterNext": "",
  "StateFrame": "",
  "Linker": null,
  "LinkerIndex": "",
  "ObjectInternalInteger": 166520,
  "NetIndex": 11,
  "Outer": "GD_Flax_Items.CandyParts.CandyPart_Haste",
  "Name": "AttributePresentationDefinition_3",
  "Class": "WillowGame.AttributePresentationDefinition",
  "ObjectArchetype": "WillowGame.Default__AttributePresentationDefinition"
}