{
  "BasePriority": 10.0,
  "Attribute": "D_Attributes.Weapon.WeaponFireInterval",
  "Description": "Fire Rate: $NUMBER$",
  "NoConstraintText": "",
  "Suffix": "",
  "Prefix": "",
  "bIncludeSuffixInTranslation": false,
  "bIncludePrefixInTranslation": false,
  "bBiggerIsBetter": true,
  "bDisplayAsPercentage": true,
  "bDisplayPercentAsFloat": false,
  "bDisplayAsInverse": false,
  "bDontDisplayNumber": false,
  "bDontDisplayPlusSign": false,
  "bUseCustomNumberPlacement": true,
  "bEnableTextColor": true,
  "bValueRemappingEnabled": false,
  "bUseOneAsBaseValueForPresentationIfContextFailsToResolve": false,
  "bUseTwoAsBaseValueForPresentationIfContextFailsToResolve": false,
  "RoundingMode": "ATTRROUNDING_IntRound",
  "SignStyle": "SIGNSTYLE_Positive",
  "TextColor": { "B": 255, "G": 255, "R": 255, "A": 255 },
  "FloatPrecision": 1,
  "Icon": "",
  "RemappingData": {
    "bUseContextOverride": false,
    "InputValueMn": {
      "BaseValueConstant": 0.0,
      "BaseValueAttribute": null,
      "InitializationDefinition": null,
      "BaseValueScaleConstant": 1.0
    },
    "InputValueMx": {
      "BaseValueConstant": 0.0,
      "BaseValueAttribute": null,
      "InitializationDefinition": null,
      "BaseValueScaleConstant": 1.0
    },
    "OutputValueMn": {
      "BaseValueConstant": 0.0,
      "BaseValueAttribute": null,
      "InitializationDefinition": null,
      "BaseValueScaleConstant": 1.0
    },
    "OutputValueMx": {
      "BaseValueConstant": 0.0,
      "BaseValueAttribute": null,
      "InitializationDefinition": null,
      "BaseValueScaleConstant": 1.0
    }
  },
  "VfTableObject": "",
  "HashNext": "",
  "ObjectFlags": "",
  "HashOuterNext": "",
  "StateFrame": "",
  "Linker": null,
  "LinkerIndex": "",
  "ObjectInternalInteger": 192779,
  "NetIndex": 36,
  "Outer": "GD_Lilac_Skills_Mania.Skills.EmbraceThePain",
  "Name": "AttributePresentationDefinition_1",
  "Class": "WillowGame.AttributePresentationDefinition",
  "ObjectArchetype": "WillowGame.Default__AttributePresentationDefinition"
}