{
  "BasePriority": 1.0,
  "Attribute": null,
  "Description":
    "Returns [skill]a portion of your health[-skill] after each [skill]kill[-skill].",
  "NoConstraintText": "",
  "Suffix": "",
  "Prefix": "",
  "bIncludeSuffixInTranslation": false,
  "bIncludePrefixInTranslation": false,
  "bBiggerIsBetter": true,
  "bDisplayAsPercentage": false,
  "bDisplayPercentAsFloat": false,
  "bDisplayAsInverse": false,
  "bDontDisplayNumber": true,
  "bDontDisplayPlusSign": true,
  "bUseCustomNumberPlacement": false,
  "bEnableTextColor": true,
  "bValueRemappingEnabled": false,
  "bUseOneAsBaseValueForPresentationIfContextFailsToResolve": false,
  "bUseTwoAsBaseValueForPresentationIfContextFailsToResolve": false,
  "RoundingMode": "ATTRROUNDING_IntRound",
  "SignStyle": "SIGNSTYLE_AsIs",
  "TextColor": { "B": 255, "G": 255, "R": 255, "A": 255 },
  "FloatPrecision": 1,
  "Icon": "",
  "RemappingData": {
    "bUseContextOverride": false,
    "InputValueMn": {
      "BaseValueConstant": 0.0,
      "BaseValueAttribute": null,
      "InitializationDefinition": null,
      "BaseValueScaleConstant": 1.0
    },
    "InputValueMx": {
      "BaseValueConstant": 0.0,
      "BaseValueAttribute": null,
      "InitializationDefinition": null,
      "BaseValueScaleConstant": 1.0
    },
    "OutputValueMn": {
      "BaseValueConstant": 0.0,
      "BaseValueAttribute": null,
      "InitializationDefinition": null,
      "BaseValueScaleConstant": 1.0
    },
    "OutputValueMx": {
      "BaseValueConstant": 0.0,
      "BaseValueAttribute": null,
      "InitializationDefinition": null,
      "BaseValueScaleConstant": 1.0
    }
  },
  "VfTableObject": "",
  "HashNext": "",
  "ObjectFlags": "",
  "HashOuterNext": "",
  "StateFrame": "",
  "Linker": null,
  "LinkerIndex": "",
  "ObjectInternalInteger": 174554,
  "NetIndex": 11,
  "Outer": "GD_Orchid_Artifacts.Body.Body_Blade",
  "Name": "AttributePresentationDefinition_1",
  "Class": "WillowGame.AttributePresentationDefinition",
  "ObjectArchetype": "WillowGame.Default__AttributePresentationDefinition"
}