{
  "BasePriority": 1.0,
  "Attribute": "D_Attributes.Weapon.WeaponAutomaticBurstCount",
  "Description": "",
  "NoConstraintText":
    "[skill]Burst fire[-skill] while [skill]zoomed[-skill].",
  "Suffix": "",
  "Prefix": "",
  "bIncludeSuffixInTranslation": true,
  "bIncludePrefixInTranslation": true,
  "bBiggerIsBetter": true,
  "bDisplayAsPercentage": false,
  "bDisplayPercentAsFloat": false,
  "bDisplayAsInverse": false,
  "bDontDisplayNumber": true,
  "bDontDisplayPlusSign": true,
  "bUseCustomNumberPlacement": false,
  "bEnableTextColor": true,
  "bValueRemappingEnabled": true,
  "bUseOneAsBaseValueForPresentationIfContextFailsToResolve": false,
  "bUseTwoAsBaseValueForPresentationIfContextFailsToResolve": false,
  "RoundingMode": "ATTRROUNDING_IntRound",
  "SignStyle": "SIGNSTYLE_AsIs",
  "TextColor": { "B": 255, "G": 255, "R": 255, "A": 255 },
  "FloatPrecision": 1,
  "Icon": "",
  "RemappingData": {
    "bUseContextOverride": false,
    "InputValueMn": {
      "BaseValueConstant": -10.0,
      "BaseValueAttribute": null,
      "InitializationDefinition": null,
      "BaseValueScaleConstant": 1.0
    },
    "InputValueMx": {
      "BaseValueConstant": 2010.0,
      "BaseValueAttribute": null,
      "InitializationDefinition": null,
      "BaseValueScaleConstant": 1.0
    },
    "OutputValueMn": {
      "BaseValueConstant": -7.0,
      "BaseValueAttribute": null,
      "InitializationDefinition": null,
      "BaseValueScaleConstant": 1.0
    },
    "OutputValueMx": {
      "BaseValueConstant": 2013.0,
      "BaseValueAttribute": null,
      "InitializationDefinition": null,
      "BaseValueScaleConstant": 1.0
    }
  },
  "VfTableObject": "",
  "HashNext": "",
  "ObjectFlags": "",
  "HashOuterNext": "",
  "StateFrame": "",
  "Linker": null,
  "LinkerIndex": "",
  "ObjectInternalInteger": 110361,
  "NetIndex": 57,
  "Outer": "GD_Weap_AssaultRifle.Body.AR_Body_Dahl",
  "Name": "AttributePresentationDefinition_0",
  "Class": "WillowGame.AttributePresentationDefinition",
  "ObjectArchetype": "WillowGame.Default__AttributePresentationDefinition"
}