{
  "DefaultPostProcessSettings": {
    "bOverride_EnableBloom": true,
    "bOverride_EnableDOF": true,
    "bOverride_EnableMotionBlur": true,
    "bOverride_EnableSceneEffect": true,
    "bOverride_AllowAmbientOcclusion": true,
    "bOverride_OverrideRimShaderColor": true,
    "bOverride_Bloom_Scale": true,
    "bOverride_Bloom_Threshold": true,
    "bOverride_Bloom_Tint": true,
    "bOverride_Bloom_ScreenBlendThreshold": true,
    "bOverride_Bloom_InterpolationDuration": true,
    "bOverride_DOF_FalloffExponent": true,
    "bOverride_DOF_BlurKernelSize": true,
    "bOverride_DOF_BlurBloomKernelSize": true,
    "bOverride_DOF_MaxNearBlurAmount": true,
    "bOverride_DOF_MinBlurAmount": false,
    "bOverride_DOF_MaxFarBlurAmount": true,
    "bOverride_DOF_FocusType": true,
    "bOverride_DOF_FocusInnerRadius": true,
    "bOverride_DOF_FocusDistance": true,
    "bOverride_DOF_FocusPosition": true,
    "bOverride_DOF_TunnelVisionScale": false,
    "bOverride_DOF_TunnelVisionYOffset": false,
    "bOverride_DOF_InterpolationDuration": true,
    "bOverride_DOF_BokehTexture": false,
    "bOverride_MotionBlur_MaxVelocity": false,
    "bOverride_MotionBlur_Amount": false,
    "bOverride_MotionBlur_FullMotionBlur": false,
    "bOverride_MotionBlur_CameraRotationThreshold": false,
    "bOverride_MotionBlur_CameraTranslationThreshold": false,
    "bOverride_MotionBlur_InterpolationDuration": false,
    "bOverride_Scene_Desaturation": true,
    "bOverride_Scene_Colorize": false,
    "bOverride_Scene_TonemapperScale": false,
    "bOverride_Scene_ImageGrainScale": false,
    "bOverride_Scene_HighLights": true,
    "bOverride_Scene_MidTones": true,
    "bOverride_Scene_Shadows": true,
    "bOverride_Scene_InterpolationDuration": true,
    "bOverride_Scene_ColorGradingLUT": false,
    "bOverride_RimShader_Color": true,
    "bOverride_RimShader_InterpolationDuration": true,
    "bEnableBloom": true,
    "bEnableDOF": false,
    "bTwoLayerSimpleDepthOfField": false,
    "bEnableMotionBlur": false,
    "bEnableSceneEffect": true,
    "bAllowAmbientOcclusion": true,
    "bOverrideRimShaderColor": false,
    "Bloom_Scale": 1.0,
    "Bloom_Threshold": 1.0,
    "Bloom_Tint": { "B": 255, "G": 255, "R": 255, "A": 0 },
    "Bloom_ScreenBlendThreshold": 10.0,
    "Bloom_InterpolationDuration": 1.0,
    "DOF_BlurBloomKernelSize": 16.0,
    "DOF_FalloffExponent": 4.0,
    "DOF_BlurKernelSize": 16.0,
    "DOF_MaxNearBlurAmount": 1.0,
    "DOF_MinBlurAmount": 0.0,
    "DOF_MaxFarBlurAmount": 1.0,
    "DOF_FocusType": "FOCUS_Distance",
    "DOF_FocusInnerRadius": 2000.0,
    "DOF_FocusDistance": 0.0,
    "DOF_FocusPosition": { "X": 0.0, "Y": 0.0, "Z": 0.0 },
    "DOF_TunnelVisionScale": 0.0,
    "DOF_TunnelVisionYOffset": 0.0,
    "DOF_InterpolationDuration": 1.0,
    "DOF_BokehTexture": null,
    "MotionBlur_MaxVelocity": 1.0,
    "MotionBlur_Amount": 0.5,
    "MotionBlur_FullMotionBlur": true,
    "MotionBlur_CameraRotationThreshold": 45.0,
    "MotionBlur_CameraTranslationThreshold": 10000.0,
    "MotionBlur_InterpolationDuration": 1.0,
    "Scene_Desaturation": 0.0,
    "Scene_Colorize": { "X": 1.0, "Y": 1.0, "Z": 1.0 },
    "Scene_TonemapperScale": 1.0,
    "Scene_ImageGrainScale": 0.0,
    "Scene_HighLights": { "X": 1.0, "Y": 1.0, "Z": 1.0 },
    "Scene_MidTones": { "X": 1.0, "Y": 1.0, "Z": 1.0 },
    "Scene_Shadows": { "X": 0.0, "Y": 0.0, "Z": 0.0 },
    "Scene_InterpolationDuration": 1.0,
    "RimShader_Color": {
      "R": 0.47044,
      "G": 0.585973,
      "B": 0.827726,
      "A": 1.0
    },
    "RimShader_InterpolationDuration": 1.0,
    "ColorGrading_LookupTable": null,
    "ColorGradingLUT": { "LUTTextures": null, "LUTWeights": null }
  },
  "WorldPostProcessChain": null,
  "bPersistPostProcessToNextLevel": true,
  "bFogEnabled": false,
  "bBumpOffsetEnabled": true,
  "bUseGammaCorrection": false,
  "bMapNeedsLightingFullyRebuilt": true,
  "bMapHasMultipleDominantLightsAffectingOnePrimitive": false,
  "bMapHasPathingErrors": false,
  "bRequestedBlockOnAsyncLoading": false,
  "bBegunPlay": false,
  "bPlayersOnly": false,
  "bPlayersOnlyPending": false,
  "bSuspendAI": false,
  "bStatusMenuOnly": false,
  "bDropDetail": false,
  "bAggressiveLOD": false,
  "bDontTickMind": false,
  "bStartup": false,
  "bPathsRebuilt": true,
  "bHasPathNodes": false,
  "bIsMenuLevel": false,
  "bDebugPauseExecution": false,
  "bDebugStepExecution": false,
  "bUseConsoleInput": false,
  "bNoDefaultInventoryForPlayer": false,
  "bNoPathWarnings": false,
  "bHighPriorityLoading": false,
  "bHighPriorityLoadingLocal": false,
  "bSupportDoubleBufferedPhysics": false,
  "bPhysicsIgnoreDeltaTime": false,
  "bEnableChanceOfPhysicsChunkOverride": false,
  "bLimitExplosionChunkSize": false,
  "bLimitDamageChunkSize": false,
  "bPrecomputeVisibility": false,
  "bPlaceCellsOnSurfaces": true,
  "bAllowTemporalAA": true,
  "bUseGlobalIllumination": false,
  "bForceNoPrecomputedLighting": false,
  "bAllowHostMigration": false,
  "bAssertOnGBXCheck": false,
  "bSupportsTimeOfDay": false,
  "SquintModeKernelSize": 128.0,
  "ShadowmapStreamingFactorMultiplier": 1.0,
  "HighestPriorityPostProcessVolume": null,
  "DefaultReverbSettings": {
    "bApplyReverb": true,
    "ReverbType": "REVERB_Default",
    "Volume": 0.5,
    "FadeTime": 2.0,
    "ReflectionsDelayOverride": -1.0,
    "LateDelayOverride": -1.0,
    "DecayHighFrequencyRatioOverride": -1.0
  },
  "DefaultAmbientZoneSettings": {
    "bIsWorldInfo": true,
    "ExteriorVolume": 1.0,
    "ExteriorTime": 0.5,
    "ExteriorLPF": 1.0,
    "ExteriorLPFTime": 0.5,
    "InteriorVolume": 1.0,
    "InteriorTime": 0.5,
    "InteriorLPF": 1.0,
    "InteriorLPFTime": 0.5
  },
  "FogStart": 400.0,
  "FogEnd": 4000.0,
  "FogColor": { "B": 255, "G": 128, "R": 128, "A": 192 },
  "BumpEnd": 1000.0,
  "HighestPriorityReverbVolume": null,
  "WorldSoundManager": null,
  "LastTimeUnbuiltLightingWasEncountered": "",
  "TimeDilation": 1.0,
  "DemoPlayTimeDilation": 1.0,
  "TimeSeconds": 0.0,
  "RealTimeSeconds": 0.0,
  "AudioTimeSeconds": 0.0,
  "DeltaSeconds": 0.0,
  "PauseDelay": 0.0,
  "RealTimeToUnPause": 0.0,
  "Pauser": null,
  "DefaultTexture": "EngineResources.DefaultTexture",
  "WireframeTexture": null,
  "WhiteSquareTexture": "EngineResources.WhiteSquareTexture",
  "LargeVertex": null,
  "BSPVertex": null,
  "GRI": null,
  "NetMode": "NM_Standalone",
  "NextTravelType": "TRAVEL_Relative",
  "VisibilityAggressiveness": "VIS_LeastAggressive",
  "LevelLightingQuality": "Quality_Production",
  "ComputerName": "",
  "EngineVersion": "",
  "MinNetVersion": "",
  "Game": null,
  "StallZ": 1000000.0,
  "WorldGravityZ": 0.0,
  "DefaultGravityZ": -500.0,
  "GlobalGravityZ": 0.0,
  "RBPhysicsGravityScaling": 1.0,
  "NavigationPointList": null,
  "ControllerList": null,
  "PawnList": null,
  "CoverList": null,
  "PylonList": null,
  "NavMeshList": null,
  "MoveRepSize": 42.0,
  "NextURL": "",
  "NextSwitchCountdown": 0.0,
  "PackedLightAndShadowMapTextureSize": 1024,
  "DefaultColorScale": { "X": 1.0, "Y": 1.0, "Z": 1.0 },
  "DefaultGameType": null,
  "CommittedPersistentLevel": null,
  "PersistentMapForcedObjects": null,
  "Title": "",
  "Author": "",
  "MyMapInfo":
    "caverns_p.TheWorld:PersistentLevel.WorldInfo_2.WillowMapInfo_0",
  "EmitterPoolClassPath": "WillowGame.WillowEmitterPool",
  "MyEmitterPool": null,
  "DecalManagerClassPath": "Engine.DecalManager",
  "MyDecalManager": null,
  "ParticleEventManagerClassPath": "",
  "MyParticleEventManager": null,
  "ParentLoader": "",
  "MaxPhysicsDeltaTime": 0.333333,
  "MaxPhysicsSubsteps": 5,
  "PhysicsProperties": {
    "PrimaryScene": {
      "bUseHardware": false,
      "bFixedTimeStep": false,
      "TimeStep": 0.02,
      "MaxSubSteps": 5
    },
    "CompartmentRigidBody": {
      "bUseHardware": false,
      "bFixedTimeStep": false,
      "TimeStep": 0.02,
      "MaxSubSteps": 2
    },
    "CompartmentFluid": {
      "bUseHardware": true,
      "bFixedTimeStep": false,
      "TimeStep": 0.02,
      "MaxSubSteps": 1
    },
    "CompartmentCloth": {
      "bUseHardware": true,
      "bFixedTimeStep": true,
      "TimeStep": 0.02,
      "MaxSubSteps": 2
    },
    "CompartmentSoftBody": {
      "bUseHardware": true,
      "bFixedTimeStep": true,
      "TimeStep": 0.02,
      "MaxSubSteps": 2
    }
  },
  "DefaultSkinWidth": 0.025,
  "ApexLODResourceBudget": -1.0,
  "DestructibleSettings": {
    "MaxChunkIslandCount": -1,
    "MaxRrbActorCount": -1,
    "MaxChunkSeparationLOD": 1.0,
    "bOverrideMaxChunkSeparationLOD": false
  },
  "EmitterVertical": "Engine.Default__WorldInfo:PhysicsLODVerticalEmitter0",
  "VerticalProperties": {
    "Emitters": {
      "bDisableLod": true,
      "ParticlesLodMin": 0,
      "ParticlesLodMax": 15000,
      "PacketsPerPhysXParticleSystemMax": 500,
      "bApplyCylindricalPacketCulling": true,
      "SpawnLodVsFifoBias": 1.0
    }
  },
  "ChanceOfPhysicsChunkOverride": 1.0,
  "MaxExplosionChunkSize": 0.0,
  "MaxDamageChunkSize": 0.0,
  "FractureExplosionVelScale": 1.0,
  "MaxNumFacturedChunksToSpawnInAFrame": 12,
  "NumFacturedChunksSpawnedThisFrame": 0,
  "FracturedMeshWeaponDamage": 1.0,
  "VisibilityCellSize": 200,
  "CharacterLitIndirectBrightness": 1.0,
  "CharacterLitIndirectContrastFactor": 1.0,
  "CharacterShadowedIndirectBrightness": 1.0,
  "CharacterShadowedIndirectContrastFactor": 1.0,
  "CharacterLightingContrastFactor": 1.5,
  "ScreenMessages": "",
  "LightmassSettings": {
    "StaticLightingLevelScale": 1.9,
    "NumIndirectLightingBounces": 3,
    "EnvironmentColor": { "B": 0, "G": 0, "R": 0, "A": 0 },
    "EnvironmentIntensity": 1.0,
    "EmissiveBoost": 1.0,
    "DiffuseBoost": 3.0,
    "SpecularBoost": 1.0,
    "IndirectNormalInfluenceBoost": 0.3,
    "bUseAmbientOcclusion": true,
    "DirectIlluminationOcclusionFraction": 0.5,
    "IndirectIlluminationOcclusionFraction": 1.0,
    "OcclusionExponent": 1.0,
    "FullyOccludedSamplesFraction": 1.0,
    "MaxOcclusionDistance": 200.0,
    "bVisualizeMaterialDiffuse": false,
    "bVisualizeAmbientOcclusion": false,
    "bCompressShadowmap": false
  },
  "NavMeshPathConstraintCache": "",
  "NavMeshPathGoalEvaluatorCache": "",
  "PeerHostMigration": {
    "HostMigrationProgress": "HostMigration_None",
    "HostMigrationElapsedTime": 0.0,
    "HostMigrationTravelCountdown": 0.0,
    "HostMigrationTravelURL": null,
    "bHostMigrationEnabled": false
  },
  "HostMigrationTimeout": 15.0,
  "HoldingCell": null,
  "PersonalTeleporterDestination": null,
  "PersonalReturnTeleporterLocation": null,
  "CommonsLevelName": null,
  "TeleporterPlacedEventName": null,
  "CombatMusic": null,
  "GBXCheckDisplayDuration": 10,
  "ClientDestroyedActorContent": [
    "WillowGame.Default__PopulationOpportunityDen",
    "GD_OozeBomb.Pop_OozeBomb", "GD_GameStages.Zone1.CorrosiveCaverns",
    "GearboxFramework.Default__PopulationOpportunityPoint",
    "GD_Population_Shopping.VendingMachine.VendingMachine_GrenadesAndAmmo",
    "Engine.Default__SkeletalMeshComponent",
    "Prop_VendingMachines.Meshes.Skel_WeaponVendingMachine",
    "GD_Balance_Shopping.Misc.AnimTree_VendingMachine",
    "Prop_VendingMachines.PhAT.Phat_WeaponVendingMachine",
    "Anim_VendingMachines.Animations.Anim_WeaponVendingMachine",
    "Prop_VendingMachines.Materials.Mati_AmmoVendingMachine",
    "Prop_VendingMachines.Materials.Mati_AmmoVendingFaceplate",
    "Common_Materials.Hyperion.Master_HyperionEye_INST",
    "Engine.Default__CylinderComponent",
    "Engine.Default__DynamicLightEnvironmentComponent",
    "GD_Population_Shopping.VendingMachine.VendingMachine_HealthItems",
    "Prop_VendingMachines.Materials.Mati_ZedVendingMachine",
    "Prop_VendingMachines.Materials.Mati_ZedVendingFaceplate",
    "Engine.Default__SocketComponent",
    "GD_Population_Crystalisk.Population.PopDef_CrystaliskMix_Regular",
    "Engine.Default__PylonSeed", "WillowGame.Default__LevelTravelStation",
    "GD_LevelTravelStations.Zone1.CavernsToSanctuaryHole",
    "GD_GameSystemMachines.InteractiveObjects.LevelTravelMachine",
    "GD_InteractionIcons.Default.Icon_DefaultFastTravel",
    "Engine.Default__StaticMeshComponent",
    "FX_Shared_Mesh.Meshes.FlashMenuBackground",
    "Common_Meshes.CollisionPlane", "WillowGame.Default__FastTravelStation",
    "GD_FastTravelStations.Zone1.Caverns",
    "GD_GameSystemMachines.InteractiveObjects.FastTravelMachine",
    "Prop_FastTravel.Mesh.Skel_FastTravel",
    "GD_GameSystemMachines.AnimTrees.AnimTree_FastTravel",
    "Prop_FastTravel.PhAT.Phat_FastTravel",
    "Anim_FastTravel.Animations.Anim_FastTravel",
    "WillowGame.Default__ResurrectTravelStation",
    "GD_GameSystemMachines.InteractiveObjects.PlayerRespawnCheckpoint",
    "GD_GameSystemMachines.AnimTrees.AnimTree_Checkpoint",
    "Anim_FastTravel.Anim_Checkpoint",
    "Prop_FastTravel.Materials.Mati_Checkpoint",
    "Engine.Default__ParticleSystemComponent",
    "FX_ENV_Lights.Particles.Part_CheckpointLightRed",
    "GD_Population_BugMorph.Population.PopDef_BugMorphAdult",
    "WillowGame.Default__WillowInteractiveObject",
    "GD_GenericSwitches.InteractiveObjects.GenericWheel",
    "Prop_Wheel.Meshes.WheelBase", "Prop_Wheel.Materials.Mati_Wheel_Dim",
    "Prop_Wheel.Meshes.Wheel", "Prop_Wheel.Materials.Mati_Wheel_Disabled",
    "GearboxFramework.Default__PopulationOpportunityArea",
    "GD_Population_Treasure.Lootables.CrystalPile_1",
    "GD_Population_Treasure.TreasureChests.WeaponChest_Dahl",
    "Prop_Lootables.Meshes.Skel_Dahl_WeaponLocker",
    "Anim_Lootables.Animations.AnimTree_Lootables_Willow",
    "Prop_Lootables.PhAT.Phat_Dahl_WeaponLocker",
    "Anim_Lootables.Anim_Dahl_WeaponLocker",
    "FX_ENV_InteractiveObjects.Particles.Chest.Part_ChestDust",
    "GD_Population_Thresher.Population.PopDef_ThresherMix_Regular",
    "GD_Population_SpiderAnt.Population.PopDef_SpiderantMix_Caverns",
    "GD_ElementalPlants.Populations.Pop_Acidolus",
    "GD_Explosives.Populations.Pop_BarrelCorrosive",
    "GD_Explosives.Populations.Pop_BarrelExplosive",
    "GD_Population_BugMorph.Population.PopDef_BugMorphMix_Regular",
    "GD_Population_Treasure.LootablesTrap.BugMorph.ScrapPile_BugMorph",
    "Prop_Lootables_02.Meshes.AlienPile",
    "Prop_Lootables_02.PhAT.Phat_JunkPile",
    "Anim_Lootables.Animations.Anim_JunkPile",
    "FX_ENV_Insects.Particles.Part_Insects01_Flying",
    "FX_CREA_Skag.Particles.Shared.Part_Skag_Pile_Smoke",
    "GD_InteractiveDoors.GenericDoor", "prop_doors.Meshes.Skel_GenericDoor",
    "Anim_Doors.AnimTree_GenericDoor", "prop_doors.PhAT.Phat_GenericDoor",
    "Anim_Doors.Animations.Anim_GenericDoor",
    "prop_doors.Materials.Mati_GenericDoorGlowing_INST",
    "GD_Population_Shopping.VendingMachine.VendingMachine_Weapons",
    "Prop_VendingMachines.Materials.Mati_MarcusVendingMachine",
    "Prop_VendingMachines.Materials.Mati_MarcusVendingFaceplate",
    "GD_Population_Treasure.Lootables.Storage_Locker",
    "Prop_Lootables_02.Meshes.Skel_StorageLocker",
    "Prop_Lootables_02.PhAT.Phat_StorageLocker",
    "Anim_Lootables.Animations.Anim_StorageLocker",
    "GD_Population_Treasure.LootablesTrap.BugMorph.Dumpster_BugMorph",
    "GD_Population_BugMorph.Population.PopDef_BugMorphBadass",
    "Prop_Lootables.Meshes.Skel_Dumpster",
    "Prop_Lootables.PhAT.Phat_Dumpster",
    "Anim_Lootables.Animations.Anim_Dumpster",
    "GD_Population_Treasure.Lootables.Dahl_Ammo",
    "GD_Population_Treasure.TreasureChests.EpicChest_Dahl",
    "Prop_Lootables.Meshes.Skel_DahlEpicCrate",
    "Prop_Lootables.PhAT.Phat_DahlEpicCrate",
    "Anim_Lootables.Animations.Anim_DahlEpicCrate",
    "GD_Population_Treasure.Lootables.Dahl_Cooler",
    "GD_Population_Treasure.Lootables.Dahl_SmallBox",
    "GD_Population_Treasure.Lootables.BugMorphPile",
    "GD_Balance_Treasure.HitRegion.HitRegion_CrystalPileCrystal3",
    "GD_InteractionIcons.Default.Icon_DefaultSmash",
    "GD_Balance_Treasure.HitRegion.HitRegion_CrystalPileCrystal2",
    "GD_Balance_Treasure.HitRegion.HitRegion_CrystalPileCrystal",
    "Char_Crystalisk.Crystalisk_Crystal_Leg",
    "Char_Crystalisk.Materials.Mati_Crystalisk",
    "Char_Crystalisk.Crystalisk_Crystal_Main",
    "Char_Crystalisk.Materials.Mati_CrystalsLeg_Explosive",
    "WillowGame.Default__WillowAIPawn",
    "WillowGame.Default__StatusEffectsComponent",
    "GearboxFramework.Default__SpecialMoveComponent",
    "GearboxFramework.Default__GearboxDialogComponent",
    "GD_Solitaire.Character.Pawn_Solitaire",
    "CD_Heads_Soldier_MainGame.Skel_Soldier016",
    "Prop_Armor.Meshes.BanditArmorSetBThigh",
    "GD_EasterEggs.Materials.Mati_Solitaire_Armor",
    "Prop_Armor.Meshes.BanditArmorSetCKnee",
    "Prop_Armor.Meshes.BanditArmorSetCForearm",
    "Prop_Armor.Meshes.BanditArmorSetCChest",
    "Prop_Armor.Meshes.BanditArmorSetCChestPiece",
    "Prop_Armor.Meshes.BanditArmorSetCShoulder2",
    "Prop_Details.Meshes.Manhole", "Prop_Weapons.Meshes.MordecaiSword",
    "Engine.Default__NxForceFieldRadialComponent",
    "GD_LevelChallenges.InteractiveObjects.IO_VaultRoy",
    "GD_Challenges.LevelChallenges.Caverns_VaultRoy",
    "Common_Meshes.BasePlane_256x128_Col",
    "GD_LevelChallenges.Materials.VaultRoy_INST",
    "GD_Population_Treasure.Lootables.SpiderantPile",
    "GD_EasterEggs.InteractiveObjects.IO_Mining_Dirt",
    "GD_EasterEggs.StaticMeshes.Zf_Mine_Cube",
    "GD_EasterEggs.Materials.Mine_INST_Dirt",
    "GD_EasterEggs.InteractiveObjects.IO_Mining",
    "GD_EasterEggs.Materials.Mine_INST_Nothing",
    "GD_Population_Creeper.Population.PopDef_Creeper",
    "GD_Population_Creeper.Population.PopDef_CreeperMix_Regular",
    "WillowGame.Default__WillowPopulationEncounter",
    "GD_Population_Creeper.Population.PopDef_CreeperBadass",
    "WillowGame.Default__WillowWorldSoundManager",
    "GearboxFramework.Default__WireManager"
  ],
  "StreamingLevels": [
    "caverns_p.TheWorld:LevelStreamingAlwaysLoaded_0",
    "caverns_p.TheWorld:LevelStreamingKismet_0",
    "caverns_p.TheWorld:LevelStreamingKismet_1",
    "caverns_p.TheWorld:LevelStreamingKismet_2",
    "caverns_p.TheWorld:LevelStreamingKismet_3",
    "caverns_p.TheWorld:LevelStreamingKismet_4",
    "caverns_p.TheWorld:LevelStreamingKismet_5",
    "caverns_p.TheWorld:LevelStreamingKismet_6"
  ],
  "KillZ": -262143.0,
  "SoftKill": 2500.0,
  "KillZDamageType": "Engine.KillZDamageType",
  "bSoftKillZ": false,
  "VfTable_IIWorldBody": "",
  "VfTable_IISpawnActor": "",
  "VfTable_IIDamageCauser": "",
  "Location": { "X": 0.0, "Y": 0.0, "Z": 0.0 },
  "Rotation": { "Pitch": 0, "Yaw": 0, "Roll": 0 },
  "DrawScale": 1.0,
  "DrawScale3D": { "X": 1.0, "Y": 1.0, "Z": 1.0 },
  "PrePivot": { "X": 0.0, "Y": 0.0, "Z": 0.0 },
  "DetachFence": "",
  "CustomTimeDilation": 1.0,
  "Physics": "PHYS_None",
  "RemoteRole": "ROLE_SimulatedProxy",
  "Role": "ROLE_Authority",
  "CollisionType": "COLLIDE_NoCollision",
  "ReplicatedCollisionType": [ "INVALID" ],
  "TickGroup": "TG_PreAsyncWork",
  "Owner": null,
  "Base": null,
  "bUseOrthonormalizedLighting": false,
  "bStatic": true,
  "bHidden": true,
  "bNoDelete": true,
  "bDeleteMe": false,
  "bTicked": false,
  "bOnlyOwnerSee": false,
  "bTickIsDisabled": false,
  "bWorldGeometry": true,
  "bIgnoreRigidBodyPawns": false,
  "bOrientOnSlope": false,
  "bIgnoreEncroachers": false,
  "bPushedByEncroachers": true,
  "bRouteBeginPlayEvenIfStatic": true,
  "bIsMoving": false,
  "bAlwaysEncroachCheck": false,
  "bCanStepUpOn": true,
  "bNetTemporary": false,
  "bOnlyRelevantToOwner": false,
  "bNetDirty": false,
  "bAlwaysRelevant": true,
  "bReplicateInstigator": false,
  "bReplicateMovement": true,
  "bSkipRotationReplication": false,
  "bForceRotationReplication": false,
  "bSkipActorPropertyReplication": true,
  "bUpdateSimulatedPosition": false,
  "bTearOff": false,
  "bOnlyDirtyReplication": true,
  "bSkipHiddenReplication": false,
  "bAllowFluidSurfaceInteraction": true,
  "bDemoRecording": false,
  "bDemoOwner": false,
  "bForceDemoRelevant": false,
  "bNetInitialRotation": false,
  "bReplicateRigidBodyLocation": false,
  "bKillDuringLevelTransition": false,
  "bExchangedRoles": false,
  "bConsiderAllStaticMeshComponentsForStreaming": false,
  "bPostRenderIfNotVisible": false,
  "bForceNetUpdate": false,
  "bPendingNetUpdate": false,
  "bHardAttach": false,
  "bIgnoreBaseRotation": false,
  "bSkipAttachedMoves": true,
  "bHurtEntry": false,
  "bGameRelevant": true,
  "bMovable": false,
  "bDestroyInPainVolume": false,
  "bCanBeDamaged": false,
  "bShouldBaseAtStartup": false,
  "bPendingDelete": false,
  "bCanTeleport": false,
  "bAlwaysTick": false,
  "bBlocksNavigation": false,
  "bCanTarget": false,
  "bCanTargetCheat": false,
  "BlockRigidBody": false,
  "bCollideWhenPlacing": false,
  "bCollideActors": false,
  "bCollideWorld": false,
  "bCollideComplex": false,
  "bBlockActors": true,
  "bProjTarget": false,
  "bBlocksTeleport": false,
  "bProjectileMoveSingleBlocking": false,
  "bTraceListeners": false,
  "bIsBlockingMesh": false,
  "bIsWillowInteractiveObject": false,
  "bIgnoreRadiusDamageCheck": false,
  "bNoEncroachCheck": false,
  "bCollideAsEncroacher": false,
  "bPhysRigidBodyOutOfWorldCheck": false,
  "bComponentOutsideWorld": false,
  "bForceOctreeSNFilter": false,
  "bRigidBodyWasAwake": false,
  "bCallRigidBodyWakeEvents": false,
  "bBounce": false,
  "bJustTeleported": true,
  "bNetInitial": false,
  "bNetOwner": false,
  "bHiddenEd": false,
  "bEditable": true,
  "bHiddenEdLayer": false,
  "bHiddenEdTemporary": false,
  "bHiddenEdLevel": false,
  "bEdShouldSnap": false,
  "bTempEditor": false,
  "bPathColliding": false,
  "bPathTemp": false,
  "bScriptInitialized": true,
  "bLockLocation": false,
  "bForceAllowKismetModification": false,
  "bTraceIgnoreRigidBodyForPawns": false,
  "bAutoMovePlayerOnInterpActor": false,
  "bMoveActorDoZeroExtentTrace": false,
  "bDebugEffectIsRelevant": false,
  "bLoadIfPhysXLevel0": true,
  "bLoadIfPhysXLevel1": true,
  "bLoadIfPhysXLevel2": true,
  "NetTag": 0,
  "NetUpdateTime": 0.0,
  "NetUpdateFrequency": 10.0,
  "NetPriority": 1.0,
  "LastNetUpdateTime": 0.0,
  "Instigator": null,
  "WorldInfo": "Loader.TheWorld:PersistentLevel.WorldInfo_1",
  "LifeSpan": 0.0,
  "CreationTime": 0.0,
  "LastRenderTime": -3.4028234663852886e+38,
  "LatentFloat": 0.0,
  "PhysicsVolume": "Loader.TheWorld:PersistentLevel.DefaultPhysicsVolume_12",
  "Velocity": { "X": 0.0, "Y": 0.0, "Z": 0.0 },
  "Acceleration": { "X": 0.0, "Y": 0.0, "Z": 0.0 },
  "AngularVelocity": { "X": 0.0, "Y": 0.0, "Z": 0.0 },
  "BaseSkelComponent": null,
  "BaseBoneName": null,
  "RelativeLocation": { "X": 0.0, "Y": 0.0, "Z": 0.0 },
  "RelativeRotation": { "Pitch": 0, "Yaw": 0, "Roll": 0 },
  "CollisionComponent": null,
  "OverlapTag": 0,
  "RotationRate": { "Pitch": 0, "Yaw": 0, "Roll": 0 },
  "MostRecentDamageTaken": 0.0,
  "VfTableObject": "",
  "HashNext": "",
  "ObjectFlags": "",
  "HashOuterNext": "",
  "StateFrame": "",
  "Linker": null,
  "LinkerIndex": "",
  "ObjectInternalInteger": 218784,
  "NetIndex": 33399,
  "Outer": "caverns_p.TheWorld:PersistentLevel",
  "Name": "WorldInfo_2",
  "Class": "Engine.WorldInfo",
  "ObjectArchetype": "Engine.Default__WorldInfo"
}