{
  "DefaultPostProcessSettings": {
    "bOverride_EnableBloom": true,
    "bOverride_EnableDOF": true,
    "bOverride_EnableMotionBlur": true,
    "bOverride_EnableSceneEffect": true,
    "bOverride_AllowAmbientOcclusion": true,
    "bOverride_OverrideRimShaderColor": true,
    "bOverride_Bloom_Scale": true,
    "bOverride_Bloom_Threshold": true,
    "bOverride_Bloom_Tint": true,
    "bOverride_Bloom_ScreenBlendThreshold": true,
    "bOverride_Bloom_InterpolationDuration": true,
    "bOverride_DOF_FalloffExponent": true,
    "bOverride_DOF_BlurKernelSize": true,
    "bOverride_DOF_BlurBloomKernelSize": true,
    "bOverride_DOF_MaxNearBlurAmount": true,
    "bOverride_DOF_MinBlurAmount": false,
    "bOverride_DOF_MaxFarBlurAmount": true,
    "bOverride_DOF_FocusType": true,
    "bOverride_DOF_FocusInnerRadius": true,
    "bOverride_DOF_FocusDistance": true,
    "bOverride_DOF_FocusPosition": true,
    "bOverride_DOF_TunnelVisionScale": false,
    "bOverride_DOF_TunnelVisionYOffset": false,
    "bOverride_DOF_InterpolationDuration": true,
    "bOverride_DOF_BokehTexture": false,
    "bOverride_MotionBlur_MaxVelocity": false,
    "bOverride_MotionBlur_Amount": false,
    "bOverride_MotionBlur_FullMotionBlur": false,
    "bOverride_MotionBlur_CameraRotationThreshold": false,
    "bOverride_MotionBlur_CameraTranslationThreshold": false,
    "bOverride_MotionBlur_InterpolationDuration": false,
    "bOverride_Scene_Desaturation": true,
    "bOverride_Scene_Colorize": false,
    "bOverride_Scene_TonemapperScale": false,
    "bOverride_Scene_ImageGrainScale": false,
    "bOverride_Scene_HighLights": true,
    "bOverride_Scene_MidTones": true,
    "bOverride_Scene_Shadows": true,
    "bOverride_Scene_InterpolationDuration": true,
    "bOverride_Scene_ColorGradingLUT": false,
    "bOverride_RimShader_Color": true,
    "bOverride_RimShader_InterpolationDuration": true,
    "bEnableBloom": true,
    "bEnableDOF": false,
    "bTwoLayerSimpleDepthOfField": false,
    "bEnableMotionBlur": false,
    "bEnableSceneEffect": true,
    "bAllowAmbientOcclusion": true,
    "bOverrideRimShaderColor": false,
    "Bloom_Scale": 1.0,
    "Bloom_Threshold": 1.0,
    "Bloom_Tint": { "B": 255, "G": 255, "R": 255, "A": 0 },
    "Bloom_ScreenBlendThreshold": 10.0,
    "Bloom_InterpolationDuration": 1.0,
    "DOF_BlurBloomKernelSize": 16.0,
    "DOF_FalloffExponent": 4.0,
    "DOF_BlurKernelSize": 16.0,
    "DOF_MaxNearBlurAmount": 1.0,
    "DOF_MinBlurAmount": 0.0,
    "DOF_MaxFarBlurAmount": 1.0,
    "DOF_FocusType": "FOCUS_Distance",
    "DOF_FocusInnerRadius": 2000.0,
    "DOF_FocusDistance": 0.0,
    "DOF_FocusPosition": { "X": 0.0, "Y": 0.0, "Z": 0.0 },
    "DOF_TunnelVisionScale": 0.0,
    "DOF_TunnelVisionYOffset": 0.0,
    "DOF_InterpolationDuration": 1.0,
    "DOF_BokehTexture": null,
    "MotionBlur_MaxVelocity": 1.0,
    "MotionBlur_Amount": 0.5,
    "MotionBlur_FullMotionBlur": true,
    "MotionBlur_CameraRotationThreshold": 45.0,
    "MotionBlur_CameraTranslationThreshold": 10000.0,
    "MotionBlur_InterpolationDuration": 1.0,
    "Scene_Desaturation": 0.0,
    "Scene_Colorize": { "X": 1.0, "Y": 1.0, "Z": 1.0 },
    "Scene_TonemapperScale": 1.0,
    "Scene_ImageGrainScale": 0.0,
    "Scene_HighLights": { "X": 1.0, "Y": 1.0, "Z": 1.0 },
    "Scene_MidTones": { "X": 1.0, "Y": 1.0, "Z": 1.0 },
    "Scene_Shadows": { "X": 0.0, "Y": 0.0, "Z": 0.0 },
    "Scene_InterpolationDuration": 1.0,
    "RimShader_Color": {
      "R": 0.47044,
      "G": 0.585973,
      "B": 0.827726,
      "A": 1.0
    },
    "RimShader_InterpolationDuration": 1.0,
    "ColorGrading_LookupTable": null,
    "ColorGradingLUT": { "LUTTextures": null, "LUTWeights": null }
  },
  "WorldPostProcessChain": null,
  "bPersistPostProcessToNextLevel": true,
  "bFogEnabled": false,
  "bBumpOffsetEnabled": true,
  "bUseGammaCorrection": false,
  "bMapNeedsLightingFullyRebuilt": true,
  "bMapHasMultipleDominantLightsAffectingOnePrimitive": false,
  "bMapHasPathingErrors": false,
  "bRequestedBlockOnAsyncLoading": false,
  "bBegunPlay": false,
  "bPlayersOnly": false,
  "bPlayersOnlyPending": false,
  "bSuspendAI": false,
  "bStatusMenuOnly": false,
  "bDropDetail": false,
  "bAggressiveLOD": false,
  "bDontTickMind": false,
  "bStartup": false,
  "bPathsRebuilt": false,
  "bHasPathNodes": false,
  "bIsMenuLevel": false,
  "bDebugPauseExecution": false,
  "bDebugStepExecution": false,
  "bUseConsoleInput": false,
  "bNoDefaultInventoryForPlayer": false,
  "bNoPathWarnings": false,
  "bHighPriorityLoading": false,
  "bHighPriorityLoadingLocal": false,
  "bSupportDoubleBufferedPhysics": false,
  "bPhysicsIgnoreDeltaTime": false,
  "bEnableChanceOfPhysicsChunkOverride": false,
  "bLimitExplosionChunkSize": false,
  "bLimitDamageChunkSize": false,
  "bPrecomputeVisibility": false,
  "bPlaceCellsOnSurfaces": true,
  "bAllowTemporalAA": true,
  "bUseGlobalIllumination": false,
  "bForceNoPrecomputedLighting": false,
  "bAllowHostMigration": false,
  "bAssertOnGBXCheck": false,
  "bSupportsTimeOfDay": false,
  "SquintModeKernelSize": 128.0,
  "ShadowmapStreamingFactorMultiplier": 1.0,
  "HighestPriorityPostProcessVolume": null,
  "DefaultReverbSettings": {
    "bApplyReverb": true,
    "ReverbType": "REVERB_Default",
    "Volume": 0.5,
    "FadeTime": 2.0,
    "ReflectionsDelayOverride": -1.0,
    "LateDelayOverride": -1.0,
    "DecayHighFrequencyRatioOverride": -1.0
  },
  "DefaultAmbientZoneSettings": {
    "bIsWorldInfo": true,
    "ExteriorVolume": 1.0,
    "ExteriorTime": 0.5,
    "ExteriorLPF": 1.0,
    "ExteriorLPFTime": 0.5,
    "InteriorVolume": 1.0,
    "InteriorTime": 0.5,
    "InteriorLPF": 1.0,
    "InteriorLPFTime": 0.5
  },
  "FogStart": 400.0,
  "FogEnd": 4000.0,
  "FogColor": { "B": 255, "G": 128, "R": 128, "A": 192 },
  "BumpEnd": 1000.0,
  "HighestPriorityReverbVolume": null,
  "WorldSoundManager": null,
  "LastTimeUnbuiltLightingWasEncountered": "",
  "TimeDilation": 1.0,
  "DemoPlayTimeDilation": 1.0,
  "TimeSeconds": 0.0,
  "RealTimeSeconds": 0.0,
  "AudioTimeSeconds": 0.0,
  "DeltaSeconds": 0.0,
  "PauseDelay": 0.0,
  "RealTimeToUnPause": 0.0,
  "Pauser": null,
  "DefaultTexture": "EngineResources.DefaultTexture",
  "WireframeTexture": null,
  "WhiteSquareTexture": "EngineResources.WhiteSquareTexture",
  "LargeVertex": null,
  "BSPVertex": null,
  "GRI": null,
  "NetMode": "NM_Standalone",
  "NextTravelType": "TRAVEL_Relative",
  "VisibilityAggressiveness": "VIS_LeastAggressive",
  "LevelLightingQuality": "Quality_Production",
  "ComputerName": "",
  "EngineVersion": "",
  "MinNetVersion": "",
  "Game": null,
  "StallZ": 1000000.0,
  "WorldGravityZ": 0.0,
  "DefaultGravityZ": -500.0,
  "GlobalGravityZ": 0.0,
  "RBPhysicsGravityScaling": 1.0,
  "NavigationPointList": null,
  "ControllerList": null,
  "PawnList": null,
  "CoverList": null,
  "PylonList": null,
  "NavMeshList": null,
  "MoveRepSize": 42.0,
  "NextURL": "",
  "NextSwitchCountdown": 0.0,
  "PackedLightAndShadowMapTextureSize": 1024,
  "DefaultColorScale": { "X": 1.0, "Y": 1.0, "Z": 1.0 },
  "DefaultGameType": null,
  "CommittedPersistentLevel": null,
  "PersistentMapForcedObjects": null,
  "Title": "",
  "Author": "",
  "MyMapInfo": null,
  "EmitterPoolClassPath": "WillowGame.WillowEmitterPool",
  "MyEmitterPool": null,
  "DecalManagerClassPath": "Engine.DecalManager",
  "MyDecalManager": null,
  "ParticleEventManagerClassPath": "",
  "MyParticleEventManager": null,
  "ParentLoader": "",
  "MaxPhysicsDeltaTime": 0.333333,
  "MaxPhysicsSubsteps": 5,
  "PhysicsProperties": {
    "PrimaryScene": {
      "bUseHardware": false,
      "bFixedTimeStep": false,
      "TimeStep": 0.02,
      "MaxSubSteps": 5
    },
    "CompartmentRigidBody": {
      "bUseHardware": false,
      "bFixedTimeStep": false,
      "TimeStep": 0.02,
      "MaxSubSteps": 2
    },
    "CompartmentFluid": {
      "bUseHardware": true,
      "bFixedTimeStep": false,
      "TimeStep": 0.02,
      "MaxSubSteps": 1
    },
    "CompartmentCloth": {
      "bUseHardware": true,
      "bFixedTimeStep": true,
      "TimeStep": 0.02,
      "MaxSubSteps": 2
    },
    "CompartmentSoftBody": {
      "bUseHardware": true,
      "bFixedTimeStep": true,
      "TimeStep": 0.02,
      "MaxSubSteps": 2
    }
  },
  "DefaultSkinWidth": 0.025,
  "ApexLODResourceBudget": -1.0,
  "DestructibleSettings": {
    "MaxChunkIslandCount": -1,
    "MaxRrbActorCount": -1,
    "MaxChunkSeparationLOD": 1.0,
    "bOverrideMaxChunkSeparationLOD": false
  },
  "EmitterVertical": "Engine.Default__WorldInfo:PhysicsLODVerticalEmitter0",
  "VerticalProperties": {
    "Emitters": {
      "bDisableLod": true,
      "ParticlesLodMin": 0,
      "ParticlesLodMax": 15000,
      "PacketsPerPhysXParticleSystemMax": 500,
      "bApplyCylindricalPacketCulling": true,
      "SpawnLodVsFifoBias": 1.0
    }
  },
  "ChanceOfPhysicsChunkOverride": 1.0,
  "MaxExplosionChunkSize": 0.0,
  "MaxDamageChunkSize": 0.0,
  "FractureExplosionVelScale": 1.0,
  "MaxNumFacturedChunksToSpawnInAFrame": 12,
  "NumFacturedChunksSpawnedThisFrame": 0,
  "FracturedMeshWeaponDamage": 1.0,
  "VisibilityCellSize": 200,
  "CharacterLitIndirectBrightness": 1.0,
  "CharacterLitIndirectContrastFactor": 1.0,
  "CharacterShadowedIndirectBrightness": 1.0,
  "CharacterShadowedIndirectContrastFactor": 1.0,
  "CharacterLightingContrastFactor": 1.5,
  "ScreenMessages": "",
  "LightmassSettings": {
    "StaticLightingLevelScale": 1.0,
    "NumIndirectLightingBounces": 3,
    "EnvironmentColor": { "B": 0, "G": 0, "R": 0, "A": 0 },
    "EnvironmentIntensity": 1.0,
    "EmissiveBoost": 1.0,
    "DiffuseBoost": 5.0,
    "SpecularBoost": 1.0,
    "IndirectNormalInfluenceBoost": 0.3,
    "bUseAmbientOcclusion": false,
    "DirectIlluminationOcclusionFraction": 0.5,
    "IndirectIlluminationOcclusionFraction": 1.0,
    "OcclusionExponent": 1.0,
    "FullyOccludedSamplesFraction": 1.0,
    "MaxOcclusionDistance": 200.0,
    "bVisualizeMaterialDiffuse": false,
    "bVisualizeAmbientOcclusion": false,
    "bCompressShadowmap": false
  },
  "NavMeshPathConstraintCache": "",
  "NavMeshPathGoalEvaluatorCache": "",
  "PeerHostMigration": {
    "HostMigrationProgress": "HostMigration_None",
    "HostMigrationElapsedTime": 0.0,
    "HostMigrationTravelCountdown": 0.0,
    "HostMigrationTravelURL": null,
    "bHostMigrationEnabled": false
  },
  "HostMigrationTimeout": 15.0,
  "HoldingCell": null,
  "PersonalTeleporterDestination": null,
  "PersonalReturnTeleporterLocation": null,
  "CommonsLevelName": null,
  "TeleporterPlacedEventName": null,
  "CombatMusic": null,
  "GBXCheckDisplayDuration": 10,
  "ClientDestroyedActorContent": [
    "Common_Meshes.Blocking.BlockingMeshReplicated_Plane",
    "Engine.Default__MaterialInstanceConstant", "Engine.Default__PylonSeed",
    "WillowGame.Default__WillowInteractiveObject",
    "GD_ChainLink.IO_ChainLink", "Engine.Default__CylinderComponent",
    "Engine.Default__StaticMeshComponent", "Prop_Tools.ChainLink",
    "Engine.Default__DynamicLightEnvironmentComponent",
    "WillowGame.Default__PopulationOpportunityDen",
    "GD_Balance.PlayerCountFormulas.Formula_Add1PerAdditionalPlayer",
    "GD_Population_Skag.Population.PopDef_SkagMix_Regular",
    "GD_GameStages.Zone1.Ice_B",
    "GD_Balance.PlayerCountFormulas.Formula_Add1IfAtLeast1MorePlayer",
    "GD_Population_Bandit.Population.PopDef_BanditMix_Ice",
    "GD_Balance.PlayerCountFormulas.Formula_Add2In2PlayerAnd3In4Player",
    "WillowGame.Default__MissionPopulationAspect",
    "GD_Z1_NoVacancy.BalanceDefs.M_NoVacancy:NoVacancy_KillSkags",
    "GearboxFramework.Default__PopulationOpportunityPoint",
    "GD_ElementalPlants.Populations.Pop_ShockCactus",
    "Engine.Default__SocketComponent",
    "Engine.Default__ParticleSystemComponent",
    "FX_CREA_Skag.Particles.shock.Part_Shock_Projectile_MouthSpit",
    "Prop_Trees.Mesh.StactusBranch", "Prop_Trees.Mesh.Stactus",
    "GD_ElementalPlants.Materials.Mati_CactusShockOn",
    "GD_GameSystemMachines.InteractiveObjects.BountyBoard",
    "Frost_Dynamic.TheWorld:PersistentLevel.WillowInteractiveObject_32.MissionDirectivesDefinition_0",
    "Prop_Machines.Meshes.TransitionerProjector",
    "Engine.Default__PointLightComponent", "prop_doors.LevelTransitioner",
    "prop_interactive.Materials.Mat_Transporter",
    "Char_ClapTrap.Materials.Mati_ClapTrapLensTeal",
    "prop_signs.BountyBoardIcon", "prop_interactive.Meshes.Bulletinboard_01",
    "WillowGame.Default__MissionDirectivesDefinition",
    "gd_z3_neitherrainsleet.M_NeitherRainSleetSkags",
    "GD_Z1_NoVacancy.BalanceDefs.M_NoVacancy",
    "GD_Z1_IceManCometh.M_IceManCometh",
    "GD_Z3_NeitherRainSleetData.InteractiveObjects.NeitherRainSleetSkags_Mailbox",
    "Engine.Default__SkeletalMeshComponent",
    "Prop_Lootables_02.Meshes.Skel_Mailbox",
    "Anim_Lootables.Animations.AnimTree_Lootable",
    "Prop_Lootables_02.PhAT.Phat_Mailbox",
    "Anim_Lootables.Animations.Anim_Mailbox", "Prop_Details.Meshes.Packet",
    "GD_Population_Nomad.Population.Unique.PopDef_MrMercy",
    "GD_Z3_MedicalMystery.M_MedicalMystery:KillBandit",
    "WillowGame.Default__WillowMissionPickupSpawner",
    "GD_Z1_InMemoriamData.ItemDefs.ID_MO_InMemoriam_DeadDropEcho",
    "prop_interactive.Meshes.DataRecorder_01_Active",
    "GD_Population_Shopping.VendingMachine.VendingMachine_HealthItems",
    "Prop_VendingMachines.Meshes.Skel_WeaponVendingMachine",
    "GD_Balance_Shopping.Misc.AnimTree_VendingMachine",
    "Prop_VendingMachines.PhAT.Phat_WeaponVendingMachine",
    "Anim_VendingMachines.Animations.Anim_WeaponVendingMachine",
    "Prop_VendingMachines.Materials.Mati_ZedVendingMachine",
    "Prop_VendingMachines.Materials.Mati_ZedVendingFaceplate",
    "Common_Materials.Hyperion.Master_HyperionEye_INST",
    "GD_Population_Shopping.VendingMachine.VendingMachine_GrenadesAndAmmo",
    "Prop_VendingMachines.Materials.Mati_AmmoVendingMachine",
    "Prop_VendingMachines.Materials.Mati_AmmoVendingFaceplate",
    "GD_Population_Treasure.Lootables.Dumpster",
    "Prop_Lootables.Meshes.Skel_Dumpster",
    "Anim_Lootables.Animations.AnimTree_Lootables_Willow",
    "Prop_Lootables.PhAT.Phat_Dumpster",
    "Anim_Lootables.Animations.Anim_Dumpster",
    "GD_Population_Treasure.Lootables.CashBox",
    "Prop_Lootables_02.Textures.Skel_CashBox",
    "Anim_Lootables.Animations.Anim_CashBox",
    "GD_Population_Treasure.Lootables.ScrapPile",
    "Prop_Lootables_02.Meshes.AlienPile",
    "Prop_Lootables_02.PhAT.Phat_JunkPile",
    "Anim_Lootables.Animations.Anim_JunkPile",
    "FX_ENV_Insects.Particles.Part_Insects01_Flying",
    "FX_CREA_Skag.Particles.Shared.Part_Skag_Pile_Smoke",
    "GD_GameStages.Zone1.Ice_A",
    "GD_Population_Shopping.VendingMachine.VendingMachine_Weapons",
    "Prop_VendingMachines.Materials.Mati_MarcusVendingMachine",
    "Prop_VendingMachines.Materials.Mati_MarcusVendingFaceplate",
    "GD_Population_Treasure.Lootables.Storage_Locker",
    "GD_GameStages.Zone1.Ice_C",
    "Prop_Lootables_02.Meshes.Skel_StorageLocker",
    "Prop_Lootables_02.PhAT.Phat_StorageLocker",
    "Anim_Lootables.Animations.Anim_StorageLocker",
    "GD_Population_Treasure.Lootables.Refrigerator",
    "Prop_Lootables_02.Meshes.Skel_MiniFridge",
    "Prop_Lootables_02.Meshes.Phat_MiniFridge",
    "Anim_Lootables.Animations.Anim_MiniFridge",
    "GD_Population_Treasure.TreasureChests.WeaponChest_White",
    "Prop_Lootables.Meshes.Skel_MetalCrate",
    "Prop_Lootables.PhAT.Phat_MetalCrate",
    "Anim_Lootables.Animations.Anim_MetalCrate",
    "GearboxFramework.Default__PopulationOpportunityArea",
    "GD_Population_Treasure.Lootables.SkagPile",
    "GD_Population_Treasure.Lootables.Dahl_SmallBox",
    "Prop_Lootables.Meshes.Skel_DahlMisc3",
    "Prop_Lootables.PhAT.Phat_DahlMisc3", "Anim_Lootables.Anim_DahlMisc3",
    "WillowGame.Default__WillowPopulationOpportunityPoint",
    "GD_Population_Treasure.Lootables.StrongBox",
    "Prop_Lootables_02.Meshes.Skel_StrongBox",
    "Prop_Lootables_02.PhAT.Phat_StrongBox",
    "Anim_Lootables.Animations.Anim_StrongBox",
    "GD_Explosives.Populations.Pop_BarrelMixture",
    "WillowGame.Default__WillowDialogEchoActor",
    "GD_Population_Treasure.Lootables.Dahl_Ammo",
    "GD_GameStages.Zone1.Ice_D", "Prop_Lootables.Meshes.Skel_DahlChest_Ammo",
    "Prop_Lootables.PhAT.Phat_DahlChest_Ammo",
    "Anim_Lootables.Animations.Anim_DahlChest_Ammo",
    "GD_SteamPump.IO_SteamPumpMedium",
    "Prop_SteamPower.Meshes.SteamPowerPiston",
    "Anim_SteamPower.AnimeTree_SteamPump",
    "Prop_SteamPower.PhAT.Phat_SteamPower",
    "Anim_SteamPower.Anim_SteamPower",
    "Prop_SteamPower.Materials.Mati_SteamPower",
    "Prop_Pipes.Meshes.IndustrialPipeLarge256",
    "Prop_SteamPower.Meshes.SteamPowerBase",
    "GD_Z1_NoVacancyData.IO_NoVacancy_Ladder",
    "Prop_Ladders.Meshes.MetalLadder", "GD_SteamPump.IO_SteamPumpSlow",
    "Prop_SteamPower.Materials.Mati_SteamPowerOrange",
    "FX_GOR_SpecialUse.PhatAssets.Skel_SkagPile",
    "FX_GOR_SpecialUse.PhatAssets.Phat_SkagPile",
    "Anim_Lootables.Animations.Anim_SkagPile",
    "GD_SteamPump.IO_SteamPumpFast",
    "GD_Population_PrimalBeast.Population.PopDef_PrimalBeast_Badass",
    "GD_Z1_NoVacancy.BalanceDefs.M_NoVacancy:NoVacancy_FindPart3",
    "GD_Z1_NoVacancy.BalanceDefs.M_NoVacancy:NoVacancy_KillPrimalBeast",
    "Env_Lynchwood.InteractiveObjects.IO_Blank",
    "GD_Z1_NoVacancyData.IO_NoVacancy_TurbineRepair2",
    "GD_Z1_NoVacancyData.IO_NoVacancy_PartDoor",
    "Prop_Windows.Meshes.PrisonWindowLrg_02",
    "Prop_Crate.Meshes.LongContainerDoor",
    "Prop_Switches.Meshes.SwitchHandle",
    "GD_Z1_NoVacancyData.IO_NoVacancy_TurbineRepair1",
    "GD_Z1_NoVacancyData.IO_NoVacancy_PartDoorRepair",
    "GD_Z1_NoVacancyData.IO_NoVacancy_TurbineRepair3",
    "GD_Balance.PlayerCountFormulas.Formula_AddOneIn2PlayerAndTwoIn4Player",
    "GD_Z1_NoVacancy.BalanceDefs.M_NoVacancy:NoVacancy_FindPart1",
    "GD_Population_Treasure.TreasureChests.WeaponChest_Dahl",
    "Prop_Lootables.Meshes.Skel_Dahl_WeaponLocker",
    "Prop_Lootables.PhAT.Phat_Dahl_WeaponLocker",
    "Anim_Lootables.Anim_Dahl_WeaponLocker",
    "FX_ENV_InteractiveObjects.Particles.Chest.Part_ChestDust",
    "WillowGame.Default__WillowMissionPickupFailsafe",
    "GD_Z1_Assasinate.M_AssasinateTheAssassins:MO_KillAssassin1",
    "GD_Z1_Assasinate.M_AssasinateTheAssassins:KillAssassin1Set",
    "GD_Z1_AssasinateData.ItemDefs.ID_MO_AssasinEcho",
    "GD_Z1_NoVacancyData.ItemDefs.ID_MD_NoVacancy_MissionGiver",
    "GD_GenericSwitches.InteractiveObjects.GenericWheel",
    "Prop_Wheel.Meshes.WheelBase", "Prop_Wheel.Materials.Mati_Wheel_Dim",
    "Prop_Wheel.Meshes.Wheel", "Prop_Wheel.Materials.Mati_Wheel_Disabled",
    "GD_GenericSwitches.InteractiveObjects.GenericButton",
    "Frost_Dynamic.TheWorld:PersistentLevel.WillowInteractiveObject_214.MissionDirectivesDefinition_0",
    "Prop_Switches.Meshes.ButtonRed",
    "Prop_Switches.Materials.Mati_Button_Dim",
    "Prop_Switches.Meshes.ButtonGreen", "Prop_Switches.Meshes.Button",
    "GD_Episode08.M_Ep8_SanctuaryTakesOff",
    "GD_Z3_NeitherRainSleetData.ItemDefs.ID_MO_NeitherRainSleet_Deliveries",
    "Prop_Garbage.Meshes.CardboardBoxes",
    "GD_Population_Psycho.Population.PopDef_Psycho",
    "GD_Z3_MedicalMysteryData.ItemDefs.ID_MO_MedicalMystery_AlienGun",
    "Prop_Weapons.Meshes.SledgeHammer",
    "GD_Z1_NoVacancyData.ItemPool.IP_MO_NoVacancy_Part2",
    "GD_Population_Treasure.Lootables.BanditAmmo",
    "Prop_Lootables.Meshes.Skel_BanditAmmo",
    "Prop_Lootables.PhAT.Phat_BanditAmmo", "Anim_Lootables.Anim_BanditAmmo",
    "GD_Population_Nomad.Population.PopDef_NomadBadass",
    "GD_Population_Psycho.Population.PopDef_PsychoBadass",
    "Prop_Barrels.Meshes.MetalBarrel",
    "Prop_Barrels.Materials.Mati_MetalBarrelAmp",
    "GD_Population_Nomad.Population.PopDef_BadMaw",
    "GD_Episode06.M_Ep6_RescueRoland:DefeatGateGuard",
    "GD_Episode06Data.ItemPool.IP_BloodshotBridgeKey",
    "GD_Z3_MedicalMysteryData.ItemDefs.MedicalMystery_TurnInObject",
    "Frost_Dynamic.TheWorld:PersistentLevel.WillowInteractiveObject_413.MissionDirectivesDefinition_0",
    "GD_Z3_MedicalMystery.M_MedicalMystery",
    "GD_Z3_MedicalMystery2.M_MedicalMystery2",
    "GD_Population_Treasure.TreasureChests.EpicChest_Bandit",
    "Prop_Lootables.Meshes.Skel_EpicBanditLocker",
    "Prop_Lootables.PhAT.Phat_EpicBanditLocker",
    "Anim_Lootables.Animations.Anim_EpicBanditLocker",
    "GD_Population_Treasure.Lootables.BanditGasTank",
    "Prop_Lootables.Meshes.Bandit_Misc4",
    "GD_Population_Treasure.Lootables.Mailbox_Bandit",
    "Prop_Lootables.Meshes.Skel_Bandit_Misc2",
    "Prop_Lootables.PhAT.Phat_Bandit_Misc2",
    "Anim_Lootables.Anim_Bandit_Misc2",
    "WillowGame.Default__WillowPopulationEncounter",
    "GD_Population_Treasure.Lootables.Dahl_Cooler",
    "Prop_Lootables.Meshes.Skel_DahlMisc1",
    "Prop_Lootables.PhAT.Phat_DahlMisc1", "Anim_Lootables.Anim_DahlMisc1",
    "GD_Episode06Data.IO_Ep6_DrawBridgeWidget", "prop_dams.Mesh.HeadTotem",
    "GD_Population_Treasure.Lootables.BanditCooler",
    "Prop_Lootables.Meshes.Skel_Bandit_Misc1",
    "Prop_Lootables.PhAT.Phat_Bandit_Misc1",
    "Anim_Lootables.Animations.Anim_Bandit_Misc1",
    "GD_Population_Rakk.Population.PopDef_Rakk",
    "GD_LevelChallenges.InteractiveObjects.IO_VaultRoy",
    "GD_Challenges.LevelChallenges.Frost_VaultRoy",
    "Common_Meshes.BasePlane_256x128_Col",
    "GD_LevelChallenges.Materials.VaultRoy_INST",
    "GD_Z1_IceManComethData.InteractiveObject.IO_DynamiteBox",
    "Prop_Crate.Meshes.AmmoCrate", "Prop_Crate.Materials.Mati_AmmoCrate",
    "Prop_Weapons.Dynamite",
    "GD_LevelChallenges.InteractiveObjects.IO_HappyPigSteamVent",
    "Prop_Craters.Meshes.WormSquidCrater",
    "Env_Ice.Materials.Mati_DarkDirtCrater",
    "FX_InteractiveObjects.Particles.Part_Steam_Vent_HappyPig",
    "Prop_Glacier.Materials.Mati_GlacierRocks2XNoSnow",
    "GD_Z1_NoVacancyData.BalanceDefs.ID_MO_NoVacancy_Part3",
    "Prop_Electrical.Meshes.Fuse_Box_01",
    "GD_Population_Marauder.Population.PopDef_MarauderGrunt",
    "GD_Population_Vehicles.Population.PopDef_BanditTurret",
    "GD_Episode06.M_Ep6_RescueRoland:PickUpGateKey",
    "GD_Episode06Data.ItemDefs.ID_BloodshotBridgeKey",
    "prop_dams.Meshes.BulletKey",
    "GD_Population_Treasure.Lootables.CrystalPile_1",
    "GD_Balance_Treasure.HitRegion.HitRegion_CrystalPileCrystal3",
    "GD_InteractionIcons.Default.Icon_DefaultSmash",
    "GD_Balance_Treasure.HitRegion.HitRegion_CrystalPileCrystal2",
    "GD_Balance_Treasure.HitRegion.HitRegion_CrystalPileCrystal",
    "Char_Crystalisk.Crystalisk_Crystal_Leg",
    "Char_Crystalisk.Materials.Mati_Crystalisk",
    "Char_Crystalisk.Crystalisk_Crystal_Main",
    "Char_Crystalisk.Materials.Mati_CrystalsLeg_Explosive",
    "GD_Z3_MedicalMysteryData.MedicalMystery_MercyBody",
    "Char_Nomad.Mesh.Skel_Nomad",
    "GD_NomadShared.Character.AnimTree_NomadShared", "Anim_Nomad.Base_Nomad",
    "GD_Z3_MedicalMystery2.M_MedicalMystery2:KillBandits",
    "Common_Meshes.Blocking.BlockingMeshReplicated_Cube"
  ],
  "KillZ": -262143.0,
  "SoftKill": 2500.0,
  "KillZDamageType": "Engine.KillZDamageType",
  "bSoftKillZ": false,
  "VfTable_IIWorldBody": "",
  "VfTable_IISpawnActor": "",
  "VfTable_IIDamageCauser": "",
  "Location": { "X": 0.0, "Y": 0.0, "Z": 0.0 },
  "Rotation": { "Pitch": 0, "Yaw": 0, "Roll": 0 },
  "DrawScale": 1.0,
  "DrawScale3D": { "X": 1.0, "Y": 1.0, "Z": 1.0 },
  "PrePivot": { "X": 0.0, "Y": 0.0, "Z": 0.0 },
  "DetachFence": "",
  "CustomTimeDilation": 1.0,
  "Physics": "PHYS_None",
  "RemoteRole": "ROLE_SimulatedProxy",
  "Role": "ROLE_Authority",
  "CollisionType": "COLLIDE_NoCollision",
  "ReplicatedCollisionType": [ "INVALID" ],
  "TickGroup": "TG_PreAsyncWork",
  "Owner": null,
  "Base": null,
  "bUseOrthonormalizedLighting": false,
  "bStatic": true,
  "bHidden": true,
  "bNoDelete": true,
  "bDeleteMe": false,
  "bTicked": false,
  "bOnlyOwnerSee": false,
  "bTickIsDisabled": false,
  "bWorldGeometry": true,
  "bIgnoreRigidBodyPawns": false,
  "bOrientOnSlope": false,
  "bIgnoreEncroachers": false,
  "bPushedByEncroachers": true,
  "bRouteBeginPlayEvenIfStatic": true,
  "bIsMoving": false,
  "bAlwaysEncroachCheck": false,
  "bCanStepUpOn": true,
  "bNetTemporary": false,
  "bOnlyRelevantToOwner": false,
  "bNetDirty": false,
  "bAlwaysRelevant": true,
  "bReplicateInstigator": false,
  "bReplicateMovement": true,
  "bSkipRotationReplication": false,
  "bForceRotationReplication": false,
  "bSkipActorPropertyReplication": true,
  "bUpdateSimulatedPosition": false,
  "bTearOff": false,
  "bOnlyDirtyReplication": true,
  "bSkipHiddenReplication": false,
  "bAllowFluidSurfaceInteraction": true,
  "bDemoRecording": false,
  "bDemoOwner": false,
  "bForceDemoRelevant": false,
  "bNetInitialRotation": false,
  "bReplicateRigidBodyLocation": false,
  "bKillDuringLevelTransition": false,
  "bExchangedRoles": false,
  "bConsiderAllStaticMeshComponentsForStreaming": false,
  "bPostRenderIfNotVisible": false,
  "bForceNetUpdate": false,
  "bPendingNetUpdate": false,
  "bHardAttach": false,
  "bIgnoreBaseRotation": false,
  "bSkipAttachedMoves": true,
  "bHurtEntry": false,
  "bGameRelevant": true,
  "bMovable": false,
  "bDestroyInPainVolume": false,
  "bCanBeDamaged": false,
  "bShouldBaseAtStartup": false,
  "bPendingDelete": false,
  "bCanTeleport": false,
  "bAlwaysTick": false,
  "bBlocksNavigation": false,
  "bCanTarget": false,
  "bCanTargetCheat": false,
  "BlockRigidBody": false,
  "bCollideWhenPlacing": false,
  "bCollideActors": false,
  "bCollideWorld": false,
  "bCollideComplex": false,
  "bBlockActors": true,
  "bProjTarget": false,
  "bBlocksTeleport": false,
  "bProjectileMoveSingleBlocking": false,
  "bTraceListeners": false,
  "bIsBlockingMesh": false,
  "bIsWillowInteractiveObject": false,
  "bIgnoreRadiusDamageCheck": false,
  "bNoEncroachCheck": false,
  "bCollideAsEncroacher": false,
  "bPhysRigidBodyOutOfWorldCheck": false,
  "bComponentOutsideWorld": false,
  "bForceOctreeSNFilter": false,
  "bRigidBodyWasAwake": false,
  "bCallRigidBodyWakeEvents": false,
  "bBounce": false,
  "bJustTeleported": true,
  "bNetInitial": false,
  "bNetOwner": false,
  "bHiddenEd": true,
  "bEditable": true,
  "bHiddenEdLayer": false,
  "bHiddenEdTemporary": false,
  "bHiddenEdLevel": false,
  "bEdShouldSnap": false,
  "bTempEditor": false,
  "bPathColliding": false,
  "bPathTemp": false,
  "bScriptInitialized": true,
  "bLockLocation": false,
  "bForceAllowKismetModification": false,
  "bTraceIgnoreRigidBodyForPawns": false,
  "bAutoMovePlayerOnInterpActor": false,
  "bMoveActorDoZeroExtentTrace": false,
  "bDebugEffectIsRelevant": false,
  "bLoadIfPhysXLevel0": true,
  "bLoadIfPhysXLevel1": true,
  "bLoadIfPhysXLevel2": true,
  "NetTag": 0,
  "NetUpdateTime": 0.0,
  "NetUpdateFrequency": 10.0,
  "NetPriority": 1.0,
  "LastNetUpdateTime": 0.0,
  "Instigator": null,
  "WorldInfo": "Loader.TheWorld:PersistentLevel.WorldInfo_1",
  "LifeSpan": 0.0,
  "CreationTime": 0.0,
  "LastRenderTime": -3.4028234663852886e+38,
  "LatentFloat": 0.0,
  "PhysicsVolume": "Loader.TheWorld:PersistentLevel.DefaultPhysicsVolume_64",
  "Velocity": { "X": 0.0, "Y": 0.0, "Z": 0.0 },
  "Acceleration": { "X": 0.0, "Y": 0.0, "Z": 0.0 },
  "AngularVelocity": { "X": 0.0, "Y": 0.0, "Z": 0.0 },
  "BaseSkelComponent": null,
  "BaseBoneName": null,
  "RelativeLocation": { "X": 0.0, "Y": 0.0, "Z": 0.0 },
  "RelativeRotation": { "Pitch": 0, "Yaw": 0, "Roll": 0 },
  "CollisionComponent": null,
  "OverlapTag": 0,
  "RotationRate": { "Pitch": 0, "Yaw": 0, "Roll": 0 },
  "MostRecentDamageTaken": 0.0,
  "VfTableObject": "",
  "HashNext": "",
  "ObjectFlags": "",
  "HashOuterNext": "",
  "StateFrame": "",
  "Linker": null,
  "LinkerIndex": "",
  "ObjectInternalInteger": 202160,
  "NetIndex": 9889,
  "Outer": "Frost_Dynamic.TheWorld:PersistentLevel",
  "Name": "WorldInfo_3",
  "Class": "Engine.WorldInfo",
  "ObjectArchetype": "Engine.Default__WorldInfo"
}