{
  "DefaultPostProcessSettings": {
    "bOverride_EnableBloom": true,
    "bOverride_EnableDOF": true,
    "bOverride_EnableMotionBlur": true,
    "bOverride_EnableSceneEffect": true,
    "bOverride_AllowAmbientOcclusion": true,
    "bOverride_OverrideRimShaderColor": true,
    "bOverride_Bloom_Scale": true,
    "bOverride_Bloom_Threshold": true,
    "bOverride_Bloom_Tint": true,
    "bOverride_Bloom_ScreenBlendThreshold": true,
    "bOverride_Bloom_InterpolationDuration": true,
    "bOverride_DOF_FalloffExponent": true,
    "bOverride_DOF_BlurKernelSize": true,
    "bOverride_DOF_BlurBloomKernelSize": true,
    "bOverride_DOF_MaxNearBlurAmount": true,
    "bOverride_DOF_MinBlurAmount": false,
    "bOverride_DOF_MaxFarBlurAmount": true,
    "bOverride_DOF_FocusType": true,
    "bOverride_DOF_FocusInnerRadius": true,
    "bOverride_DOF_FocusDistance": true,
    "bOverride_DOF_FocusPosition": true,
    "bOverride_DOF_TunnelVisionScale": false,
    "bOverride_DOF_TunnelVisionYOffset": false,
    "bOverride_DOF_InterpolationDuration": true,
    "bOverride_DOF_BokehTexture": false,
    "bOverride_MotionBlur_MaxVelocity": false,
    "bOverride_MotionBlur_Amount": false,
    "bOverride_MotionBlur_FullMotionBlur": false,
    "bOverride_MotionBlur_CameraRotationThreshold": false,
    "bOverride_MotionBlur_CameraTranslationThreshold": false,
    "bOverride_MotionBlur_InterpolationDuration": false,
    "bOverride_Scene_Desaturation": true,
    "bOverride_Scene_Colorize": false,
    "bOverride_Scene_TonemapperScale": false,
    "bOverride_Scene_ImageGrainScale": false,
    "bOverride_Scene_HighLights": true,
    "bOverride_Scene_MidTones": true,
    "bOverride_Scene_Shadows": true,
    "bOverride_Scene_InterpolationDuration": true,
    "bOverride_Scene_ColorGradingLUT": false,
    "bOverride_RimShader_Color": true,
    "bOverride_RimShader_InterpolationDuration": true,
    "bEnableBloom": true,
    "bEnableDOF": false,
    "bTwoLayerSimpleDepthOfField": false,
    "bEnableMotionBlur": false,
    "bEnableSceneEffect": true,
    "bAllowAmbientOcclusion": true,
    "bOverrideRimShaderColor": false,
    "Bloom_Scale": 1.0,
    "Bloom_Threshold": 1.0,
    "Bloom_Tint": { "B": 255, "G": 255, "R": 255, "A": 0 },
    "Bloom_ScreenBlendThreshold": 10.0,
    "Bloom_InterpolationDuration": 1.0,
    "DOF_BlurBloomKernelSize": 16.0,
    "DOF_FalloffExponent": 4.0,
    "DOF_BlurKernelSize": 16.0,
    "DOF_MaxNearBlurAmount": 1.0,
    "DOF_MinBlurAmount": 0.0,
    "DOF_MaxFarBlurAmount": 1.0,
    "DOF_FocusType": "FOCUS_Distance",
    "DOF_FocusInnerRadius": 2000.0,
    "DOF_FocusDistance": 0.0,
    "DOF_FocusPosition": { "X": 0.0, "Y": 0.0, "Z": 0.0 },
    "DOF_TunnelVisionScale": 0.0,
    "DOF_TunnelVisionYOffset": 0.0,
    "DOF_InterpolationDuration": 1.0,
    "DOF_BokehTexture": null,
    "MotionBlur_MaxVelocity": 1.0,
    "MotionBlur_Amount": 0.5,
    "MotionBlur_FullMotionBlur": true,
    "MotionBlur_CameraRotationThreshold": 45.0,
    "MotionBlur_CameraTranslationThreshold": 10000.0,
    "MotionBlur_InterpolationDuration": 1.0,
    "Scene_Desaturation": 0.0,
    "Scene_Colorize": { "X": 1.0, "Y": 1.0, "Z": 1.0 },
    "Scene_TonemapperScale": 1.0,
    "Scene_ImageGrainScale": 0.0,
    "Scene_HighLights": { "X": 1.0, "Y": 1.0, "Z": 1.0 },
    "Scene_MidTones": { "X": 1.0, "Y": 1.0, "Z": 1.0 },
    "Scene_Shadows": { "X": 0.0, "Y": 0.0, "Z": 0.0 },
    "Scene_InterpolationDuration": 1.0,
    "RimShader_Color": {
      "R": 0.47044,
      "G": 0.585973,
      "B": 0.827726,
      "A": 1.0
    },
    "RimShader_InterpolationDuration": 1.0,
    "ColorGrading_LookupTable": null,
    "ColorGradingLUT": { "LUTTextures": null, "LUTWeights": null }
  },
  "WorldPostProcessChain": null,
  "bPersistPostProcessToNextLevel": true,
  "bFogEnabled": false,
  "bBumpOffsetEnabled": true,
  "bUseGammaCorrection": false,
  "bMapNeedsLightingFullyRebuilt": true,
  "bMapHasMultipleDominantLightsAffectingOnePrimitive": false,
  "bMapHasPathingErrors": false,
  "bRequestedBlockOnAsyncLoading": false,
  "bBegunPlay": false,
  "bPlayersOnly": false,
  "bPlayersOnlyPending": false,
  "bSuspendAI": false,
  "bStatusMenuOnly": false,
  "bDropDetail": false,
  "bAggressiveLOD": false,
  "bDontTickMind": false,
  "bStartup": false,
  "bPathsRebuilt": false,
  "bHasPathNodes": false,
  "bIsMenuLevel": false,
  "bDebugPauseExecution": false,
  "bDebugStepExecution": false,
  "bUseConsoleInput": false,
  "bNoDefaultInventoryForPlayer": false,
  "bNoPathWarnings": false,
  "bHighPriorityLoading": false,
  "bHighPriorityLoadingLocal": false,
  "bSupportDoubleBufferedPhysics": false,
  "bPhysicsIgnoreDeltaTime": false,
  "bEnableChanceOfPhysicsChunkOverride": false,
  "bLimitExplosionChunkSize": false,
  "bLimitDamageChunkSize": false,
  "bPrecomputeVisibility": false,
  "bPlaceCellsOnSurfaces": true,
  "bAllowTemporalAA": true,
  "bUseGlobalIllumination": false,
  "bForceNoPrecomputedLighting": false,
  "bAllowHostMigration": false,
  "bAssertOnGBXCheck": false,
  "bSupportsTimeOfDay": false,
  "SquintModeKernelSize": 128.0,
  "ShadowmapStreamingFactorMultiplier": 1.0,
  "HighestPriorityPostProcessVolume": null,
  "DefaultReverbSettings": {
    "bApplyReverb": true,
    "ReverbType": "REVERB_Default",
    "Volume": 0.5,
    "FadeTime": 2.0,
    "ReflectionsDelayOverride": -1.0,
    "LateDelayOverride": -1.0,
    "DecayHighFrequencyRatioOverride": -1.0
  },
  "DefaultAmbientZoneSettings": {
    "bIsWorldInfo": true,
    "ExteriorVolume": 1.0,
    "ExteriorTime": 0.5,
    "ExteriorLPF": 1.0,
    "ExteriorLPFTime": 0.5,
    "InteriorVolume": 1.0,
    "InteriorTime": 0.5,
    "InteriorLPF": 1.0,
    "InteriorLPFTime": 0.5
  },
  "FogStart": 400.0,
  "FogEnd": 4000.0,
  "FogColor": { "B": 255, "G": 128, "R": 128, "A": 192 },
  "BumpEnd": 1000.0,
  "HighestPriorityReverbVolume": null,
  "WorldSoundManager": null,
  "LastTimeUnbuiltLightingWasEncountered": "",
  "TimeDilation": 1.0,
  "DemoPlayTimeDilation": 1.0,
  "TimeSeconds": 0.0,
  "RealTimeSeconds": 0.0,
  "AudioTimeSeconds": 0.0,
  "DeltaSeconds": 0.0,
  "PauseDelay": 0.0,
  "RealTimeToUnPause": 0.0,
  "Pauser": null,
  "DefaultTexture": "EngineResources.DefaultTexture",
  "WireframeTexture": null,
  "WhiteSquareTexture": "EngineResources.WhiteSquareTexture",
  "LargeVertex": null,
  "BSPVertex": null,
  "GRI": null,
  "NetMode": "NM_Standalone",
  "NextTravelType": "TRAVEL_Relative",
  "VisibilityAggressiveness": "VIS_LeastAggressive",
  "LevelLightingQuality": "Quality_Production",
  "ComputerName": "",
  "EngineVersion": "",
  "MinNetVersion": "",
  "Game": null,
  "StallZ": 1000000.0,
  "WorldGravityZ": 0.0,
  "DefaultGravityZ": -500.0,
  "GlobalGravityZ": 0.0,
  "RBPhysicsGravityScaling": 1.0,
  "NavigationPointList": null,
  "ControllerList": null,
  "PawnList": null,
  "CoverList": null,
  "PylonList": null,
  "NavMeshList": null,
  "MoveRepSize": 42.0,
  "NextURL": "",
  "NextSwitchCountdown": 0.0,
  "PackedLightAndShadowMapTextureSize": 1024,
  "DefaultColorScale": { "X": 1.0, "Y": 1.0, "Z": 1.0 },
  "DefaultGameType": null,
  "CommittedPersistentLevel": null,
  "PersistentMapForcedObjects": null,
  "Title": "",
  "Author": "",
  "MyMapInfo": null,
  "EmitterPoolClassPath": "WillowGame.WillowEmitterPool",
  "MyEmitterPool": null,
  "DecalManagerClassPath": "Engine.DecalManager",
  "MyDecalManager": null,
  "ParticleEventManagerClassPath": "",
  "MyParticleEventManager": null,
  "ParentLoader": "",
  "MaxPhysicsDeltaTime": 0.333333,
  "MaxPhysicsSubsteps": 5,
  "PhysicsProperties": {
    "PrimaryScene": {
      "bUseHardware": false,
      "bFixedTimeStep": false,
      "TimeStep": 0.02,
      "MaxSubSteps": 5
    },
    "CompartmentRigidBody": {
      "bUseHardware": false,
      "bFixedTimeStep": false,
      "TimeStep": 0.02,
      "MaxSubSteps": 2
    },
    "CompartmentFluid": {
      "bUseHardware": true,
      "bFixedTimeStep": false,
      "TimeStep": 0.02,
      "MaxSubSteps": 1
    },
    "CompartmentCloth": {
      "bUseHardware": true,
      "bFixedTimeStep": true,
      "TimeStep": 0.02,
      "MaxSubSteps": 2
    },
    "CompartmentSoftBody": {
      "bUseHardware": true,
      "bFixedTimeStep": true,
      "TimeStep": 0.02,
      "MaxSubSteps": 2
    }
  },
  "DefaultSkinWidth": 0.025,
  "ApexLODResourceBudget": -1.0,
  "DestructibleSettings": {
    "MaxChunkIslandCount": -1,
    "MaxRrbActorCount": -1,
    "MaxChunkSeparationLOD": 1.0,
    "bOverrideMaxChunkSeparationLOD": false
  },
  "EmitterVertical": "Engine.Default__WorldInfo:PhysicsLODVerticalEmitter0",
  "VerticalProperties": {
    "Emitters": {
      "bDisableLod": true,
      "ParticlesLodMin": 0,
      "ParticlesLodMax": 15000,
      "PacketsPerPhysXParticleSystemMax": 500,
      "bApplyCylindricalPacketCulling": true,
      "SpawnLodVsFifoBias": 1.0
    }
  },
  "ChanceOfPhysicsChunkOverride": 1.0,
  "MaxExplosionChunkSize": 0.0,
  "MaxDamageChunkSize": 0.0,
  "FractureExplosionVelScale": 1.0,
  "MaxNumFacturedChunksToSpawnInAFrame": 12,
  "NumFacturedChunksSpawnedThisFrame": 0,
  "FracturedMeshWeaponDamage": 1.0,
  "VisibilityCellSize": 200,
  "CharacterLitIndirectBrightness": 1.0,
  "CharacterLitIndirectContrastFactor": 1.0,
  "CharacterShadowedIndirectBrightness": 1.0,
  "CharacterShadowedIndirectContrastFactor": 1.0,
  "CharacterLightingContrastFactor": 1.5,
  "ScreenMessages": "",
  "LightmassSettings": {
    "StaticLightingLevelScale": 1.0,
    "NumIndirectLightingBounces": 3,
    "EnvironmentColor": { "B": 0, "G": 0, "R": 0, "A": 0 },
    "EnvironmentIntensity": 1.0,
    "EmissiveBoost": 1.0,
    "DiffuseBoost": 5.0,
    "SpecularBoost": 1.0,
    "IndirectNormalInfluenceBoost": 0.3,
    "bUseAmbientOcclusion": false,
    "DirectIlluminationOcclusionFraction": 0.5,
    "IndirectIlluminationOcclusionFraction": 1.0,
    "OcclusionExponent": 1.0,
    "FullyOccludedSamplesFraction": 1.0,
    "MaxOcclusionDistance": 200.0,
    "bVisualizeMaterialDiffuse": false,
    "bVisualizeAmbientOcclusion": false,
    "bCompressShadowmap": false
  },
  "NavMeshPathConstraintCache": "",
  "NavMeshPathGoalEvaluatorCache": "",
  "PeerHostMigration": {
    "HostMigrationProgress": "HostMigration_None",
    "HostMigrationElapsedTime": 0.0,
    "HostMigrationTravelCountdown": 0.0,
    "HostMigrationTravelURL": null,
    "bHostMigrationEnabled": false
  },
  "HostMigrationTimeout": 15.0,
  "HoldingCell": null,
  "PersonalTeleporterDestination": null,
  "PersonalReturnTeleporterLocation": null,
  "CommonsLevelName": null,
  "TeleporterPlacedEventName": null,
  "CombatMusic": null,
  "GBXCheckDisplayDuration": 10,
  "ClientDestroyedActorContent": [
    "Common_Meshes.Blocking.BlockingMeshReplicated_Cube",
    "Engine.Default__MaterialInstanceConstant",
    "WillowGame.Default__WillowInteractiveObject",
    "GD_Episode04Data.InteractiveObjects.MO_Ep4_Pylon1",
    "Engine.Default__SkeletalMeshComponent",
    "Prop_SancBuildings_02.Meshes.Skel_SanctuaryPylon_FuelCell",
    "GD_Episode04Data.Animations.AnimTree_FuelInjector",
    "Prop_SancBuildings_02.Meshes.Phat_SanctuaryPylon_FuelCell",
    "Anim_Sanctuary.Anim_SanctuaryPylon_FuelCell",
    "FX_ENV_Sanctuary.Materials.Mat_Sanctuary_Pylon_PowerOn",
    "Engine.Default__CylinderComponent",
    "Engine.Default__DynamicLightEnvironmentComponent",
    "GD_Episode04Data.InteractiveObjects.MO_Ep4_Pylon3",
    "GD_Episode05Data.BalanceDefs.MO_Ep5_MoxxiTipJar",
    "Engine.Default__StaticMeshComponent", "Prop_TipJar.Mesh.TipJarSign",
    "Prop_TipJar.Mesh.TipJar", "GD_RolandNPC.Character.Pawn_RolandNPC",
    "Engine.Default__SocketComponent",
    "Engine.Default__NxForceFieldRadialComponent",
    "GD_LilithNPC.Character.Pawn_LilithNPC", "GD_Z2_ArmsDealerData.Bucket",
    "Prop_Carts.Meshes.ZedsMailbox", "Common_Meshes.CollisionCube",
    "Engine.Default__PylonSeed",
    "WillowGame.Default__WillowMissionPickupSpawner",
    "GD_Z2_PoeticLicenseData.ItemDefs.ID_MO_ScooterCamera",
    "Prop_Cameras.Meshes.SecCameraLens",
    "WillowGame.Default__WillowMissionPickupFailsafe",
    "GD_Z3_OutOfBodyData.ItemDefs.ID_MO_OutofBody_AICore4",
    "HyperionBotAttachments.Mesh.HyperionBotAttachments_13",
    "GearboxFramework.Default__PopulationOpportunityPoint",
    "GD_Population_Shopping.VendingMachine.VendingMachine_HealthItems",
    "GD_GameStages.Zone1.Sanctuary",
    "Prop_VendingMachines.Meshes.Skel_WeaponVendingMachine",
    "GD_Balance_Shopping.Misc.AnimTree_VendingMachine",
    "Prop_VendingMachines.PhAT.Phat_WeaponVendingMachine",
    "Anim_VendingMachines.Animations.Anim_WeaponVendingMachine",
    "Prop_VendingMachines.Materials.Mati_ZedVendingMachine",
    "Prop_VendingMachines.Materials.Mati_ZedVendingFaceplate",
    "Common_Materials.Hyperion.Master_HyperionEye_INST",
    "GD_GameSystemMachines.InteractiveObjects.BountyBoard",
    "SanctuaryAir_Dynamic.TheWorld:PersistentLevel.WillowInteractiveObject_8.MissionDirectivesDefinition_0",
    "Prop_Machines.Meshes.TransitionerProjector",
    "Engine.Default__PointLightComponent", "prop_doors.LevelTransitioner",
    "prop_interactive.Materials.Mat_Transporter",
    "Char_ClapTrap.Materials.Mati_ClapTrapLensTeal",
    "prop_signs.BountyBoardIcon", "prop_interactive.Meshes.Bulletinboard_01",
    "WillowGame.Default__MissionDirectivesDefinition",
    "GD_Z1_Assasinate.M_AssasinateTheAssassins",
    "GD_Z3_GoodBadMordecai.M_GoodBadMordecai",
    "GD_Z2_MeetWithEllie.M_MeetWithEllie", "GD_Z2_DemonHunter.M_DemonHunter",
    "GD_Episode04Data.InteractiveObjects.MO_Ep4_Pylon2",
    "GD_GameSystemMachines.InteractiveObjects.Bank",
    "Prop_Bank.Meshes.Vault", "GD_InteractiveDoors.GenericDoor",
    "prop_doors.Meshes.Skel_GenericDoor", "Anim_Doors.AnimTree_GenericDoor",
    "prop_doors.PhAT.Phat_GenericDoor",
    "Anim_Doors.Animations.Anim_GenericDoor",
    "prop_doors.Materials.Mati_GenericDoorGlowing_INST",
    "GD_BrickNPC.Character.Pawn_BrickNPC",
    "GD_MordecaiNPC.Character.Pawn_MordecaiNPC",
    "GD_Z3_BaneData.ItemDefs.ID_IO_TheBane_MissionDirector",
    "prop_interactive.Meshes.DataRecorder_01_Active",
    "GD_Z2_ClaptrapBirthdayBashData.IO_ClaptrapBirthday_Pizza",
    "Prop_Details.Meshes.Pizza", "Prop_Details.Meshes.PizzaBoxBottom",
    "Prop_Details.Meshes.PizzaBoxTop",
    "GD_GameSystemMachines.InteractiveObjects.ClaptrapsSecretStash",
    "Prop_Lootables_02.Textures.ClapStash",
    "GD_GenericSwitches.InteractiveObjects.GenericButton",
    "Prop_Switches.Meshes.ButtonRed",
    "Prop_Switches.Materials.Mati_Button_Dim",
    "Prop_Switches.Meshes.ButtonGreen", "Prop_Switches.Meshes.Button",
    "GD_Z2_SplinterGroupData.ItemDefs.ID_MoxxisPizza",
    "Prop_Details.Meshes.PizzaBoxWhole",
    "GD_GenericSwitches.InteractiveObjects.GenericSwitch",
    "Prop_Switches.Meshes.SwitchHandle", "Prop_Switches.Meshes.SwitchBase",
    "Prop_Switches.Materials.Mati_Switch_Glow",
    "WillowGame.Default__PopulationOpportunityDen",
    "GD_Population_Loader.Population.Unique.PopDef_TargetDummyBot",
    "WillowGame.Default__MissionPopulationAspect",
    "GD_Z1_RockPaperGenocide.M_RockPaperGenocide_Corrosive:corrosive",
    "GD_Population_Psycho.Population.PopDef_TargetDummy_Shield",
    "GD_Z1_RockPaperGenocide.M_RockPaperGenocide_Shock:shock",
    "GD_Population_Psycho.Population.PopDef_TargetDummy",
    "GD_Z1_RockPaperGenocide.M_RockPaperGenocide_Fire:Fire",
    "GD_Z1_RockPaperGenocide.M_RockPaperGenocide_Amp:amp",
    "GD_Z1_RockPaperGenocide.M_RockPaperGenocide_Amp:KillCompetitor",
    "GD_Z1_RockPaperGenocideData.IO_RockPaperGenocide_TargetHolder",
    "Prop_Panels.MorgueFreezerUnitDoor",
    "Prop_Signs_02.Meshes.LoaderSignVandal",
    "GD_Episode17Data.InteractiveObjects.MO_Ep17_SanctuaryArtifact",
    "Prop_Aliens.Meshes.TripartiteKey_03",
    "Prop_Aliens.Materials.Tripartite_Key_Purple_Mat",
    "FX_CREA_Drone.Mesh.Probe_Shield",
    "Engine.Default__ParticleSystemComponent",
    "FX_ENV_Advertisements.Particles.Part_Advertisement_Holo_Lights_Red",
    "GD_Episode10Data.InteractiveObjects.IO_RolandHQTV",
    "Prop_Electronics.Meshes.TV",
    "Prop_Electronics.Materials.Mat_HoloMap_TV_Scanning",
    "WillowGame.Default__WillowPopulationOpportunityPoint",
    "GD_Population_Shopping.VendingMachine.CrazyEarl_BlackMarket",
    "prop_doors.Meshes.Skel_DoorSlider",
    "GD_Balance_Shopping.Misc.AnimTree_Earl",
    "prop_doors.Meshes.Phat_DoorSlider",
    "Anim_Doors.Animations.Anim_DoorSlider",
    "prop_doors.Mati_EarlsDoor_Glow", "Char_Crazy_Earl.Mesh.Skel_CrazyEarl",
    "GD_Balance_Shopping.Misc.AnimTree_EarlHead",
    "Anim_Crazy_Earl.Anim_Crazy_Earl",
    "gd_slotmachine.Populations.Pop_SlotMachine",
    "GD_InteractionIcons.Default.Icon_Play",
    "Prop_Machines.Meshes.Skel_SlotMachine",
    "gd_slotmachine.Animation.AnimTree_SlotMachine",
    "Prop_Machines.PhAT.Phat_SlotMachine", "Anim_Machines.Anim_SlotMachine",
    "Engine.Default__SkelControlSingleBone", null,
    "prop_dams.Mesh.RightArmTop", "prop_dams.Mesh.LeftArmTop",
    "GD_Episode04Data.ItemDefs.ID_Ep4_ScooterFuelCell",
    "Prop_SancBuildings_02.Meshes.SancPylonCel",
    "GD_ResistanceFighter.Character.Pawn_ResistanceFighter",
    "Char_GenericMale.Mesh.ExCrim_Chest",
    "GD_ResistanceFighter.Materials.ExCrim_Armor_Camo2",
    "Char_GenericMale.Mesh.ExCrim_L_Shoulder",
    "Char_GenericMale.Materials.ExCrim_Armor_Rusted",
    "Char_GenericMale.Mesh.ExCrim_R_Leg",
    "Char_GenericMale.Mesh.ExCrim_R_Shoulder",
    "Char_GenericMale.Mesh.ExCrim_L_Leg",
    "GD_ZedSurgeryPatient.Balance.Pop_ZedSurgeryPatient",
    "GD_GameStages.Zone1.StartOfGame",
    "GD_Z1_Surgery.M_PerformSurgery:SURGERY",
    "GD_Z1_HiddenJFurnitureData.ItemDefs.ID_MO_HiddenJournalsFurniture_Echo",
    "GD_LevelEchoChallenges.InteractiveObjects.IO_SanctuaryECHO_D",
    "GD_Challenges.LevelECHOChallenges.MapECHO_Sanctuary",
    "GD_LevelEchoChallenges.InteractiveObjects.IO_SanctuaryECHO_C",
    "GD_LevelEchoChallenges.InteractiveObjects.IO_SanctuaryECHO_B",
    "GD_LevelEchoChallenges.InteractiveObjects.IO_SanctuaryECHO_A",
    "GD_Radio.UsableRadio",
    "FX_ENV_InteractiveObjects.Particles.Part_Sound_Squiggles",
    "Prop_Radios.Meshes.RadioBig", "Prop_Radios.Materials.Mat_RadioBig_INST",
    "GD_ResistanceFighter.Population.Pop_ResistanceFighter_Pistol",
    "GD_Scooter.Population.Pop_Scooter",
    "GD_Population_Treasure.Lootables.Storage_Locker",
    "GD_GameStages.Zone2.Sanctuary_B",
    "Prop_Lootables_02.Meshes.Skel_StorageLocker",
    "Anim_Lootables.Animations.AnimTree_Lootables_Willow",
    "Prop_Lootables_02.PhAT.Phat_StorageLocker",
    "Anim_Lootables.Animations.Anim_StorageLocker",
    "GD_Population_Treasure.Lootables.Laundry_Machine",
    "Prop_Lootables_02.Meshes.Skel_LaundryMachine",
    "Prop_Lootables_02.Meshes.Phat_LaundryMachine",
    "Anim_Lootables.Animations.Anim_LaundryMachine",
    "GD_JohnMamaril.Population.Pop_JohnMamaril",
    "GD_Episode10Data.InteractiveObjects.IO_RolandHQProjector",
    "FX_IO_HoloVids.Particles.Holos.Part_Gen_RaidersRotating",
    "Char_ClapTrap.Meshes.ClapTrapEye",
    "FX_IO_HoloVids.Particles.Holos.Part_HoloVid_Glows_Looping",
    "GD_Moxxi.Population.Pop_Moxxi", "Char_Moxxi.Meshes.Skel_Moxxi",
    "GD_Moxxi.Character.AnimTree_Moxxi", "Anim_Moxxi.Anim_Moxxi",
    "Anim_Moxxi.Gestures_Moxxi",
    "Char_Moxxi.Materials.Mati_MoxxiHead_Purple",
    "Char_Moxxi.Materials.Mati_MoxxiBody_Purple",
    "GD_Population_Treasure.TreasureChests.EpicChest_Dahl_BearerBadNews",
    "GD_GameStages.Zone3.Ash_A", "Prop_Lootables.Meshes.Skel_DahlEpicCrate",
    "Prop_Lootables.PhAT.Phat_DahlEpicCrate",
    "Anim_Lootables.Animations.Anim_DahlEpicCrate",
    "GD_Episode05Data.InteractiveObjects.MO_Ep5_MissionDirectorRecorder",
    "SanctuaryAir_Dynamic.TheWorld:PersistentLevel.WillowInteractiveObject_5.MissionDirectivesDefinition_0",
    "GD_Episode04.M_Ep4_WelcomeToSanctuary", "GD_Episode05.M_Ep5_ThePhoenix",
    "GD_OneWinner.Population.Pop_OneWinner",
    "GD_Hammerlock.Population.Pop_Hammerlock",
    "Char_SirHammerlock.Mesh.Skel_SirHammerlock",
    "GD_Hammerlock.Character.AnimTree_Hammerlock",
    "Anim_Generic_NPC.Anim_Generic_NPC", "Anim_Generic_NPC.Gestures",
    "Anim_Sanctuary.Anim_SirHammerlock", "GD_Marcus.Population.Pop_Marcus",
    "GD_GameStages.Zone3.Sanctuary_C", "Char_Marcus.Meshes.Skel_Marcus",
    "GD_Marcus.Character.AnimTree_Marcus",
    "GD_TannisNPC.Population.Pop_Tannis", "Char_Tannis.Mesh.Skel_Tannis",
    "GD_TannisNPC.Character.AnimTree_Tannis",
    "Char_Bandit_Marauder.PhAT.Phat_Maurauder", "Anim_Tannis.Anim_Tannis",
    "Anim_Tannis.Gestures", "GD_Zed.Population.Pop_Zed",
    "Char_Zed.Mesh.Skel_Zed", "GD_NPCShared.Character.AnimTree_NPCShared",
    "Char_Zed.Materials.Mati_CChar_Zed_Body_Green",
    "GD_Z2_ClaptrapBirthdayBashData.IO_ClaptrapBirthday_PartyFavor",
    "Prop_Details.Meshes.PartyFavor",
    "GD_Z2_ClaptrapBirthdayBashData.Materials.Mati_PartyFavorGlow",
    "GD_Z2_ClaptrapBirthdayBashData.IO_ClatrapBirthday_Boombox",
    "Prop_Details.Meshes.Radio", "GD_Z3_OutOfBodyData.IO_MoxieRadio",
    "GD_Population_Psycho.Population.PopDef_TargetDummy_Target",
    "GD_Daisy.Population.Pop_Daisy",
    "WillowGame.Default__LevelTravelStation",
    "GD_LevelTravelStations.Zone1.SanctuaryToVOGsChamber",
    "GD_GameSystemMachines.InteractiveObjects.LevelTravelMachine",
    "GD_InteractionIcons.Default.Icon_DefaultFastTravel",
    "FX_Shared_Mesh.Meshes.FlashMenuBackground",
    "Common_Meshes.CollisionPlane",
    "GD_Episode04Data.ItemDefs.ID_Ep4_EridiumShardZeds",
    "Prop_Pickups.Meshes.EridiumNugget",
    "GD_ClapTrap.Population.Pop_Claptrap"
  ],
  "KillZ": -262143.0,
  "SoftKill": 2500.0,
  "KillZDamageType": "Engine.KillZDamageType",
  "bSoftKillZ": false,
  "VfTable_IIWorldBody": "",
  "VfTable_IISpawnActor": "",
  "VfTable_IIDamageCauser": "",
  "Location": { "X": 0.0, "Y": 0.0, "Z": 0.0 },
  "Rotation": { "Pitch": 0, "Yaw": 0, "Roll": 0 },
  "DrawScale": 1.0,
  "DrawScale3D": { "X": 1.0, "Y": 1.0, "Z": 1.0 },
  "PrePivot": { "X": 0.0, "Y": 0.0, "Z": 0.0 },
  "DetachFence": "",
  "CustomTimeDilation": 1.0,
  "Physics": "PHYS_None",
  "RemoteRole": "ROLE_SimulatedProxy",
  "Role": "ROLE_Authority",
  "CollisionType": "COLLIDE_NoCollision",
  "ReplicatedCollisionType": [ "INVALID" ],
  "TickGroup": "TG_PreAsyncWork",
  "Owner": null,
  "Base": null,
  "bUseOrthonormalizedLighting": false,
  "bStatic": true,
  "bHidden": true,
  "bNoDelete": true,
  "bDeleteMe": false,
  "bTicked": false,
  "bOnlyOwnerSee": false,
  "bTickIsDisabled": false,
  "bWorldGeometry": true,
  "bIgnoreRigidBodyPawns": false,
  "bOrientOnSlope": false,
  "bIgnoreEncroachers": false,
  "bPushedByEncroachers": true,
  "bRouteBeginPlayEvenIfStatic": true,
  "bIsMoving": false,
  "bAlwaysEncroachCheck": false,
  "bCanStepUpOn": true,
  "bNetTemporary": false,
  "bOnlyRelevantToOwner": false,
  "bNetDirty": false,
  "bAlwaysRelevant": true,
  "bReplicateInstigator": false,
  "bReplicateMovement": true,
  "bSkipRotationReplication": false,
  "bForceRotationReplication": false,
  "bSkipActorPropertyReplication": true,
  "bUpdateSimulatedPosition": false,
  "bTearOff": false,
  "bOnlyDirtyReplication": true,
  "bSkipHiddenReplication": false,
  "bAllowFluidSurfaceInteraction": true,
  "bDemoRecording": false,
  "bDemoOwner": false,
  "bForceDemoRelevant": false,
  "bNetInitialRotation": false,
  "bReplicateRigidBodyLocation": false,
  "bKillDuringLevelTransition": false,
  "bExchangedRoles": false,
  "bConsiderAllStaticMeshComponentsForStreaming": false,
  "bPostRenderIfNotVisible": false,
  "bForceNetUpdate": false,
  "bPendingNetUpdate": false,
  "bHardAttach": false,
  "bIgnoreBaseRotation": false,
  "bSkipAttachedMoves": true,
  "bHurtEntry": false,
  "bGameRelevant": true,
  "bMovable": false,
  "bDestroyInPainVolume": false,
  "bCanBeDamaged": false,
  "bShouldBaseAtStartup": false,
  "bPendingDelete": false,
  "bCanTeleport": false,
  "bAlwaysTick": false,
  "bBlocksNavigation": false,
  "bCanTarget": false,
  "bCanTargetCheat": false,
  "BlockRigidBody": false,
  "bCollideWhenPlacing": false,
  "bCollideActors": false,
  "bCollideWorld": false,
  "bCollideComplex": false,
  "bBlockActors": true,
  "bProjTarget": false,
  "bBlocksTeleport": false,
  "bProjectileMoveSingleBlocking": false,
  "bTraceListeners": false,
  "bIsBlockingMesh": false,
  "bIsWillowInteractiveObject": false,
  "bIgnoreRadiusDamageCheck": false,
  "bNoEncroachCheck": false,
  "bCollideAsEncroacher": false,
  "bPhysRigidBodyOutOfWorldCheck": false,
  "bComponentOutsideWorld": false,
  "bForceOctreeSNFilter": false,
  "bRigidBodyWasAwake": false,
  "bCallRigidBodyWakeEvents": false,
  "bBounce": false,
  "bJustTeleported": true,
  "bNetInitial": false,
  "bNetOwner": false,
  "bHiddenEd": true,
  "bEditable": true,
  "bHiddenEdLayer": false,
  "bHiddenEdTemporary": false,
  "bHiddenEdLevel": false,
  "bEdShouldSnap": false,
  "bTempEditor": false,
  "bPathColliding": false,
  "bPathTemp": false,
  "bScriptInitialized": true,
  "bLockLocation": false,
  "bForceAllowKismetModification": false,
  "bTraceIgnoreRigidBodyForPawns": false,
  "bAutoMovePlayerOnInterpActor": false,
  "bMoveActorDoZeroExtentTrace": false,
  "bDebugEffectIsRelevant": false,
  "bLoadIfPhysXLevel0": true,
  "bLoadIfPhysXLevel1": true,
  "bLoadIfPhysXLevel2": true,
  "NetTag": 0,
  "NetUpdateTime": 0.0,
  "NetUpdateFrequency": 10.0,
  "NetPriority": 1.0,
  "LastNetUpdateTime": 0.0,
  "Instigator": null,
  "WorldInfo": "Loader.TheWorld:PersistentLevel.WorldInfo_1",
  "LifeSpan": 0.0,
  "CreationTime": 0.0,
  "LastRenderTime": -3.4028234663852886e+38,
  "LatentFloat": 0.0,
  "PhysicsVolume": "Loader.TheWorld:PersistentLevel.DefaultPhysicsVolume_41",
  "Velocity": { "X": 0.0, "Y": 0.0, "Z": 0.0 },
  "Acceleration": { "X": 0.0, "Y": 0.0, "Z": 0.0 },
  "AngularVelocity": { "X": 0.0, "Y": 0.0, "Z": 0.0 },
  "BaseSkelComponent": null,
  "BaseBoneName": null,
  "RelativeLocation": { "X": 0.0, "Y": 0.0, "Z": 0.0 },
  "RelativeRotation": { "Pitch": 0, "Yaw": 0, "Roll": 0 },
  "CollisionComponent": null,
  "OverlapTag": 0,
  "RotationRate": { "Pitch": 0, "Yaw": 0, "Roll": 0 },
  "MostRecentDamageTaken": 0.0,
  "VfTableObject": "",
  "HashNext": "",
  "ObjectFlags": "",
  "HashOuterNext": "",
  "StateFrame": "",
  "Linker": null,
  "LinkerIndex": "",
  "ObjectInternalInteger": 204995,
  "NetIndex": 4524,
  "Outer": "SanctuaryAir_Dynamic.TheWorld:PersistentLevel",
  "Name": "WorldInfo_7",
  "Class": "Engine.WorldInfo",
  "ObjectArchetype": "Engine.Default__WorldInfo"
}