{
  "VfTable_IIConstructObject": "",
  "ConsolidatedAttributeInitData": [
    {
      "BaseValueConstant": 1.0,
      "BaseValueAttribute": null,
      "InitializationDefinition": null,
      "BaseValueScaleConstant": 1.0
    },
    {
      "BaseValueConstant": 100.0,
      "BaseValueAttribute": null,
      "InitializationDefinition": null,
      "BaseValueScaleConstant": 1.0
    },
    {
      "BaseValueConstant": 0.0,
      "BaseValueAttribute": null,
      "InitializationDefinition": null,
      "BaseValueScaleConstant": 1.0
    }
  ],
  "WeightedParts": [
    {
      "Part": "GD_Sage_FanBoat.Weapons.WeaponParts.SightPart_MachineGun",
      "Manufacturers": null,
      "MinGameStageIndex": 0,
      "MaxGameStageIndex": 1,
      "DefaultWeightIndex": 2
    }
  ],
  "VfTableObject": "",
  "HashNext": "",
  "ObjectFlags": "",
  "HashOuterNext": "",
  "StateFrame": "",
  "Linker": null,
  "LinkerIndex": "",
  "ObjectInternalInteger": 187067,
  "NetIndex": 896,
  "Outer": "GD_Sage_FanBoat.Weapons.WeaponParts",
  "Name": "SightPartList_MachineGun",
  "Class": "WillowGame.WeaponPartListDefinition",
  "ObjectArchetype": "WillowGame.Default__WeaponPartListDefinition"
}