{
  "VfTable_IIConstructObject": "",
  "ConsolidatedAttributeInitData": [
    {
      "BaseValueConstant": 1.0,
      "BaseValueAttribute": null,
      "InitializationDefinition": null,
      "BaseValueScaleConstant": 1.0
    },
    {
      "BaseValueConstant": 100.0,
      "BaseValueAttribute": null,
      "InitializationDefinition": null,
      "BaseValueScaleConstant": 1.0
    },
    {
      "BaseValueConstant": 0.0,
      "BaseValueAttribute": null,
      "InitializationDefinition": null,
      "BaseValueScaleConstant": 1.0
    }
  ],
  "WeightedParts": [
    {
      "Part": "GD_Weap_Scorpio.Stock.Stock_None",
      "Manufacturers": [ { "Manufacturer": null, "DefaultWeightIndex": 2 } ],
      "MinGameStageIndex": 0,
      "MaxGameStageIndex": 1,
      "DefaultWeightIndex": 0
    }
  ],
  "VfTableObject": "",
  "HashNext": "",
  "ObjectFlags": "",
  "HashOuterNext": "",
  "StateFrame": "",
  "Linker": null,
  "LinkerIndex": "",
  "ObjectInternalInteger": 220721,
  "NetIndex": 60,
  "Outer": "GD_Weap_Scorpio.Stock",
  "Name": "_Stock_PartList",
  "Class": "WillowGame.WeaponPartListDefinition",
  "ObjectArchetype": "WillowGame.Default__WeaponPartListDefinition"
}