{
  "bGetTargetInfo": false,
  "VfTableObject": "",
  "HashNext": "",
  "ObjectFlags": "",
  "HashOuterNext": "",
  "StateFrame": "",
  "Linker": null,
  "LinkerIndex": "",
  "ObjectInternalInteger": 222318,
  "NetIndex": 720,
  "Outer": "GD_GyrocopterShared.Flags.Flag_TargetIsRakk",
  "Name": "BestTargetAttributeContextResolver_0",
  "Class": "GearboxFramework.BestTargetAttributeContextResolver",
  "ObjectArchetype":
    "GearboxFramework.Default__BestTargetAttributeContextResolver"
}