{
  "VfTable_IIConstructObject": "",
  "Layout": "GD_Lilac_SkillsBase.SkillTree.Layout_Bloodlust",
  "BranchName": "BLOODLUST",
  "Tiers": [
    {
      "Skills": [
        "GD_Lilac_Skills_Bloodlust.Skills.BloodfilledGuns",
        "GD_Lilac_Skills_Bloodlust.Skills.BloodyTwitch"
      ],
      "PointsToUnlockNextTier": 5
    },
    {
      "Skills": [
        "GD_Lilac_Skills_Bloodlust.Skills.TasteOfBlood",
        "GD_Lilac_Skills_Bloodlust.Skills.BloodyRevival",
        "GD_Lilac_Skills_Bloodlust.Skills.BloodOverdrive"
      ],
      "PointsToUnlockNextTier": 5
    },
    {
      "Skills": [
        "GD_Lilac_Skills_Bloodlust.Skills.BloodBath",
        "GD_Lilac_Skills_Bloodlust.Skills.BuzzAxeBombadier",
        "GD_Lilac_Skills_Bloodlust.Skills.FuelTheBlood"
      ],
      "PointsToUnlockNextTier": 5
    },
    {
      "Skills": [
        "GD_Lilac_Skills_Bloodlust.Skills.BloodTrance",
        "GD_Lilac_Skills_Bloodlust.Skills.BoilingBlood"
      ],
      "PointsToUnlockNextTier": 5
    },
    {
      "Skills": [ "GD_Lilac_Skills_Bloodlust.Skills.NervousBlood" ],
      "PointsToUnlockNextTier": 5
    },
    {
      "Skills": [
        "GD_Lilac_Skills_Bloodlust.Skills.Bloodsplosion",
        "GD_Lilac_Skills_Bloodlust.Skills._Bloodlust"
      ],
      "PointsToUnlockNextTier": 1
    }
  ],
  "VfTableObject": "",
  "HashNext": "",
  "ObjectFlags": "",
  "HashOuterNext": "",
  "StateFrame": "",
  "Linker": null,
  "LinkerIndex": "",
  "ObjectInternalInteger": 192051,
  "NetIndex": 734,
  "Outer": "GD_Lilac_SkillsBase.SkillTree",
  "Name": "Branch_Bloodlust",
  "Class": "WillowGame.SkillTreeBranchDefinition",
  "ObjectArchetype": "WillowGame.Default__SkillTreeBranchDefinition"
}