{
  "VfTable_IIConstructObject": "",
  "Layout": "GD_Siren_Skills.SkillTree.Layout_Harmony",
  "BranchName": "HARMONY",
  "Tiers": [
    {
      "Skills": [
        "GD_Siren_Skills.Harmony.MindsEye",
        "GD_Siren_Skills.Harmony.SweetRelease"
      ],
      "PointsToUnlockNextTier": 5
    },
    {
      "Skills": [
        "GD_Siren_Skills.Harmony.Restoration",
        "GD_Siren_Skills.Harmony.Wreck"
      ],
      "PointsToUnlockNextTier": 5
    },
    {
      "Skills": [
        "GD_Siren_Skills.Harmony.Elated", "GD_Siren_Skills.Harmony.Res",
        "GD_Siren_Skills.Harmony.Recompense"
      ],
      "PointsToUnlockNextTier": 5
    },
    {
      "Skills": [ "GD_Siren_Skills.Harmony.Sustenance" ],
      "PointsToUnlockNextTier": 5
    },
    {
      "Skills": [ "GD_Siren_Skills.Harmony.LifeTap" ],
      "PointsToUnlockNextTier": 5
    },
    {
      "Skills": [ "GD_Siren_Skills.Harmony.Scorn" ],
      "PointsToUnlockNextTier": 1
    }
  ],
  "VfTableObject": "",
  "HashNext": "",
  "ObjectFlags": "",
  "HashOuterNext": "",
  "StateFrame": "",
  "Linker": null,
  "LinkerIndex": "",
  "ObjectInternalInteger": 160841,
  "NetIndex": 1661,
  "Outer": "GD_Siren_Skills.SkillTree",
  "Name": "Branch_Harmony",
  "Class": "WillowGame.SkillTreeBranchDefinition",
  "ObjectArchetype": "WillowGame.Default__SkillTreeBranchDefinition"
}