{
  "VfTable_IIConstructObject": "",
  "VfTable_IIBodyInfoProvider": "",
  "VfTable_IIBehaviorProvider": "",
  "VfTable_IIHitRegionInfoProvider": "",
  "BodyComposition": {
    "Attachments": [
      {
        "Data": {
          "Name": "DeadLookSwitch",
          "Type": "IDT_Switch",
          "Replication": "IDR_Server",
          "MaxSwitchValue": 1,
          "BitsRequiredForMaxSwitchValue": 1,
          "Bool": false,
          "DeleteByOwner": false,
          "Int": 0,
          "Float": 0.0,
          "Vector": { "X": 0.0, "Y": 0.0, "Z": 0.0 },
          "Object": null,
          "ComponentData": {
            "Component": null,
            "CollisionType": "COLLIDE_CustomDefault",
            "bAttachToMesh": false,
            "bIsUsable": false,
            "bIsSecondaryUsable": false,
            "MeshSocketName": null,
            "HitRegionDefinition": null,
            "InteractIcon": null,
            "SecondaryInteractIcon": null
          },
          "String": null,
          "BodyCompositionIndex": 1
        },
        "ParentAttachmentIdentifier": null,
        "AttachmentBaseInstanceDataIndex": -1,
        "SwitchIdentifier": 0
      },
      {
        "Data": {
          "Name": "OnFireSwitch",
          "Type": "IDT_Switch",
          "Replication": "IDR_Server",
          "MaxSwitchValue": 1,
          "BitsRequiredForMaxSwitchValue": 1,
          "Bool": false,
          "DeleteByOwner": false,
          "Int": 0,
          "Float": 0.0,
          "Vector": { "X": 0.0, "Y": 0.0, "Z": 0.0 },
          "Object": null,
          "ComponentData": {
            "Component": null,
            "CollisionType": "COLLIDE_CustomDefault",
            "bAttachToMesh": false,
            "bIsUsable": false,
            "bIsSecondaryUsable": false,
            "MeshSocketName": null,
            "HitRegionDefinition": null,
            "InteractIcon": null,
            "SecondaryInteractIcon": null
          },
          "String": null,
          "BodyCompositionIndex": 2
        },
        "ParentAttachmentIdentifier": null,
        "AttachmentBaseInstanceDataIndex": 0,
        "SwitchIdentifier": 0
      },
      {
        "Data": {
          "Name": null,
          "Type": "IDT_ActorComponent",
          "Replication": "IDR_Server",
          "MaxSwitchValue": 0,
          "BitsRequiredForMaxSwitchValue": 0,
          "Bool": false,
          "DeleteByOwner": false,
          "Int": 0,
          "Float": 0.0,
          "Vector": { "X": 0.0, "Y": 0.0, "Z": 0.0 },
          "Object": null,
          "ComponentData": {
            "Component":
              "GD_Aster_Explosives.Barrels.ExplodingWoodBarrelIncendiary:StaticMeshComponent_5101",
            "CollisionType": "COLLIDE_CustomDefault",
            "bAttachToMesh": false,
            "bIsUsable": false,
            "bIsSecondaryUsable": false,
            "MeshSocketName": null,
            "HitRegionDefinition": null,
            "InteractIcon": null,
            "SecondaryInteractIcon": null
          },
          "String": null,
          "BodyCompositionIndex": 3
        },
        "ParentAttachmentIdentifier": null,
        "AttachmentBaseInstanceDataIndex": 1,
        "SwitchIdentifier": 0
      },
      {
        "Data": {
          "Name": null,
          "Type": "IDT_ActorComponent",
          "Replication": "IDR_Server",
          "MaxSwitchValue": 0,
          "BitsRequiredForMaxSwitchValue": 0,
          "Bool": false,
          "DeleteByOwner": false,
          "Int": 0,
          "Float": 0.0,
          "Vector": { "X": 0.0, "Y": 0.0, "Z": 0.0 },
          "Object": null,
          "ComponentData": {
            "Component":
              "GD_Aster_Explosives.Barrels.ExplodingWoodBarrelIncendiary:StaticMeshComponent_5102",
            "CollisionType": "COLLIDE_CustomDefault",
            "bAttachToMesh": false,
            "bIsUsable": false,
            "bIsSecondaryUsable": false,
            "MeshSocketName": null,
            "HitRegionDefinition": null,
            "InteractIcon": null,
            "SecondaryInteractIcon": null
          },
          "String": null,
          "BodyCompositionIndex": 4
        },
        "ParentAttachmentIdentifier": null,
        "AttachmentBaseInstanceDataIndex": 1,
        "SwitchIdentifier": 1
      },
      {
        "Data": {
          "Name": null,
          "Type": "IDT_ActorComponent",
          "Replication": "IDR_Server",
          "MaxSwitchValue": 0,
          "BitsRequiredForMaxSwitchValue": 0,
          "Bool": false,
          "DeleteByOwner": false,
          "Int": 0,
          "Float": 0.0,
          "Vector": { "X": 0.0, "Y": 0.0, "Z": 0.0 },
          "Object": null,
          "ComponentData": {
            "Component":
              "GD_Aster_Explosives.Barrels.ExplodingWoodBarrelIncendiary:CylinderComponent_3185",
            "CollisionType": "COLLIDE_BlockAllButWeapons",
            "bAttachToMesh": false,
            "bIsUsable": false,
            "bIsSecondaryUsable": false,
            "MeshSocketName": null,
            "HitRegionDefinition": null,
            "InteractIcon": null,
            "SecondaryInteractIcon": null
          },
          "String": null,
          "BodyCompositionIndex": 5
        },
        "ParentAttachmentIdentifier": null,
        "AttachmentBaseInstanceDataIndex": 0,
        "SwitchIdentifier": 0
      },
      {
        "Data": {
          "Name": null,
          "Type": "IDT_ActorComponent",
          "Replication": "IDR_Server",
          "MaxSwitchValue": 0,
          "BitsRequiredForMaxSwitchValue": 0,
          "Bool": false,
          "DeleteByOwner": false,
          "Int": 0,
          "Float": 0.0,
          "Vector": { "X": 0.0, "Y": 0.0, "Z": 0.0 },
          "Object": null,
          "ComponentData": {
            "Component":
              "GD_Aster_Explosives.Barrels.ExplodingWoodBarrelIncendiary:StaticMeshComponent_5103",
            "CollisionType": "COLLIDE_NoCollision",
            "bAttachToMesh": false,
            "bIsUsable": false,
            "bIsSecondaryUsable": false,
            "MeshSocketName": null,
            "HitRegionDefinition": null,
            "InteractIcon": null,
            "SecondaryInteractIcon": null
          },
          "String": null,
          "BodyCompositionIndex": 6
        },
        "ParentAttachmentIdentifier": null,
        "AttachmentBaseInstanceDataIndex": 0,
        "SwitchIdentifier": 1
      },
      {
        "Data": {
          "Name": null,
          "Type": "IDT_ActorComponent",
          "Replication": "IDR_Server",
          "MaxSwitchValue": 0,
          "BitsRequiredForMaxSwitchValue": 0,
          "Bool": false,
          "DeleteByOwner": false,
          "Int": 0,
          "Float": 0.0,
          "Vector": { "X": 0.0, "Y": 0.0, "Z": 0.0 },
          "Object": null,
          "ComponentData": {
            "Component":
              "GD_Aster_Explosives.Barrels.ExplodingWoodBarrelIncendiary:SocketComponent_2455",
            "CollisionType": "COLLIDE_CustomDefault",
            "bAttachToMesh": false,
            "bIsUsable": false,
            "bIsSecondaryUsable": false,
            "MeshSocketName": null,
            "HitRegionDefinition": null,
            "InteractIcon": null,
            "SecondaryInteractIcon": null
          },
          "String": null,
          "BodyCompositionIndex": 7
        },
        "ParentAttachmentIdentifier": null,
        "AttachmentBaseInstanceDataIndex": -1,
        "SwitchIdentifier": 0
      },
      {
        "Data": {
          "Name": null,
          "Type": "IDT_ActorComponent",
          "Replication": "IDR_Server",
          "MaxSwitchValue": 0,
          "BitsRequiredForMaxSwitchValue": 0,
          "Bool": false,
          "DeleteByOwner": false,
          "Int": 0,
          "Float": 0.0,
          "Vector": { "X": 0.0, "Y": 0.0, "Z": 0.0 },
          "Object": null,
          "ComponentData": {
            "Component":
              "GD_Aster_Explosives.Barrels.ExplodingWoodBarrelIncendiary:SocketComponent_2456",
            "CollisionType": "COLLIDE_CustomDefault",
            "bAttachToMesh": false,
            "bIsUsable": false,
            "bIsSecondaryUsable": false,
            "MeshSocketName": null,
            "HitRegionDefinition": null,
            "InteractIcon": null,
            "SecondaryInteractIcon": null
          },
          "String": null,
          "BodyCompositionIndex": 8
        },
        "ParentAttachmentIdentifier": null,
        "AttachmentBaseInstanceDataIndex": -1,
        "SwitchIdentifier": 0
      },
      {
        "Data": {
          "Name": null,
          "Type": "IDT_ActorComponent",
          "Replication": "IDR_Server",
          "MaxSwitchValue": 0,
          "BitsRequiredForMaxSwitchValue": 0,
          "Bool": false,
          "DeleteByOwner": false,
          "Int": 0,
          "Float": 0.0,
          "Vector": { "X": 0.0, "Y": 0.0, "Z": 0.0 },
          "Object": null,
          "ComponentData": {
            "Component":
              "GD_Aster_Explosives.Barrels.ExplodingWoodBarrelIncendiary:SocketComponent_2457",
            "CollisionType": "COLLIDE_CustomDefault",
            "bAttachToMesh": false,
            "bIsUsable": false,
            "bIsSecondaryUsable": false,
            "MeshSocketName": null,
            "HitRegionDefinition": null,
            "InteractIcon": null,
            "SecondaryInteractIcon": null
          },
          "String": null,
          "BodyCompositionIndex": 9
        },
        "ParentAttachmentIdentifier": null,
        "AttachmentBaseInstanceDataIndex": -1,
        "SwitchIdentifier": 0
      },
      {
        "Data": {
          "Name": "FireSwitch",
          "Type": "IDT_Switch",
          "Replication": "IDR_Server",
          "MaxSwitchValue": 1,
          "BitsRequiredForMaxSwitchValue": 1,
          "Bool": false,
          "DeleteByOwner": false,
          "Int": 0,
          "Float": 0.0,
          "Vector": { "X": 0.0, "Y": 0.0, "Z": 0.0 },
          "Object": null,
          "ComponentData": {
            "Component": null,
            "CollisionType": "COLLIDE_CustomDefault",
            "bAttachToMesh": false,
            "bIsUsable": false,
            "bIsSecondaryUsable": false,
            "MeshSocketName": null,
            "HitRegionDefinition": null,
            "InteractIcon": null,
            "SecondaryInteractIcon": null
          },
          "String": null,
          "BodyCompositionIndex": 10
        },
        "ParentAttachmentIdentifier": null,
        "AttachmentBaseInstanceDataIndex": -1,
        "SwitchIdentifier": 0
      },
      {
        "Data": {
          "Name": null,
          "Type": "IDT_ActorTemplate",
          "Replication": "IDR_Server",
          "MaxSwitchValue": 0,
          "BitsRequiredForMaxSwitchValue": 0,
          "Bool": false,
          "DeleteByOwner": true,
          "Int": 0,
          "Float": 0.0,
          "Vector": { "X": 0.0, "Y": 0.0, "Z": 0.0 },
          "Object":
            "GD_Aster_Explosives.Barrels.ExplodingWoodBarrelIncendiary:WillowDamageArea_2",
          "ComponentData": {
            "Component": null,
            "CollisionType": "COLLIDE_TouchAll",
            "bAttachToMesh": false,
            "bIsUsable": false,
            "bIsSecondaryUsable": false,
            "MeshSocketName": null,
            "HitRegionDefinition": null,
            "InteractIcon": null,
            "SecondaryInteractIcon": null
          },
          "String": null,
          "BodyCompositionIndex": 11
        },
        "ParentAttachmentIdentifier": null,
        "AttachmentBaseInstanceDataIndex": 9,
        "SwitchIdentifier": 1
      },
      {
        "Data": {
          "Name": "Fire",
          "Type": "IDT_ActorComponent",
          "Replication": "IDR_Server",
          "MaxSwitchValue": 0,
          "BitsRequiredForMaxSwitchValue": 0,
          "Bool": false,
          "DeleteByOwner": false,
          "Int": 0,
          "Float": 0.0,
          "Vector": { "X": 0.0, "Y": 0.0, "Z": 0.0 },
          "Object": null,
          "ComponentData": {
            "Component":
              "GD_Aster_Explosives.Barrels.ExplodingWoodBarrelIncendiary:ParticleSystemComponent_1074",
            "CollisionType": "COLLIDE_CustomDefault",
            "bAttachToMesh": false,
            "bIsUsable": false,
            "bIsSecondaryUsable": false,
            "MeshSocketName": null,
            "HitRegionDefinition": null,
            "InteractIcon": null,
            "SecondaryInteractIcon": null
          },
          "String": null,
          "BodyCompositionIndex": 12
        },
        "ParentAttachmentIdentifier": null,
        "AttachmentBaseInstanceDataIndex": 9,
        "SwitchIdentifier": 1
      }
    ],
    "MaxExpectedComponents": 0,
    "HasHomingTargetComponents": false
  },
  "BehaviorProviderDefinition":
    "GD_Aster_Explosives.Barrels.ExplodingWoodBarrelIncendiary:BehaviorProviderDefinition_0",
  "bCreditDamageCausedByThisObjectToWhateverDamagedIt": true,
  "bCanBeKilled": false,
  "bIsKilledWhenHealthEqualsZero": false,
  "bDestroyWhenKilled": false,
  "bCanTakeDirectDamage": true,
  "bCanTakeRadiusDamage": true,
  "bCollideAsEncroacher": false,
  "bUsePlayerInteractionDistanceForTriggerRadius": false,
  "bProjTarget": false,
  "bUsableFromVehicle": false,
  "bSecondaryUsableFromVehicle": false,
  "bAllowUsabilityPassThrough": false,
  "bIsSoldierTurretShield": false,
  "bAlwaysRelevant": false,
  "bIsPossibleHomingTarget": false,
  "bTargetableByAI": true,
  "DoNotBlockWeaponFireFromFriendlies": false,
  "bUseOwnerAllegiance": false,
  "bDoNotBlockPawns": false,
  "bDynamicLightEnvironment": true,
  "bCastShadows": false,
  "bUseBooleanEnvironmentShadowing": false,
  "bDynamic": false,
  "bSynthesizeSHLight": true,
  "bShadowFromEnvironment": true,
  "bAffectedBySmallDynamicLights": false,
  "MaxHealth": {
    "BaseValueConstant": 1.0,
    "BaseValueAttribute": null,
    "InitializationDefinition":
      "GD_Balance_HealthAndDamage.HealthAndDamage.Init_BaseInteractiveObjectHealth",
    "BaseValueScaleConstant": 0.25
  },
  "Mesh": null,
  "CollisionType": "COLLIDE_BlockAll",
  "HUDIcon": "INTERACTION_ICON_None",
  "CompassIcon": "RadarIconType_None",
  "TickGroup": "TG_DuringAsyncWork",
  "RelevanceDistance": "RELEVANCE_Lootable",
  "InstanceData": { "Data": null },
  "HUDIconDef": null,
  "HUDIconDefSecondary": null,
  "TriggerRadius": 300.0,
  "TriggerHeight": 100.0,
  "StatusMenuMapInfoBoxHeader": "",
  "StatusMenuMapInfoBoxDescription": "",
  "VehicleTriggerRadius": 0.0,
  "StatusEffectsParticleSystem":
    "FX_ENV_Fire.Particles.Part_Explo_Barrel_Lit",
  "NameTag": null,
  "InteractiveObjectClass": "WillowGame.WillowInteractiveObject",
  "TargetPriority": 0.0,
  "HealthDisplayHack": 0.0,
  "Allegiance": "GD_AI_Allegiance.Allegiance_ExplosiveBarrel",
  "TargetableSocket": null,
  "TargetableOffset": { "X": 0.0, "Y": 0.0, "Z": 55.0 },
  "AIAvoidRadius": 0.0,
  "bBlockOnTakeDamageWhenDamageEqualZero": 1,
  "FocusRadius": 55.0,
  "FocusOffset": { "X": -0.4, "Y": -0.075, "Z": 0.0 },
  "DefaultHitRegionDefinition": null,
  "LightingBoundsScale": 1.0,
  "ModShadowFadeoutExponent": 3.0,
  "ModShadowFadeoutTime": 0.0,
  "AmbientGlow": { "R": 0.0, "G": 0.0, "B": 0.0, "A": 1.0 },
  "AmbientShadowSourceDirection": { "X": 0.0, "Y": 0.0, "Z": 0.0 },
  "AmbientShadowColor": { "R": 0.0, "G": 0.0, "B": 0.0, "A": 1.0 },
  "DominantShadowTransitionStartDistance": 100.0,
  "DominantShadowTransitionEndDistance": 10.0,
  "SkelUpdate_ThrottleDistance": 10000.0,
  "Skelupdate_ThrottleTime": 5.0,
  "StatusEffectSockets": [ "StatusEffect" ],
  "VfTableObject": "",
  "HashNext": "",
  "ObjectFlags": "",
  "HashOuterNext": "",
  "StateFrame": "",
  "Linker": null,
  "LinkerIndex": "",
  "ObjectInternalInteger": 203699,
  "NetIndex": 863,
  "Outer": "GD_Aster_Explosives.Barrels",
  "Name": "ExplodingWoodBarrelIncendiary",
  "Class": "WillowGame.InteractiveObjectDefinition",
  "ObjectArchetype": "WillowGame.Default__InteractiveObjectDefinition"
}