{
  "VfTable_IIConstructObject": "",
  "VfTable_IIBodyInfoProvider": "",
  "VfTable_IIBehaviorProvider": "",
  "VfTable_IIHitRegionInfoProvider": "",
  "BodyComposition": {
    "Attachments": [
      {
        "Data": {
          "Name": null,
          "Type": "IDT_ActorComponent",
          "Replication": "IDR_Server",
          "MaxSwitchValue": 0,
          "BitsRequiredForMaxSwitchValue": 0,
          "Bool": false,
          "DeleteByOwner": false,
          "Int": 0,
          "Float": 0.0,
          "Vector": { "X": 0.0, "Y": 0.0, "Z": 0.0 },
          "Object": null,
          "ComponentData": {
            "Component":
              "GD_Aster_Plot_Mission03Data.InteractiveObjects.IO_Switch_DwarvenGear_L1:CylinderComponent_1918",
            "CollisionType": "COLLIDE_BlockAll",
            "bAttachToMesh": false,
            "bIsUsable": false,
            "bIsSecondaryUsable": false,
            "MeshSocketName": null,
            "HitRegionDefinition": null,
            "InteractIcon": null,
            "SecondaryInteractIcon": null
          },
          "String": null,
          "BodyCompositionIndex": 1
        },
        "ParentAttachmentIdentifier": null,
        "AttachmentBaseInstanceDataIndex": -1,
        "SwitchIdentifier": 0
      },
      {
        "Data": {
          "Name": null,
          "Type": "IDT_ActorComponent",
          "Replication": "IDR_Server",
          "MaxSwitchValue": 0,
          "BitsRequiredForMaxSwitchValue": 0,
          "Bool": false,
          "DeleteByOwner": false,
          "Int": 0,
          "Float": 0.0,
          "Vector": { "X": 0.0, "Y": 0.0, "Z": 0.0 },
          "Object": null,
          "ComponentData": {
            "Component":
              "GD_Aster_Plot_Mission03Data.InteractiveObjects.IO_Switch_DwarvenGear_L1:StaticMeshComponent_7337",
            "CollisionType": "COLLIDE_CustomDefault",
            "bAttachToMesh": false,
            "bIsUsable": false,
            "bIsSecondaryUsable": false,
            "MeshSocketName": null,
            "HitRegionDefinition": null,
            "InteractIcon": null,
            "SecondaryInteractIcon": null
          },
          "String": null,
          "BodyCompositionIndex": 2
        },
        "ParentAttachmentIdentifier": null,
        "AttachmentBaseInstanceDataIndex": -1,
        "SwitchIdentifier": 0
      },
      {
        "Data": {
          "Name": null,
          "Type": "IDT_ActorComponent",
          "Replication": "IDR_Server",
          "MaxSwitchValue": 0,
          "BitsRequiredForMaxSwitchValue": 0,
          "Bool": false,
          "DeleteByOwner": false,
          "Int": 0,
          "Float": 0.0,
          "Vector": { "X": 0.0, "Y": 0.0, "Z": 0.0 },
          "Object": null,
          "ComponentData": {
            "Component":
              "GD_Aster_Plot_Mission03Data.InteractiveObjects.IO_Switch_DwarvenGear_L1:SocketComponent_1830",
            "CollisionType": "COLLIDE_CustomDefault",
            "bAttachToMesh": false,
            "bIsUsable": false,
            "bIsSecondaryUsable": false,
            "MeshSocketName": null,
            "HitRegionDefinition": null,
            "InteractIcon": null,
            "SecondaryInteractIcon": null
          },
          "String": null,
          "BodyCompositionIndex": 3
        },
        "ParentAttachmentIdentifier": null,
        "AttachmentBaseInstanceDataIndex": -1,
        "SwitchIdentifier": 0
      },
      {
        "Data": {
          "Name": "GlowSwitch",
          "Type": "IDT_Switch",
          "Replication": "IDR_Server",
          "MaxSwitchValue": 1,
          "BitsRequiredForMaxSwitchValue": 1,
          "Bool": false,
          "DeleteByOwner": false,
          "Int": 0,
          "Float": 0.0,
          "Vector": { "X": 0.0, "Y": 0.0, "Z": 0.0 },
          "Object": null,
          "ComponentData": {
            "Component": null,
            "CollisionType": "COLLIDE_CustomDefault",
            "bAttachToMesh": false,
            "bIsUsable": false,
            "bIsSecondaryUsable": false,
            "MeshSocketName": null,
            "HitRegionDefinition": null,
            "InteractIcon": null,
            "SecondaryInteractIcon": null
          },
          "String": null,
          "BodyCompositionIndex": 4
        },
        "ParentAttachmentIdentifier": null,
        "AttachmentBaseInstanceDataIndex": -1,
        "SwitchIdentifier": 0
      },
      {
        "Data": {
          "Name": "Enabled",
          "Type": "IDT_Switch",
          "Replication": "IDR_Server",
          "MaxSwitchValue": 2,
          "BitsRequiredForMaxSwitchValue": 2,
          "Bool": false,
          "DeleteByOwner": false,
          "Int": 1,
          "Float": 0.0,
          "Vector": { "X": 0.0, "Y": 0.0, "Z": 0.0 },
          "Object": null,
          "ComponentData": {
            "Component": null,
            "CollisionType": "COLLIDE_CustomDefault",
            "bAttachToMesh": false,
            "bIsUsable": false,
            "bIsSecondaryUsable": false,
            "MeshSocketName": null,
            "HitRegionDefinition": null,
            "InteractIcon": null,
            "SecondaryInteractIcon": null
          },
          "String": null,
          "BodyCompositionIndex": 5
        },
        "ParentAttachmentIdentifier": null,
        "AttachmentBaseInstanceDataIndex": 3,
        "SwitchIdentifier": 0
      },
      {
        "Data": {
          "Name": "Wheel",
          "Type": "IDT_Switch",
          "Replication": "IDR_Server",
          "MaxSwitchValue": 3,
          "BitsRequiredForMaxSwitchValue": 2,
          "Bool": false,
          "DeleteByOwner": false,
          "Int": 0,
          "Float": 0.3,
          "Vector": { "X": 0.0, "Y": 0.0, "Z": 0.0 },
          "Object": null,
          "ComponentData": {
            "Component": null,
            "CollisionType": "COLLIDE_CustomDefault",
            "bAttachToMesh": false,
            "bIsUsable": false,
            "bIsSecondaryUsable": false,
            "MeshSocketName": null,
            "HitRegionDefinition": null,
            "InteractIcon": null,
            "SecondaryInteractIcon": null
          },
          "String": null,
          "BodyCompositionIndex": 6
        },
        "ParentAttachmentIdentifier": null,
        "AttachmentBaseInstanceDataIndex": 4,
        "SwitchIdentifier": 0
      },
      {
        "Data": {
          "Name": null,
          "Type": "IDT_ActorComponent",
          "Replication": "IDR_Server",
          "MaxSwitchValue": 0,
          "BitsRequiredForMaxSwitchValue": 0,
          "Bool": false,
          "DeleteByOwner": false,
          "Int": 0,
          "Float": 0.0,
          "Vector": { "X": 0.0, "Y": 0.0, "Z": 0.0 },
          "Object": null,
          "ComponentData": {
            "Component":
              "GD_Aster_Plot_Mission03Data.InteractiveObjects.IO_Switch_DwarvenGear_L1:StaticMeshComponent_7338",
            "CollisionType": "COLLIDE_NoCollision",
            "bAttachToMesh": false,
            "bIsUsable": false,
            "bIsSecondaryUsable": false,
            "MeshSocketName": null,
            "HitRegionDefinition": null,
            "InteractIcon": null,
            "SecondaryInteractIcon": null
          },
          "String": null,
          "BodyCompositionIndex": 7
        },
        "ParentAttachmentIdentifier": null,
        "AttachmentBaseInstanceDataIndex": 5,
        "SwitchIdentifier": 0
      },
      {
        "Data": {
          "Name": null,
          "Type": "IDT_ActorComponent",
          "Replication": "IDR_Server",
          "MaxSwitchValue": 0,
          "BitsRequiredForMaxSwitchValue": 0,
          "Bool": false,
          "DeleteByOwner": false,
          "Int": 0,
          "Float": 0.0,
          "Vector": { "X": 0.0, "Y": 0.0, "Z": 0.0 },
          "Object": null,
          "ComponentData": {
            "Component":
              "GD_Aster_Plot_Mission03Data.InteractiveObjects.IO_Switch_DwarvenGear_L1:StaticMeshComponent_7339",
            "CollisionType": "COLLIDE_NoCollision",
            "bAttachToMesh": false,
            "bIsUsable": false,
            "bIsSecondaryUsable": false,
            "MeshSocketName": null,
            "HitRegionDefinition": null,
            "InteractIcon": null,
            "SecondaryInteractIcon": null
          },
          "String": null,
          "BodyCompositionIndex": 8
        },
        "ParentAttachmentIdentifier": null,
        "AttachmentBaseInstanceDataIndex": 5,
        "SwitchIdentifier": 1
      },
      {
        "Data": {
          "Name": null,
          "Type": "IDT_ActorComponent",
          "Replication": "IDR_Server",
          "MaxSwitchValue": 0,
          "BitsRequiredForMaxSwitchValue": 0,
          "Bool": false,
          "DeleteByOwner": false,
          "Int": 0,
          "Float": 0.0,
          "Vector": { "X": 0.0, "Y": 0.0, "Z": 0.0 },
          "Object": null,
          "ComponentData": {
            "Component":
              "GD_Aster_Plot_Mission03Data.InteractiveObjects.IO_Switch_DwarvenGear_L1:StaticMeshComponent_7340",
            "CollisionType": "COLLIDE_NoCollision",
            "bAttachToMesh": false,
            "bIsUsable": false,
            "bIsSecondaryUsable": false,
            "MeshSocketName": null,
            "HitRegionDefinition": null,
            "InteractIcon": null,
            "SecondaryInteractIcon": null
          },
          "String": null,
          "BodyCompositionIndex": 9
        },
        "ParentAttachmentIdentifier": null,
        "AttachmentBaseInstanceDataIndex": 5,
        "SwitchIdentifier": 2
      },
      {
        "Data": {
          "Name": null,
          "Type": "IDT_ActorComponent",
          "Replication": "IDR_Server",
          "MaxSwitchValue": 0,
          "BitsRequiredForMaxSwitchValue": 0,
          "Bool": false,
          "DeleteByOwner": false,
          "Int": 0,
          "Float": 0.0,
          "Vector": { "X": 0.0, "Y": 0.0, "Z": 0.0 },
          "Object": null,
          "ComponentData": {
            "Component":
              "GD_Aster_Plot_Mission03Data.InteractiveObjects.IO_Switch_DwarvenGear_L1:StaticMeshComponent_7341",
            "CollisionType": "COLLIDE_NoCollision",
            "bAttachToMesh": false,
            "bIsUsable": false,
            "bIsSecondaryUsable": false,
            "MeshSocketName": null,
            "HitRegionDefinition": null,
            "InteractIcon": null,
            "SecondaryInteractIcon": null
          },
          "String": null,
          "BodyCompositionIndex": 10
        },
        "ParentAttachmentIdentifier": null,
        "AttachmentBaseInstanceDataIndex": 5,
        "SwitchIdentifier": 3
      },
      {
        "Data": {
          "Name": "Wheel",
          "Type": "IDT_Switch",
          "Replication": "IDR_Server",
          "MaxSwitchValue": 3,
          "BitsRequiredForMaxSwitchValue": 2,
          "Bool": false,
          "DeleteByOwner": false,
          "Int": 0,
          "Float": 0.3,
          "Vector": { "X": 0.0, "Y": 0.0, "Z": 0.0 },
          "Object": null,
          "ComponentData": {
            "Component": null,
            "CollisionType": "COLLIDE_CustomDefault",
            "bAttachToMesh": false,
            "bIsUsable": false,
            "bIsSecondaryUsable": false,
            "MeshSocketName": null,
            "HitRegionDefinition": null,
            "InteractIcon": null,
            "SecondaryInteractIcon": null
          },
          "String": null,
          "BodyCompositionIndex": 11
        },
        "ParentAttachmentIdentifier": null,
        "AttachmentBaseInstanceDataIndex": 4,
        "SwitchIdentifier": 0
      },
      {
        "Data": {
          "Name": null,
          "Type": "IDT_ActorComponent",
          "Replication": "IDR_Server",
          "MaxSwitchValue": 0,
          "BitsRequiredForMaxSwitchValue": 0,
          "Bool": false,
          "DeleteByOwner": false,
          "Int": 0,
          "Float": 0.0,
          "Vector": { "X": 0.0, "Y": 0.0, "Z": 0.0 },
          "Object": null,
          "ComponentData": {
            "Component":
              "GD_Aster_Plot_Mission03Data.InteractiveObjects.IO_Switch_DwarvenGear_L1:StaticMeshComponent_7342",
            "CollisionType": "COLLIDE_CustomDefault",
            "bAttachToMesh": false,
            "bIsUsable": false,
            "bIsSecondaryUsable": false,
            "MeshSocketName": null,
            "HitRegionDefinition": null,
            "InteractIcon": null,
            "SecondaryInteractIcon": null
          },
          "String": null,
          "BodyCompositionIndex": 12
        },
        "ParentAttachmentIdentifier": null,
        "AttachmentBaseInstanceDataIndex": 10,
        "SwitchIdentifier": 0
      },
      {
        "Data": {
          "Name": null,
          "Type": "IDT_ActorComponent",
          "Replication": "IDR_Server",
          "MaxSwitchValue": 0,
          "BitsRequiredForMaxSwitchValue": 0,
          "Bool": false,
          "DeleteByOwner": false,
          "Int": 0,
          "Float": 0.0,
          "Vector": { "X": 0.0, "Y": 0.0, "Z": 0.0 },
          "Object": null,
          "ComponentData": {
            "Component":
              "GD_Aster_Plot_Mission03Data.InteractiveObjects.IO_Switch_DwarvenGear_L1:StaticMeshComponent_7343",
            "CollisionType": "COLLIDE_CustomDefault",
            "bAttachToMesh": false,
            "bIsUsable": false,
            "bIsSecondaryUsable": false,
            "MeshSocketName": null,
            "HitRegionDefinition": null,
            "InteractIcon": null,
            "SecondaryInteractIcon": null
          },
          "String": null,
          "BodyCompositionIndex": 13
        },
        "ParentAttachmentIdentifier": null,
        "AttachmentBaseInstanceDataIndex": 10,
        "SwitchIdentifier": 1
      },
      {
        "Data": {
          "Name": null,
          "Type": "IDT_ActorComponent",
          "Replication": "IDR_Server",
          "MaxSwitchValue": 0,
          "BitsRequiredForMaxSwitchValue": 0,
          "Bool": false,
          "DeleteByOwner": false,
          "Int": 0,
          "Float": 0.0,
          "Vector": { "X": 0.0, "Y": 0.0, "Z": 0.0 },
          "Object": null,
          "ComponentData": {
            "Component":
              "GD_Aster_Plot_Mission03Data.InteractiveObjects.IO_Switch_DwarvenGear_L1:StaticMeshComponent_7344",
            "CollisionType": "COLLIDE_CustomDefault",
            "bAttachToMesh": false,
            "bIsUsable": false,
            "bIsSecondaryUsable": false,
            "MeshSocketName": null,
            "HitRegionDefinition": null,
            "InteractIcon": null,
            "SecondaryInteractIcon": null
          },
          "String": null,
          "BodyCompositionIndex": 14
        },
        "ParentAttachmentIdentifier": null,
        "AttachmentBaseInstanceDataIndex": 10,
        "SwitchIdentifier": 2
      },
      {
        "Data": {
          "Name": null,
          "Type": "IDT_ActorComponent",
          "Replication": "IDR_Server",
          "MaxSwitchValue": 0,
          "BitsRequiredForMaxSwitchValue": 0,
          "Bool": false,
          "DeleteByOwner": false,
          "Int": 0,
          "Float": 0.0,
          "Vector": { "X": 0.0, "Y": 0.0, "Z": 0.0 },
          "Object": null,
          "ComponentData": {
            "Component":
              "GD_Aster_Plot_Mission03Data.InteractiveObjects.IO_Switch_DwarvenGear_L1:StaticMeshComponent_7345",
            "CollisionType": "COLLIDE_CustomDefault",
            "bAttachToMesh": false,
            "bIsUsable": false,
            "bIsSecondaryUsable": false,
            "MeshSocketName": null,
            "HitRegionDefinition": null,
            "InteractIcon": null,
            "SecondaryInteractIcon": null
          },
          "String": null,
          "BodyCompositionIndex": 15
        },
        "ParentAttachmentIdentifier": null,
        "AttachmentBaseInstanceDataIndex": 10,
        "SwitchIdentifier": 3
      },
      {
        "Data": {
          "Name": "Wheel",
          "Type": "IDT_Switch",
          "Replication": "IDR_Server",
          "MaxSwitchValue": 1,
          "BitsRequiredForMaxSwitchValue": 1,
          "Bool": false,
          "DeleteByOwner": false,
          "Int": 0,
          "Float": 0.1,
          "Vector": { "X": 0.0, "Y": 0.0, "Z": 0.0 },
          "Object": null,
          "ComponentData": {
            "Component": null,
            "CollisionType": "COLLIDE_CustomDefault",
            "bAttachToMesh": false,
            "bIsUsable": false,
            "bIsSecondaryUsable": false,
            "MeshSocketName": null,
            "HitRegionDefinition": null,
            "InteractIcon": null,
            "SecondaryInteractIcon": null
          },
          "String": null,
          "BodyCompositionIndex": 16
        },
        "ParentAttachmentIdentifier": null,
        "AttachmentBaseInstanceDataIndex": 4,
        "SwitchIdentifier": 1
      },
      {
        "Data": {
          "Name": null,
          "Type": "IDT_ActorComponent",
          "Replication": "IDR_Server",
          "MaxSwitchValue": 0,
          "BitsRequiredForMaxSwitchValue": 0,
          "Bool": false,
          "DeleteByOwner": false,
          "Int": 0,
          "Float": 0.0,
          "Vector": { "X": 0.0, "Y": 0.0, "Z": 0.0 },
          "Object": null,
          "ComponentData": {
            "Component":
              "GD_Aster_Plot_Mission03Data.InteractiveObjects.IO_Switch_DwarvenGear_L1:StaticMeshComponent_7346",
            "CollisionType": "COLLIDE_NoCollision",
            "bAttachToMesh": false,
            "bIsUsable": false,
            "bIsSecondaryUsable": false,
            "MeshSocketName": null,
            "HitRegionDefinition": null,
            "InteractIcon": null,
            "SecondaryInteractIcon": null
          },
          "String": null,
          "BodyCompositionIndex": 17
        },
        "ParentAttachmentIdentifier": null,
        "AttachmentBaseInstanceDataIndex": 15,
        "SwitchIdentifier": 0
      },
      {
        "Data": {
          "Name": null,
          "Type": "IDT_ActorComponent",
          "Replication": "IDR_Server",
          "MaxSwitchValue": 0,
          "BitsRequiredForMaxSwitchValue": 0,
          "Bool": false,
          "DeleteByOwner": false,
          "Int": 0,
          "Float": 0.0,
          "Vector": { "X": 0.0, "Y": 0.0, "Z": 0.0 },
          "Object": null,
          "ComponentData": {
            "Component":
              "GD_Aster_Plot_Mission03Data.InteractiveObjects.IO_Switch_DwarvenGear_L1:StaticMeshComponent_7347",
            "CollisionType": "COLLIDE_NoCollision",
            "bAttachToMesh": false,
            "bIsUsable": false,
            "bIsSecondaryUsable": false,
            "MeshSocketName": null,
            "HitRegionDefinition": null,
            "InteractIcon": null,
            "SecondaryInteractIcon": null
          },
          "String": null,
          "BodyCompositionIndex": 18
        },
        "ParentAttachmentIdentifier": null,
        "AttachmentBaseInstanceDataIndex": 15,
        "SwitchIdentifier": 1
      },
      {
        "Data": {
          "Name": "Wheel",
          "Type": "IDT_Switch",
          "Replication": "IDR_Server",
          "MaxSwitchValue": 1,
          "BitsRequiredForMaxSwitchValue": 1,
          "Bool": false,
          "DeleteByOwner": false,
          "Int": 0,
          "Float": 0.1,
          "Vector": { "X": 0.0, "Y": 0.0, "Z": 0.0 },
          "Object": null,
          "ComponentData": {
            "Component": null,
            "CollisionType": "COLLIDE_CustomDefault",
            "bAttachToMesh": false,
            "bIsUsable": false,
            "bIsSecondaryUsable": false,
            "MeshSocketName": null,
            "HitRegionDefinition": null,
            "InteractIcon": null,
            "SecondaryInteractIcon": null
          },
          "String": null,
          "BodyCompositionIndex": 19
        },
        "ParentAttachmentIdentifier": null,
        "AttachmentBaseInstanceDataIndex": 4,
        "SwitchIdentifier": 1
      },
      {
        "Data": {
          "Name": null,
          "Type": "IDT_ActorComponent",
          "Replication": "IDR_Server",
          "MaxSwitchValue": 0,
          "BitsRequiredForMaxSwitchValue": 0,
          "Bool": false,
          "DeleteByOwner": false,
          "Int": 0,
          "Float": 0.0,
          "Vector": { "X": 0.0, "Y": 0.0, "Z": 0.0 },
          "Object": null,
          "ComponentData": {
            "Component":
              "GD_Aster_Plot_Mission03Data.InteractiveObjects.IO_Switch_DwarvenGear_L1:StaticMeshComponent_7348",
            "CollisionType": "COLLIDE_CustomDefault",
            "bAttachToMesh": false,
            "bIsUsable": false,
            "bIsSecondaryUsable": false,
            "MeshSocketName": null,
            "HitRegionDefinition": null,
            "InteractIcon": null,
            "SecondaryInteractIcon": null
          },
          "String": null,
          "BodyCompositionIndex": 20
        },
        "ParentAttachmentIdentifier": null,
        "AttachmentBaseInstanceDataIndex": 18,
        "SwitchIdentifier": 0
      },
      {
        "Data": {
          "Name": null,
          "Type": "IDT_ActorComponent",
          "Replication": "IDR_Server",
          "MaxSwitchValue": 0,
          "BitsRequiredForMaxSwitchValue": 0,
          "Bool": false,
          "DeleteByOwner": false,
          "Int": 0,
          "Float": 0.0,
          "Vector": { "X": 0.0, "Y": 0.0, "Z": 0.0 },
          "Object": null,
          "ComponentData": {
            "Component":
              "GD_Aster_Plot_Mission03Data.InteractiveObjects.IO_Switch_DwarvenGear_L1:StaticMeshComponent_7349",
            "CollisionType": "COLLIDE_CustomDefault",
            "bAttachToMesh": false,
            "bIsUsable": false,
            "bIsSecondaryUsable": false,
            "MeshSocketName": null,
            "HitRegionDefinition": null,
            "InteractIcon": null,
            "SecondaryInteractIcon": null
          },
          "String": null,
          "BodyCompositionIndex": 21
        },
        "ParentAttachmentIdentifier": null,
        "AttachmentBaseInstanceDataIndex": 18,
        "SwitchIdentifier": 1
      },
      {
        "Data": {
          "Name": null,
          "Type": "IDT_ActorComponent",
          "Replication": "IDR_Server",
          "MaxSwitchValue": 0,
          "BitsRequiredForMaxSwitchValue": 0,
          "Bool": false,
          "DeleteByOwner": false,
          "Int": 0,
          "Float": 0.0,
          "Vector": { "X": 0.0, "Y": 0.0, "Z": 0.0 },
          "Object": null,
          "ComponentData": {
            "Component":
              "GD_Aster_Plot_Mission03Data.InteractiveObjects.IO_Switch_DwarvenGear_L1:StaticMeshComponent_7350",
            "CollisionType": "COLLIDE_NoCollision",
            "bAttachToMesh": false,
            "bIsUsable": false,
            "bIsSecondaryUsable": false,
            "MeshSocketName": null,
            "HitRegionDefinition": null,
            "InteractIcon": null,
            "SecondaryInteractIcon": null
          },
          "String": null,
          "BodyCompositionIndex": 22
        },
        "ParentAttachmentIdentifier": null,
        "AttachmentBaseInstanceDataIndex": 4,
        "SwitchIdentifier": 2
      },
      {
        "Data": {
          "Name": null,
          "Type": "IDT_ActorComponent",
          "Replication": "IDR_Server",
          "MaxSwitchValue": 0,
          "BitsRequiredForMaxSwitchValue": 0,
          "Bool": false,
          "DeleteByOwner": false,
          "Int": 0,
          "Float": 0.0,
          "Vector": { "X": 0.0, "Y": 0.0, "Z": 0.0 },
          "Object": null,
          "ComponentData": {
            "Component":
              "GD_Aster_Plot_Mission03Data.InteractiveObjects.IO_Switch_DwarvenGear_L1:StaticMeshComponent_7351",
            "CollisionType": "COLLIDE_CustomDefault",
            "bAttachToMesh": false,
            "bIsUsable": false,
            "bIsSecondaryUsable": false,
            "MeshSocketName": null,
            "HitRegionDefinition": null,
            "InteractIcon": null,
            "SecondaryInteractIcon": null
          },
          "String": null,
          "BodyCompositionIndex": 23
        },
        "ParentAttachmentIdentifier": null,
        "AttachmentBaseInstanceDataIndex": 4,
        "SwitchIdentifier": 2
      },
      {
        "Data": {
          "Name": "Enabled",
          "Type": "IDT_Switch",
          "Replication": "IDR_Server",
          "MaxSwitchValue": 2,
          "BitsRequiredForMaxSwitchValue": 2,
          "Bool": false,
          "DeleteByOwner": false,
          "Int": 0,
          "Float": 0.0,
          "Vector": { "X": 0.0, "Y": 0.0, "Z": 0.0 },
          "Object": null,
          "ComponentData": {
            "Component": null,
            "CollisionType": "COLLIDE_CustomDefault",
            "bAttachToMesh": false,
            "bIsUsable": false,
            "bIsSecondaryUsable": false,
            "MeshSocketName": null,
            "HitRegionDefinition": null,
            "InteractIcon": null,
            "SecondaryInteractIcon": null
          },
          "String": null,
          "BodyCompositionIndex": 24
        },
        "ParentAttachmentIdentifier": null,
        "AttachmentBaseInstanceDataIndex": 3,
        "SwitchIdentifier": 1
      },
      {
        "Data": {
          "Name": "Wheel",
          "Type": "IDT_Switch",
          "Replication": "IDR_Server",
          "MaxSwitchValue": 3,
          "BitsRequiredForMaxSwitchValue": 2,
          "Bool": false,
          "DeleteByOwner": false,
          "Int": 0,
          "Float": 0.3,
          "Vector": { "X": 0.0, "Y": 0.0, "Z": 0.0 },
          "Object": null,
          "ComponentData": {
            "Component": null,
            "CollisionType": "COLLIDE_CustomDefault",
            "bAttachToMesh": false,
            "bIsUsable": false,
            "bIsSecondaryUsable": false,
            "MeshSocketName": null,
            "HitRegionDefinition": null,
            "InteractIcon": null,
            "SecondaryInteractIcon": null
          },
          "String": null,
          "BodyCompositionIndex": 25
        },
        "ParentAttachmentIdentifier": null,
        "AttachmentBaseInstanceDataIndex": 23,
        "SwitchIdentifier": 0
      },
      {
        "Data": {
          "Name": null,
          "Type": "IDT_ActorComponent",
          "Replication": "IDR_Server",
          "MaxSwitchValue": 0,
          "BitsRequiredForMaxSwitchValue": 0,
          "Bool": false,
          "DeleteByOwner": false,
          "Int": 0,
          "Float": 0.0,
          "Vector": { "X": 0.0, "Y": 0.0, "Z": 0.0 },
          "Object": null,
          "ComponentData": {
            "Component":
              "GD_Aster_Plot_Mission03Data.InteractiveObjects.IO_Switch_DwarvenGear_L1:StaticMeshComponent_7352",
            "CollisionType": "COLLIDE_NoCollision",
            "bAttachToMesh": false,
            "bIsUsable": false,
            "bIsSecondaryUsable": false,
            "MeshSocketName": null,
            "HitRegionDefinition": null,
            "InteractIcon": null,
            "SecondaryInteractIcon": null
          },
          "String": null,
          "BodyCompositionIndex": 26
        },
        "ParentAttachmentIdentifier": null,
        "AttachmentBaseInstanceDataIndex": 24,
        "SwitchIdentifier": 0
      },
      {
        "Data": {
          "Name": null,
          "Type": "IDT_ActorComponent",
          "Replication": "IDR_Server",
          "MaxSwitchValue": 0,
          "BitsRequiredForMaxSwitchValue": 0,
          "Bool": false,
          "DeleteByOwner": false,
          "Int": 0,
          "Float": 0.0,
          "Vector": { "X": 0.0, "Y": 0.0, "Z": 0.0 },
          "Object": null,
          "ComponentData": {
            "Component":
              "GD_Aster_Plot_Mission03Data.InteractiveObjects.IO_Switch_DwarvenGear_L1:StaticMeshComponent_7353",
            "CollisionType": "COLLIDE_NoCollision",
            "bAttachToMesh": false,
            "bIsUsable": false,
            "bIsSecondaryUsable": false,
            "MeshSocketName": null,
            "HitRegionDefinition": null,
            "InteractIcon": null,
            "SecondaryInteractIcon": null
          },
          "String": null,
          "BodyCompositionIndex": 27
        },
        "ParentAttachmentIdentifier": null,
        "AttachmentBaseInstanceDataIndex": 24,
        "SwitchIdentifier": 1
      },
      {
        "Data": {
          "Name": null,
          "Type": "IDT_ActorComponent",
          "Replication": "IDR_Server",
          "MaxSwitchValue": 0,
          "BitsRequiredForMaxSwitchValue": 0,
          "Bool": false,
          "DeleteByOwner": false,
          "Int": 0,
          "Float": 0.0,
          "Vector": { "X": 0.0, "Y": 0.0, "Z": 0.0 },
          "Object": null,
          "ComponentData": {
            "Component":
              "GD_Aster_Plot_Mission03Data.InteractiveObjects.IO_Switch_DwarvenGear_L1:StaticMeshComponent_7354",
            "CollisionType": "COLLIDE_NoCollision",
            "bAttachToMesh": false,
            "bIsUsable": false,
            "bIsSecondaryUsable": false,
            "MeshSocketName": null,
            "HitRegionDefinition": null,
            "InteractIcon": null,
            "SecondaryInteractIcon": null
          },
          "String": null,
          "BodyCompositionIndex": 28
        },
        "ParentAttachmentIdentifier": null,
        "AttachmentBaseInstanceDataIndex": 24,
        "SwitchIdentifier": 2
      },
      {
        "Data": {
          "Name": null,
          "Type": "IDT_ActorComponent",
          "Replication": "IDR_Server",
          "MaxSwitchValue": 0,
          "BitsRequiredForMaxSwitchValue": 0,
          "Bool": false,
          "DeleteByOwner": false,
          "Int": 0,
          "Float": 0.0,
          "Vector": { "X": 0.0, "Y": 0.0, "Z": 0.0 },
          "Object": null,
          "ComponentData": {
            "Component":
              "GD_Aster_Plot_Mission03Data.InteractiveObjects.IO_Switch_DwarvenGear_L1:StaticMeshComponent_7355",
            "CollisionType": "COLLIDE_NoCollision",
            "bAttachToMesh": false,
            "bIsUsable": false,
            "bIsSecondaryUsable": false,
            "MeshSocketName": null,
            "HitRegionDefinition": null,
            "InteractIcon": null,
            "SecondaryInteractIcon": null
          },
          "String": null,
          "BodyCompositionIndex": 29
        },
        "ParentAttachmentIdentifier": null,
        "AttachmentBaseInstanceDataIndex": 24,
        "SwitchIdentifier": 3
      },
      {
        "Data": {
          "Name": "Wheel",
          "Type": "IDT_Switch",
          "Replication": "IDR_Server",
          "MaxSwitchValue": 3,
          "BitsRequiredForMaxSwitchValue": 2,
          "Bool": false,
          "DeleteByOwner": false,
          "Int": 0,
          "Float": 0.3,
          "Vector": { "X": 0.0, "Y": 0.0, "Z": 0.0 },
          "Object": null,
          "ComponentData": {
            "Component": null,
            "CollisionType": "COLLIDE_CustomDefault",
            "bAttachToMesh": false,
            "bIsUsable": false,
            "bIsSecondaryUsable": false,
            "MeshSocketName": null,
            "HitRegionDefinition": null,
            "InteractIcon": null,
            "SecondaryInteractIcon": null
          },
          "String": null,
          "BodyCompositionIndex": 30
        },
        "ParentAttachmentIdentifier": null,
        "AttachmentBaseInstanceDataIndex": 23,
        "SwitchIdentifier": 0
      },
      {
        "Data": {
          "Name": null,
          "Type": "IDT_ActorComponent",
          "Replication": "IDR_Server",
          "MaxSwitchValue": 0,
          "BitsRequiredForMaxSwitchValue": 0,
          "Bool": false,
          "DeleteByOwner": false,
          "Int": 0,
          "Float": 0.0,
          "Vector": { "X": 0.0, "Y": 0.0, "Z": 0.0 },
          "Object": null,
          "ComponentData": {
            "Component":
              "GD_Aster_Plot_Mission03Data.InteractiveObjects.IO_Switch_DwarvenGear_L1:StaticMeshComponent_7356",
            "CollisionType": "COLLIDE_CustomDefault",
            "bAttachToMesh": false,
            "bIsUsable": false,
            "bIsSecondaryUsable": false,
            "MeshSocketName": null,
            "HitRegionDefinition": null,
            "InteractIcon": null,
            "SecondaryInteractIcon": null
          },
          "String": null,
          "BodyCompositionIndex": 31
        },
        "ParentAttachmentIdentifier": null,
        "AttachmentBaseInstanceDataIndex": 29,
        "SwitchIdentifier": 0
      },
      {
        "Data": {
          "Name": null,
          "Type": "IDT_ActorComponent",
          "Replication": "IDR_Server",
          "MaxSwitchValue": 0,
          "BitsRequiredForMaxSwitchValue": 0,
          "Bool": false,
          "DeleteByOwner": false,
          "Int": 0,
          "Float": 0.0,
          "Vector": { "X": 0.0, "Y": 0.0, "Z": 0.0 },
          "Object": null,
          "ComponentData": {
            "Component":
              "GD_Aster_Plot_Mission03Data.InteractiveObjects.IO_Switch_DwarvenGear_L1:StaticMeshComponent_7357",
            "CollisionType": "COLLIDE_CustomDefault",
            "bAttachToMesh": false,
            "bIsUsable": false,
            "bIsSecondaryUsable": false,
            "MeshSocketName": null,
            "HitRegionDefinition": null,
            "InteractIcon": null,
            "SecondaryInteractIcon": null
          },
          "String": null,
          "BodyCompositionIndex": 32
        },
        "ParentAttachmentIdentifier": null,
        "AttachmentBaseInstanceDataIndex": 29,
        "SwitchIdentifier": 1
      },
      {
        "Data": {
          "Name": null,
          "Type": "IDT_ActorComponent",
          "Replication": "IDR_Server",
          "MaxSwitchValue": 0,
          "BitsRequiredForMaxSwitchValue": 0,
          "Bool": false,
          "DeleteByOwner": false,
          "Int": 0,
          "Float": 0.0,
          "Vector": { "X": 0.0, "Y": 0.0, "Z": 0.0 },
          "Object": null,
          "ComponentData": {
            "Component":
              "GD_Aster_Plot_Mission03Data.InteractiveObjects.IO_Switch_DwarvenGear_L1:StaticMeshComponent_7358",
            "CollisionType": "COLLIDE_CustomDefault",
            "bAttachToMesh": false,
            "bIsUsable": false,
            "bIsSecondaryUsable": false,
            "MeshSocketName": null,
            "HitRegionDefinition": null,
            "InteractIcon": null,
            "SecondaryInteractIcon": null
          },
          "String": null,
          "BodyCompositionIndex": 33
        },
        "ParentAttachmentIdentifier": null,
        "AttachmentBaseInstanceDataIndex": 29,
        "SwitchIdentifier": 2
      },
      {
        "Data": {
          "Name": null,
          "Type": "IDT_ActorComponent",
          "Replication": "IDR_Server",
          "MaxSwitchValue": 0,
          "BitsRequiredForMaxSwitchValue": 0,
          "Bool": false,
          "DeleteByOwner": false,
          "Int": 0,
          "Float": 0.0,
          "Vector": { "X": 0.0, "Y": 0.0, "Z": 0.0 },
          "Object": null,
          "ComponentData": {
            "Component":
              "GD_Aster_Plot_Mission03Data.InteractiveObjects.IO_Switch_DwarvenGear_L1:StaticMeshComponent_7359",
            "CollisionType": "COLLIDE_CustomDefault",
            "bAttachToMesh": false,
            "bIsUsable": false,
            "bIsSecondaryUsable": false,
            "MeshSocketName": null,
            "HitRegionDefinition": null,
            "InteractIcon": null,
            "SecondaryInteractIcon": null
          },
          "String": null,
          "BodyCompositionIndex": 34
        },
        "ParentAttachmentIdentifier": null,
        "AttachmentBaseInstanceDataIndex": 29,
        "SwitchIdentifier": 3
      },
      {
        "Data": {
          "Name": "Wheel",
          "Type": "IDT_Switch",
          "Replication": "IDR_Server",
          "MaxSwitchValue": 1,
          "BitsRequiredForMaxSwitchValue": 1,
          "Bool": false,
          "DeleteByOwner": false,
          "Int": 0,
          "Float": 0.1,
          "Vector": { "X": 0.0, "Y": 0.0, "Z": 0.0 },
          "Object": null,
          "ComponentData": {
            "Component": null,
            "CollisionType": "COLLIDE_CustomDefault",
            "bAttachToMesh": false,
            "bIsUsable": false,
            "bIsSecondaryUsable": false,
            "MeshSocketName": null,
            "HitRegionDefinition": null,
            "InteractIcon": null,
            "SecondaryInteractIcon": null
          },
          "String": null,
          "BodyCompositionIndex": 35
        },
        "ParentAttachmentIdentifier": null,
        "AttachmentBaseInstanceDataIndex": 23,
        "SwitchIdentifier": 1
      },
      {
        "Data": {
          "Name": null,
          "Type": "IDT_ActorComponent",
          "Replication": "IDR_Server",
          "MaxSwitchValue": 0,
          "BitsRequiredForMaxSwitchValue": 0,
          "Bool": false,
          "DeleteByOwner": false,
          "Int": 0,
          "Float": 0.0,
          "Vector": { "X": 0.0, "Y": 0.0, "Z": 0.0 },
          "Object": null,
          "ComponentData": {
            "Component":
              "GD_Aster_Plot_Mission03Data.InteractiveObjects.IO_Switch_DwarvenGear_L1:StaticMeshComponent_7360",
            "CollisionType": "COLLIDE_NoCollision",
            "bAttachToMesh": false,
            "bIsUsable": false,
            "bIsSecondaryUsable": false,
            "MeshSocketName": null,
            "HitRegionDefinition": null,
            "InteractIcon": null,
            "SecondaryInteractIcon": null
          },
          "String": null,
          "BodyCompositionIndex": 36
        },
        "ParentAttachmentIdentifier": null,
        "AttachmentBaseInstanceDataIndex": 34,
        "SwitchIdentifier": 0
      },
      {
        "Data": {
          "Name": null,
          "Type": "IDT_ActorComponent",
          "Replication": "IDR_Server",
          "MaxSwitchValue": 0,
          "BitsRequiredForMaxSwitchValue": 0,
          "Bool": false,
          "DeleteByOwner": false,
          "Int": 0,
          "Float": 0.0,
          "Vector": { "X": 0.0, "Y": 0.0, "Z": 0.0 },
          "Object": null,
          "ComponentData": {
            "Component":
              "GD_Aster_Plot_Mission03Data.InteractiveObjects.IO_Switch_DwarvenGear_L1:StaticMeshComponent_7361",
            "CollisionType": "COLLIDE_NoCollision",
            "bAttachToMesh": false,
            "bIsUsable": false,
            "bIsSecondaryUsable": false,
            "MeshSocketName": null,
            "HitRegionDefinition": null,
            "InteractIcon": null,
            "SecondaryInteractIcon": null
          },
          "String": null,
          "BodyCompositionIndex": 37
        },
        "ParentAttachmentIdentifier": null,
        "AttachmentBaseInstanceDataIndex": 34,
        "SwitchIdentifier": 1
      },
      {
        "Data": {
          "Name": "Wheel",
          "Type": "IDT_Switch",
          "Replication": "IDR_Server",
          "MaxSwitchValue": 1,
          "BitsRequiredForMaxSwitchValue": 1,
          "Bool": false,
          "DeleteByOwner": false,
          "Int": 0,
          "Float": 0.1,
          "Vector": { "X": 0.0, "Y": 0.0, "Z": 0.0 },
          "Object": null,
          "ComponentData": {
            "Component": null,
            "CollisionType": "COLLIDE_CustomDefault",
            "bAttachToMesh": false,
            "bIsUsable": false,
            "bIsSecondaryUsable": false,
            "MeshSocketName": null,
            "HitRegionDefinition": null,
            "InteractIcon": null,
            "SecondaryInteractIcon": null
          },
          "String": null,
          "BodyCompositionIndex": 38
        },
        "ParentAttachmentIdentifier": null,
        "AttachmentBaseInstanceDataIndex": 23,
        "SwitchIdentifier": 1
      },
      {
        "Data": {
          "Name": null,
          "Type": "IDT_ActorComponent",
          "Replication": "IDR_Server",
          "MaxSwitchValue": 0,
          "BitsRequiredForMaxSwitchValue": 0,
          "Bool": false,
          "DeleteByOwner": false,
          "Int": 0,
          "Float": 0.0,
          "Vector": { "X": 0.0, "Y": 0.0, "Z": 0.0 },
          "Object": null,
          "ComponentData": {
            "Component":
              "GD_Aster_Plot_Mission03Data.InteractiveObjects.IO_Switch_DwarvenGear_L1:StaticMeshComponent_7362",
            "CollisionType": "COLLIDE_CustomDefault",
            "bAttachToMesh": false,
            "bIsUsable": false,
            "bIsSecondaryUsable": false,
            "MeshSocketName": null,
            "HitRegionDefinition": null,
            "InteractIcon": null,
            "SecondaryInteractIcon": null
          },
          "String": null,
          "BodyCompositionIndex": 39
        },
        "ParentAttachmentIdentifier": null,
        "AttachmentBaseInstanceDataIndex": 37,
        "SwitchIdentifier": 0
      },
      {
        "Data": {
          "Name": null,
          "Type": "IDT_ActorComponent",
          "Replication": "IDR_Server",
          "MaxSwitchValue": 0,
          "BitsRequiredForMaxSwitchValue": 0,
          "Bool": false,
          "DeleteByOwner": false,
          "Int": 0,
          "Float": 0.0,
          "Vector": { "X": 0.0, "Y": 0.0, "Z": 0.0 },
          "Object": null,
          "ComponentData": {
            "Component":
              "GD_Aster_Plot_Mission03Data.InteractiveObjects.IO_Switch_DwarvenGear_L1:StaticMeshComponent_7363",
            "CollisionType": "COLLIDE_CustomDefault",
            "bAttachToMesh": false,
            "bIsUsable": false,
            "bIsSecondaryUsable": false,
            "MeshSocketName": null,
            "HitRegionDefinition": null,
            "InteractIcon": null,
            "SecondaryInteractIcon": null
          },
          "String": null,
          "BodyCompositionIndex": 40
        },
        "ParentAttachmentIdentifier": null,
        "AttachmentBaseInstanceDataIndex": 37,
        "SwitchIdentifier": 1
      },
      {
        "Data": {
          "Name": null,
          "Type": "IDT_ActorComponent",
          "Replication": "IDR_Server",
          "MaxSwitchValue": 0,
          "BitsRequiredForMaxSwitchValue": 0,
          "Bool": false,
          "DeleteByOwner": false,
          "Int": 0,
          "Float": 0.0,
          "Vector": { "X": 0.0, "Y": 0.0, "Z": 0.0 },
          "Object": null,
          "ComponentData": {
            "Component":
              "GD_Aster_Plot_Mission03Data.InteractiveObjects.IO_Switch_DwarvenGear_L1:StaticMeshComponent_7364",
            "CollisionType": "COLLIDE_NoCollision",
            "bAttachToMesh": false,
            "bIsUsable": false,
            "bIsSecondaryUsable": false,
            "MeshSocketName": null,
            "HitRegionDefinition": null,
            "InteractIcon": null,
            "SecondaryInteractIcon": null
          },
          "String": null,
          "BodyCompositionIndex": 41
        },
        "ParentAttachmentIdentifier": null,
        "AttachmentBaseInstanceDataIndex": 23,
        "SwitchIdentifier": 2
      },
      {
        "Data": {
          "Name": null,
          "Type": "IDT_ActorComponent",
          "Replication": "IDR_Server",
          "MaxSwitchValue": 0,
          "BitsRequiredForMaxSwitchValue": 0,
          "Bool": false,
          "DeleteByOwner": false,
          "Int": 0,
          "Float": 0.0,
          "Vector": { "X": 0.0, "Y": 0.0, "Z": 0.0 },
          "Object": null,
          "ComponentData": {
            "Component":
              "GD_Aster_Plot_Mission03Data.InteractiveObjects.IO_Switch_DwarvenGear_L1:StaticMeshComponent_7365",
            "CollisionType": "COLLIDE_CustomDefault",
            "bAttachToMesh": false,
            "bIsUsable": false,
            "bIsSecondaryUsable": false,
            "MeshSocketName": null,
            "HitRegionDefinition": null,
            "InteractIcon": null,
            "SecondaryInteractIcon": null
          },
          "String": null,
          "BodyCompositionIndex": 42
        },
        "ParentAttachmentIdentifier": null,
        "AttachmentBaseInstanceDataIndex": 23,
        "SwitchIdentifier": 2
      }
    ],
    "MaxExpectedComponents": 0,
    "HasHomingTargetComponents": false
  },
  "BehaviorProviderDefinition":
    "GD_Aster_Plot_Mission03Data.InteractiveObjects.IO_Switch_DwarvenGear_L1:BehaviorProviderDefinition_0",
  "bCreditDamageCausedByThisObjectToWhateverDamagedIt": true,
  "bCanBeKilled": false,
  "bIsKilledWhenHealthEqualsZero": false,
  "bDestroyWhenKilled": true,
  "bCanTakeDirectDamage": false,
  "bCanTakeRadiusDamage": false,
  "bCollideAsEncroacher": false,
  "bUsePlayerInteractionDistanceForTriggerRadius": false,
  "bProjTarget": false,
  "bUsableFromVehicle": false,
  "bSecondaryUsableFromVehicle": false,
  "bAllowUsabilityPassThrough": false,
  "bIsSoldierTurretShield": false,
  "bAlwaysRelevant": false,
  "bIsPossibleHomingTarget": false,
  "bTargetableByAI": true,
  "DoNotBlockWeaponFireFromFriendlies": false,
  "bUseOwnerAllegiance": false,
  "bDoNotBlockPawns": false,
  "bDynamicLightEnvironment": true,
  "bCastShadows": false,
  "bUseBooleanEnvironmentShadowing": true,
  "bDynamic": false,
  "bSynthesizeSHLight": false,
  "bShadowFromEnvironment": true,
  "bAffectedBySmallDynamicLights": false,
  "MaxHealth": {
    "BaseValueConstant": 0.0,
    "BaseValueAttribute": null,
    "InitializationDefinition": null,
    "BaseValueScaleConstant": 1.0
  },
  "Mesh": null,
  "CollisionType": "COLLIDE_BlockAll",
  "HUDIcon": "INTERACTION_ICON_None",
  "CompassIcon": "RadarIconType_None",
  "TickGroup": "TG_DuringAsyncWork",
  "RelevanceDistance": "RELEVANCE_Lootable",
  "InstanceData": { "Data": null },
  "HUDIconDef": "GD_InteractionIcons.Default.Icon_DefaultUse",
  "HUDIconDefSecondary": null,
  "TriggerRadius": 0.0,
  "TriggerHeight": 0.0,
  "StatusMenuMapInfoBoxHeader": "",
  "StatusMenuMapInfoBoxDescription": "",
  "VehicleTriggerRadius": 0.0,
  "StatusEffectsParticleSystem": null,
  "NameTag": null,
  "InteractiveObjectClass": "WillowGame.WillowInteractiveObject",
  "TargetPriority": 0.0,
  "HealthDisplayHack": 0.0,
  "Allegiance": null,
  "TargetableSocket": null,
  "TargetableOffset": { "X": 0.0, "Y": 0.0, "Z": 0.0 },
  "AIAvoidRadius": 0.0,
  "bBlockOnTakeDamageWhenDamageEqualZero": 0,
  "FocusRadius": 55.0,
  "FocusOffset": { "X": -0.4, "Y": -0.075, "Z": 0.0 },
  "DefaultHitRegionDefinition": null,
  "LightingBoundsScale": 1.0,
  "ModShadowFadeoutExponent": 3.0,
  "ModShadowFadeoutTime": 0.0,
  "AmbientGlow": { "R": 0.0, "G": 0.0, "B": 0.0, "A": 1.0 },
  "AmbientShadowSourceDirection": { "X": 0.0, "Y": 0.0, "Z": 0.0 },
  "AmbientShadowColor": { "R": 0.0, "G": 0.0, "B": 0.0, "A": 1.0 },
  "DominantShadowTransitionStartDistance": 100.0,
  "DominantShadowTransitionEndDistance": 10.0,
  "SkelUpdate_ThrottleDistance": 1500.0,
  "Skelupdate_ThrottleTime": 5.0,
  "VfTableObject": "",
  "HashNext": "",
  "ObjectFlags": "",
  "HashOuterNext": "",
  "StateFrame": "",
  "Linker": null,
  "LinkerIndex": "",
  "ObjectInternalInteger": 195476,
  "NetIndex": 1783,
  "Outer": "GD_Aster_Plot_Mission03Data.InteractiveObjects",
  "Name": "IO_Switch_DwarvenGear_L1",
  "Class": "WillowGame.InteractiveObjectDefinition",
  "ObjectArchetype": "WillowGame.Default__InteractiveObjectDefinition"
}