{
  "VfTable_IIConstructObject": "",
  "VfTable_IIBodyInfoProvider": "",
  "VfTable_IIBehaviorProvider": "",
  "VfTable_IIHitRegionInfoProvider": "",
  "BodyComposition": {
    "Attachments": null,
    "MaxExpectedComponents": 0,
    "HasHomingTargetComponents": false
  },
  "BehaviorProviderDefinition":
    "GD_Z2_OverlookedData.IO_Overlooked_DaveAudio:BehaviorProviderDefinition_0",
  "bCreditDamageCausedByThisObjectToWhateverDamagedIt": true,
  "bCanBeKilled": false,
  "bIsKilledWhenHealthEqualsZero": false,
  "bDestroyWhenKilled": true,
  "bCanTakeDirectDamage": false,
  "bCanTakeRadiusDamage": false,
  "bCollideAsEncroacher": false,
  "bUsePlayerInteractionDistanceForTriggerRadius": false,
  "bProjTarget": false,
  "bUsableFromVehicle": false,
  "bSecondaryUsableFromVehicle": false,
  "bAllowUsabilityPassThrough": false,
  "bIsSoldierTurretShield": false,
  "bAlwaysRelevant": false,
  "bIsPossibleHomingTarget": false,
  "bTargetableByAI": true,
  "DoNotBlockWeaponFireFromFriendlies": false,
  "bUseOwnerAllegiance": false,
  "bDoNotBlockPawns": false,
  "bDynamicLightEnvironment": true,
  "bCastShadows": false,
  "bUseBooleanEnvironmentShadowing": false,
  "bDynamic": false,
  "bSynthesizeSHLight": true,
  "bShadowFromEnvironment": true,
  "bAffectedBySmallDynamicLights": false,
  "MaxHealth": {
    "BaseValueConstant": 0.0,
    "BaseValueAttribute": null,
    "InitializationDefinition": null,
    "BaseValueScaleConstant": 1.0
  },
  "Mesh": null,
  "CollisionType": "COLLIDE_BlockAll",
  "HUDIcon": "INTERACTION_ICON_None",
  "CompassIcon": "RadarIconType_None",
  "TickGroup": "TG_DuringAsyncWork",
  "RelevanceDistance": "RELEVANCE_Lootable",
  "InstanceData": { "Data": null },
  "HUDIconDef":
    "GD_InteractionIcons.MissionIcons.Icon_Overlooked_DeliverMedicine",
  "HUDIconDefSecondary": null,
  "TriggerRadius": 0.0,
  "TriggerHeight": 0.0,
  "StatusMenuMapInfoBoxHeader": "",
  "StatusMenuMapInfoBoxDescription": "",
  "VehicleTriggerRadius": 0.0,
  "StatusEffectsParticleSystem": null,
  "NameTag": "GD_Dialog_NPC.Names.DialogName_Daisy",
  "InteractiveObjectClass": "WillowGame.WillowInteractiveObject",
  "TargetPriority": 0.0,
  "HealthDisplayHack": 0.0,
  "Allegiance": null,
  "TargetableSocket": null,
  "TargetableOffset": { "X": 0.0, "Y": 0.0, "Z": 0.0 },
  "AIAvoidRadius": 0.0,
  "bBlockOnTakeDamageWhenDamageEqualZero": 0,
  "FocusRadius": 55.0,
  "FocusOffset": { "X": -0.4, "Y": -0.075, "Z": 0.0 },
  "DefaultHitRegionDefinition": null,
  "LightingBoundsScale": 1.0,
  "ModShadowFadeoutExponent": 3.0,
  "ModShadowFadeoutTime": 0.0,
  "AmbientGlow": { "R": 0.0, "G": 0.0, "B": 0.0, "A": 1.0 },
  "AmbientShadowSourceDirection": { "X": 0.0, "Y": 0.0, "Z": 0.0 },
  "AmbientShadowColor": { "R": 0.0, "G": 0.0, "B": 0.0, "A": 1.0 },
  "DominantShadowTransitionStartDistance": 100.0,
  "DominantShadowTransitionEndDistance": 10.0,
  "SkelUpdate_ThrottleDistance": 10000.0,
  "Skelupdate_ThrottleTime": 5.0,
  "VfTableObject": "",
  "HashNext": "",
  "ObjectFlags": "",
  "HashOuterNext": "",
  "StateFrame": "",
  "Linker": null,
  "LinkerIndex": "",
  "ObjectInternalInteger": 200837,
  "NetIndex": 322,
  "Outer": "Package'GD_Z2_OverlookedData'",
  "Name": "IO_Overlooked_DaveAudio",
  "Class": "WillowGame.InteractiveObjectDefinition",
  "ObjectArchetype": "WillowGame.Default__InteractiveObjectDefinition"
}