{
  "FamilyName": "Light Runner",
  "VehiclePreviewClip": "UI_VehicleIcons.VehicleIcons_Family_LightRunner",
  "RequiredMissionCompletionToUnlock": null,
  "RequiredTags": [
    "EVSSAVAIL_BL2Main", "EVSSAVAIL_Land", "EVSSAVAIL_Wheeled"
  ],
  "SupportedTags": [ "EVSSAVAIL_Ice", "EVSSAVAIL_Desert" ],
  "VehicleUIDefinitions": [
    "GD_Globals.VehicleSpawnStation.VSSUI_MGRunner",
    "GD_Globals.VehicleSpawnStation.VSSUI_RocketRunner"
  ],
  "VfTableObject": "",
  "HashNext": "",
  "ObjectFlags": "",
  "HashOuterNext": "",
  "StateFrame": "",
  "Linker": null,
  "LinkerIndex": "",
  "ObjectInternalInteger": 129028,
  "NetIndex": 47,
  "Outer": "GD_Globals.VehicleSpawnStation",
  "Name": "VehicleFamily_Runner",
  "Class": "WillowGame.VehicleFamilyDefinition",
  "ObjectArchetype": "WillowGame.Default__VehicleFamilyDefinition"
}