{
  "FleshDamageModifier": {
    "BaseValueConstant": 1.0,
    "BaseValueAttribute": null,
    "InitializationDefinition":
      "GD_Balance_HealthAndDamage.DamageMultipliers.Init_FireBonusDamageMultiplier_ByPlaythrough",
    "BaseValueScaleConstant": 1.0
  },
  "ArmorDamageModifier": {
    "BaseValueConstant": 1.0,
    "BaseValueAttribute": null,
    "InitializationDefinition":
      "GD_Balance_HealthAndDamage.DamageMultipliers.Init_HighElementResistMultiplier_ByPlaythrough",
    "BaseValueScaleConstant": 1.0
  },
  "ShieldDamageModifier": {
    "BaseValueConstant": 1.0,
    "BaseValueAttribute": null,
    "InitializationDefinition":
      "GD_Balance_HealthAndDamage.DamageMultipliers.Init_HighElementResistMultiplier_ByPlaythrough",
    "BaseValueScaleConstant": 1.0
  },
  "CharacterDamageTypeModifierAttribute":
    "D_Attributes.DamageTypeModifers.IncendiaryImpactDamageModifier",
  "bNoBlood": false,
  "bNoPlayerFeedback": false,
  "bNoAlliedPlayerFeedback": false,
  "bUseStatusEffectInstigatorModifiersForDamage": true,
  "bApplyUpwardMomentum": true,
  "bCauseHardFlinch": false,
  "StatusEffect": null,
  "DamageColor": { "R": 1.0, "G": 0.21952, "B": 0.0, "A": 1.0 },
  "HUDDamageColor": { "B": 0, "G": 0, "R": 204, "A": 128 },
  "DamageType": "DAMAGE_TYPE_Incindiary",
  "UpwardMomentumScale": 0.4,
  "RigidBodyMomentumScale": 0.1,
  "FleshMomentumModifier": {
    "BaseValueConstant": 1.0,
    "BaseValueAttribute": null,
    "InitializationDefinition": null,
    "BaseValueScaleConstant": 1.0
  },
  "ArmorMomentumModifier": {
    "BaseValueConstant": 1.0,
    "BaseValueAttribute": null,
    "InitializationDefinition": null,
    "BaseValueScaleConstant": 1.0
  },
  "ShieldMomentumModifier": {
    "BaseValueConstant": 1.0,
    "BaseValueAttribute": null,
    "InitializationDefinition": null,
    "BaseValueScaleConstant": 1.0
  },
  "MaxDamageRadius": 0.1,
  "MinDamageRadius": 0.9,
  "MinDamagePercent": 0.5,
  "HardFlinchPercent": 0.0,
  "DamageDealtStatId": null,
  "DamageLanguageId": 0.0,
  "WeaponCardPresentations": [
    "GD_Incendiary.DamageType.DmgType_Incendiary_Impact_NoDoT:AttributePresentationDefinition_3"
  ],
  "VfTableObject": "",
  "HashNext": "",
  "ObjectFlags": "",
  "HashOuterNext": "",
  "StateFrame": "",
  "Linker": null,
  "LinkerIndex": "",
  "ObjectInternalInteger": 109791,
  "NetIndex": 26,
  "Outer": "GD_Incendiary.DamageType",
  "Name": "DmgType_Incendiary_Impact_NoDoT",
  "Class": "WillowGame.WillowDamageTypeDefinition",
  "ObjectArchetype": "WillowGame.Default__WillowDamageTypeDefinition"
}