{
  "FleshDamageModifier": {
    "BaseValueConstant": 1.0,
    "BaseValueAttribute": null,
    "InitializationDefinition": null,
    "BaseValueScaleConstant": 1.0
  },
  "ArmorDamageModifier": {
    "BaseValueConstant": 0.8,
    "BaseValueAttribute": null,
    "InitializationDefinition": null,
    "BaseValueScaleConstant": 1.0
  },
  "ShieldDamageModifier": {
    "BaseValueConstant": 1.0,
    "BaseValueAttribute": null,
    "InitializationDefinition": null,
    "BaseValueScaleConstant": 1.0
  },
  "CharacterDamageTypeModifierAttribute":
    "D_Attributes.DamageTypeModifers.NormalImpactDamageModifier",
  "bNoBlood": false,
  "bNoPlayerFeedback": false,
  "bNoAlliedPlayerFeedback": false,
  "bUseStatusEffectInstigatorModifiersForDamage": true,
  "bApplyUpwardMomentum": true,
  "bCauseHardFlinch": false,
  "StatusEffect": null,
  "DamageColor": { "R": 0.7, "G": 0.7, "B": 0.7, "A": 1.0 },
  "HUDDamageColor": { "B": 0, "G": 0, "R": 0, "A": 0 },
  "DamageType": "DAMAGE_TYPE_Impact",
  "UpwardMomentumScale": 1.0,
  "RigidBodyMomentumScale": 0.1,
  "FleshMomentumModifier": {
    "BaseValueConstant": 1.0,
    "BaseValueAttribute": null,
    "InitializationDefinition": null,
    "BaseValueScaleConstant": 1.0
  },
  "ArmorMomentumModifier": {
    "BaseValueConstant": 1.0,
    "BaseValueAttribute": null,
    "InitializationDefinition": null,
    "BaseValueScaleConstant": 1.0
  },
  "ShieldMomentumModifier": {
    "BaseValueConstant": 1.0,
    "BaseValueAttribute": null,
    "InitializationDefinition": null,
    "BaseValueScaleConstant": 1.0
  },
  "MaxDamageRadius": 0.2,
  "MinDamageRadius": 0.8,
  "MinDamagePercent": 0.2,
  "HardFlinchPercent": 0.0,
  "DamageDealtStatId": null,
  "DamageLanguageId": 0.0,
  "VfTableObject": "",
  "HashNext": "",
  "ObjectFlags": "",
  "HashOuterNext": "",
  "StateFrame": "",
  "Linker": null,
  "LinkerIndex": "",
  "ObjectInternalInteger": 201113,
  "NetIndex": 1349,
  "Outer": "GD_SafeCrystalisk.DamageType",
  "Name": "DmgType_CrystalBomb",
  "Class": "WillowGame.WillowDamageTypeDefinition",
  "ObjectArchetype": "WillowGame.Default__WillowDamageTypeDefinition"
}